IP: 127.0.0.1 - DATE: Thursday 03 December 05:49:58 - BROWSER: Mozilla/5.0 (Windows NT 10.0; WOW64) AppleWebKit/537.36 (KHTML, like Gecko) Chrome/46.0.2490.86 Safari/537.36
IP: 127.0.0.1 - DATE: Tuesday 19 January 12:16:47 - BROWSER: Mozilla/5.0 (Windows NT 10.0; WOW64) AppleWebKit/537.36 (KHTML, like Gecko) Chrome/47.0.2526.111 Safari/537.36
IP: 127.0.0.1 - DATE: Tuesday 19 January 13:06:43 - BROWSER: Mozilla/5.0 (Windows NT 10.0; WOW64) AppleWebKit/537.36 (KHTML, like Gecko) Chrome/47.0.2526.111 Safari/537.36
IP: 127.0.0.1 - DATE: Tuesday 19 January 13:50:08 - BROWSER: Mozilla/5.0 (Windows NT 10.0; WOW64) AppleWebKit/537.36 (KHTML, like Gecko) Chrome/47.0.2526.111 Safari/537.36
