Project Name,Transacted Price ($),Unit Price ($ psm),Postal Code
COASTAL BREEZE RESIDENCES,6829,634,509050
THE SORRENTO,14584,1355,127365
VACANZA @ EAST,15556,1445,417396
THE SORRENTO,12226,1136,127365
THE SANTORINI,11149,1036,528592
LAKEVILLE,13359,1241,648163
THE FLORAVALE,7805,725,648358
OCEAN FRONT SUITES,15816,1469,509424
SPRINGDALE CONDOMINIUM,11802,1096,587978
SKY HABITAT,14034,1304,573908
THE ARIEL,13926,1294,426536
SCOTTS SQUARE,35526,3300,228238
N.A.,11860,1102,548122
PARC OASIS,9857,916,609777
N.A.,8782,816,488119
WATERWOODS,8914,828,828749
LAKEVILLE,14580,1354,648164
PARC IMPERIAL,16381,1522,117425
ST THOMAS SUITES,20053,1863,238113
GUILLEMARD SUITES,18257,1696,399733
LAKEVILLE,13949,1296,648164
SPRINGDALE CONDOMINIUM,12209,1134,587975
LAKEVILLE,15507,1441,648155
ASCENT @ 456,16088,1495,329832
SERANGOON GARDEN ESTATE,10336,960,555159
LAKEVILLE,13847,1286,648160
CASABLANCA,9615,893,737920
REGENT GROVE,8547,794,689529
NORTHVALE,8906,827,689673
HOCK SWEE HILL,11936,1109,809976
ECOPOLITAN,8452,785,828777
SIGNATURE PARK,10930,1015,596741
SEMBAWANG STRAITS ESTATE,16170,1502,759176
V ON SHENTON,20464,1901,68814
CARABELLE,13333,1239,127020
JEWEL @ BUANGKOK,13565,1260,544684
THE SANTORINI,11631,1081,528568
OCEAN FRONT SUITES,15789,1467,509424
NINE RESIDENCES,12803,1189,768894
FLORIDIAN,18182,1689,589664
SANCTUARY GREEN,12231,1136,436922
THE SKYWOODS,14463,1344,677669
TAI KENG GARDENS,14323,1331,535368
TEACHER'S HOUSING ESTATE,12199,1133,789390
STRATUM,14350,1333,519956
GOLD COAST CONDOMINIUM,12409,1153,118699
YISHUN EMERALD,7339,682,768429
LAKEVILLE,13500,1254,648162
LAKEVILLE,15373,1428,648155
EUPHONY GARDENS,7789,724,759151
THE SORRENTO,15742,1462,127365
THE COUNTRYSIDE,13969,1298,789818
LAKEVILLE,14085,1309,648160
THE SORRENTO,15954,1482,127365
COASTAL BREEZE RESIDENCES,7820,726,509051
THE SANTORINI,13488,1253,528592
SUITES DE LAUREL,16667,1548,588997
ONE OXLEY RISE,20588,1913,238714
TAMPINES COURT,5696,529,521123
LAKEVILLE,15034,1397,648161
LAKEVILLE,14074,1307,648163
CASA PASIR RIS,8095,752,509506
EVELYN MANSIONS,12193,1133,309309
THE GARDENS AT BISHAN,11829,1099,575577
THE SANTORINI,11673,1084,528592
THE BAYSHORE,10855,1008,469974
LAKEVILLE,13952,1296,648162
LE REGAL,10922,1015,389365
FORESTVILLE,7960,740,737773
HILLBROOKS,11275,1047,669590
TREVOSE PARK,16154,1501,298069
WESTCOVE CONDOMINIUM,10351,962,128041
LAKEVILLE,13500,1254,648163
MERIDIAN 38,15000,1394,425317
FORESTVILLE,7859,730,737773
GOODLUCK GARDEN,10908,1013,596718
CASA AERATA,15500,1440,398484
LAKEVILLE,14038,1304,648164
LAKEVILLE,12533,1164,648164
LAKEVILLE,12728,1182,648163
N.A.,8408,781,229118
RIDGEWOOD,13978,1299,276906
LAKEHOLMZ,11210,1041,649820
THE SUMMIT,8803,818,466499
LAKEVILLE,13985,1299,648163
LAKEVILLE,14917,1386,648162
LAKEVILLE,14390,1337,648163
THE SANTORINI,13023,1210,528592
LAKEVILLE,13912,1292,648164
HEDGES PARK CONDOMINIUM,11803,1097,506887
LAKEVILLE,13824,1284,648164
PARK GREEN,8380,778,545043
EIGHT RIVERSUITES,11892,1105,338517
TREVOSE PARK,16456,1529,298069
MERA SPRINGS,15278,1419,219648
THE MAYFAIR,9352,869,609477
ST THOMAS SUITES,21852,2030,238141
EIGHT RIVERSUITES,14133,1313,338520
LIV ON WILKIE,24911,2314,228025
LAKEVILLE,14556,1352,648155
LAKEVILLE,13889,1290,648164
RIVERBANK @ FERNVALE,11587,1076,797476
LAKEVILLE,13815,1283,648163
LAKEVILLE,14346,1333,648160
THE INTERLACE,12730,1183,109703
IVORY HEIGHTS,8354,776,600124
Q BAY RESIDENCES,11297,1050,528588
THE GLADES,16643,1546,465407
CENTRO MANSIONS,9902,920,398280
AURA 83,11486,1067,429247
LAKEVILLE,14136,1313,648160
LAKEVILLE,13949,1296,648160
LAKEVILLE,14424,1340,648162
THE CRISTALLO,10026,931,425687
LAKEVILLE,13746,1277,648161
LAKEVILLE,14509,1348,648155
FRANKEL ESTATE,11553,1073,456944
RIVERSIDE 48,16216,1507,238237
RIVERSAILS,10178,946,534030
LAKEVILLE,13971,1298,648164
LAKEVILLE,14296,1328,648155
LAKEVILLE,14141,1314,648155
THE SANTORINI,11776,1094,528592
N.A.,18868,1753,259428
GOODWOOD GRAND,25464,2366,259802
EIGHT RIVERSUITES,11532,1071,338519
LAKEVILLE,13339,1239,648162
FORESTVILLE,8012,744,737882
WATER PLACE,14345,1333,436607
LAKEVILLE,13500,1254,648163
LAKEVILLE,13397,1245,648162
GOODWOOD RESIDENCE,23156,2151,259704
LAKEVILLE,15507,1441,648155
THE ARCADIA,11396,1059,289844
SEA HORIZON,8327,774,518084
HARBOURLIGHTS,14940,1388,98830
SEA HORIZON,8590,798,518081
LAKEVILLE,13778,1280,648164
LAKEVILLE,14225,1322,648155
EIGHT RIVERSUITES,13205,1227,338521
TREE HOUSE,9688,900,679521
LAKEVILLE,15130,1406,648155
LAKEVILLE,14356,1334,648155
THE WINDSOR,11053,1027,576193
THE VISION,12295,1142,126794
RV RESIDENCES,22976,2135,248354
LAKEVILLE,14059,1306,648164
LAKEVILLE,15418,1432,648155
LAKEVILLE,15866,1474,648155
ALANA,8752,813,804539
THE DEW,9063,842,659636
LAKEVILLE,13817,1284,648155
CANBERRA RESIDENCES,11962,1111,768134
LA FIESTA,12949,1203,544699
FORESTVILLE,7858,730,737775
LAKEVILLE,14558,1352,648155
LAKEVILLE,14831,1378,648161
THE SANTORINI,11776,1094,528592
LAKEVILLE,13424,1247,648163
RIVERBANK @ FERNVALE,9920,922,797475
COTE D'AZUR,14744,1370,449302
LAKEVILLE,13206,1227,648161
THE GLADES,16726,1554,469598
RIVERTREES RESIDENCES,11205,1041,797463
THE GALE,10606,985,506916
THE CREEK @ BUKIT,17788,1653,596196
LAKEVILLE,13875,1289,648162
YISHUN EMERALD,8737,812,768426
LAKEVILLE,14925,1387,648160
LAKEVILLE,14635,1360,648155
LAKEVILLE,14183,1318,648155
Q BAY RESIDENCES,11871,1103,528584
LA FIESTA,13059,1213,544700
1 CANBERRA,7224,671,768072
1 CANBERRA,7757,721,768103
THE SORRENTO,13868,1288,127365
TREVISTA,14447,1342,319583
LAKEVILLE,15090,1402,648160
LAKEVILLE,15250,1417,648164
EIGHT RIVERSUITES,11731,1090,338521
LAKEVILLE,13838,1286,648163
LAKEVILLE,14104,1310,648160
THE SANTORINI,11229,1043,528574
TEMBELING GROVE,12222,1135,423722
THE MINTON,12086,1123,534080
AMBER RESIDENCES,18306,1701,439888
LAKEVILLE,14135,1313,648164
LAKEVILLE,14808,1376,648155
THE FLORIDA,7752,720,538804
LAKEVILLE,14353,1333,648164
LAKEVILLE,16015,1488,648155
LAKEVILLE,13500,1254,648162
LA FIESTA,12121,1126,544702
SEAHILL,17098,1588,126778
CENTENNIA SUITES,26783,2488,239427
MONVILLE MANSIONS,9167,852,329857
LAKEVILLE,12847,1193,648160
LAKEVILLE,14265,1325,648164
LAKEVILLE,14642,1360,648160
LAKEVILLE,14375,1335,648163
N.A.,15333,1425,487202
STRATUM,14405,1338,519954
CHANGI COURT,11222,1043,486830
THE SORRENTO,13842,1286,127365
BARTLEY RIDGE,13394,1244,368055
LAKEVILLE,14060,1306,648155
LAKEVILLE,15750,1463,648164
GOODWOOD RESIDENCE,24183,2247,259703
ASTOR GREEN,11267,1047,597592
THE SANTORINI,13000,1208,528592
BINJAI CREST,6268,582,587963
LAKEVILLE,14602,1357,648155
CHUAN PARK,9366,870,556745
THE ALCOVE,6923,643,388199
Q BAY RESIDENCES,11472,1066,528587
LEEDON RESIDENCE,19528,1814,266220
LA FIESTA,12258,1139,544832
ASTOR,9383,872,417660
LAKEVILLE,13707,1273,648163
TANGLIN REGENCY,14010,1302,247965
N.A.,11538,1072,399699
ROBIN SUITES,29512,2742,258203
CARISSA PARK CONDOMINIUM,9756,906,507025
THE SANTORINI,11642,1082,528592
LAKEVILLE,14407,1338,648161
LAKEVILLE,15441,1434,648164
LA FIESTA,10462,972,544833
THE LAKESHORE,10417,968,649412
GAIA,16647,1547,329371
LAKEVILLE,14008,1301,648163
LAKEVILLE,14598,1356,648161
LAKEVILLE,14346,1333,648160
LAKEVILLE,14881,1383,648161
LAKEVILLE,15955,1482,648155
THE SORRENTO,16241,1509,127365
LAKEVILLE,15000,1394,648160
SKYPARK RESIDENCES,9087,844,757052
HILLS TWOONE,12757,1185,669232
ROBINSON SUITES,24468,2273,68882
LE HILL CONDOMINIUM,10827,1006,118895
LAKEVILLE,13426,1247,648162
LAKEVILLE,13639,1267,648155
LAKEVILLE,15776,1466,648155
URBAN VISTA,13175,1224,465426
THE INTERLACE,13196,1226,109691
THE LAKESHORE,12273,1140,649411
HILLTOP GROVE,7252,674,669620
LAKEVILLE,14915,1386,648161
LAKEVILLE,15292,1421,648164
THE SANTORINI,12857,1194,528592
THE SANTORINI,11814,1098,528574
STILLZ RESIDENCE,11113,1032,426411
THE SANTORINI,11918,1107,528592
THE GREENWOOD,28302,2629,286854
HERITAGE EAST,17286,1606,429024
ASCENT @ 456,15869,1474,329832
LAKEVILLE,14761,1371,648160
N.A.,18742,1741,546150
MARTIN PLACE RESIDENCES,20833,1935,237988
THE WARREN,9490,882,689676
SPACE @ KOVAN,15128,1405,545679
LAKEVILLE,15627,1452,648155
ONEROBEY,12230,1136,546256
ORCHID PARK CONDOMINIUM,8180,760,768445
JEWEL @ CHUAN HOE,5432,505,549848
LAKEVILLE,15486,1439,648164
WATERWOODS,9021,838,828749
ST NICHOLAS VIEW,9857,916,567964
ROBINSON SUITES,24762,2300,68882
THE SANTORINI,12102,1124,528592
LAKEVILLE,14724,1368,648161
KINGSFORD . HILLVIEW PEAK,15426,1433,667968
EIGHT RIVERSUITES,13621,1265,338519
ALTEZ,27724,2576,79717
SHELFORD SUITES,16386,1522,286654
Q BAY RESIDENCES,11839,1100,528587
BARTLEY RIDGE,13528,1257,368055
THE SANTORINI,12628,1173,528592
LAKEVILLE,14504,1347,648164
WATERWOODS,9165,851,828746
THE ESPARIS,8650,804,519459
KATONG GARDENS,14409,1339,423721
LAKEVILLE,14413,1339,648164
LAKEVILLE,15222,1414,648163
LE CRESCENDO,12110,1125,409044
LE HILL CONDOMINIUM,11364,1056,118896
MANDARIN GARDEN CONDOMINIUM,11268,1047,448909
LAKEVILLE,15375,1428,648164
CLEMENTI PARK,11563,1074,597151
THE INSPIRA,19862,1845,239949
BERKELEY RESIDENCES,16491,1532,425141
SPOTTISWOODE SUITES,22348,2076,88661
ROBINSON SUITES,25319,2352,68882
ROBINSON SUITES,24223,2250,68882
LAKEVILLE,15028,1396,648162
THE SANTORINI,11275,1048,528572
JEWEL @ BUANGKOK,13000,1208,544684
THE SANTORINI,13714,1274,528592
EIGHT RIVERSUITES,14231,1322,338517
COSTA DEL SOL,14087,1309,469992
THE BEACON,14259,1325,89775
KNOX VIEW,8780,816,425307
YEW MEI GREEN,8333,774,689575
LAKEVILLE,14806,1376,648160
VERSILIA ON HAIG,13905,1292,438639
RIVERTREES RESIDENCES,11752,1092,797464
LAKEVILLE,13741,1277,648164
CARABELLE,13333,1239,127020
ONE EIGHTIES RESIDENCES,16275,1512,427332
URBAN VISTA,12081,1122,465424
THE SANTORINI,11930,1108,528592
LAKEVILLE,13639,1267,648160
OPERA ESTATE,16973,1577,455725
SPRINGDALE CONDOMINIUM,11429,1062,587978
PAPILLON,11826,1099,329089
THE ABERDEEN,11538,1072,329023
LAKEVILLE,13500,1254,648162
THE SANTORINI,11653,1083,528592
THE QUINN,17476,1624,539765
N.A.,16416,1525,288629
CHANGI RISE CONDOMINIUM,9160,851,528804
BISHAN 8,11092,1030,574045
ECOPOLITAN,8682,807,828774
SEA HORIZON,9279,862,518085
LA FIESTA,12458,1157,544831
PALM GARDENS,9120,847,689050
THE SANTORINI,12395,1152,528592
N.A.,17141,1592,289419
EIGHT RIVERSUITES,11892,1105,338517
LA FIESTA,13208,1227,544707
CHANGI RISE CONDOMINIUM,9381,872,528800
DE ROYALE,14076,1308,329112
BELGRAVIA PARK,12157,1129,806946
LA BRISA,16447,1528,398453
THE MINTON,12273,1140,534079
THE SANTORINI,12571,1168,528592
LA CASA,8761,814,737895
LE WOOD,9565,889,589320
THE SANTORINI,12047,1119,528592
THE VENUE RESIDENCES,14886,1383,347846
THE SANTORINI,10197,947,528571
N.A.,13767,1279,287895
THE GLYNDEBOURNE,20456,1900,297722
EIGHT RIVERSUITES,10991,1021,338517
THE TESSARINA,15726,1461,276308
LA CASA,9396,873,737897
N.A.,17146,1593,268907
THE LANAI,16410,1525,669600
ECO,16385,1522,465490
LAKEVILLE,14147,1314,648164
EIGHT RIVERSUITES,15692,1458,338520
THE SANTORINI,11740,1091,528568
LAKEVILLE,14029,1303,648163
STADIA,12754,1185,545542
LAKEVILLE,13309,1236,648162
LAKEVILLE,16194,1505,648164
RIVERTREES RESIDENCES,13731,1276,797460
SKYPARK RESIDENCES,8207,762,757060
LAKEVILLE,15763,1464,648163
BARTLEY RIDGE,12416,1153,368055
LAKEVILLE,13544,1258,648162
LAKEVILLE,15792,1467,648164
OCEAN FRONT SUITES,16050,1491,509424
GUILIN VIEW,9479,881,659245
LAKEVILLE,14103,1310,648164
RHAPSODY ON MOUNT ELIZABETH,23711,2203,228513
FORESTVILLE,7961,740,737881
REFLECTIONS AT KEPPEL BAY,19672,1828,98414
ST THOMAS SUITES,20326,1888,238141
THE SANTORINI,12326,1145,528592
RIDGEWOOD,12407,1153,277113
PAPILLON,12414,1153,329089
THE SANTORINI,11755,1092,528592
LAKEVILLE,13806,1283,648163
SAVANNAH CONDOPARK,8158,758,528785
MONTEREY PARK CONDOMINIUM,11810,1097,127474
GOODWOOD RESIDENCE,28270,2626,259704
PARK VILLAS,11833,1099,545294
THE SANTORINI,11551,1073,528592
LAKEVILLE,13630,1266,648163
HERITAGE VIEW,12444,1156,138680
SAVANNAH CONDOPARK,9391,872,528795
SKYSUITES17,19412,1803,329137
LAKEVILLE,14090,1309,648155
LAGUNA GREEN,11132,1034,468726
LAKEVILLE,14231,1322,648160
LAKEVILLE,13897,1291,648163
THE SANTORINI,12674,1177,528592
TREE HOUSE,11667,1084,679521
VIVA VISTA,19667,1827,118136
COTSWOLD VILLAS,9161,851,357722
LAKEVILLE,14099,1310,648155
THE SANTORINI,12279,1141,528592
RIS GRANDEUR,9650,897,519930
LAKEVILLE,13256,1231,648155
THE BLOSSOMVALE,15385,1429,589473
N.A.,22146,2057,289011
LAKEVILLE,14096,1310,648162
RIVERTREES RESIDENCES,11192,1040,797463
JEWEL @ BUANGKOK,12212,1135,544685
THE SANTORINI,11881,1104,528572
THE CENTRIS,12796,1189,648332
THE SKYWOODS,14059,1306,677669
LAKEVILLE,16045,1491,648155
LAKEVILLE,15197,1412,648155
LAKEVILLE,14390,1337,648155
Q BAY RESIDENCES,10766,1000,528587
THE SANTORINI,11930,1108,528570
SKYPARK RESIDENCES,8467,787,757060
THE SANTORINI,12857,1194,528592
THE SANTORINI,11551,1073,528592
THE SKYWOODS,14286,1327,677669
BELGRAVIA VILLAS,9647,896,804619
LAKEVILLE,15222,1414,648163
THE SANTORINI,11449,1064,528592
Q BAY RESIDENCES,11668,1084,528587
ESTELLA GARDENS,10246,952,509739
ST REGIS RESIDENCES SINGAPORE,25824,2399,247913
THE GLADES,15772,1465,469598
LAKEVILLE,14582,1355,648160
DAISY SUITES,16956,1575,359455
ONE JERVOIS,18478,1717,249099
KINGSFORD . HILLVIEW PEAK,14804,1375,667981
LE REGAL,10922,1015,389365
STARVILLE,10435,969,417455
N.A.,16075,1493,309368
N.A.,17824,1656,427233
EIGHT RIVERSUITES,14500,1347,338520
URBAN VISTA,13139,1221,465422
CHANGI RISE CONDOMINIUM,9048,841,528802
THE SEAFRONT ON MEYER,17315,1609,437880
POSHGROVE EAST,13478,1252,429099
LOYANG VILLAS,10600,985,507265
THE HILLSIDE,10909,1013,588195
LIV ON WILKIE,23214,2157,228025
THE SANTORINI,11600,1078,528570
LAKEVILLE,14048,1305,648162
VILLA MARINA,8883,825,457400
PRESTIGE POINT,14672,1363,534986
YEWTEE RESIDENCES,11873,1103,689580
OPERA ESTATE,13605,1264,457758
WINDSOR PARK ESTATE,16605,1543,576537
THE WARREN,9565,889,689675
LAKEVILLE,12538,1165,648161
THE SANTORINI,12265,1139,528592
TRELLIS TOWERS,14245,1323,319773
EIGHT RIVERSUITES,10946,1017,338519
GOODWOOD RESIDENCE,23552,2188,259704
LAKEVILLE,15625,1452,648164
SKY VUE,20196,1876,573911
WESTWOOD PARK,10541,979,648802
LIV ON WILKIE,25065,2329,228025
LIV ON WILKIE,25277,2348,228025
HILLVIEW RESIDENCE,11534,1072,669599
PALM GARDENS,9000,836,689050
THE SAIL @ MARINA BAY,18600,1728,18985
PINEVALE,8067,749,528828
N.A.,28751,2671,249260
HILLVIEW REGENCY,9135,849,659920
THE GLADES,17049,1584,469597
THE SANTORINI,11765,1093,528592
LIV ON WILKIE,23690,2201,228025
LIV ON WILKIE,23690,2201,228025
N.A.,21018,1953,278897
LAKEVILLE,14692,1365,648155
HILLSIDE MANSIONS,9910,921,548945
LAKEVILLE,15567,1446,648155
STRATUM,11793,1096,519947
KENSINGTON SQUARE,14351,1333,537846
KENSINGTON PARK CONDOMINIUM,12338,1146,557324
MANDARIN GARDEN CONDOMINIUM,9859,916,448908
LAKEVILLE,15328,1424,648155
WING FONG COURT,9949,924,398922
THE PATERSON,20796,1932,238539
THE INSPIRA,19573,1818,239949
SKYPARK RESIDENCES,8843,822,757052
SUMMER GARDENS,7829,727,486173
GRYPHON TERRACE,8986,835,117679
CITYLIGHTS,13730,1276,208766
NEWTON 18,19767,1836,307989
LAKEVILLE,13779,1280,648163
LAKEVILLE,14424,1340,648163
THE SANTORINI,12628,1173,528592
SILVERSEA,22727,2111,449307
LAKEVILLE,13985,1299,648163
HILLSTA,13694,1272,668202
EIGHT RIVERSUITES,13802,1282,338519
LAKEVILLE,14252,1324,648164
LAKEVILLE,14463,1344,648155
AQUARIUS BY THE PARK,8211,763,478930
HIGHGATE,11299,1050,596724
WOODGROVE CONDOMINIUM,7618,708,738209
SKYPARK RESIDENCES,8483,788,757093
THE TREELINE,10120,940,426313
GOODWOOD RESIDENCE,25269,2348,259703
BARTLEY RIDGE,10853,1008,368056
THE DAFFODIL,12319,1144,466584
N.A.,20614,1915,423403
# 1 SUITES,12671,1177,398721
EIGHT RIVERSUITES,11316,1051,338521
THE SANTORINI,11755,1092,528592
MAYSPRINGS,10133,941,678265
N.A.,20149,1872,259428
THE INTERLACE,12887,1197,109694
HORIZON TOWER,12523,1163,239194
GOLDENHILL PARK CONDOMINIUM,14713,1367,568429
URBAN VISTA,13381,1243,465426
SUNGLADE,12617,1172,556134
LAKEVILLE,14851,1380,648160
KOVAN MELODY,12083,1123,548191
PARKVIEW APARTMENTS,9310,865,658882
KINGSFORD . HILLVIEW PEAK,14532,1350,667981
N.A.,11567,1075,549679
STRATUM,13810,1283,519954
THE SANTORINI,11816,1098,528592
CENTRAL GROVE,11161,1037,389778
LAKEVILLE,13941,1295,648164
FAIRMOUNT CONDOMINIUM,8125,755,486365
MACKENZIE 88,17600,1635,228697
THE SANTORINI,12047,1119,528592
THE SANTORINI,11878,1103,528592
BARTLEY RIDGE,13461,1251,368055
FLAME TREE PARK,11951,1110,575728
THE INTERLACE,13271,1233,109693
N.A.,15787,1467,419339
BOTANNIA,13333,1239,127720
BARTLEY RIDGE,13533,1257,368060
AQUENE,13271,1233,426341
THE EDEN AT TAMPINES,9447,878,529234
THE SANTORINI,11014,1023,528574
KOVAN RESIDENCES,11716,1088,544896
THE SANTORINI,11930,1108,528592
WATER PLACE,13421,1247,436607
THE VENUE RESIDENCES,15465,1437,347848
THE TEMBUSU,13103,1217,534006
BARTLEY RIDGE,12780,1187,368055
THE SANTORINI,12299,1143,528571
LAKEVILLE,14134,1313,648160
ALANA,10267,954,804546
WATERWOODS,8731,811,828750
THE SANTORINI,11449,1064,528592
THE SANTORINI,11705,1087,528569
THOMSON THREE,15375,1428,573895
DUCHESS CREST,15409,1432,269196
THE GLADES,14676,1363,469598
6 DERBYSHIRE,21115,1962,309462
6 DERBYSHIRE,22324,2074,309462
SILVERSEA,18462,1715,449308
LAKEVILLE,14191,1318,648164
FRANKEL ESTATE,11302,1050,458046
LUSH ACRES,8213,763,797488
Q BAY RESIDENCES,11301,1050,528587
THE SANTORINI,12286,1141,528592
HILLSTA,13341,1239,668202
EIGHT RIVERSUITES,11316,1051,338521
THE SANTORINI,12265,1139,528592
JEWEL @ BUANGKOK,12482,1160,544688
THE SANTORINI,11821,1098,528592
THE SANTORINI,12512,1162,528592
TAMPINES COURT,6242,580,521119
FRANKEL ESTATE,18564,1725,457071
GOODWOOD RESIDENCE,27989,2600,259703
EIGHT RIVERSUITES,12821,1191,338521
Q BAY RESIDENCES,11770,1093,528587
URBAN VISTA,11694,1086,465424
DOUBLE BAY RESIDENCES,12069,1121,529884
OPERA ESTATE,12248,1138,457755
THE GARDENS AT BISHAN,10497,975,575578
THE SANTORINI,12163,1130,528592
NORTHOAKS,5505,511,738085
EIGHT RIVERSUITES,14250,1324,338521
CLEMENTI PARK,14292,1328,597418
THE SANTORINI,11638,1081,528573
ORCHARD SCOTTS,17453,1621,229955
EIGHT RIVERSUITES,13821,1284,338520
THE LAKESHORE,11893,1105,649413
VISTA RESIDENCES,17674,1642,329425
LENTOR VILLAS,11827,1099,786783
ORCHID PARK CONDOMINIUM,7925,736,768449
FONTAINE PARRY,13882,1290,546787
THE LINCOLN RESIDENCES,19371,1800,307762
WATERVIEW,12575,1168,528689
STRATUM,14187,1318,519954
THE SANTORINI,11980,1113,528592
RIVERBANK @ FERNVALE,10864,1009,797475
N.A.,7307,679,217812
THE MAKENA,14894,1384,437932
BARTLEY RIDGE,12476,1159,368055
URBAN VISTA,13725,1275,465427
EIGHT RIVERSUITES,11100,1031,338520
N.A.,15639,1453,456472
HALLMARK RESIDENCES,19918,1850,259327
LAKEVILLE,14087,1309,648164
WILLYN VILLE,17250,1603,278965
PARK INFINIA AT WEE NAM,18657,1733,308364
THE SANTORINI,12184,1132,528592
EIGHT RIVERSUITES,14600,1356,338520
LAKEVILLE,14508,1348,648155
URBAN VISTA,11207,1041,465419
LA FIESTA,11152,1036,544699
WEST SHORE RESIDENCES,9364,870,117392
RIVERSAILS,10089,937,534027
N.A.,13268,1233,419964
STRATUM,14405,1338,519954
THE TEMBUSU,13220,1228,534006
THE SANTORINI,11653,1083,528592
ASCENT @ 456,15978,1484,329832
HILLVIEW 128,9897,919,669595
D'LEEDON,17091,1588,267955
PANDAN VALLEY,11538,1072,597630
HILLSTA,13693,1272,668202
THE TEMBUSU,17818,1655,534006
WOODGROVE CONDOMINIUM,7278,676,738211
SKYPARK RESIDENCES,8717,810,757095
NORTHVALE,8333,774,689673
Q BAY RESIDENCES,11261,1046,528586
VUE 8 RESIDENCE,10186,946,519290
N.A.,15158,1408,428413
THE SEA VIEW,19327,1796,439943
PALM GARDENS,8124,755,689049
LA FIESTA,13353,1241,544830
BARTLEY RIDGE,12972,1205,368060
RIVERBANK @ FERNVALE,9955,925,797475
SELETAR HILLS ESTATE,9152,850,809327
LE MERRITT,11130,1034,425365
SHERWOOD TOWER,7021,652,588998
FLAME TREE PARK,11344,1054,575728
LA FIESTA,11210,1041,544699
MELVILLE PARK,8505,790,529945
WATERWOODS,8979,834,828748
THE SANTORINI,12224,1136,528592
THE LAKESHORE,10961,1018,649411
AMBER POINT,15484,1438,439845
URBAN VISTA,13333,1239,465427
THE MAYFAIR,9430,876,609478
HUNDRED TREES,14352,1333,128001
FLAMINGO VALLEY,8770,815,454852
CASABLANCA,9327,866,737920
SUMMER GARDENS,6940,645,486900
KOVAN MELODY,11667,1084,545019
CASHEW HEIGHTS CONDOMINIUM,9091,845,679668
SAVANNAH CONDOPARK,8158,758,528783
TANGLIN VIEW,14717,1367,159013
ICON,20556,1910,78878
NASSIM MANSION,29968,2784,258474
KINGSFORD . HILLVIEW PEAK,14689,1365,667968
THE SERENADE @ HOLLAND,14252,1324,278698
AMARYLLIS VILLE,16517,1534,307953
WATERWOODS,8567,796,828750
LAKEVILLE,13882,1290,648164
THE RAINTREE,11172,1038,587841
PARC VISTA,10101,938,649814
WEST COAST GARDENS,15472,1437,127242
SANCTUARY GREEN,12000,1115,436922
SPRING @ LANGSAT,9722,903,426691
URBAN VISTA,13745,1277,465427
SILVERSEA,29777,2766,449306
COSTA RHU,13939,1295,437434
THE VISION,14286,1327,126793
EIGHT RIVERSUITES,10946,1017,338519
LAKEVILLE,13228,1229,648162
FORESTVILLE,8614,800,737777
THE GLADES,16786,1559,465407
JLB RESIDENCES,11290,1049,509422
THE RIVERVALE,8347,775,545119
THE SANTORINI,12429,1155,528592
THE BENTLY RESIDENCES@KOVAN,14634,1360,544694
THE SEAFRONT ON MEYER,15960,1483,437978
SCOTTS HIGHPARK,19814,1841,228232
PROSPERO VILLE,10780,1001,425766
28 RC SUITES,18276,1698,218746
LE REGAL,10922,1015,389365
LAKEVILLE,13587,1262,648163
PARC ROSEWOOD,13426,1247,737793
LAKEVILLE,14519,1349,648155
LAKEVILLE,15639,1453,648163
THE AZURE,20006,1859,98584
SKYPARK RESIDENCES,9134,849,757057
THE GLADES,15013,1395,469598
KENSINGTON SQUARE,14235,1322,537846
EUHABITAT,13542,1258,415871
NOVA 48,12957,1204,328318
GOODWOOD RESIDENCE,24751,2299,259704
THE SANTORINI,11449,1064,528592
COTE D'AZUR,13739,1276,449297
BRADDELL VIEW,8867,824,579722
EIGHT RIVERSUITES,11000,1022,338520
DOUBLE BAY RESIDENCES,11437,1063,529884
THE GLADES,15615,1451,465407
LE REGAL,10922,1015,389365
TWIN HEIGHTS,12409,1153,329780
RIVERGATE,22028,2046,238258
HALLMARK RESIDENCES,22043,2048,259325
THE SANTORINI,12791,1188,528592
ESCADA VIEW,10256,953,417657
FERRARIA PARK CONDOMINIUM,10407,967,506943
THE LAKEFRONT RESIDENCES,14516,1349,648324
BAYSHORE PARK,10000,929,469984
RIVERTREES RESIDENCES,10960,1018,797460
CASABLANCA,9255,860,737921
Q BAY RESIDENCES,11907,1106,528587
THE SANTORINI,11551,1073,528592
MERIDIAN 38,15000,1394,425317
THE RIVERSIDE PIAZZA,13617,1265,59608
ASCENT @ 456,15430,1433,329832
BINJAI PARK,13333,1239,589830
GOLD COAST CONDOMINIUM,11176,1038,118699
THE SANTORINI,12047,1119,528592
LAKEVILLE,13632,1266,648162
BEDOK PARK,12759,1185,467909
THE GLADES,15195,1412,469598
THE GLADES,15802,1468,469598
THE SCALA,15301,1422,554476
STRATUM,14000,1301,519954
THE SANTORINI,13372,1242,528592
THE SANTORINI,11714,1088,528592
SANCTUARY GREEN,11899,1105,436922
EIGHT RIVERSUITES,11622,1080,338517
GOODWOOD GRAND,26491,2461,259802
THE SCALA,17386,1615,554479
HALLMARK RESIDENCES,20775,1930,259327
LA CASA,8182,760,737895
LANDMARK TOWER,10760,1000,169878
GOODWOOD RESIDENCE,24373,2264,259704
COSTA DEL SOL,12409,1153,469988
THE INTERLACE,14176,1317,109693
OPERA ESTATE,13526,1257,456583
SERANGOON GARDEN ESTATE,10537,979,556047
FORESTVILLE,8839,821,737775
LE REGAL,10922,1015,389365
THE MAYFAIR,12000,1115,609479
N.A.,20690,1922,424526
NORTHOAKS,7759,721,738084
STRATUM,14643,1360,519954
PARC VISTA,10153,943,649810
EMERALD EAST,13462,1251,436892
SEA HORIZON,8662,805,518086
WATERFRONT ISLE,12232,1136,479261
THE INTERLACE,13087,1216,109688
URBAN VISTA,13055,1213,465426
BOTANIC GARDENS VIEW,19658,1826,257717
SAVANNAH CONDOPARK,9649,896,528790
28 RC SUITES,18082,1680,218746
RIVERTREES RESIDENCES,11475,1066,797460
SIMSVILLE,8870,824,389756
LAKEVILLE,15179,1410,648160
THE SANTORINI,12367,1149,528592
CITYSCAPE @FARRER PARK,16280,1512,219067
RIVERTREES RESIDENCES,12862,1195,797462
THE SANTORINI,11878,1103,528592
THE INTERLACE,12186,1132,109689
THE SHORE RESIDENCES,16150,1500,439895
GUILLEMARD SUITES,16937,1574,399733
NIM GARDENS,8929,830,807584
CASTLE GREEN,9248,859,787057
WATERVIEW,11818,1098,528692
CYAN,21311,1980,258709
STRATUM,14000,1301,519956
KOVAN MELODY,11796,1096,545019
THE SANTORINI,12442,1156,528592
NEPTUNE COURT,8026,746,449028
BISHAN PARK CONDOMINIUM,9143,849,575570
BROOKVALE PARK,12133,1127,599952
RIO GARDENS,11423,1061,329001
N.A.,15573,1447,429966
MAR THOMA MANSIONS,8451,785,328708
URBAN VISTA,13093,1216,465427
URBAN VISTA,13077,1215,465427
GUILLEMARD SUITES,13695,1272,399733
THE GLADES,14702,1366,465407
PALM VISTA,11258,1046,426225
THE CREEK @ BUKIT,18049,1677,596197
REZI 3TWO,15126,1405,398308
URBAN VISTA,13924,1294,465426
LAKEVILLE,12818,1191,648161
THOMSON VIEW CONDOMINIUM,7143,664,579624
THOMSON 800,13462,1251,298187
TWIN FOUNTAINS,8109,753,738992
CARISSA PARK CONDOMINIUM,10407,967,507025
WATERFRONT ISLE,11938,1109,479261
ONE TREE HILL RESIDENCE,21930,2037,248669
THE MAYFAIR,10733,997,609480
ROSEWOOD,9043,840,737936
SEA HORIZON,8754,813,518088
N.A.,20818,1934,269439
SERANGOON GARDEN ESTATE,15928,1480,558020
MICHAELS' RESIDENCES,17264,1604,677677
GUILIN VIEW,10225,950,659245
N.A.,15123,1405,547880
THE MAYFAIR,8472,787,609477
N.A.,14197,1319,547760
THE VIEW @ MEYER,17070,1586,437871
RIVERSAILS,10171,945,534027
THE TROPICA,9631,895,529776
JAYA TOWERS,13936,1295,259738
WATERWOODS,8376,778,828750
ONZE @ TANJONG PAGAR,26849,2494,89218
BALMORAL HEIGHTS,18333,1703,259928
GOODWOOD GRAND,26104,2425,259802
URBAN VISTA,11216,1042,465427
DUO RESIDENCES,20467,1901,189350
THE GARDENS AT BISHAN,10526,978,575574
BARTLEY RIDGE,12756,1185,368059
KINGSFORD . HILLVIEW PEAK,15369,1428,667968
ICON,19231,1787,78878
THE BAYSHORE,10667,991,469971
CASA EMERALD,9490,882,398311
SKY@ELEVEN,16898,1570,297726
RIVERBANK @ FERNVALE,10205,948,797475
CASA JERVOIS,16246,1509,249055
RV EDGE,22857,2123,248209
THE AZURE,19032,1768,98584
CLEMENTI PARK,11315,1051,597158
ONZE @ TANJONG PAGAR,26849,2494,89218
CHANTILLY RISE,10341,961,669581
HILLVIEW REGENCY,9279,862,659921
THOMSON THREE,15041,1397,573895
THE MAYFAIR,9091,845,609480
TREVISTA,16208,1506,319581
SKY@ELEVEN,17857,1659,297725
FINLAND GARDENS,13236,1230,459246
EIGHT RIVERSUITES,13205,1227,338521
THE LAKESHORE,10956,1018,649411
THE SPINNAKER,14000,1301,307788
BALESTIER PLAZA,9868,917,329802
Q BAY RESIDENCES,11668,1084,528588
WESTMERE,9179,853,609652
THE PARC CONDOMINIUM,13901,1291,127160
RIS GRANDEUR,10758,999,519935
Q BAY RESIDENCES,10835,1007,528587
NINE RESIDENCES,13561,1260,768894
THOMSON THREE,14388,1337,573894
THE LINEAR,11228,1043,678188
GLENTREES,15314,1423,277050
EASTERN LAGOON,12266,1140,455287
GUILLEMARD SUITES,15496,1440,399733
RIVER PLACE,11742,1091,169659
N.A.,10274,954,425313
JEWEL @ BUANGKOK,12430,1155,544685
LA FIESTA,13416,1246,544707
THE LINEAR,9189,854,678189
URBAN VISTA,13139,1221,465426
EIGHT RIVERSUITES,10991,1021,338517
CENTRO RESIDENCES,16296,1514,567752
SANCTUARY GREEN,11914,1107,436925
EVERGREEN PARK,9192,854,538800
THE IMPERIAL,19374,1800,239619
THE MAYFAIR,8929,829,609480
ECO SANCTUARY,14377,1336,679522
EIGHT RIVERSUITES,9195,854,338521
EIGHT RIVERSUITES,11579,1076,338521
DAKOTA RESIDENCES,13115,1218,399940
MORO MANSIONS,9196,854,387901
THE SHORE RESIDENCES,17347,1612,439894
PARC OASIS,9474,880,609775
THE PANORAMA,15569,1446,567699
STRATUM,13780,1280,519956
THE PARK VALE,14287,1327,288564
THE LAKEFRONT RESIDENCES,13656,1269,648324
THE BERTH BY THE COVE,17092,1588,98623
NEPTUNE COURT,8305,772,449030
NORTHVALE,9427,876,689674
CASA FORTUNA,14015,1302,329981
RIVERBANK @ FERNVALE,10938,1016,797475
THE ARISTO @ AMBER,16364,1520,439871
RIVERBANK @ FERNVALE,11278,1048,797478
WATERFRONT GOLD,11754,1092,479259
BERKELEY RESIDENCES,15947,1482,425141
RIVERTREES RESIDENCES,11094,1031,797462
FRANKEL ESTATE,17391,1616,455744
GUILLEMARD SUITES,14704,1366,399733
URBAN VISTA,11216,1042,465426
BEAVERTON COURT,14333,1332,276958
BALESTIER POINT,8421,782,329727
CASA FLORA,6828,634,467171
SUNFLOWER RESIDENCE,9091,845,398307
N.A.,18787,1745,427320
SKY VUE,15222,1414,573910
ECOPOLITAN,8465,786,828776
LIV ON WILKIE,23529,2186,228025
HALLMARK RESIDENCES,20133,1870,259325
N.A.,10290,956,369287
PALMS @ SIXTH AVENUE,11929,1108,276554
KOVAN MELODY,12857,1194,545021
THE SANTORINI,11956,1111,528592
WILKIE STUDIO,15000,1394,228096
D'EVELYN,15391,1430,309307
BRADDELL VIEW,10407,967,579724
FORESTVILLE,8492,789,737769
WESTVILLE,7044,654,648573
KENSINGTON SQUARE,14351,1333,537846
ECOPOLITAN,8880,825,828778
RIVERTREES RESIDENCES,11356,1055,797464
AQUARIUS BY THE PARK,7782,723,478935
SPOTTISWOODE SUITES,23095,2146,88661
THE TRIZON,17855,1659,276698
BARTLEY RIDGE,12482,1160,368055
THE INTERLACE,12325,1145,109690
THE SANTORINI,12062,1121,528574
PEBBLE BAY,14549,1352,436919
RIVERBANK @ FERNVALE,11875,1103,797475
RIVERTREES RESIDENCES,11239,1044,797462
SILVERSEA,17597,1635,449307
RIVERBANK @ FERNVALE,10515,977,797475
MAYSPRINGS,10526,978,678267
SKYPARK RESIDENCES,8443,784,757096
RV RESIDENCES,22166,2059,248350
LILYDALE,8000,743,768965
N.A.,7238,672,218429
WATERWOODS,8438,784,828747
ECOPOLITAN,9202,855,828777
FORESTVILLE,8802,818,737771
THE WOODGROVE,8720,810,738230
VARSITY PARK CONDOMINIUM,9716,903,126840
MELVILLE PARK,7705,716,529946
ASTOR GREEN,10157,944,597592
SHAN GATE APARTMENTS,11368,1056,328103
HILLBROOKS,11549,1073,669610
SPOTTISWOODE SUITES,22391,2080,88661
CASHEW VILLAS,19000,1765,679883
RIVERTREES RESIDENCES,13135,1220,797462
HORIZON TOWER,11455,1064,239228
VUE 8 RESIDENCE,9903,920,519283
THE LEGEND,14150,1315,259725
PEOPLE'S PARK COMPLEX,8662,805,59108
KIARA TEN,5360,498,415894
CASUARINA COVE,11268,1047,436904
SERANGOON GARDEN ESTATE,11599,1078,557679
THE CITRINE,14101,1310,329415
THE SHORE RESIDENCES,14500,1347,439895
DOVER PARKVIEW,12556,1166,138685
REZI 3TWO,14316,1330,398308
REFLECTIONS AT KEPPEL BAY,23793,2210,98412
RIVERSHIRE,16115,1497,239229
RIVERBANK @ FERNVALE,10840,1007,797477
THE SEAFRONT ON MEYER,17000,1579,437978
THE QUINTET,8814,819,689104
URBAN VISTA,13407,1246,465427
STRATUM,14256,1324,519956
BELMOND GREEN,18687,1736,259816
SKYPARK RESIDENCES,8488,789,757060
THE SIXTH AVENUE RESIDENCES,12810,1190,276543
Q BAY RESIDENCES,12008,1116,528587
RIVERBANK @ FERNVALE,11159,1037,797475
THE VENUE RESIDENCES,13540,1258,347848
EIGHT RIVERSUITES,11508,1069,338521
HILLTOPS,32745,3042,229809
EIGHT RIVERSUITES,13600,1263,338520
THE VENUE RESIDENCES,16177,1503,347846
PARK NATURA,10625,987,659765
STRATUM,13114,1218,519956
PARK INFINIA AT WEE NAM,19776,1837,308342
SEA HORIZON,8786,816,518083
THE GLADES,15477,1438,465407
STRAITS GARDENS,8603,799,757676
THE FLORAVALE,8043,747,648362
GOODWOOD RESIDENCE,25348,2355,259704
LA FIESTA,13091,1216,544700
THE TENNERY,11938,1109,677903
SELETARIS,8322,773,757707
THE LAKESHORE,11604,1078,649413
HELIOS RESIDENCES,31484,2925,229815
FORESTVILLE,7806,725,737773
BARTLEY RIDGE,13194,1226,368055
EIGHT RIVERSUITES,11842,1100,338521
PARK VIEW MANSION,7115,661,618645
REGENCY PARK,18983,1764,248732
ONE-NORTH RESIDENCES,13871,1289,138643
CASUARINA COVE,12277,1141,436916
PEOPLE'S PARK CENTRE,6820,634,58359
NINE RESIDENCES,10725,996,768895
N.A.,38111,3541,229063
FORESTVILLE,7932,737,737880
HILLION RESIDENCES,16242,1509,677671
BEACON HEIGHTS,12525,1164,328689
EIGHT RIVERSUITES,10526,978,338521
EIGHT RIVERSUITES,12039,1118,338521
D'LEEDON,16122,1498,267953
THE RIVERVALE,8099,752,545118
IRESIDENCES,15934,1480,329550
PARK GREEN,9127,848,545042
BARTLEY RIDGE,13061,1213,368055
PARK VILLAS,11618,1079,545277
THE OCTET,14744,1370,398628
EIGHT RIVERSUITES,11538,1072,338521
VISTA RESIDENCES,16814,1562,329425
RIVERBANK @ FERNVALE,10918,1014,797478
RIVERBAY,13488,1253,328704
NATHAN SUITES,17976,1670,248743
FORESTVILLE,7887,733,737882
ECOPOLITAN,8648,803,828777
THE ESTUARY,11279,1048,769134
N.A.,10609,986,486619
THE PANORAMA,17138,1592,567701
THE SHORE RESIDENCES,16509,1534,439894
OCEAN FRONT SUITES,16050,1491,509424
THE TEMBUSU,17392,1616,534007
EDELWEISS PARK CONDO,9886,918,507000
DUO RESIDENCES,24789,2303,189350
THE SKYWOODS,13314,1237,677669
HILLVIEW REGENCY,9375,871,659920
SERANGOON GARDEN ESTATE,13487,1253,554790
SEMBAWANG HILLS ESTATE,12453,1157,575905
SEA HORIZON,8549,794,518091
VILLAGE @ PASIR PANJANG,14113,1311,118797
URBAN VISTA,13407,1246,465426
THE GLADES,14586,1355,469598
THE SANTORINI,12367,1149,528592
SKY VUE,14852,1380,573910
LIV ON WILKIE,26318,2445,228025
VARSITY PARK CONDO,10094,938,126832
GRANDEUR 8,10570,982,567745
N.A.,15878,1475,537823
ICON,16087,1495,78878
AMARYLLIS VILLE,15506,1441,307953
SANT RITZ,15575,1447,348196
SKY VUE,19273,1791,573910
THE TROPICA,9630,895,529776
THE SEAFRONT ON MEYER,17785,1652,437878
DOUBLE BAY RESIDENCES,12377,1150,528719
PARC MONDRIAN,10000,929,357916
RIVERBANK @ FERNVALE,10913,1014,797477
N.A.,13717,1274,546558
D'LEEDON,21585,2005,267955
FRANKEL ESTATE,12413,1153,458144
THE TESSARINA,16299,1514,276308
N.A.,2522,234,388951
MONTEBLEU,16226,1507,308162
THE BAYSHORE,11188,1039,469972
VILLAGE @ PASIR PANJANG,15015,1395,118797
SKY VUE,19940,1852,573910
VISIONCREST,22738,2112,238711
REZI 3TWO,14783,1373,398308
PARC VISTA,10690,993,649814
THE ORCHARD RESIDENCES,43564,4047,237973
EURO-ASIA PARK,10956,1018,357920
FORESTVILLE,7860,730,737769
BERKELEY RESIDENCES,15986,1485,425141
THE SEA VIEW,17405,1617,439943
MEADOWS @ PEIRCE,13094,1216,787130
MIDTOWN RESIDENCES,14625,1359,534785
BLISSFUL VIEW,13255,1231,278738
FORESTVILLE,7901,734,737773
THE SAIL @ MARINA BAY,21084,1959,18987
SEA HORIZON,9093,845,518090
ORCHID PARK CONDOMINIUM,6653,618,768446
VUE 8 RESIDENCE,11785,1095,519285
SIGNATURE AT LEWIS,16374,1521,258617
MERA WOODS,10640,988,669607
THE RAINTREE,10806,1004,587848
COSTA RHU,13587,1262,437433
THE OCTET,14425,1340,398628
N.A.,13284,1234,429625
TWIN FOUNTAINS,8064,749,738993
KENTVIEW PARK,12090,1123,118892
THE GARDENS AT BISHAN,9903,920,575574
SERANGOON GARDEN ESTATE,19246,1788,557958
THE SKYWOODS,13967,1298,677669
LLYN GARDENS,10383,965,535934
FORESQUE RESIDENCES,13846,1286,678274
FORESTVILLE,7419,689,737769
THE VENUE RESIDENCES,13941,1295,347846
N.A.,2691,250,339839
N.A.,12736,1183,427015
EIGHT RIVERSUITES,14600,1356,338520
MAYSPRINGS,8385,779,678265
THE TROPICA,9130,848,529778
URBAN VISTA,13392,1244,465421
HILLVIEW RESIDENCE,11282,1048,669599
VUE 8 RESIDENCE,10222,950,519283
PARC OASIS,9844,915,609782
CAIRNHILL CREST,23465,2180,229811
N.A.,14964,1390,128176
RIVERBANK @ FERNVALE,11872,1103,797476
MIMOSA PARK,8100,752,808036
PALM OASIS,13406,1245,426155
TRILIGHT,22351,2076,307945
N.A.,5430,505,530720
THE SOVEREIGN,19544,1816,437920
URBAN VISTA,13235,1230,465427
AQUARIUS BY THE PARK,9375,871,478931
NOVENA REGENCY,24750,2299,307690
CLEMENTI PARK,11543,1072,597158
THE RAINTREE,10645,989,587847
FORESTVILLE,8157,758,737772
PHOENIX HEIGHTS,9030,839,668275
THE MAKENA,14626,1359,437934
AMBER RESIDENCES,15741,1462,439888
CARDIFF RESIDENCE,17923,1665,558961
SUNGLADE,12454,1157,556131
EIGHT RIVERSUITES,15154,1408,338517
ELIAS GREEN,6433,598,519959
HALLMARK RESIDENCES,20362,1892,259327
SEMBAWANG HILLS ESTATE,13827,1285,578330
CITY SQUARE RESIDENCES,15625,1452,207224
Q BAY RESIDENCES,10518,977,528590
FORESTVILLE,7862,730,737880
RIVERTREES RESIDENCES,13024,1210,797463
KINGSFORD . HILLVIEW PEAK,15571,1447,667982
RIVERSAILS,10876,1010,534035
JEWEL @ BUANGKOK,13379,1243,544686
FRANKEL ESTATE,13807,1283,456021
RIVERTREES RESIDENCES,10862,1009,797460
SIMEI GREEN CONDO,6769,629,529866
ROSEWOOD SUITES,8511,791,737875
THE MONTANA,23925,2223,249188
BARTLEY RIDGE,12994,1207,368055
N.A.,11010,1023,598386
THE LAKEFRONT RESIDENCES,14478,1345,648305
SKY VUE,16488,1532,573911
SAVANNAH CONDOPARK,9926,922,528791
LUMA,19275,1791,238403
RIVERTREES RESIDENCES,12981,1206,797460
KEMBANGAN COURT,12055,1120,418924
RIVERTREES RESIDENCES,11395,1059,797463
BARTLEY RIDGE,12906,1199,368056
VACANZA @ EAST,16115,1497,417392
GOODWOOD RESIDENCE,25459,2365,259703
DUCHESS CREST,14144,1314,269200
SEMBAWANG HILLS ESTATE,10758,999,577439
MUTIARA VIEW,15600,1449,249191
THE METROPOLITAN CONDOMINIUM,14815,1376,158747
RIVER PLACE,16438,1527,169658
CENTRA STUDIOS,18158,1687,388302
RIVERBANK @ FERNVALE,11788,1095,797475
LIVIA,10610,986,518210
RIVERGATE,23190,2154,238255
HIJAUAN,22353,2077,229618
EIGHT RIVERSUITES,12162,1130,338519
SKYPARK RESIDENCES,9190,854,757094
GUILIN VIEW,10000,929,659247
THE BAYSHORE,11265,1047,469972
GUILLEMARD SUITES,13923,1293,399733
GUILLEMARD SUITES,14666,1362,399733
GUILLEMARD SUITES,14725,1368,399733
N.A.,15021,1395,439804
PEBBLE BAY,16011,1487,436918
RIVERBANK @ FERNVALE,10543,979,797478
CITY SQUARE RESIDENCES,15135,1406,207229
M21,15465,1437,308208
RIVERGATE,23655,2198,238255
SUITES AT ORCHARD,22500,2090,229239
LA FIESTA,12897,1198,544702
THE VENUE RESIDENCES,13798,1282,347840
NINE RESIDENCES,10945,1017,768895
THE GLADES,16331,1517,465407
THE SPRINGFIELD,7174,667,486243
N.A.,7304,679,538400
RIVERTREES RESIDENCES,11025,1024,797460
GUILLEMARD SUITES,14208,1320,399733
EIGHT RIVERSUITES,15200,1412,338519
THE FLORIDA,7465,694,538807
