Project Name,Unit Price ($ psm),Unit Price ($ psf),Postal Code
NEPTUNE COURT,8289,770,449025
MANDARIN GARDEN CONDOMINIUM,9930,922,448909
N.A.,9365,870,128545
THE QUARTZ,9009,837,544989
PROXIMO,15385,1429,258204
ASPEN HEIGHTS,16016,1488,238309
THE METROPOLITAN CONDOMINIUM,12846,1193,158747
LIVIA,10000,929,518205
SIGNATURE PARK,9694,901,596744
THE CLEARWATER,9683,900,479233
N.A.,14493,1346,577956
N.A.,7500,697,427890
MODENA,8047,748,529869
THE SHAUGHNESSY,4705,437,768216
QUEENS,12162,1130,148954
TEXTILE CENTRE,8561,795,199018
HUNDRED TREES,11288,1049,128002
MI CASA,7577,704,689866
GARDEN VIEW ESTATE,7619,708,558248
ROSEWOOD,7819,726,737940
DUCHESS RESIDENCES,20177,1874,266312
AALTO,24599,2285,437981
FABER CREST,8125,755,129195
SOMMERVILLE PARK,14950,1389,259287
SERANGOON GARDEN ESTATE,12495,1161,559524
PALM GARDENS,6917,643,689050
TERESA VILLE,9350,869,99309
LOYANG VILLAS,9120,847,507497
N.A.,12562,1167,425437
VERTIS,12411,1153,439979
THE SAIL @ MARINA BAY,32285,2999,18987
THE MAYLEA,12174,1131,117493
THE NEXUS,14242,1323,589655
WATER PLACE,12673,1177,436932
CASA PASIR RIS,7850,729,509506
THE BAYSHORE,9659,897,469970
THE RIVERVALE,7377,685,545119
NIM GARDENS,8324,773,807584
WINDERMERE,7193,668,689097
CAVENDISH PARK,10975,1020,597594
MILL POINT,15988,1485,247811
THE ABODE AT DEVONSHIRE,17216,1599,239895
THE GARDENS AT BISHAN,10280,955,575575
MONTROSA,8224,764,669604
THE METROPOLITAN CONDOMINIUM,14041,1304,158746
FRANKEL ESTATE,11742,1091,459293
THE DRAYCOTT,23552,2188,259392
PALM SPRING,15052,1398,259324
OLEANDER TOWERS,9037,840,319771
COSTA DEL SOL,12263,1139,469988
REGENTVILLE,7800,725,538688
HOMEY GARDENS,9515,884,425283
CASUARINA COVE,10619,987,436916
N.A.,24857,2309,309048
N.A.,21060,1957,267402
NASSIM MANSION,30031,2790,258472
SERANGOON GARDEN ESTATE,14051,1305,557517
N.A.,10297,957,488265
MANDARIN GARDEN CONDOMINIUM,9036,839,448906
CLYDESWOOD,7505,697,359425
PARBURY HILL CONDOMINIUM,8889,826,467299
GLASGOW RESIDENCE,15713,1460,549338
TANGLIN RESIDENCES,22403,2081,258004
SCOTTS 28,21429,1991,228223
AZALEA PARK CONDOMINIUM,6538,607,509728
MEADOWLODGE,10882,1011,599717
CUSCADEN RESIDENCES,23768,2208,249722
HILLVIEW REGENCY,8857,823,659921
SPRING GROVE,16702,1552,249565
DUCHESS RESIDENCES,20446,1899,266313
CHESTER PARK,7407,688,119129
SELETARIS,7528,699,757711
TRIBECA,24167,2245,239497
SUNNY PALMS,9878,918,426323
SKYSUITES@ANSON,22156,2058,79718
YEW MEI GREEN,7500,697,689577
THE SUNNY SPRING,9347,868,398074
MOONSTONE VIEW,9280,862,328496
N.A.,10936,1016,547012
AZALEA PARK CONDOMINIUM,6943,645,509728
VALLEY PARK,15600,1449,248368
WESTVILLE,8314,772,648522
N.A.,6238,579,537526
MELVILLE PARK,8161,758,529943
SKYSUITES@ANSON,26138,2428,79718
FERNWOOD TOWERS,11144,1035,458555
D'LEEDON,17724,1647,266224
CASA FORTUNA,15957,1482,329980
THE VERVE,12749,1184,329138
FLORISSA PARK,8161,758,789623
RICHMOND PARK,29028,2697,229920
CAIRNHILL RESIDENCES,22379,2079,229775
N.A.,10107,939,757329
KOVAN RESIDENCES,12195,1133,544916
AVILA GARDENS,12326,1145,509737
THE SEA VIEW,16233,1508,439942
THE WATERINA,10101,938,398086
AVALON,19024,1767,259986
CITYLIGHTS,16032,1489,208749
BLUE HORIZON,10280,955,128046
KOVAN MELODY,11364,1056,545020
MERA GARDENS,8279,769,677763
THE MERLOT,11829,1099,219261
PARRY GREEN,10533,979,545173
N.A.,9149,850,416757
N.A.,9149,850,416754
N.A.,9149,850,416756
PARC OASIS,8596,799,609777
WILKIE 80,19364,1799,228079
D'LEEDON,18042,1676,266224
CAVENDISH PARK,11404,1060,597594
N.A.,8069,750,679138
N.A.,12741,1184,128652
SANCTUARY GREEN,13930,1294,436923
LUXUS HILLS,14800,1375,805156
RIVERIA GARDENS,21391,1987,238406
KOVAN GRANDEUR,15294,1421,535193
DOVER PARKVIEW,10000,929,138684
BLU CORAL,11633,1081,425602
THE OCEANFRONT @ SENTOSA COVE,25290,2349,98528
SCOTTS 28,23026,2139,228223
EASTPOINT GREEN,7025,653,529890
DEVONSHIRE RESIDENCES,29065,2700,239855
SIGLAP V,14948,1389,458278
N.A.,7634,709,486371
CASA MERAH,9649,896,465533
NUOVO,8217,763,569788
NORTHWOOD,9426,876,757488
CHANGI RISE CONDOMINIUM,7299,678,528811
SOVEREIGN @ SIMON,8333,774,545993
QUESTA @ DUNMAN,14757,1371,439219
CASAFINA,8939,830,469338
CASA CAIRNHILL,17863,1660,228305
HERITAGE VIEW,10991,1021,138679
GENTLE VILLAS,10330,960,309277
AALTO,18298,1700,437981
HILLVIEW REGENCY,8571,796,659921
SHEARES VILLE,15231,1415,249446
SUNHAVEN,9596,891,486069
BOON TECK TOWERS,9188,854,329608
38 I SUITES,15719,1460,438646
PAVILION 11,13043,1212,309978
TREVOSE 12,8069,750,298094
HILLVIEW REGENCY,8846,822,659920
RIS GRANDEUR,8495,789,519933
BISHAN LOFT,11143,1035,579820
HAZEL PARK CONDOMINIUM,10055,934,678944
ESTIQUE,11918,1107,437361
TEN @ SUFFOLK,14364,1334,307786
MANDARIN GARDEN CONDOMINIUM,10839,1007,448908
N.A.,20403,1895,257968
AVA TOWERS,8403,781,329949
THE BAYSHORE,9602,892,469976
VISIONCREST,21176,1967,238712
LA MAISON,11364,1056,308125
INTERNATIONAL PLAZA,11367,1056,79903
LENTOR VILLAS,10302,957,786716
CASHEW PARK CONDOMINIUM,8037,747,679641
DOMAIN 21,13824,1284,169813
MANILA GARDENS,10107,939,455369
SCOTTS 28,23913,2222,228223
CABANA,6851,636,805354
THE VIEW @ MEYER,19108,1775,437871
COSTA RHU,13516,1256,437434
THE STERLING,13191,1226,596288
LEONIE GARDENS,16610,1543,239225
PARC SOPHIA,16452,1528,229979
THE COSMOPOLITAN,21528,2000,239496
MARTIN PLACE RESIDENCES,19103,1775,237990
THE ELYSIA,9810,911,328688
MARINE VILLE,11054,1027,449527
FORTUNE SPRING,9369,870,456442
RIVER PLACE,13542,1258,169658
GARDENVISTA,13333,1239,589485
ADAM PARK CONDOMINIUM,8654,804,289895
SIMSVILLE,9389,872,389758
SEA BREEZE TERRACE,11567,1075,487571
N.A.,17073,1586,437031
NIM GARDENS,7765,721,807584
38 I SUITES,15344,1426,438646
ARDMORE II,30255,2811,259962
WATERFALL GARDENS,16144,1500,268822
N.A.,13205,1227,578472
ROSEWOOD SUITES,8120,754,737875
NEWTON SUITES,20135,1871,307994
REFLECTIONS AT KEPPEL BAY,24557,2281,98417
QUEENS,11832,1099,148957
N.A.,8331,774,419523
HILLTOP GROVE,4878,453,669621
REGENTVILLE,8000,743,538688
N.A.,12948,1203,288755
STEVENS SUITES,21524,2000,257940
FAIRMOUNT CONDOMINIUM,7739,719,486365
NORMANTON PARK,10593,984,119002
NORTHOAKS,6783,630,738085
THE MAYFAIR,8316,773,609478
MERA EAST,10714,995,419809
GRAND DUCHESS AT ST PATRICK'S,14885,1383,424212
DOMAIN 21,14286,1327,169814
N.A.,13191,1225,467201
HUME PARK I,8416,782,598726
SEMBAWANG HILLS ESTATE,9480,881,579424
AUSTVILLE RESIDENCES,7719,717,544808
THE EBONY,11840,1100,417216
COUNTRY PARK CONDOMINIUM,10494,975,469569
CITYLIGHTS,15238,1416,208749
SOUTHAVEN II,9650,897,587969
LEEDON 2,14563,1353,267829
NORTHOAKS,6609,614,738085
ESPIRA SPRING,10134,941,426327
RIDGEWOOD,12037,1118,277113
THE SEAFRONT ON MEYER,18792,1746,437878
SERANGOON GARDEN ESTATE,12196,1133,557207
GRANDE VISTA,8831,820,809694
RESIDENCES @ LIMAU,13043,1212,468471
PANDAN VALLEY,11324,1052,597627
SPOTTISWOODE PARK,7607,707,80105
PARK INFINIA AT WEE NAM,19380,1800,308366
VIZ AT HOLLAND,16136,1499,276750
LAGUNA 88,7538,700,486356
SHEARES VILLE,15056,1399,249446
KERRISDALE,10256,953,207852
AFFLUENCE COURT,7906,734,539960
THE CLIFT,22174,2060,69047
EUPHONY GARDENS,7593,705,759152
CENTRO RESIDENCES,13095,1217,567752
MI CASA,8370,778,689862
BEDOK SHOPPING COMPLEX,3097,288,469458
CITY SQUARE RESIDENCES,17642,1639,207229
SUMMERHILL,10083,937,596230
N.A.,8392,780,545648
WING FONG MANSIONS,6404,595,398924
N.A.,13019,1210,466875
YISHUN SAPPHIRE,7110,661,768434
THE TENERIFFE,9655,897,275957
SKYSUITES@ANSON,22038,2047,79718
NORTHVALE,3465,322,689673
THE SUNNIDORA,7426,690,426223
NUOVO,8333,774,569788
TERESA VILLE,10989,1021,99308
THE EBONY,12917,1200,417216
CASTLE GREEN,7571,703,787058
N.A.,15656,1454,298665
THE LINEAR,8222,764,678189
WATERMARK ROBERTSON QUAY,17222,1600,238213
WATERFRONT WAVES,8760,814,479245
SANDY PALM,7200,669,509413
REGENCY PARK,18305,1701,248732
THE EBONY,11840,1100,417216
THE EBONY,12917,1200,417216
SYMPHONY HEIGHTS,9650,897,598735
THE MINTON,9405,874,534078
PAVILION 11,14478,1345,309979
THE METROPOLITAN CONDOMINIUM,15900,1477,158746
CASABLANCA,8892,826,737917
WOODSVALE,6667,619,738093
RIDGEWOOD,13585,1262,276937
THE GALE,8845,822,506916
THE BAYSHORE,8974,834,469974
CONCOURSE SKYLINE,23744,2206,199599
WATERFRONT GOLD,9855,916,479256
TANGLIN VIEW,14545,1351,159013
FERRARIA PARK CONDOMINIUM,9242,859,506947
FIVE CHANCERY,13110,1218,309605
FIVE CHANCERY,13249,1231,309606
FIVE CHANCERY,13348,1240,309607
EAST SHORE COURT,12812,1190,425310
EAST SHORE COURT,12812,1190,425310
EAST SHORE COURT,10730,997,425310
EAST SHORE COURT,10792,1003,425310
EAST SHORE COURT,10699,994,425310
EAST SHORE COURT,12196,1133,425310
ESPIRA SPRING,11181,1039,426244
SUNSHINE REGENCY,8137,756,424331
THE GALE,9118,847,506913
N.A.,10667,991,546996
HILLVIEW GREEN,9073,843,598741
THE ANCHORAGE,11241,1044,159957
SKYSUITES17,16159,1501,329137
PRIVE,7292,677,828817
PRIVE,7394,687,828816
BISHAN 8,12315,1144,574044
ESTELLA GARDENS,8146,757,509740
THE FLORAVALE,6696,622,648359
BALLOTA PARK CONDOMINIUM,6243,580,507082
FABER CREST,8322,773,129200
COMPASS HEIGHTS,7241,673,545076
THE COSMOPOLITAN,22596,2099,239496
PARK INFINIA AT WEE NAM,18529,1721,308342
OKIO,16805,1561,329714
GUILIN VIEW,8291,770,659246
AMBER RESIDENCES,15928,1480,439888
RIVER PLACE,13913,1293,169659
QUINTERRA,13359,1241,278636
MOUNTBATTEN SUITES,10576,982,437842
DUCHESS CREST,13665,1269,269196
COSTA DEL SOL,10385,965,469987
MERA TERRACE,12200,1133,486696
WOODSVALE,6250,581,738090
PARK GREEN,7680,713,545040
N.A.,12780,1187,579318
THE EDEN AT TAMPINES,7722,717,529236
D'LOTUS,10494,975,328784
THE INFINITI,9304,864,127713
BEACON HEIGHTS,11325,1052,328689
QUEENSWAY TOWER,7922,736,149053
LOYANG VILLAS,8782,816,507413
OLEANDER TOWERS,8972,834,319771
N.A.,8081,751,536669
WINDY HEIGHTS,7826,727,419593
CHANGI RISE CONDOMINIUM,8222,764,528800
N.A.,9852,915,426872
DAHLIA PARK CONDOMINIUM,7305,679,507012
COSTA DEL SOL,10549,980,469987
BOTANNIA,11426,1062,127723
EASTERN LAGOON,9798,910,455283
THE ESTUARY,8473,787,769138
CHANCERY ESQUIRE,13837,1286,309494
OPERA ESTATE,17722,1646,458359
THE PEARL @ MOUNT FABER,11535,1072,99208
CASTLE GREEN,8580,797,787056
NUOVO,8082,751,569786
BAYVILLE CONDOMINIUM,8444,785,118166
N.A.,9682,900,348497
HOLLAND GREEN,13800,1282,276176
THE COSMOPOLITAN,21538,2001,239471
AQUARIUS BY THE PARK,9398,873,478933
THE BEACON,15067,1400,89775
ORCHID PARK CONDOMINIUM,6982,649,768448
HARBOURLIGHTS,15244,1416,98830
SIGNATURE PARK,9848,915,596748
VACANZA @ EAST,11640,1081,417392
BAYSHORE PARK,9310,865,469977
N.A.,12205,1134,459122
VIVA,18258,1696,307464
THE SEAFRONT ON MEYER,21141,1964,437880
THE ESTUARY,10714,995,769134
TRIBECA,25417,2361,239497
OPERA ESTATE,9513,884,459991
FAR HORIZON GARDENS,6519,606,569758
STRATFORD COURT,8446,785,489929
LAKEHOLMZ,6464,601,649822
THOMSON V TWO,15455,1436,575629
TRIBECA,19817,1841,239497
ALESSANDREA,12903,1199,159967
EAST SHORE COURT,12812,1190,425310
EAST SHORE COURT,11092,1030,425310
EAST SHORE COURT,11163,1037,425310
EAST SHORE COURT,11127,1034,425310
EAST SHORE COURT,11092,1030,425310
HORIZON TOWER,12897,1198,239194
CLOVER BY THE PARK,10924,1015,573973
COSTA DEL SOL,14000,1301,469992
WATER PLACE,12124,1126,436607
THE ARTE,12356,1148,329215
PALM SPRING,15789,1467,259324
THE SEAFRONT ON MEYER,20185,1875,437880
EAST SHORE COURT,10792,1003,425310
NORTHOAKS,7052,655,738086
N.A.,12821,1191,537169
N.A.,7823,727,758524
CENTRAL VIEW,8673,806,538749
REGAL COURT,10176,945,328837
WILKIE 48,12750,1185,228059
SEMBAWANG HILLS ESTATE,10043,933,576243
CASA FORTUNA,12791,1188,329981
HEDGES PARK CONDOMINIUM,9641,896,506887
HEDGES PARK CONDOMINIUM,9851,915,506887
SKYSUITES@ANSON,22579,2098,79718
APLETON VIEW,14179,1317,308323
NV RESIDENCES,9120,847,518194
N.A.,13274,1233,597235
TANGLIN REGENCY,12427,1155,247965
MEDGE,16698,1551,308186
THE MAKENA,13562,1260,437936
TELOK INDAH,7077,657,426282
WATER PLACE,13109,1218,436607
D'LEEDON,16681,1550,266224
38 I SUITES,16462,1529,438646
THE HERMITAGE,17895,1662,258117
DEVONSHIRE RESIDENCES,25387,2359,239855
SEASONS VIEW,9151,850,576149
CITY SQUARE RESIDENCES,15641,1453,207223
OPAL SUITES,15946,1481,328396
SKY@ELEVEN,17221,1600,297726
SKYSUITES17,17518,1627,329137
CHILTERN PARK,8268,768,556112
ASCENTIA SKY,17614,1636,158749
ASCENTIA SKY,13942,1295,158749
CITYLIGHTS,14938,1388,208745
H2O RESIDENCES,10265,954,797531
SKYSUITES@ANSON,22315,2073,79718
SKYSUITES@ANSON,22421,2083,79718
NORTHOAKS,6379,593,738086
TROPICAL SPRING,9192,854,529875
WATERCREST,8195,761,509039
SKYSUITES@ANSON,22865,2124,79718
REGENT GROVE,7207,670,689527
SIMEI GREEN CONDOMINIUM,7371,685,529868
VILLA MARINA,8025,746,457398
CAIRNHILL CREST,22360,2077,229811
MABELLE,10566,982,425303
PAPILLON,9649,896,329089
TANGLIN VIEW,13148,1221,159013
THE MERCURY,14588,1355,248201
THE BAYSHORE,9809,911,469976
GOODLUCK GARDEN,10924,1015,596718
CLOVER BY THE PARK,10432,969,573975
WINDY HEIGHTS,8174,759,419594
PALISADES,7767,722,118635
N.A.,8538,793,489492
SAVANNAH CONDOPARK,9074,843,528781
ASCENTIA SKY,14093,1309,158749
HILLCREST VILLA,11038,1025,286775
GOLDEN HILL ESTATE,11956,1111,556988
HUME PARK I,8633,802,598721
MELVILLE PARK,6801,632,529945
THE PARC CONDOMINIUM,13354,1241,127161
ARDMORE PARK,37276,3463,259957
N.A.,7932,737,805993
CUSCADEN RESIDENCES,26074,2422,249723
IVORY HEIGHTS,6646,617,600122
WATERFRONT WAVES,9916,921,479249
FLYNN PARK,12234,1137,117755
SAVANNAH CONDOPARK,8596,799,528784
SOUTHBANK,15164,1409,198784
N.A.,7644,710,537645
CASA IRRAWADDY,11591,1077,329557
VILLAS SIX,11642,1082,117622
THE GARDENS AT BISHAN,10244,952,575577
CITYLIGHTS,15238,1416,208745
N.A.,11911,1107,118205
CANBERLIN LODGE,6822,634,399221
OPTIMA @ TANAH MERAH,10653,990,465518
PARK EAST,10507,976,457264
D'MANOR,6126,569,465704
N.A.,12333,1146,545985
ONE LEICESTER,12069,1121,358828
DOVER PARKVIEW,9778,908,138685
THE CLIFT,22281,2070,69047
LUMA,22024,2046,238403
N.A.,9192,854,799131
DAHLIA PARK CONDOMINIUM,7627,709,507009
BISHAN POINT,9517,884,579653
WATERFRONT ISLE,12029,1118,479262
PEBBLE BAY,14286,1327,436919
CENTURY WOODS,8970,833,738131
RAFFLESIA CONDOMINIUM,11529,1071,579801
SOLEIL @ SINARAN,19815,1841,307467
THE INTERLACE,13333,1239,109693
EVERITT EDGE,13846,1286,427800
HENRY PARK,14269,1326,279160
HILLVIEW GREEN,8684,807,598744
THE DAIRY FARM,10924,1015,679038
VILLA MARINA,8146,757,457404
LION TOWERS,13410,1246,309330
CHAPEL LODGE,8393,780,425052
ESCADA VIEW,9740,905,417657
N.A.,15591,1448,277196
H2O RESIDENCES,11254,1045,797531
OPERA ESTATE,11765,1093,457810
EDELWEISS PARK CONDOMINIUM,10303,957,507003
THE WATERINA,11123,1033,398077
THE CASCADIA,16000,1486,589641
SUNRISE VILLA,11223,1043,806419
DUCHESS RESIDENCES,19853,1844,266311
BAYWATER,8215,763,479240
THE BAYRON,19371,1800,238140
TOH TUCK LODGE,8560,795,596221
CHANGI GARDEN,6923,643,509314
STARVILLE,8478,788,417455
CASABLANCA,8621,801,737918
CALLIDORA VILLE,12417,1154,425145
WHITEWATER,7820,726,518769
WOODSVALE,6754,627,738093
HIGHLAND CONDOMINIUM,7721,717,549175
GARDENVISTA,12326,1145,589482
N.A.,9565,889,168654
N.A.,12294,1142,428645
CASSIA VIEW,11308,1051,399746
DAHLIA PARK CONDOMINIUM,7837,728,507013
GOLDENHILL PARK CONDOMINIUM,12742,1184,568430
YEWTEE RESIDENCES,9231,858,689579
ASCENTIA SKY,17614,1636,158748
WATERFRONT GOLD,10035,932,479256
CANBERLIN LODGE,6296,585,399221
MI CASA,8077,750,689866
PARC IMPERIAL,12294,1142,117423
THE PARC CONDOMINIUM,11789,1095,127161
PARC ELEGANCE,13744,1277,423912
LAKESIDE GROVE,9694,901,618447
SELETAR HILLS ESTATE,11280,1048,809243
38 I SUITES,15181,1410,438646
THE WARREN,7895,733,689683
N.A.,15934,1480,309390
SUMMERDALE,6460,600,649925
KEW VALE,7985,742,466318
D'LEEDON,17840,1657,266224
N.A.,10324,959,554717
HARBOUR SUITES,16994,1579,99454
THE FLORIDA,7349,683,538807
NORMANTON PARK,10339,961,118998
CLEMENTI PARK,11257,1046,597150
RIDGE COURT,9815,912,358459
REGENT GROVE,7111,661,689527
EUNOS PARK,8685,807,417771
THE ESTA,14200,1319,439967
SKYSUITES@ANSON,22421,2083,79718
SKYSUITES@ANSON,21812,2026,79718
LA CRYSTAL,16854,1566,239568
WATER PLACE,12281,1141,436607
BAYOU RESIDENCE,10863,1009,534957
THE ESTA,13840,1286,439970
SANCTUARY GREEN,10952,1018,436922
LOFT @ NATHAN,20698,1923,248749
SELETAR HILLS ESTATE,11889,1104,807793
MI CASA,9048,841,689863
PARKVIEW APARTMENTS,7076,657,658881
WATER PLACE,11984,1113,436932
38 I SUITES,15487,1439,438646
COSTA DEL SOL,13934,1295,469987
THE MINTON,9400,873,538755
EIS RESIDENCES,15975,1484,438859
N.A.,10000,929,757385
COASTAL BREEZE RESIDENCES,8991,835,509051
H2O RESIDENCES,10336,960,797531
WOODSVALE,6667,619,738093
LIVIA,9650,897,518216
LENTOR VILLAS,9128,848,786761
D'LEEDON,18200,1691,266224
OPERA ESTATE,9737,905,458631
BURLINGTON SQUARE,14952,1389,189651
MACPHERSON GARDEN ESTATE,14637,1360,369196
THE SHAUGHNESSY,4426,411,768286
THE ORANGE GROVE,22581,2098,258364
H2O RESIDENCES,10106,939,797531
SKYSUITES@ANSON,21706,2017,79718
THE BLOSSOMVALE,13082,1215,589473
SANCTUARY GREEN,11667,1084,436922
N.A.,9720,903,329387
REGENT HEIGHTS,8368,777,659802
N.A.,7223,671,489179
BAYSHORE PARK,9770,908,469985
N.A.,8349,776,425770
THOMSON 800,12914,1200,298189
THE EDEN AT TAMPINES,7155,665,529235
ATRIUM RESIDENCES,9263,861,398419
RIO VISTA,8017,745,534205
THE MAYFAIR,8860,823,609477
SIMEI GREEN CONDOMINIUM,6216,578,529866
QUINTERRA,12771,1186,278636
THE BAYCOURT,10000,929,466507
FLORIDIAN,20751,1928,589663
MACPHERSON GARDEN ESTATE,9419,875,368713
THE AZURE,21255,1975,98584
FAIRLODGE,12320,1145,278553
THE FLORIDA,7281,676,538804
N.A.,13272,1233,436716
N.A.,16460,1529,547982
SERANGOON GARDEN ESTATE,9019,838,557540
THE LEGEND,13043,1212,259725
THE ROCHESTER,15069,1400,138638
NICOLE GREEN,9440,877,399710
WATERMARK ROBERTSON QUAY,18235,1694,238214
N.A.,14936,1388,308493
OLEANDER TOWERS,9159,851,319772
HILLVISTA,12918,1200,669743
HILLTOP GROVE,8875,825,669619
BLUE HORIZON,10561,981,128049
PIN MANSIONS,7652,711,547837
SOLEIL @ SINARAN,17416,1618,307467
BULLION PARK,10000,929,789094
DOMUS,16136,1499,329564
DOVER PARKVIEW,10920,1014,138686
KEW GREEN,5810,540,466157
REGENTVILLE,7009,651,538683
THE ROCHESTER,14628,1359,138638
THE SAIL @ MARINA BAY,24141,2243,18985
NORMANTON PARK,10339,961,118998
PAVILION PARK,10320,959,658539
REGENT HEIGHTS,7339,682,659802
ORCHID PARK CONDOMINIUM,7582,704,768451
THE EDEN AT TAMPINES,7845,729,529236
THE GREENWOOD,10678,992,286871
CAVENDISH PARK,10558,981,597594
AALTO,25110,2333,437981
N.A.,8746,812,677785
WATERMARK ROBERTSON QUAY,18605,1728,238212
N.A.,16481,1531,436811
KOVAN RESIDENCES,10884,1011,544897
MI CASA,8315,773,689862
VILLA VERDE,8648,803,688703
HARBOUR VIEW TOWERS,10481,974,109258
N.A.,10176,945,539101
THE MAYFAIR,9337,867,609479
EASTWOOD GREEN TERRACES,7753,720,486420
RIVERGATE,23299,2165,238258
DEVONSHIRE RESIDENCES,27517,2556,239855
HILLVIEW GREEN,8571,796,598742
N.A.,10131,941,577525
THE WATERINA,10929,1015,398082
N.A.,11923,1108,757241
HARBOUR SUITES,18846,1751,99454
TANGERINE GROVE,10233,951,534239
THE ESTUARY,8889,826,769133
THE LAKEFRONT RESIDENCES,11496,1068,648324
MARTIN PLACE RESIDENCES,20342,1890,237988
THE GARDENS AT BISHAN,9533,886,575574
REGENTVILLE,8352,776,538688
BLUE HORIZON,10698,994,128045
SIMON PLAZA,6787,630,548008
PARK NATURA,10476,973,659766
WATERFRONT ISLE,12223,1136,479262
IMPERIAL HEIGHTS,13810,1283,438620
SEASONS PARK,7650,711,787078
PARC MONDRIAN,12018,1117,357916
PARKVIEW APARTMENTS,7625,708,658882
N.A.,14442,1342,307825
RIVER PLACE,13425,1247,169658
THE FLORIDA,7281,676,538805
N.A.,11148,1036,545858
REGENT PARK,8787,816,128803
SPOTTISWOODE RESIDENCES,23391,2173,88660
AMBER RESIDENCES,15278,1419,439888
FLAMINGO VALLEY,11650,1082,454852
SIGNATURE PARK,9692,900,596744
N.A.,13139,1221,578507
CASABLANCA,8554,795,737917
ARDMORE PARK,32463,3016,259957
GALLERY FIFTEEN,9630,895,329370
TERESA VILLE,11813,1097,99309
ST MICHAEL'S CONDOMINIUM,7643,710,328003
LA FLEUR,12632,1174,398483
QUEENS,12443,1156,148955
H2O RESIDENCES,10107,939,797531
H2O RESIDENCES,9440,877,797534
HILLCREST ARCADIA,12308,1143,289849
FUDU PARK,7127,662,788944
THE BLOSSOMVALE,12898,1198,589473
COUNTRY GRANDEUR,9328,867,576439
SIMEI GREEN CONDOMINIUM,9389,872,529863
OASIS @ MULBERRY,12953,1203,349951
EUPHONY GARDENS,7600,706,759153
PALM GARDENS,7433,691,689050
PRIVE,7494,696,828816
PRIVE,7394,687,828816
THE CANOPY,6750,627,768860
CARABELLE,11368,1056,127022
WOODSVALE,5263,489,738093
MANDARIN GARDEN CONDOMINIUM,9718,903,448908
KEW GATE,4766,443,466051
HAZEL PARK CONDOMINIUM,9890,919,678950
COMPASS HEIGHTS,8125,755,545075
WATERFRONT WAVES,9615,893,479249
THE MEZZO,9198,855,329682
H2O RESIDENCES,9330,867,797532
SKYSUITES17,15133,1406,329137
SKYSUITES17,15279,1419,329137
H2O RESIDENCES,10332,960,797534
LE MARICAN,11866,1102,417301
FOUR SEASONS PARK,28095,2610,249693
H2O RESIDENCES,10151,943,797534
H2O RESIDENCES,10559,981,797531
N.A.,16903,1570,267436
THE LEVELZ,12445,1156,268836
QUESTA @ DUNMAN,13804,1282,439219
THE ESTUARY,9296,864,769138
CENTRAL GREEN CONDOMINIUM,12042,1119,169480
EUPHONY GARDENS,6277,583,759152
ROCHELLE AT NEWTON,15330,1424,308414
PALM OASIS,11009,1023,426052
D'LEEDON,17393,1616,266224
ONE LEICESTER,12562,1167,358828
N.A.,10192,947,399699
WATERMARK ROBERTSON QUAY,17732,1647,238212
WATERFRONT ISLE,11696,1087,479261
SKYSUITES17,15335,1425,329137
PARK INFINIA AT WEE NAM,19355,1798,308345
H2O RESIDENCES,10713,995,797532
N.A.,9777,908,419339
COMPASS HEIGHTS,8494,789,545075
CASPIAN,9195,854,648315
WATERMARK ROBERTSON QUAY,20225,1879,238214
THE DEW,8062,749,659637
NEWTON SUITES,19362,1799,307994
N.A.,8624,801,538129
KEW GROVE,7194,668,467971
THOMSON GROVE,7026,653,787073
GOLDENHILL PARK CONDOMINIUM,12000,1115,568427
KOVAN MELODY,10067,935,545022
SERANGOON GARDEN ESTATE,8188,761,559942
SKYSUITES@ANSON,23400,2174,79718
H2O RESIDENCES,10498,975,797533
SKYSUITES@ANSON,23077,2144,79718
HARBOUR SUITES,17696,1644,99454
MY MANHATTAN,11315,1051,529900
BLU CORAL,9537,886,425602
PARC IMPERIAL,16400,1524,117425
HERITAGE VIEW,11167,1037,138679
VIZ AT HOLLAND,19348,1797,276750
N.A.,8012,744,219391
TANAMERA CREST,7696,715,486061
SEMBAWANG HILLS ESTATE,7174,666,579445
AMBER POINT,14194,1319,439845
AVILA GARDENS,7236,672,509735
CASHEW HEIGHTS CONDOMINIUM,8497,789,679668
THE PLAZA,12912,1200,199591
TANGLIN VIEW,13827,1285,159015
CARISSA PARK CONDOMINIUM,7893,733,507027
THE ROCHESTER,14159,1315,138638
AMANINDA,14310,1329,307687
SKYSUITES@ANSON,23431,2177,79718
SKYSUITES17,15580,1447,329137
THE LAKEFRONT RESIDENCES,10115,940,648305
THE CALROSE,11450,1064,787067
SELETAR HILLS ESTATE,12561,1167,805305
THE LENOX,13256,1231,419845
LE MARICAN,8636,802,417301
H2O RESIDENCES,10456,971,797533
VILLA MARINA,8541,793,457401
N.A.,12574,1168,437850
H2O RESIDENCES,9653,897,797532
ZENITH,18208,1692,247785
THE SAIL @ MARINA BAY,28546,2652,18985
SOMMERVILLE REGENCY,7702,716,358739
SANCTUARY GREEN,13288,1234,436922
N.A.,9466,879,369027
GRANDE VISTA,7870,731,809694
CLOVER BY THE PARK,10137,942,573975
CITY SQUARE RESIDENCES,14955,1389,207224
ONE-NORTH RESIDENCES,15439,1434,138643
THE SPINNAKER,13950,1296,307788
N.A.,9398,873,429569
FERRARIA PARK CONDOMINIUM,9705,902,506947
SERANGOON GARDEN ESTATE,8612,800,556270
VALLEY PARK,15063,1399,248360
QUESTA @ DUNMAN,13857,1287,439219
WATERVIEW,9505,883,528686
THE TROPICA,8000,743,529771
D'GALLERY,11421,1061,418936
EAST COAST RESIDENCES,12632,1174,466488
ASTOR GREEN,10458,972,597591
CASTLE GREEN,9091,845,787058
TRIBECA,19486,1810,239497
FLAMINGO VALLEY,13488,1253,454946
QUESTA @ DUNMAN,13771,1279,439219
QUESTA @ DUNMAN,13868,1288,439219
QUESTA @ DUNMAN,14063,1306,439219
DAHLIA PARK CONDOMINIUM,8135,756,507013
H2O RESIDENCES,10108,939,797534
MAYSPRINGS,6545,608,678265
CITY SQUARE RESIDENCES,14870,1381,207224
THE LAKESHORE,11165,1037,649412
PARC VISTA,7973,741,649814
DAHLIA PARK CONDOMINIUM,7771,722,507011
THE QUARTZ,9879,918,544990
THE CALROSE,10744,998,787066
SPRINGDALE CONDOMINIUM,11051,1027,587976
THE PEARL @ MOUNT FABER,11606,1078,99197
CHILTERN PARK,8765,814,556114
N.A.,14768,1372,398300
PARC PALAIS,10112,939,598751
NUOVO,8182,760,569788
MELVILLE PARK,7411,688,529942
CLOVER BY THE PARK,10738,998,573975
GLOUCESTER MANSIONS,15842,1472,307947
TANJONG RIA CONDOMINIUM,10630,988,436914
LENTOR VIEW,7930,737,788864
SANCTUARY GREEN,13506,1255,436927
SELETARIS,6902,641,757706
SEASONS VIEW,9623,894,576149
THE ASTON,16667,1548,248973
MARINA BAY RESIDENCES,47016,4368,18980
MONTEREY PARK CONDOMINIUM,10000,929,127466
LA FLEUR,11160,1037,398483
PATERSON SUITES,33333,3097,238550
D' HILLSIDE LOFT,11720,1089,118853
PRESTIGE HEIGHTS,15671,1456,329778
KOVAN RESIDENCES,10774,1001,544897
NASSIM PARK RESIDENCES,41762,3880,258386
THE MEZZO,11846,1101,329682
KEW GROVE,6428,597,467970
THE PETALS,8557,795,669624
ORCHARD SCOTTS,20283,1884,229955
WILKIE 48,12568,1168,228059
GARDENVISTA,12276,1140,589474
AVILA GARDENS,11364,1056,509737
N.A.,16073,1493,428568
SUITES @ SHREWSBURY,18750,1742,307842
THE SPRINGFIELD,5928,551,486319
SKYSUITES17,16624,1544,329137
BISHAN PARK CONDOMINIUM,8889,826,575569
WATERFRONT ISLE,12462,1158,479262
PAVILION PARK,12009,1116,658550
SIMS GREEN,6092,566,388133
OLEANDER TOWERS,10825,1006,319772
MOULMEIN COURT,8824,820,308078
CLOVER BY THE PARK,11842,1100,573975
SKYSUITES17,14487,1346,329137
DOUBLE BAY RESIDENCES,9379,871,528719
THE SUNNY SPRING,8442,784,398074
THE PRINCETON,13663,1269,259313
ICON,20923,1944,78878
THE ESPARIS,7455,693,519462
PLATINUM EDGE,11975,1113,358847
N.A.,11312,1051,417267
ESPARINA RESIDENCES,8130,755,544814
FUYUEN COURT,7655,711,387951
YISHUN EMERALD,6894,640,768428
N.A.,13598,1263,278535
WESTCOVE CONDOMINIUM,7411,689,128044
ALTEZ,29477,2738,79717
RIVERGATE,23678,2200,238258
CHANGI RISE CONDOMINIUM,8248,766,528808
DAHLIA PARK CONDOMINIUM,8182,760,507011
N.A.,9563,888,509430
QUESTA @ DUNMAN,12804,1189,439219
THE CASCADIA,18372,1707,589660
SEMBAWANG HILLS ESTATE,14347,1333,579427
ROCCA BALESTIER,8972,834,329928
SOLEIL @ SINARAN,17816,1655,307467
THE SEAFRONT ON MEYER,16162,1501,437978
RIVER PLACE,12622,1173,169658
PRIVE,7288,677,828818
LAKEVIEW ESTATE,8333,774,574329
VALLEY PARK,15696,1458,248362
LIMAU VILLAS,9259,860,465836
SOPHIA RESIDENCE,13865,1288,228193
EVERITT EDGE,12664,1176,427800
PRIVE,5521,513,828817
COSTA DEL SOL,13992,1300,469987
LIVIA,8038,747,518215
IRESIDENCES,13407,1246,329550
THE RIVERVALE,6772,629,545125
N.A.,6662,619,779218
SOPHIA RESIDENCE,12894,1198,228196
N.A.,10452,971,429626
COSTA DEL SOL,14098,1310,469987
NORMANTON PARK,11441,1063,118999
CARIBBEAN AT KEPPEL BAY,16867,1567,98657
THE SCENIC @ BRADDELL,7811,726,359944
THE DAFFODIL,10412,967,466584
N.A.,9210,856,587995
THE GREENWOOD,11067,1028,286913
N.A.,9615,893,509431
N.A.,9563,888,509429
N.A.,9563,888,509428
N.A.,9563,888,509427
N.A.,9563,888,509425
N.A.,9615,893,509424
SOPHIA RESIDENCE,13113,1218,228196
N.A.,9563,888,509426
REGENT HEIGHTS,7296,678,659802
SAGE,34308,3187,258463
RAFFLESIA CONDOMINIUM,11261,1046,579801
SEASONS VIEW,9811,911,576150
COTE D'AZUR,12381,1150,449300
THE ANCHORAGE,12424,1154,159961
HEDGES PARK CONDOMINIUM,9935,923,506888
MEADOWLODGE,11756,1092,599717
PRISTINE HEIGHTS,10476,973,219053
KEW GREEN,5915,550,466161
BLUE HORIZON,9769,908,128046
ASTORIA PARK,10112,939,416826
BOTANNIA,12338,1146,127725
PARK INFINIA AT WEE NAM,21731,2019,308366
TAI HWAN GARDEN,11140,1035,555449
MELVILLE PARK,7191,668,529946
CITYLIGHTS,16550,1538,208749
COMPASS HEIGHTS,7857,730,545076
SERANGOON GARDEN ESTATE,8922,829,559339
THE SHELFORD,17231,1601,288534
WATER PLACE,13095,1217,436931
PAVILION 11,14261,1325,309978
THE QUARTZ,9794,910,544985
N.A.,9216,856,418790
N.A.,12456,1157,597415
SERANGOON GARDEN ESTATE,8112,754,556208
LAKEVIEW ESTATE,8133,756,574327
SUFFOLK PREMIER,13441,1249,307781
N.A.,9812,912,809429
THE MAKENA,12674,1177,437932
THE PEARL @ MOUNT FABER,10584,983,99196
AVILA GARDENS,7398,687,509735
H2O RESIDENCES,9688,900,797531
MELOSA,12350,1147,398432
THE ORANGE GROVE,24092,2238,258364
LE CONNEY PARK,9231,858,425525
JARDIN,21277,1977,589488
PATERSON SUITES,34000,3159,238550
THE TRIZON,17689,1643,276698
H2O RESIDENCES,7764,721,797531
DEVONSHIRE RESIDENCES,26194,2433,239855
SKYSUITES17,14106,1310,329137
H2O RESIDENCES,10664,991,797531
PARC OASIS,7632,709,609774
RIVERVALE CREST,7321,680,545084
HARBOUR SUITES,19749,1835,99454
DEVONSHIRE RESIDENCES,26967,2505,239855
SEASONS PARK,7742,719,787079
THE RIVERVALE,7051,655,545118
THE WATERSIDE,14673,1363,436881
QUESTA @ DUNMAN,13490,1253,439219
THE MINTON,9664,898,534071
CHANGI COURT,10385,965,486828
NORTHOAKS,7043,654,738087
BELLE VUE RESIDENCES,20930,1944,238591
ONE-NORTH RESIDENCES,13830,1285,138642
COSTA DEL SOL,11565,1074,469993
THE SHAUGHNESSY,4886,454,768375
N.A.,7960,740,399283
THE INFINITI,10814,1005,127718
LOYANG TOWNHOUSES,7056,655,509476
AMBER RESIDENCES,13991,1300,439888
THE INGLEWOOD,10861,1009,575080
BLUE HORIZON,9346,868,128047
SERANGOON GARDEN ESTATE,14796,1375,557213
H2O RESIDENCES,10713,995,797531
ESTELLA GARDENS,7736,719,509741
CARISSA PARK CONDOMINIUM,9360,870,507025
ST MARTIN RESIDENCE,23288,2163,257989
CALDECOTT HILL ESTATE,9966,926,298259
QUEENS,12378,1150,148955
LAGUNA GREEN,10020,931,468726
THE WATERSIDE,15327,1424,436896
THE SHAUGHNESSY,4580,425,768369
N.A.,9261,860,548327
NEWTON ONE,19908,1849,307943
THE STELLAR,12393,1151,126823
THE LEGEND,14591,1356,259725
SEMBAWANG HILLS ESTATE,6871,638,578216
THE FORD @ HOLLAND,20213,1878,268685
THE METROPOLITAN CONDOMINIUM,14444,1342,158746
DOVER PARKVIEW,10216,949,138685
EVERITT EDGE,12879,1196,427800
EASTPOINT GREEN,7642,710,529892
KENTISH COURT,10085,937,218816
SUNHAVEN,8025,746,486069
DEVONSHIRE RESIDENCES,27787,2581,239855
PAVILION PARK,11884,1104,658555
LOYANG GARDENS,6692,622,509379
BLU CORAL,7957,739,425603
NUOVO,7969,740,569787
VILLA MARINA,8505,790,457400
SUMMERHILL,10078,936,596229
THE ESTUARY,9419,875,769134
MELVILLE PARK,7978,741,529947
THE GREENWOOD,22333,2075,287056
THE CLIFT,21994,2043,69047
DOMAIN 21,13846,1286,169814
N.A.,11416,1061,536972
PEBBLE BAY,13899,1291,436921
PARC OASIS,8160,758,609775
N.A.,9012,837,419852
HILLVIEW GREEN,9086,844,598742
ONE AMBER,14607,1357,439957
SUNHAVEN,8824,820,486069
THE EDEN AT TAMPINES,7679,713,529239
THE SPRINGBLOOM,9628,894,556119
SELETAR HILLS ESTATE,7701,715,807041
LIVIA,9146,850,518210
THE CLIFT,21522,1999,69047
BISHAN POINT,8727,811,579653
PICARDY GARDENS,9975,927,488792
NIN RESIDENCE,12924,1201,348271
FLYNN PARK,12513,1163,117755
PARC VISTA,8857,823,649816
THE NEXUS,13535,1257,589656
FORTUNE PARK,8034,746,535131
VARSITY PARK CONDOMINIUM,11969,1112,126834
ATTITUDE AT KIM YAM,20606,1914,239319
LEONG BEE COURT,12836,1192,357769
PALM GALLERIA,11313,1051,425702
MARTINA MANSIONS,13829,1285,259710
DE LENTE,13250,1231,278547
QUESTA @ DUNMAN,14240,1323,439219
AALTO,24787,2303,437980
THE ORCHARD RESIDENCES,38267,3555,237973
MY MANHATTAN,13830,1285,529902
CASPIAN,8462,786,648315
HARBOUR SUITES,16780,1559,99454
WATERFRONT ISLE,11852,1101,479261
CABANA,6600,613,806406
THE GREENWOOD,10383,965,287095
QUESTA @ DUNMAN,14937,1388,439219
SKYSUITES@ANSON,21965,2041,79718
FERRARIA PARK CONDOMINIUM,9939,923,506944
THE SERENNIA,11736,1090,424385
NEWTON ONE,20450,1900,307943
THE CENTRIS,11791,1095,648335
LAGUNA GREEN,8443,784,468726
CASABELLA,15697,1458,266338
SUNGLADE,10435,969,556133
DUCHESS RESIDENCES,19928,1851,266312
QUEENS,11892,1105,148957
SANTA FE MANSIONS,9850,915,438073
AQUARIUS BY THE PARK,8333,774,478934
SKYSUITES@ANSON,22666,2106,79718
N.A.,1638,152,218924
URBANA,20986,1950,238427
WATERVIEW,9877,918,529780
MY MANHATTAN,12989,1207,529901
COSTA DEL SOL,10221,950,469987
WOODSVALE,6667,619,738093
THE SHORE RESIDENCES,14592,1356,439895
WATERVIEW,9552,887,528686
H2O RESIDENCES,9653,897,797534
THE RAINTREE,11909,1106,587845
N.A.,13046,1212,276624
ZEPHYR PARK,8637,802,487539
BOTANNIA,11837,1100,127722
JERSEY LODGE,9213,856,423491
VARSITY PARK CONDOMINIUM,9390,872,127447
POETS VILLAS,6948,645,786277
THE SUMMIT,10143,942,466504
THE SAIL @ MARINA BAY,19168,1781,18987
ASTORIA PARK,9009,837,416826
THE TANAMERA,9432,876,466664
N.A.,9410,874,534469
NUOVO,8045,747,569788
THE WARREN,8087,751,689682
THE ACACIAS,11667,1084,358246
N.A.,13903,1292,279291
N.A.,17209,1599,287239
KENTISH GREEN,9402,873,218815
SCOTTS 28,24224,2250,228223
NORTHOAKS,6293,585,738081
PARKWAY VIEW,11091,1030,449265
PARKVIEW APARTMENTS,7548,701,658880
N.A.,9424,875,678715
THE BELVEDERE,14844,1379,437874
ALEXIS,15385,1429,159949
CENTRAL GROVE,9298,864,389778
CENTRAL GROVE,7828,727,389779
N.A.,7479,695,558521
WATERFRONT KEY,10175,945,479251
TANGERINE GROVE,10523,978,536019
PALM SPRING,14663,1362,259328
THE WILSHIRE,8281,769,268828
THE CASCADIA,16463,1529,589641
N.A.,11139,1035,419755
SKY SCRAPER,13750,1277,229623
TANGLIN RESIDENCES,21645,2011,258004
MONTROSA,8540,793,669597
SKYSUITES@ANSON,26123,2427,79718
LOYANG VALLEY,6014,559,509058
TIERRA VUE,12330,1145,424163
ONE SHENTON,20561,1910,68803
CLEMENTI PARK,9440,877,597158
WOODSVALE,6825,634,738094
MAYSPRINGS,7271,676,678265
TREVOSE PARK,13816,1284,298069
HILLCREST ARCADIA,11515,1070,289851
THE AZURE,23137,2149,98584
ALESSANDREA,11961,1111,159967
N.A.,12230,1136,128150
DEVONSHIRE RESIDENCES,28466,2645,239855
LAKESIDE GROVE,9194,854,618439
H2O RESIDENCES,9770,908,797534
D'LEEDON,16365,1520,267955
SUNCOTTAGES,8618,801,677733
SERANGOON GARDEN ESTATE,11739,1091,559049
SOLEIL @ SINARAN,17277,1605,307467
SUNGLADE,9895,919,556135
QUESTA @ DUNMAN,13871,1289,439219
HAIG COURT,11701,1087,438795
ALEXIS,15408,1431,159949
GARDENVISTA,11321,1052,589487
JARDIN,21211,1971,589488
PARC ELEGANCE,13333,1239,423912
PRIVE,7237,672,828817
THE CANOPY,6736,626,768862
LINCOLN SUITES,20813,1934,308381
WATERFRONT KEY,11843,1100,479250
H2O RESIDENCES,10614,986,797534
SKYSUITES17,14578,1354,329137
PARBURY HILL CONDOMINIUM,11373,1057,467298
ASCENTIA SKY,13609,1264,158748
THE SHORE RESIDENCES,15542,1444,439897
QUESTA @ DUNMAN,13649,1268,439219
DEVONSHIRE RESIDENCES,28098,2610,239855
GLENDALE PARK,9635,895,669617
QUESTA @ DUNMAN,15033,1397,439219
QUESTA @ DUNMAN,13459,1250,439219
SKYSUITES@ANSON,21977,2042,79718
N.A.,8009,744,427955
SYMPHONY HEIGHTS,9935,923,598737
THE TRIZON,17330,1610,276697
ALEXIS,15638,1453,159949
DEVONSHIRE RESIDENCES,27333,2539,239855
SUNSHINE REGENCY,13333,1239,424331
N.A.,11429,1062,536060
THE CASCADIA,15176,1410,589642
QUESTA @ DUNMAN,13349,1240,439219
QUESTA @ DUNMAN,15140,1407,439219
QUESTA @ DUNMAN,13737,1276,439219
LUSH ON HOLLAND HILL,16350,1519,278737
THE INTERLACE,13656,1269,109686
PARC VISTA,8163,758,649810
QUEENS,12595,1170,148955
QUESTA @ DUNMAN,14026,1303,439219
ALTEZ,25697,2387,79717
PARKVIEW APARTMENTS,7548,701,658882
COSTA DEL SOL,12131,1127,469986
PRESTIGE HEIGHTS,15571,1447,329778
N.A.,11629,1080,429222
SUITES @ EASTCOAST,15630,1452,455273
N.A.,9200,855,438815
MATLOCK RESIDENCES,5773,536,358566
SUNVILLE,9234,858,327981
MERAWOODS,9237,858,669598
NUOVO,6821,634,569788
N.A.,17112,1590,269937
PEACH GARDEN,10506,976,437606
SKYSUITES@ANSON,23765,2208,79718
THE SPINNAKER,9474,880,307788
SKYSUITES@ANSON,23188,2154,79718
ROSYTH VILLE,9021,838,546134
THE DAFFODIL,10515,977,466584
RIVER PLACE,13469,1251,169658
THE ESTUARY,9098,845,769139
WATER PLACE,12857,1194,436607
FOREST HILLS CONDOMINIUM,6930,644,778905
LIVIA,10353,962,518209
SHELFORD REGENCY,13461,1251,288455
CASAFINA,8137,756,469336
QUEENS,12072,1122,148957
THE EDGEWATER,8495,789,509504
VILLA MARINA,8276,769,457402
PARK GREEN,7880,732,545040
THE HELICONIA,8852,822,419572
SIGNATURE PARK,9796,910,596748
THE SUNNY SPRING,8136,756,398074
CASABLANCA,7636,709,737918
RIS GRANDEUR,6373,592,519933
CHANTILLY RISE,7888,733,669581
EVERGREEN PARK,7200,669,538802
THE CAPE,21733,2019,439872
MI CASA,7453,692,689864
D'PAVILION,11817,1098,534671
CASUARINA COVE,11008,1023,436904
TRILIGHT,21262,1975,307945
THE GREENWICH,16070,1493,807013
SKYSUITES@ANSON,21941,2038,79718
FRANKEL ESTATE,12200,1133,456229
THE RIVERVALE,6876,639,545118
THE GREENWOOD,11353,1055,286870
MACKENZIE MANSIONS,15460,1436,228714
PARRY PARK,10783,1002,547034
D'LEEDON,18839,1750,267955
PINEVALE,6744,627,528827
CHUAN PARK,9099,845,556747
THE SHORE RESIDENCES,16268,1511,439897
MANILA GARDENS,13301,1236,455368
THE CANOPY,6594,613,768865
H2O RESIDENCES,11188,1039,797534
SKYSUITES@ANSON,21891,2034,79718
H2O RESIDENCES,10464,972,797534
H2O RESIDENCES,11949,1110,797532
THE AMERY,12031,1118,425781
H2O RESIDENCES,10162,944,797533
H2O RESIDENCES,10674,992,797534
FLORIDIAN,19375,1800,589662
H2O RESIDENCES,11168,1038,797531
ONE OXLEY RISE,18431,1712,238714
H2O RESIDENCES,10106,939,797532
H2O RESIDENCES,9552,887,797532
MELOSA,12644,1175,398432
CARISSA PARK CONDOMINIUM,8165,759,507025
QUESTA @ DUNMAN,16125,1498,439219
AQUARIUS BY THE PARK,7669,712,478933
TREVISTA,11625,1080,319581
SKYSUITES@ANSON,21819,2027,79718
SKYSUITES@ANSON,23911,2221,79718
SKYSUITES@ANSON,21547,2002,79718
WATERFRONT ISLE,12115,1125,479262
QUESTA @ DUNMAN,13834,1285,439219
QUESTA @ DUNMAN,15980,1485,439219
H2O RESIDENCES,9995,929,797531
YISHUN EMERALD,7474,694,768431
THE BAYSHORE,9450,878,469971
GEMINI APARTMENTS,7373,685,457263
ASCENTIA SKY,16789,1560,158748
KILLINEY 118,23358,2170,239555
THE LAKEFRONT RESIDENCES,14507,1348,648305
MELOSA,12417,1154,398432
SKYSUITES@ANSON,24422,2269,79718
SKYSUITES@ANSON,24543,2280,79718
SELETAR HILLS ESTATE,10950,1017,809365
WATER PLACE,14286,1327,436932
CHEPSTOW VILLE,6731,625,558697
H2O RESIDENCES,10244,952,797533
HILLTOP GROVE,6580,611,669621
NIN RESIDENCE,12821,1191,348271
SPRINGDALE CONDOMINIUM,10286,956,587978
THE PEAK@BALMEG,13864,1288,119915
H2O RESIDENCES,10589,984,797530
MARTIN PLACE RESIDENCES,19538,1815,237988
SPRINGHILL,4929,458,757616
H2O RESIDENCES,7500,697,797534
H2O RESIDENCES,9824,913,797534
QUESTA @ DUNMAN,14198,1319,439219
PRESTIGE HEIGHTS,16113,1497,329778
THE VERTE,9783,909,426146
PARADISE PALMS,11570,1075,439198
RAFFLESIA CONDOMINIUM,10631,988,579800
MERAWOODS,8240,766,669606
KERRISDALE,10761,1000,207852
THE SUNNY SPRING,8687,807,398074
N.A.,11869,1103,418750
SKYSUITES@ANSON,21785,2024,79718
YONG AN PARK,13302,1236,238361
CENTRAL GREEN CONDOMINIUM,11654,1083,169481
CHANGI GREEN,10714,995,486847
EMERALD GARDEN,16279,1512,69415
SOPHIA RESIDENCE,17444,1621,228194
BUTTERWORTH 8,10000,929,439422
ONE AMBER,14074,1308,439958
CHANGI RISE CONDOMINIUM,8737,812,528801
REGENTVILLE,7421,689,538688
LENTOR VILLAS,8876,825,786779
NEWTON EDGE,17846,1658,228598
SKYSUITES@ANSON,22076,2051,79718
KOVAN RESIDENCES,11303,1050,544917
ONE-NORTH RESIDENCES,15455,1436,138642
EASTSIDE LOFT,10411,967,437154
EAST MEADOWS,9783,909,465560
N.A.,4819,448,507520
GRANDEUR 8,9333,867,567743
CITYLIGHTS,17460,1622,208747
SKYSUITES@ANSON,21284,1977,79718
N.A.,9830,913,488496
SELETAR SPRINGS CONDOMINIUM,7241,673,798595
EMERALD PARK,10926,1015,169586
NOVENA COURT,12375,1150,308609
H2O RESIDENCES,10203,948,797532
AUSTVILLE RESIDENCES,8262,768,544810
H2O RESIDENCES,9883,918,797531
SUNFLOWER LODGE,8211,763,398207
QUESTA @ DUNMAN,14725,1368,439219
H2O RESIDENCES,10279,955,797534
QUESTA @ DUNMAN,15085,1401,439219
SKYSUITES@ANSON,21941,2038,79718
QUESTA @ DUNMAN,14547,1351,439219
CASA AERATA,11444,1063,398484
PRIVE,7757,721,828817
H2O RESIDENCES,10510,976,797533
DEVONSHIRE RESIDENCES,26709,2481,239855
BULLION PARK,8442,784,789099
THE BAYSHORE,10213,949,469972
H2O RESIDENCES,9217,856,797534
WATERFRONT ISLE,11955,1111,479262
QUESTA @ DUNMAN,16068,1493,439219
DEVONSHIRE RESIDENCES,28313,2630,239855
N.A.,9727,904,548710
H2O RESIDENCES,11004,1022,797534
N.A.,15830,1471,276973
H2O RESIDENCES,11142,1035,797534
THE LAKESHORE,10874,1010,649412
N.A.,10231,951,488264
PANDAN VALLEY,11639,1081,597628
NORMANTON PARK,11017,1023,118999
DEVONSHIRE RESIDENCES,28959,2690,239855
THE SEAFRONT ON MEYER,22752,2114,437878
PARC MONDRIAN,9281,862,357916
SELETAR HILLS ESTATE,7731,718,807760
EMERALD GARDEN,15043,1398,69415
RICHMOND VILLE,10908,1013,465920
CASA MERAH,11316,1051,465527
KEMBANGAN SUITES,15513,1441,418941
VACANZA @ EAST,11641,1081,417396
MI CASA,9094,845,689863
AVILA GARDENS,7805,725,509734
H2O RESIDENCES,9989,928,797534
H2O RESIDENCES,10055,934,797531
SKYSUITES@ANSON,23935,2224,79718
WATERVIEW,9838,914,529781
H2O RESIDENCES,10295,956,797533
DOMAIN 21,13697,1273,169813
THE STERLING,13072,1214,596289
H2O RESIDENCES,9663,898,797532
N.A.,11297,1050,327962
H2O RESIDENCES,10163,944,797534
PRIVE,6951,646,828809
ZEDGE,17071,1586,309973
H2O RESIDENCES,10101,938,797534
H2O RESIDENCES,12183,1132,797532
THE CASCADIA,15843,1472,589641
THE TENNERY,13563,1260,677728
QUEENS,11261,1046,148957
PARC VISTA,7448,692,649813
CENTRAL GREEN CONDOMINIUM,12727,1182,169483
THE TENNERY,13728,1275,677728
WESTVILLE,7565,703,648376
CASA ROSA,7752,720,536445
HUME PARK I,8071,750,598723
MELROSE PARK,16833,1564,248904
THE LINCOLN MODERN,15141,1407,308353
RIO VISTA,8047,748,534202
SHELFORD REGENCY,12605,1171,288455
THE ABERDEEN,8985,835,329023
THE WATERSIDE,17188,1597,436882
VARSITY PARK CONDOMINIUM,11124,1033,127451
SKYSUITES@ANSON,21838,2029,79718
SUNHAVEN,8889,826,486069
BLUE HORIZON,9907,920,128048
MIRAGE TOWER,16685,1550,239426
LAGUNA 88,6507,605,486356
HERITAGE VIEW,10776,1001,138680
WESTMERE,7759,721,609653
CASABLANCA,8029,746,737920
DOUBLE BAY RESIDENCES,9025,838,528714
THE MORNINGSIDE,14793,1374,239639
AKYAB APARTMENTS,10588,984,309972
THE BERTH BY THE COVE,17756,1650,98622
THE RIVERSIDE PIAZZA,12373,1149,59608
SKYSUITES@ANSON,21189,1969,79718
ASPEN HEIGHTS,17073,1586,238307
H2O RESIDENCES,10885,1011,797531
KOVAN RESIDENCES,11538,1072,544917
D'LEEDON,16396,1523,267955
SPRINGDALE CONDOMINIUM,11028,1025,587977
QUESTA @ DUNMAN,14865,1381,439219
EUNOSVILLE,6378,593,400830
N.A.,8046,747,547284
THE LAKEFRONT RESIDENCES,13881,1290,648305
N.A.,19524,1814,287673
THE SENSORIA,8380,779,758930
H2O RESIDENCES,10648,989,797534
FERRARIA PARK CONDOMINIUM,10000,929,506944
CHESTERVALE,6115,568,679974
H2O RESIDENCES,9604,892,797532
D'LEEDON,16679,1549,266224
D'LEEDON,16877,1568,267955
TAI HWAN PARK,11539,1072,555597
THE INTERLACE,11479,1066,109699
CABANA,6754,627,805357
THE MARQUE @ IRRAWADDY,11767,1093,328108
PARC ELEGANCE,13690,1272,423912
THE LAKESHORE,10280,955,649412
WATERFRONT GOLD,9758,907,479259
DEVONSHIRE RESIDENCES,26063,2421,239855
SKYSUITES@ANSON,23294,2164,79718
H2O RESIDENCES,9632,895,797531
N.A.,9346,868,467628
MELVILLE PARK,7888,733,529947
OCEAN PARK,13138,1221,458970
H2O RESIDENCES,11614,1079,797532
PARC ELEGANCE,12905,1199,423912
THE SHORE RESIDENCES,15683,1457,439893
THE CENTRIS,11515,1070,648336
H2O RESIDENCES,8476,787,797534
THE CAPE,20750,1928,439872
THE CAPE,20532,1907,439872
WATERFRONT GOLD,8950,831,479259
H2O RESIDENCES,10541,979,797530
PALM MANSIONS,9593,891,118684
SKYSUITES@ANSON,24618,2287,79718
ONE SHENTON,21852,2030,68803
PARC HAVEN,10766,1000,328743
THE GALE,8611,800,506912
HILLCREST ARCADIA,10588,984,289851
THE MONTAGE,10980,1020,425342
OASIS @ MULBERRY,15379,1429,349943
SKYSUITES@ANSON,21585,2005,79718
SEASONS PARK,6800,632,787078
H2O RESIDENCES,9864,916,797531
SKYSUITES@ANSON,21774,2023,79718
AQUARIUS BY THE PARK,7586,705,478931
SEASONS VIEW,9434,876,576150
SUITES @ EASTCOAST,15451,1435,455275
OKIO,15763,1464,329714
OKIO,14762,1371,329714
PARKVIEW APARTMENTS,7163,666,658882
FAR HORIZON GARDENS,7178,667,569763
SUNFLOWER COURT,6075,564,399182
N.A.,14286,1327,579117
N.A.,23016,2138,423652
CITY SQUARE RESIDENCES,15641,1453,207227
HOUGANG GREEN,9169,852,539748
WATERFRONT WAVES,9066,842,479248
FUDU PARK,8827,820,789196
ELIAS GREEN,6389,594,519959
THE TREVOSE,12458,1157,298090
SAM KIANG MANSIONS,16786,1559,238108
THE SPRINGSIDE,13257,1232,786445
N.A.,9589,891,428015
THE ROCHESTER,14641,1360,138638
RAFFLESIA CONDOMINIUM,9400,873,579800
PARC ELEGANCE,11933,1109,423912
THE JADE,9315,865,658074
SUITES @ EASTCOAST,15722,1461,455277
LENGKONG COURT,9697,901,417642
N.A.,9864,916,549828
SELETAR SPRINGS CONDOMINIUM,7031,653,798592
AMARYLLIS VILLE,17508,1627,307990
SKYSUITES@ANSON,23241,2159,79718
HOMEY GARDENS,9375,871,425283
KOVAN MELODY,10517,977,548191
H2O RESIDENCES,9936,923,797534
D'LEEDON,17105,1589,267955
CENTRAL GREEN CONDOMINIUM,12042,1119,169479
KENTISH GREEN,9068,842,218815
ARTHUR 118,14036,1304,439827
SUITES @ EASTCOAST,14700,1366,455275
DEVONSHIRE RESIDENCES,21613,2008,239855
THE MINTON,9496,882,534073
CHANGI RISE CONDOMINIUM,8632,802,528811
SKYSUITES@ANSON,22038,2047,79718
MANDARIN GARDEN CONDOMINIUM,9709,902,448909
LENGKONG COURT,8743,812,417644
LENGKONG COURT,9467,880,417644
TOWNHOUSE APARTMENTS,9420,875,229627
DEVONSHIRE RESIDENCES,26819,2492,239855
WATER PLACE,12389,1151,436932
SUMMERDALE,5484,509,649928
FERRARIA PARK CONDOMINIUM,9213,856,506943
THE SEA VIEW,16122,1498,439943
N.A.,16110,1497,388296
GUILIN VIEW,8875,825,659247
CLOVER BY THE PARK,9907,920,573975
THE GREENWICH,11576,1075,807012
THE AMERY,11081,1029,425781
THE COSMOPOLITAN,20237,1880,239496
THE METZ,25842,2401,239864
N.A.,21610,2008,427228
VILLAGE TOWER,14815,1376,276955
CHIP THYE GARDEN,9398,873,568054
LENGKONG COURT,8743,812,417645
LENGKONG COURT,9697,901,417645
THE PLAZA,13067,1214,199591
BALLOTA PARK CONDOMINIUM,6828,634,507083
GRANDE VISTA,8435,784,809694
HILLVIEW HEIGHTS,9538,886,669562
NOVENA LODGE,13647,1268,308729
LENGKONG COURT,8743,812,417643
LENGKONG COURT,9467,880,417643
LENGKONG COURT,8743,812,417642
GLENDALE PARK,10345,961,669557
THE SEAFRONT ON MEYER,19911,1850,437880
RADIX,8143,756,428228
N.A.,9851,915,369767
STRATFORD COURT,7120,661,489929
LOYANG VILLAS,8187,761,507443
HERITAGE VIEW,11300,1050,138678
GRANGE RESIDENCES,29271,2719,249616
REGENCY SUITES,15341,1425,169279
WINDERMERE,6975,648,689099
DEVONSHIRE RESIDENCES,25807,2397,239855
THE PARC CONDOMINIUM,12374,1150,127161
BOTANNIA,12338,1146,127649
THE SOVEREIGN,15837,1471,437920
TEXTILE CENTRE,8049,748,199018
DEVONSHIRE RESIDENCES,26334,2446,239855
TAI KENG VILLAS,7731,718,534301
8@WOODLEIGH,14189,1318,357902
ST MICHAEL REGENCY,10388,965,328008
THE LAKEFRONT RESIDENCES,12337,1146,648324
KELLETT COURT,11875,1103,288411
OLEANDER TOWERS,10875,1010,319772
JEWEL @ CHUAN HOE,4737,440,549863
N.A.,10659,990,425141
THE LAKEFRONT RESIDENCES,11147,1036,648305
DUNMAN VIEW,10720,996,438798
GLENDALE PARK,10172,945,669617
BUKIT REGENCY,7887,733,588132
SKYSUITES@ANSON,26780,2488,79718
AUSTVILLE RESIDENCES,8000,743,544808
THE LAURELS,31765,2951,229660
NV RESIDENCES,9511,884,518191
MELOSA,12524,1164,398432
WATERVIEW,9247,859,529780
QUESTA @ DUNMAN,12480,1159,439219
MELOSA,12818,1191,398432
SELETARIS,6830,635,757706
HARBOUR SUITES,16241,1509,99454
QUESTA @ DUNMAN,13544,1258,439219
SKYSUITES@ANSON,23374,2171,79718
HORIZON TOWER,11934,1109,239194
SPOTTISWOODE RESIDENCES,21607,2007,88660
SPOTTISWOODE 18,24444,2271,88642
HILLVIEW REGENCY,9107,846,659921
THE LAKESHORE,10872,1010,649413
MELOSA,12437,1155,398432
QUESTA @ DUNMAN,13641,1267,439219
THE SUNNY SPRING,8391,780,398074
THE CANOPY,7202,669,768863
EAST COAST RESIDENCES,11687,1086,466488
THE QUARTZ,9291,863,544988
ROSE VILLE,9730,904,437384
MANDARIN GARDEN CONDOMINIUM,11429,1062,448908
QUESTA @ DUNMAN,15195,1412,439219
HILLVIEW REGENCY,9048,841,659920
QUESTA @ DUNMAN,13376,1243,439219
THE SHORE RESIDENCES,15555,1445,439895
H2O RESIDENCES,7558,702,797530
SKYSUITES@ANSON,21624,2009,79718
HILLVIEW REGENCY,8929,829,659920
ISLAND COUNTRY VILLAS,8036,747,574077
PRIVE,7586,705,828809
RAFFLESIA CONDOMINIUM,9250,859,579801
TANGLIN VIEW,13362,1241,159015
VISIONCREST,21905,2035,238711
SAM KIANG MANSIONS,16134,1499,238108
QUESTA @ DUNMAN,16260,1511,439219
NEWTON ONE,17115,1590,307943
N.A.,7484,695,509888
COTE D'AZUR,11168,1038,449301
PRIVE,7639,710,828809
WESTMERE,7608,707,609652
N.A.,8472,787,538227
SHANGHAI ONE,16162,1501,248180
NOVA 88,12447,1156,329640
LE CONNEY PARK,9471,880,425525
ROSEWOOD,7766,721,737935
H2O RESIDENCES,10208,948,797530
THE LAKEFRONT RESIDENCES,12758,1185,648324
OASIS @ ELIAS,8187,761,519939
KEW GREEN,6165,573,466179
H2O RESIDENCES,10410,967,797530
VISTA RESIDENCES,14054,1306,329425
COSTA RHU,13467,1251,437434
THE SPINNAKER,13559,1260,307788
THE CAPE,22061,2049,439872
DAKOTA RESIDENCES,14000,1301,399938
AMARANDA GARDENS,11691,1086,554774
MARTIN PLACE RESIDENCES,18519,1720,237988
TANGLIN REGENCY,12816,1191,247966
MARTIN PLACE RESIDENCES,22364,2078,237988
OPERA ESTATE,10671,991,457819
SUNNY PALMS,6055,563,426323
PALM HAVEN,6047,562,547312
CHESTNUT VILLE,8290,770,678622
THE CALYPSO,7614,707,465540
CITY SQUARE RESIDENCES,15654,1454,207226
HAIG ELEVEN,9925,922,438866
THE FLORIDA,7417,689,538807
EVERGREEN PARK,6966,647,538802
MILL POINT,14065,1307,247811
THE BAYSHORE,10213,949,469972
THE RAINTREE,10849,1008,587850
AZALEA PARK CONDOMINIUM,6926,643,509726
N.A.,9506,883,457383
RIDGEWOOD,11765,1093,276694
CORAL PARK,10189,947,575990
REGENT HEIGHTS,7615,707,659804
CITY SQUARE RESIDENCES,17547,1630,207227
N.A.,7619,708,398890
8 NAPIER,32291,3000,258502
N.A.,11458,1065,589825
THE LINEAR,8621,801,678210
TREVISTA,11765,1093,319582
GAMBIER COURT,13369,1242,239381
KENSINGTON PARK CONDOMINIUM,9740,905,557325
BLU CORAL,8605,799,425562
THE SHORE RESIDENCES,14878,1382,439893
N.A.,18011,1673,269295
THE CANOPY,7321,680,768864
THE BEACON,15173,1410,89775
SIMEI GREEN CONDOMINIUM,7550,701,529861
WATERFRONT KEY,10517,977,479254
CENTRAL GROVE,8772,815,389778
N.A.,18868,1753,238770
N.A.,8656,804,425902
N.A.,12115,1126,757240
WESTVILLE,5481,509,648535
N.A.,13063,1214,288422
BULLION PARK,10067,935,789096
THE IMPERIAL,20181,1875,239619
HILLVIEW HEIGHTS,10000,929,669562
H2O RESIDENCES,9833,913,797532
MELVILLE PARK,7109,660,529945
REGENT HEIGHTS,8263,768,659801
CASABLANCA,8239,765,737919
THE HELICONIA,9120,847,419572
ASPEN HEIGHTS,16585,1541,238307
THREE THREE ROBIN,15367,1428,258208
CLOVER BY THE PARK,11043,1026,573975
THE SUNNY SPRING,8255,767,398074
CANBERRA RESIDENCES,8954,832,768133
EVERGREEN PARK,7431,690,538802
CASABLANCA,7933,737,737917
NV RESIDENCES,9001,836,518194
OLEANDER TOWERS,9673,899,319771
VACANZA @ EAST,14311,1330,417396
MELVILLE PARK,6756,628,529945
CHESTERVALE,6044,561,679973
AA CENTRE,20351,1891,238366
SPOTTISWOODE 18,17213,1599,88642
SKYSUITES@ANSON,27287,2535,79718
CLOVER BY THE PARK,10140,942,573973
THE BELVEDERE,15957,1482,437876
THE EDEN AT TAMPINES,7000,650,529233
CHANGI RISE CONDOMINIUM,8193,761,528805
MI CASA,7549,701,689864
H2O RESIDENCES,9902,920,797532
BRADDELL VIEW,7722,717,579725
ST THOMAS LODGE,23171,2153,238112
AMARYLLIS VILLE,13826,1284,307990
NEWTON 18,19585,1819,307989
AMBER RESIDENCES,14610,1357,439888
THE BEVERLY,9091,845,596720
QUESTA @ DUNMAN,13289,1235,439219
HILLBROOKS,8578,797,669592
ESTELLA GARDENS,7500,697,509739
DEVONSHIRE RESIDENCES,26215,2435,239855
N.A.,8459,786,417297
DEVONSHIRE RESIDENCES,28528,2650,239855
THE MAKENA,13469,1251,437936
NOVENA SUITES,17230,1601,308107
CRESCENDO PARK,9767,907,457269
NIM GARDENS,7412,689,807585
THE FORD @ HOLLAND,18947,1760,268685
THE GREENWICH,12715,1181,807017
THE CANOPY,6670,620,768861
COSTA RHU,14806,1375,437436
THE LAKEFRONT RESIDENCES,11930,1108,648305
THE MADEIRA,8362,777,659445
BUKIT REGENCY,9967,926,588137
PARKVIEW APARTMENTS,8033,746,658882
N.A.,12115,1126,757242
THE ARTE,12184,1132,329216
QUESTA @ DUNMAN,14165,1316,439219
LOYANG COURT,5646,525,509511
THE SAIL @ MARINA BAY,27151,2522,18987
N.A.,13132,1220,574826
THE MONTAGE,10748,998,425342
PALM GARDENS,7080,658,689049
NASSIM PARK RESIDENCES,37674,3500,258461
DOMAIN 21,14634,1360,169813
SURIN VILLAS,5368,499,534067
MELOSA,12921,1200,398432
THE CASCADIA,15333,1425,589641
N.A.,8439,784,548365
ORCHID PARK CONDOMINIUM,6370,592,768445
N.A.,8636,802,799180
QUESTA @ DUNMAN,13611,1264,439219
THE NEXUS,13414,1246,589655
CHILTERN PARK,8248,766,556114
FLORIDIAN,18718,1739,589662
CHANGI RISE CONDOMINIUM,6468,601,528804
QUESTA @ DUNMAN,13653,1268,439219
THOMSON 800,13775,1280,298189
H2O RESIDENCES,8854,823,797534
THE GALE,9127,848,506916
SUNCOTTAGES,9183,853,679813
WATERFRONT ISLE,10943,1017,479261
WATERFRONT ISLE,10732,997,479261
THE WARREN,7299,678,689682
VACANZA @ EAST,12269,1140,417396
PRIVE,7438,691,828816
WATERFRONT ISLE,11006,1022,479261
N.A.,11143,1035,757255
QUESTA @ DUNMAN,13553,1259,439219
CARIBBEAN AT KEPPEL BAY,17993,1672,98652
THE BAYSHORE,9744,905,469976
PRIVE,7094,659,828818
SKYSUITES@ANSON,24785,2303,79718
OLA RESIDENCES,13583,1262,437831
CHERRYHILL,8409,781,536469
WATERFRONT WAVES,11417,1061,479245
D'LEEDON,16465,1530,267955
H2O RESIDENCES,9774,908,797532
CARISSA PARK CONDOMINIUM,7712,717,507027
QUESTA @ DUNMAN,16175,1503,439219
WATERFRONT ISLE,11049,1027,479261
WING FONG COURT,6414,596,398922
FLAMINGO VALLEY,13500,1254,455939
FLAMINGO VALLEY,13482,1252,454852
COMPASS HEIGHTS,8604,799,545076
HILLBROOKS,10692,993,669610
ALEXIS,18056,1677,159949
CAIRNHILL CREST,23224,2158,229811
CLOVER BY THE PARK,11933,1109,573973
THE PETALS,7881,732,669625
PRIVE,7774,722,828809
QUESTA @ DUNMAN,13456,1250,439219
JARDIN,20956,1947,589488
AVILA GARDENS,7314,679,509732
THE GREENWOOD,10549,980,286926
SIGNATURE PARK,9323,866,596743
SKY@ELEVEN,16667,1548,297724
CHILTERN PARK,9886,918,556114
NOUVELLE PARK,7534,700,546685
NORTHVALE,4781,444,689670
CAMELOT BY-THE-WATER,14412,1339,436928
PRESTIGE HEIGHTS,15681,1457,329778
H2O RESIDENCES,10165,944,797531
H2O RESIDENCES,9257,860,797534
BEAVERTON COURT,15000,1394,276958
WEST COAST GARDENS,9675,899,127768
THE CASCADIA,16902,1570,589660
NEWTON ONE,18026,1675,307943
PARKWAY MANSION,13609,1264,439854
SELETAR HILLS ESTATE,8237,765,807607
PARC ELEGANCE,14000,1301,423912
NASSIM PARK RESIDENCES,36949,3433,258386
ONE-NORTH RESIDENCES,16786,1559,138643
BELMOND GREEN,15700,1459,259818
GUILIN VIEW,9125,848,659245
SAVANNAH CONDOPARK,8553,795,528795
THE CAPE,22739,2113,439872
AUSTVILLE RESIDENCES,8206,762,544810
WATERVIEW,9391,872,528691
ODEON KATONG SHOPPING COMPLEX,11395,1059,428722
LIVIA,10176,945,518206
KOVAN RESIDENCES,12171,1131,544916
QUESTA @ DUNMAN,15625,1452,439219
THE WATERLINE,8441,784,546694
THE COSMOPOLITAN,20452,1900,239496
THE WARREN,8435,784,689682
SUITES @ EASTCOAST,15772,1465,455277
NEWTON EDGE,18114,1683,228598
THE ARCADIA,14203,1319,289844
TANGLIN REGENCY,11845,1100,247966
THE BELVEDERE,18083,1680,437874
THE TENNERY,12895,1198,677728
THE SHORE RESIDENCES,15367,1428,439895
VIBES @ KOVAN,12059,1120,548178
HOMEY GARDENS,9688,900,425283
NUOVO,7987,742,569787
HUME PARK II,9052,841,598729
WATERFRONT ISLE,10688,993,479264
HILLCREST VILLA,10540,979,286716
QUESTA @ DUNMAN,15303,1422,439219
MY MANHATTAN,15435,1434,529902
THE LAKEFRONT RESIDENCES,13727,1275,648305
THE TENNERY,13254,1231,677728
THE INTERLACE,12768,1186,109697
CHANTILLY RISE,9716,903,669581
GISBORNE LIGHT,12087,1123,259330
AALTO,21596,2006,437980
AALTO,22278,2070,437980
THE EDEN AT TAMPINES,6812,633,529235
CLOVER BY THE PARK,13897,1291,573975
PRIVE,5521,513,828817
SHERWOOD TOWER,6545,608,588998
8@WOODLEIGH,10843,1007,357900
SKYPARK,19396,1802,238107
AZALEA PARK CONDOMINIUM,8831,820,509727
KEMAMAN POINT,10725,996,329325
AALTO,22278,2070,437980
THE RIVERINA,7477,695,518257
FLORIDIAN,19650,1826,589662
SKYSUITES@ANSON,23479,2181,79718
DEVONSHIRE RESIDENCES,26365,2449,239855
VALLEY PARK,14286,1327,248358
ST MICHAEL REGENCY,10281,955,328008
SUNFLOWER VIEW,7684,714,398162
THE GARDENS AT BISHAN,8929,829,575575
QUESTA @ DUNMAN,13655,1269,439219
THE RIVERVALE,6992,650,545125
QUESTA @ DUNMAN,15080,1401,439219
THE CASCADIA,15662,1455,589643
KERRISDALE,10652,990,207855
LENTOR VIEW,9783,909,789012
QUESTA @ DUNMAN,16455,1529,439219
THE AMERY,10913,1014,425781
THE INTERLACE,13221,1228,109703
N.A.,9091,845,425452
WATERFRONT WAVES,9355,869,479249
SHERWOOD TOWER,6456,600,588996
CABANA,6979,648,805347
WATERFRONT KEY,9610,893,479254
VISTA RESIDENCES,15350,1426,329425
COSTA DEL SOL,12591,1170,469988
ELIAS GREEN,5987,556,519959
SOLEIL @ SINARAN,17005,1580,307467
ILLUMINAIRE ON DEVONSHIRE,25302,2351,239900
ORCHID PARK CONDOMINIUM,7640,710,768453
H2O RESIDENCES,10907,1013,797531
KASTURINA LODGE,14857,1380,248969
THE METROPOLITAN CONDOMINIUM,12769,1186,158747
GRANDEUR 8,9658,897,567747
NEPTUNE COURT,8220,764,449032
SILVERSEA,16010,1487,449305
THE LAKEFRONT RESIDENCES,12895,1198,648324
QUEENS,12432,1155,148957
MOUNTBATTEN LODGE,15541,1444,437745
SUMMERHILL,7921,736,596230
SUNSHINE GROVE,8392,780,537972
N.A.,9897,919,269895
QUESTA @ DUNMAN,13746,1277,439219
QUESTA @ DUNMAN,16368,1521,439219
THE BEACON EDGE,13111,1218,423728
THE TROPICA,8108,753,529771
COSTA RHU,9259,860,437433
LOFT @ STEVENS,20995,1950,257856
ST MICHAEL REGENCY,10065,935,328008
PARKSHORE,12520,1163,436917
SAVANNAH CONDOPARK,8519,791,528780
LA DOLCE VITA,10433,969,534955
THE SAIL @ MARINA BAY,32727,3040,18987
CORAL PARK,9259,860,576060
DEVONSHIRE RESIDENCES,26991,2508,239855
THE ESPARIS,7179,667,519459
DUCHESS RESIDENCES,19463,1808,266312
H2O RESIDENCES,10148,943,797531
SOLEIL @ SINARAN,14831,1378,307467
H2O RESIDENCES,10263,953,797532
QUESTA @ DUNMAN,14616,1358,439219
QUESTA @ DUNMAN,13461,1251,439219
THE FLORAVALE,6565,610,648351
GOODLUCK GARDEN,9177,853,596714
HILLVIEW REGENCY,7670,713,659920
RIDGEWOOD,12037,1118,277113
AUSTVILLE RESIDENCES,7600,706,544809
SUITES DE LAUREL,15605,1450,588997
THE GARDENS AT BISHAN,9578,890,575577
YEW MEI GREEN,6825,634,689575
THE AMERY,11984,1113,425781
DEVONSHIRE RESIDENCES,26817,2491,239855
RIDGEWOOD,13208,1227,276913
THE ANSLEY,14463,1344,308214
COUNTRY GRANDEUR,8955,832,576439
COSTA RHU,10937,1016,437431
HILLVIEW REGENCY,8854,823,659920
THE BLOSSOMVALE,12716,1181,589473
REGENT HEIGHTS,7426,690,659802
N.A.,10801,1003,427276
KOVAN RESIDENCES,10492,975,544895
DAIRY FARM ESTATE,10210,949,679051
CARISSA PARK CONDOMINIUM,7951,739,507025
PEBBLE BAY,12914,1200,436918
EVERITT EDGE,12449,1156,427800
MOONSTONE RESIDENCES,10000,929,328465
TIERRA VUE,13451,1250,424163
THE TRESOR,14916,1386,269029
MAYSPRINGS,7400,687,678267
TOWNHOUSE APARTMENTS,10294,956,229627
THE LATTIZ,9255,860,416751
YISHUN EMERALD,6737,626,768431
AALTO,24202,2248,437981
CASTLE GREEN,8409,781,787058
MELVILLE PARK,6680,621,529947
THE SUNNY SPRING,9084,844,398074
LIVIA,8462,786,518217
VIZ AT HOLLAND,15641,1453,276750
SEMBAWANG SPRINGS ESTATE,9121,847,769797
REGAL 35,8077,750,387945
BLUE HORIZON,9722,903,128047
SOUTHAVEN II,9205,855,587968
N.A.,9365,870,426688
SEASONS PARK,7650,711,787078
SUITES @ EASTCOAST,14981,1392,455277
BAYSHORE PARK,8400,780,469985
SUNGLADE,10126,941,556135
THE INTERLACE,14267,1325,109694
TRILIGHT,19487,1810,307997
MIRO,21316,1980,308365
CENTRO RESIDENCES,15186,1411,567752
EVERITT EDGE,13051,1212,427800
QUESTA @ DUNMAN,14640,1360,439219
OASIS @ ELIAS,8658,804,519943
MIRO,17935,1666,308365
THE BAYSHORE,9056,841,469971
H2O RESIDENCES,10377,964,797533
KHEAM HOCK GARDENS,12698,1180,298808
CASA FORTUNA,14787,1374,329980
PAVILION PARK,11977,1113,658554
WATERFRONT ISLE,10597,984,479265
SKYSUITES@ANSON,21722,2018,79718
NV RESIDENCES,9305,864,518212
H2O RESIDENCES,11698,1087,797532
H2O RESIDENCES,9274,862,797534
SPOTTISWOODE 18,24664,2291,88642
THE CASCADIA,16646,1546,589644
SUMMERDALE,6593,612,649929
DEVONSHIRE RESIDENCES,29389,2730,239855
H2O RESIDENCES,9988,928,797530
QUESTA @ DUNMAN,11569,1075,439219
SPOTTISWOODE 18,25825,2399,88642
LUSH ON HOLLAND HILL,16570,1539,278737
EIS RESIDENCES,15251,1417,438859
THE INTERLACE,12389,1151,109704
PRIVE,7315,680,828817
THE ORCHARD RESIDENCES,37129,3449,237973
THE BAYSHORE,8636,802,469972
WATERFRONT KEY,11232,1043,479250
AMARANDA GARDENS,12174,1131,554773
QUESTA @ DUNMAN,14586,1355,439219
LA FLEUR,12080,1122,398483
H2O RESIDENCES,10043,933,797534
NV RESIDENCES,8564,796,518192
THE MERASAGA,17045,1584,278106
SERANGOON GARDEN ESTATE,14412,1339,559810
CASAFINA,8493,789,469336
CITY SQUARE RESIDENCES,16049,1491,207225
VALLEY PARK,15044,1398,248358
THOMSON VALE,13646,1268,307666
THE TANAMERA,8089,752,466665
PATERSON SUITES,33252,3089,238550
PATERSON SUITES,28288,2628,238550
IVORY HEIGHTS,7148,664,600117
SEASONS PARK,8190,761,787079
ONE AMBER,15034,1397,439957
EASTERN LAGOON,11161,1037,466402
THE GRANDIFLORA,9337,867,425554
QUESTA @ DUNMAN,14337,1332,439219
D'GALLERY,10889,1012,418936
SYMPHONY HEIGHTS,10326,959,598738
SUNRISE GARDENS,6913,642,806747
RIO VISTA,7333,681,534209
SUNNY PALMS,9499,882,426323
H2O RESIDENCES,10458,972,797530
LOFT @ NATHAN,17624,1637,248749
D' FRESCO,10806,1004,428109
THE AMARELLE,12058,1120,438128
LE MERRITT,10489,974,425365
THE VESTA,10333,960,425746
COSTA RHU,10327,959,437433
WATERFORD RESIDENCE,15606,1450,239333
THE ESTA,14264,1325,439966
THE CASCADIA,14631,1359,589643
SOUTHBANK,15562,1446,198784
STADIA,12830,1192,545542
DOUBLE BAY RESIDENCES,10000,929,529885
N.A.,10022,931,599149
THE INTERLACE,13556,1259,109686
EMERALD PARK,10734,997,169586
THE FLORAVALE,5224,485,648363
QUESTA @ DUNMAN,13587,1262,439219
FERRARIA PARK CONDOMINIUM,9094,845,506946
REFLECTIONS AT KEPPEL BAY,19518,1813,98408
ROSALIA PARK,7424,690,536412
N.A.,16647,1547,277092
SKYSUITES@ANSON,22062,2050,79718
SUNGLADE,10509,976,556135
LIGHTHOUSE,6363,591,509409
LOYANG VALLEY,5690,529,509068
AZALEA PARK CONDOMINIUM,7423,690,509730
RANGOON APARTMENTS,10000,929,218447
SPRINGVALE,9422,875,459107
THE BAYSHORE,7265,675,469976
LATITUDE,23955,2226,249206
QUESTA @ DUNMAN,15873,1475,439219
BALLOTA PARK CONDOMINIUM,7500,697,507080
H2O RESIDENCES,9804,911,797530
VILLA VERDE,8133,756,688300
N.A.,35815,3327,228372
LANDRIDGE CONDOMINIUM,10341,961,118572
N.A.,12186,1132,538286
THE QUARTZ,10046,933,544984
LAKEHOLMZ,8865,824,649823
H2O RESIDENCES,9560,888,797532
SUNVILLE,8872,824,327981
THE INTERLACE,12222,1135,109693
THE WATERSIDE,15759,1464,436896
THE QUARTZ,9343,868,544990
WATERFRONT KEY,10128,941,479255
VACANZA @ EAST,11063,1028,417394
H2O RESIDENCES,10280,955,797530
PATERSON SUITES,29463,2737,238550
CANBERRA RESIDENCES,8940,831,768135
LIRIA TERRACE,11000,1022,507173
THE MAYLEA,12389,1151,117493
QUESTA @ DUNMAN,14407,1338,439219
SELANTING GREEN,8442,784,598368
HILLBROOKS,9000,836,669592
N.A.,10329,960,219750
QUESTA @ DUNMAN,13548,1259,439219
AUSTVILLE RESIDENCES,8000,743,544808
N.A.,10477,973,455263
ARTHUR 118,14348,1333,439827
H2O RESIDENCES,9944,924,797532
H2O RESIDENCES,9983,927,797530
BISHAN 8,11111,1032,574044
AMARYLLIS VILLE,15217,1414,307990
LEEDON 2,14757,1371,267829
