Project Name,Unit Price ($ psm),Unit Price ($ psf),Postal Code
CASA MERAH,11304,1050,465525
THE GREENWOOD,11071,1029,286928
THE ROCHESTER,14694,1365,138638
CLOVER BY THE PARK,10201,948,573973
SUNSHINE PLAZA,13670,1270,187948
SKYLINE RESIDENCES,19519,1813,109026
SEASTRAND,9360,870,518188
ST MARTIN'S RESIDENCES,27458,2551,257989
KENT RESIDENCES,12083,1123,219219
PARK NATURA,11852,1101,659765
BOATHOUSE RESIDENCES,10409,967,534047
RICHARD'S PARK,12318,1144,546464
YONG AN PARK,16839,1564,238359
THE ASTON,16721,1553,248973
OLEANDER TOWERS,10843,1007,319771
STRAITS RESIDENCES,13500,1254,427884
SOUTHAVEN II,10429,969,587970
SEMBAWANG HILLS ESTATE,9967,926,577699
JANSEN SPRING,8824,820,548461
THE GREENWOOD,11071,1029,286874
GLENTREES,12463,1158,277057
DOMAIN 21,15116,1404,169814
THE TRILLIUM,22308,2072,239434
BUCKLEY CLASSIQUE,22454,2086,309767
R66 APARTMENTS,12056,1120,218356
BISHAN 8,12315,1144,574044
FERNWOOD TOWERS,11184,1039,458554
COSTA DEL SOL,13772,1279,469992
REGENTVILLE,8318,773,538688
HUME PARK II,9053,841,598732
LANDBAY CONDOMINIUM,11226,1043,468704
THOMSON 800,13179,1224,298190
TREVISTA,12921,1200,319581
THE COUNTRYSIDE,11700,1087,789726
SPRINGLEAF GARDEN,9054,841,788483
HELIOS RESIDENCES,28033,2604,229816
MARTIN PLACE RESIDENCES,18351,1705,237988
N.A.,2446,227,489065
N.A.,8961,833,466245
PARK GREEN,7701,715,545042
CLEMENTI PARK,9682,899,597159
WOODSVALE,7066,656,738093
THE BALMORAL SPRING,15680,1457,259888
N.A.,2197,204,389080
LATITUDE,22764,2115,249210
THE MADEIRA,8611,800,659445
ONE AMBER,13996,1300,439972
MUTIARA VIEW,14286,1327,249191
PAYA LEBAR GARDENS,13730,1276,537145
THE COSMOPOLITAN,22436,2084,239496
N.A.,12424,1154,797662
PARKVIEW APARTMENTS,7783,723,658882
WOODHAVEN,10785,1002,737811
LEONIE STUDIO,21471,1995,239223
KOVAN RESIDENCES,11966,1112,544917
BOUGAINVILLA APARTMENTS,7290,677,388493
THE GARDENS AT BISHAN,10366,963,575574
THE FLORIDA,7739,719,538804
HUME PARK I,9702,901,598718
8 RODYK,21348,1983,238216
SERANGOON GARDEN ESTATE,9486,881,557486
BLOSSOM VIEW,8761,814,398498
THE MADEIRA,9677,899,659442
THE BAYSHORE,9780,909,469972
THE BAYSHORE,9364,870,469970
THE SAIL @ MARINA BAY,27016,2510,18987
SERANGOON GARDEN ESTATE,10573,982,559828
CUSCADEN RESIDENCES,21391,1987,249722
MOONSTONE RESIDENCES,9588,891,328465
DOUBLE BAY RESIDENCES,8856,823,528714
CENTURY MANSIONS,9234,858,668671
THE AMBROSIA,12705,1180,425261
THE URBANITE,12997,1207,219384
CHILTERN PARK,7664,712,556114
N.A.,10198,947,669387
EIGHT @ EAST COAST,7690,714,454958
PARBURY HILL CONDOMINIUM,9852,915,467299
SEMBAWANG HILLS ESTATE,12912,1200,579469
DUCHESS CREST,14524,1349,269197
RIVERGATE,23256,2160,238255
GOLDLEAF GARDENS,14667,1363,426863
REGENT HEIGHTS,7963,740,659801
SELETAR GARDEN,8853,822,809734
N.A.,8617,801,487970
SOLEIL @ SINARAN,18088,1680,307467
DOUBLE BAY RESIDENCES,8087,751,528715
BLOSSOM VIEW,8548,794,398498
EAST COAST HILL,11134,1034,466942
THE ESTUARY,9271,861,769138
PRIVE,7200,669,828816
THE SAIL @ MARINA BAY,27917,2594,18987
RIVERPARC RESIDENCE,7390,687,828799
FLORIDIAN,18497,1718,589648
SCOTTS 28,23725,2204,228223
THE MILTONIA RESIDENCES,8642,803,768106
BOATHOUSE RESIDENCES,10815,1005,534047
JOOL SUITES,15641,1453,217811
N.A.,13235,1230,599084
THE BAYSHORE,9956,925,469976
ST FRANCIS COURT,7797,724,328071
ORCHID PARK CONDOMINIUM,7387,686,768453
THE WARREN,6994,650,689679
HILLBROOKS,9500,883,669592
CANARY VILLE,9505,883,423484
FLORIDIAN,20137,1871,589626
JOOL SUITES,18468,1716,217811
JOOL SUITES,18375,1707,217811
THE URBANITE,16002,1487,219384
THE URBANITE,12376,1150,219384
BELYSA,7549,701,519531
WATERFRONT ISLE,12734,1183,479262
SUNBIRD PARK,11910,1106,487190
MAYSPRINGS,7131,662,678265
BELYSA,7553,702,519531
THE SAIL @ MARINA BAY,24206,2249,18987
URBANA,20879,1940,238427
MAYSPRINGS,9000,836,678265
THE PLAZA,12051,1120,199591
MAPLEWOODS,12846,1193,589631
BURGUNDY HILL,8419,782,658817
THE CLIFT,23913,2222,69047
OLEANAS RESIDENCE,16509,1534,239347
THE FLORAVALE,5296,492,648358
OPTIMA @ TANAH MERAH,12766,1186,465538
SUN PLAZA,7279,676,757713
COSTA RHU,11515,1070,437434
LOYANG VALLEY,6782,630,509067
CHELSEA GROVE,11522,1070,328626
N.A.,14373,1335,249478
TELOK MANSION,16867,1567,423839
MAYSPRINGS,8750,813,678267
CENTRAL GREEN CONDOMINIUM,16860,1566,169479
PALM GARDENS,7607,707,689050
THE FLORAVALE,6870,638,648352
WOODSVALE,7115,661,738089
VILLA VERDE,8667,805,688323
PARC VISTA,8485,788,649815
PANDAN VALLEY,9278,862,597631
FIFTY-TWO STEVENS,9643,896,257848
GREEN PARK,12520,1163,468449
FULTON HILL,8648,803,578989
BELYSA,7113,661,519531
AQUARIUS BY THE PARK,8772,815,478932
FRANKEL ESTATE,9823,913,459818
PARC BLEU,14053,1306,427944
SIMS GREEN,8313,772,388134
THE BERTH BY THE COVE,20000,1858,98619
AVALON,18305,1701,259985
REFLECTIONS AT KEPPEL BAY,24754,2300,98415
HILLVIEW REGENCY,9029,839,659920
THE MILTONIA RESIDENCES,8165,759,768120
TERRASSE,9724,903,544779
PARK EAST,10720,996,457265
THE VERMONT ON CAIRNHILL,21524,2000,229747
THE METROPOLITAN CONDOMINIUM,13354,1241,158747
THE MILTONIA RESIDENCES,8171,759,768106
COUNTRY GRANDEUR,11194,1040,576439
BAYSHORE PARK,10460,972,469983
MELVILLE PARK,7921,736,529945
THE MINTON,10398,966,534071
D'LEEDON,18608,1729,267955
THE MARQUE @ IRRAWADDY,12439,1156,328108
THE FLORAVALE,6829,634,648358
VARSITY PARK CONDOMINIUM,10574,982,126827
LIVIA,9359,869,518207
HAZEL PARK CONDOMINIUM,8519,791,678948
MELVILLE PARK,8433,783,529944
BOATHOUSE RESIDENCES,9537,886,534043
LA BRISA,12500,1161,398453
GRANDEUR 8,9829,913,567749
THE ANSLEY,14076,1308,308214
SPRINGDALE CONDOMINIUM,10960,1018,587978
BOATHOUSE RESIDENCES,10375,964,534043
BOATHOUSE RESIDENCES,10227,950,534043
REGENT HEIGHTS,8211,763,659804
N.A.,10172,945,549796
WESTVILLE,7043,654,648546
RIVERGATE,20719,1925,238258
BOON SING BUILDING,12500,1161,188952
MANDARIN GARDEN CONDOMINIUM,12029,1118,448908
OCEAN PARK,12644,1175,458966
MANDALE HEIGHTS,12626,1173,308225
NOTTINGHILL SUITES,16383,1522,596195
LIVIA,10118,940,518205
CRYSTAL RHU,13559,1260,436889
THE TESSARINA,14590,1355,276308
THE MILTONIA RESIDENCES,8521,792,768104
JOOL SUITES,17587,1634,217811
MARTIN PLACE RESIDENCES,22364,2078,237990
SKYLINE RESIDENCES,20577,1912,109030
DOVER PARKVIEW,9828,913,138685
REGENT GROVE,8056,748,689527
VIBES @ EAST COAST,15342,1425,423858
THE LAKEFRONT RESIDENCES,11968,1112,648305
BELYSA,7376,685,519531
ICON,18904,1756,78878
SKYSUITES@ANSON,22182,2061,79718
THE METZ,28302,2629,239864
THOMSON GRAND,13553,1259,573917
TERRASSE,9878,918,544777
WATERMARK ROBERTSON QUAY,17073,1586,238213
THE TANAMERA,8511,791,466664
SKYLINE RESIDENCES,18584,1727,109026
EUPHONY GARDENS,8971,833,759075
FLYNN PARK,14063,1306,117755
BUTTERWORTH 8,10919,1014,439445
SUMMERHILL,10248,952,596231
PARADISE ISLAND,23301,2165,98478
UBER 388,13561,1260,466477
QUEENS,12818,1191,148955
CLASSICAL TERRACE,7365,684,537512
REFLECTIONS AT KEPPEL BAY,24764,2301,98415
BOATHOUSE RESIDENCES,9970,926,534043
THE MILTONIA RESIDENCES,10044,933,768117
PRISTINE HEIGHTS,13971,1298,219053
N.A.,11476,1066,417277
SEASTRAND,10466,972,518182
WATERFRONT ISLE,12740,1184,479262
CENTRA LOFT,10923,1015,387935
NORTHVALE,7250,674,689668
UBER 388,12987,1207,466477
HELIOS RESIDENCES,33197,3084,229816
THE LAKEFRONT RESIDENCES,11558,1074,648305
THE WOODS,5279,490,648268
THE GERANIUM,10769,1000,424968
THE MINTON,9451,878,534083
THE MILTONIA RESIDENCES,8522,792,768117
SUITES 28,13450,1250,398361
JERVOIS REGENCY,14952,1389,249081
ATRIUM RESIDENCES,7182,667,398414
MIMOSA PARK,6723,625,808014
COASTAL VIEW RESIDENCES,11307,1050,506926
PINEWOOD GARDENS,17500,1626,259852
JOOL SUITES,17816,1655,217811
VALLEY PARK,16000,1486,248368
PALM VISTA,10652,990,426225
WOODHAVEN,11776,1094,737810
WATERMARK ROBERTSON QUAY,17500,1626,238214
WESTMERE,8036,747,609650
PARK INFINIA AT WEE NAM,18095,1681,308364
BLOSSOM RESIDENCES,7832,728,677721
WATERFRONT KEY,10156,944,479251
N.A.,8237,765,507666
SKYLINE RESIDENCES,20351,1891,109026
THE RIVERVALE,7863,731,545125
THE IMPERIAL,20723,1925,239618
N.A.,8899,827,466090
MELVILLE PARK,7232,672,529943
THE MINTON,9823,913,534073
SKYLINE RESIDENCES,20333,1889,109030
ESTELLA GARDENS,11475,1066,509741
ONE JERVOIS,17251,1603,249107
THE TRIZON,16342,1518,276697
THOMSON GRAND,14596,1356,575579
MARTIN PLACE RESIDENCES,20989,1950,237990
N.A.,8135,756,549752
VILLA MARTIA,11364,1056,424808
HOLT RESIDENCES,15208,1413,249444
SELETAR HILLS ESTATE,10123,940,808059
WATERMARK ROBERTSON QUAY,20521,1906,238214
KOVAN RESIDENCES,11681,1085,544915
NIN RESIDENCE,11646,1082,348271
EIGHT COURTYARDS,8954,832,768140
EDEN CREST,10167,945,539068
KERRISDALE,10684,993,207852
MARINA BAY RESIDENCES,33371,3100,18980
EURO-ASIA LODGE,7907,735,427253
PINE GROVE,9202,855,590001
FUYONG ESTATE,2586,240,678361
FRANKEL ESTATE,14512,1348,456787
MERAWOODS,10361,963,669606
ONE OXLEY RISE,20714,1924,238714
MEYER RESIDENCE,13434,1248,437991
MEADOWS @ PEIRCE,10105,939,787133
BAYSHORE PARK,9885,918,469983
VALLEY PARK,15065,1400,248358
SEASTRAND,10881,1011,518182
SEASTRAND,9147,850,518189
SKYLINE RESIDENCES,20727,1926,109026
WATERVIEW,9800,910,528688
RIVERPARC RESIDENCE,7672,713,828798
BELYSA,7538,700,519531
NIN RESIDENCE,9675,899,348270
NORTHOAKS,6991,649,738082
WHITEWATER,7757,721,518766
THE CANOPY,7395,687,768863
THE CENTRIS,12323,1145,648336
BLOSSOM RESIDENCES,7116,661,677721
THE MILTONIA RESIDENCES,9231,858,768120
VIBES @ EAST COAST,14438,1341,423858
WOODHAVEN,11572,1075,737809
LINCOLN SUITES,21593,2006,308380
HAI SING PARK,10844,1007,538944
MANDARIN GARDEN CONDOMINIUM,10753,999,448908
VIDA,33250,3089,228307
GOODVIEW APARTMENTS,6195,576,399077
REFLECTIONS AT KEPPEL BAY,23912,2222,98416
EMERALD PARK,11364,1056,169588
OLEANDER TOWERS,9533,886,319771
CRYSTAL LODGE,7500,697,398870
CELESTIA,7563,703,427305
PINEVALE,7479,695,528825
QUEENS,13588,1262,148955
ZENITH,21000,1951,247785
N.A.,7738,719,808175
FLORIDIAN,18605,1728,589649
UBER 388,12957,1204,466477
UBER 388,11325,1052,466477
SKYLINE RESIDENCES,23467,2180,109026
THOMSON GRAND,10832,1006,573913
D'LEEDON,17792,1653,266224
FORESQUE RESIDENCES,14245,1323,678276
THE FLORAVALE,7217,671,648353
ATRIUM RESIDENCES,9298,864,398416
ASCENTIA SKY,13616,1265,158749
EASTPOINT GREEN,9245,859,529892
BAYSHORE PARK,10552,980,469985
VIBES @ EAST COAST,13744,1277,423858
CHERRYHILL,8889,826,536467
KERRISDALE,10870,1010,207855
SUNNY PALMS,6522,606,426323
SOUTHBANK,15899,1477,198784
SIN CHUAN GARDEN,6345,589,416316
MIMOSA PARK,7250,674,808014
WATERFRONT ISLE,12496,1161,479261
BOATHOUSE RESIDENCES,9619,894,534044
BOATHOUSE RESIDENCES,9331,867,534043
SKYLINE RESIDENCES,18961,1762,109026
BULLION PARK,10400,966,789099
GLASGOW RESIDENCE,15316,1423,549338
ASTOR,9135,849,417660
WOODHAVEN,10829,1006,737808
THE FLORAVALE,7061,656,648355
THE WOODS,5108,475,648221
SUMMERDALE,7257,674,649927
HIGH OAK CONDOMINIUM,9818,912,596290
UBER 388,14771,1372,466477
RIVERGATE,20486,1903,238258
CITY SQUARE RESIDENCES,15044,1398,207226
CENTURY MANSIONS,9043,840,668671
MILL POINT,14446,1342,247813
CHERRYHILL,9167,852,536467
THE SOVEREIGN,16735,1555,437920
REFLECTIONS AT KEPPEL BAY,23319,2166,98416
N.A.,15460,1436,596409
LATITUDE,23453,2179,249206
CRAIG PLACE,16532,1536,89692
LIVIA,9573,889,518208
MERA SPRINGS,13608,1264,219647
BEDOK COURT,6872,638,469297
SEASTRAND,10403,966,518188
SKYLINE RESIDENCES,21208,1970,109025
TANGLIN PARK,19928,1851,248466
CHANGI COURT,9522,885,486836
SKYLINE RESIDENCES,23360,2170,109025
HUNDRED TREES,10511,977,127997
BELYSA,7656,711,519532
SHERWOOD TOWER,8182,760,588998
N.A.,11624,1080,546660
THE QUARTZ,10763,1000,544989
N.A.,10055,934,576045
LAKESIDE TOWER,5641,524,618649
REGENTVILLE,7296,678,538685
PARKVIEW APARTMENTS,7231,672,658882
HOLLAND PEAK,14938,1388,278740
THE SCENIC @ BRADDELL,13452,1250,359944
GOLDEN HILL ESTATE,10400,966,557098
LE CRESCENDO,11172,1038,409044
LIVIA,9580,890,518208
TANAMERA CREST,7181,667,486062
MELVILLE PARK,7463,693,529943
THE MILTONIA RESIDENCES,9608,893,768120
PEACE CENTRE/MANSIONS,7645,710,228149
REGENT PARK,10549,980,128803
NIN RESIDENCE,13878,1289,348271
NIN RESIDENCE,14531,1350,348271
SUITES 28,13719,1274,398361
THOMSON GRAND,14523,1349,573917
THE TRUMPS,10303,957,419154
WATERMARK ROBERTSON QUAY,19750,1835,238214
SPRINGDALE CONDOMINIUM,10462,972,587978
N.A.,15196,1412,238705
BLOSSOM RESIDENCES,7457,693,677722
THE MILTONIA RESIDENCES,8489,789,768121
GRANGE INFINITE,30227,2808,239700
THE MINTON,9585,891,534072
WATERVIEW,9360,870,529780
SKYLINE RESIDENCES,19468,1809,109026
CARIBBEAN AT KEPPEL BAY,16667,1548,98651
BOATHOUSE RESIDENCES,9960,925,534047
N.A.,9911,921,437098
CLOVER BY THE PARK,12917,1200,573975
THE EDEN AT TAMPINES,6714,624,529239
SERANGOON GARDEN ESTATE,9861,916,557521
BLOSSOM RESIDENCES,6928,644,677722
VIBES @ EAST COAST,15526,1442,423858
CITYLIGHTS,17593,1634,208747
THE CLIFT,24565,2282,69047
FORESQUE RESIDENCES,11209,1041,678276
SIGNATURE PARK,9897,919,596744
THE MILTONIA RESIDENCES,9425,876,768120
THE IMPERIAL,21839,2029,239617
IVORY HEIGHTS,6303,586,600120
HARVEY VIEW,9510,883,489401
HORIZON TOWER,12771,1186,239228
CHANGI RISE CONDOMINIUM,8205,762,528805
KERRISDALE,11111,1032,207852
PRISTINE HEIGHTS,13291,1235,219053
THE WARREN,8660,805,689679
SUNVILLE,9342,868,327981
THE TRUMPS,13308,1236,419154
CITY SQUARE RESIDENCES,16149,1500,207229
BRADDELL HEIGHTS ESTATE,11207,1041,358602
PARK INFINIA AT WEE NAM,20989,1950,308364
MERALODGE,8426,783,669583
THE MILTONIA RESIDENCES,8729,811,768113
H2O RESIDENCES,10376,964,797530
THE FLORAVALE,6734,626,648358
BLOSSOM RESIDENCES,7722,717,677721
LAKEHOLMZ,8293,770,649820
PRIVE,7400,687,828809
BOON COURT,7746,720,423992
WATERFRONT GOLD,9850,915,479256
THE ANCHORAGE,13118,1219,159960
NIN RESIDENCE,12184,1132,348270
LINCOLN SUITES,21136,1964,308381
EMERALD GARDEN,17363,1613,69415
KOVAN MELODY,11061,1028,545020
D'PAVILION,11742,1091,534163
BISHAN PARK CONDOMINIUM,8520,792,575570
MAPLEWOODS,13735,1276,589628
EMERALD GARDEN,16667,1548,69415
PARKVIEW APARTMENTS,8125,755,658881
EVERGREEN PARK,7156,665,538803
THE TRIZON,18062,1678,276693
THOMSON GRAND,7153,664,573937
MAYSPRINGS,8008,744,678265
THE SUMMIT,9750,906,466504
BLOSSOM RESIDENCES,7634,709,677721
8@WOODLEIGH,12385,1151,357900
CARIBBEAN AT KEPPEL BAY,14915,1386,98635
EUPHONY GARDENS,5637,524,759075
PACIFIC MANSION,16587,1541,238433
AALTO,26119,2427,437980
THE VUE,12804,1190,534958
CLOVER BY THE PARK,11597,1077,573975
THOMSON GRAND,12087,1123,573913
PARKVIEW APARTMENTS,8119,754,658880
THE BEVERLY,8533,793,596722
RIVERVALE CREST,7748,720,545084
DOUBLE BAY RESIDENCES,9517,884,528717
ST THOMAS SUITES,21527,2000,238113
ASPEN HEIGHTS,16495,1532,238309
BOATHOUSE RESIDENCES,9516,884,534044
THE CLIFT,23674,2199,69047
SOUTHBANK,18182,1689,198784
LANDMARK TOWERS,10625,987,169878
CITY REGENCY,14729,1368,327977
CITYLIGHTS,17115,1590,208745
SEASONS PARK,7732,718,787079
VIBES @ EAST COAST,15634,1452,423858
ONE AMBER,16292,1514,439958
THE WATERINA,11386,1058,398089
EDELWEISS PARK CONDOMINIUM,9864,916,507005
JOOL SUITES,17883,1661,217811
CENTRO MANSIONS,7838,728,398280
SKYLINE RESIDENCES,20544,1909,109025
WOODHAVEN,9215,856,737808
JOOL SUITES,17781,1652,217811
ELIAS GREEN,7535,700,519961
THE SUNNY SPRING,7961,740,398074
TREVISTA,15000,1394,319581
PARVIS,19376,1800,278745
SEASTRAND,10027,932,518183
CARIBBEAN AT KEPPEL BAY,17647,1639,98638
FRANKEL ESTATE,11873,1103,459051
WOODSVALE,7044,654,738093
PALM GARDENS,7504,697,689048
PARC PALAIS,10738,998,598751
BUCKLEY 18,20951,1946,309776
SKYLINE RESIDENCES,20781,1931,109030
TIERRA VUE,13352,1240,424163
SPRING @ KATONG,11351,1055,429749
WOODHAVEN,10689,993,737808
SIMSVILLE,8451,785,389754
OLEANDER TOWERS,10542,979,319771
MONTVIEW,16049,1491,277116
WATERFRONT KEY,10075,936,479251
LIVIA,9060,842,518207
VANADIUM,12745,1184,219406
MONTEBLEU,13782,1280,308162
CELESTIA,13500,1254,427305
THE LAKESHORE,11512,1069,649413
EVERGREEN GARDEN,7648,710,466406
THE RAINTREE,10250,952,587843
PASIR PANJANG GARDENS,10797,1003,128730
MI CASA,8250,766,689862
N.A.,10877,1010,427320
NORTHVALE,7258,674,689671
PHOENIX HEIGHTS,7473,694,668165
PRIVE,7313,679,828818
UBER 388,15499,1440,466477
TANGERINE GROVE,9137,849,534239
CITY STUDIOS,14286,1327,218745
SUITES@BRADDELL,14072,1307,359965
SUITES 28,12245,1138,398361
SEASTRAND,9982,927,518180
SUNGLADE,10825,1006,556134
BOTANNIA,11020,1024,127722
CHERRYHILL,9023,838,536470
THE GREENWOOD,18324,1702,286932
HARBOURLIGHTS,14661,1362,98830
THE URBANITE,13055,1213,219384
KEMAMAN POINT,9833,914,329325
THE FORESTA @ MOUNT FABER,20521,1906,98749
THE MILTONIA RESIDENCES,8115,754,768114
SKYLINE RESIDENCES,22016,2045,109026
SKYLINE RESIDENCES,21066,1957,109030
WATERFRONT KEY,10130,941,479251
FERRARIA PARK CONDOMINIUM,9979,927,506944
YEWTEE RESIDENCES,9386,872,689579
HORIZON GARDENS,6173,573,567905
THE MILTONIA RESIDENCES,9399,873,768109
THE CANOPY,7557,702,768862
PRIMO RESIDENCES,13083,1215,537652
SKYLINE RESIDENCES,20715,1925,109030
THE BAYSHORE,9775,908,469975
CANBERRA RESIDENCES,8760,814,768129
PRIMO RESIDENCES,12364,1149,537653
ADELPHI PARK ESTATE,11836,1100,576165
GARDENVISTA,12661,1176,589486
SEMBAWANG HILLS ESTATE,10563,981,577652
THE WATERINA,12286,1141,398082
EUPHONY GARDENS,6282,584,759075
SKYLINE RESIDENCES,21756,2021,109026
BLOSSOM RESIDENCES,6957,646,677721
UBER 388,15474,1438,466477
FORTUNE JADE,11647,1082,439193
THE DAIRY FARM,11961,1111,679038
THE FLORAVALE,6657,618,648355
BLOSSOM RESIDENCES,7833,728,677721
BLOSSOM RESIDENCES,7582,704,677722
CARIBBEAN AT KEPPEL BAY,17103,1589,98650
HAZEL PARK CONDOMINIUM,9702,901,678946
DOUBLE BAY RESIDENCES,9573,889,528716
FLORIDIAN,18710,1738,589649
MIRO,25078,2330,308365
EURO-ASIA PARK,9409,874,357920
KENSINGTON PARK CONDOMINIUM,8551,794,557322
MOUNT SOPHIA SUITES,19020,1767,228163
PARK VIEW MANSION,6490,603,618645
SEASTRAND,10087,937,518188
SEASTRAND,9583,890,518180
TG MANSION,8947,831,426102
VISIONCREST,20447,1900,238712
N.A.,10590,984,359600
THE MINTON,9689,900,534075
BUTTERWORTH 8,12049,1119,439422
GOLDENHILL PARK CONDOMINIUM,12713,1181,568427
THE INTERLACE,12164,1130,109703
NOVENA LODGE,13913,1293,308729
HILLINGTON GREEN,10106,939,669614
PALM GARDENS,7024,653,689048
THOMSON GROVE,8916,828,787068
SUN ROSIER,9122,847,538591
SUITES 28,13881,1290,398361
WOODSVILLE 28,12267,1140,357776
KASTURINA LODGE,13846,1286,248969
THE DRAYCOTT,22653,2105,259396
THE PARC CONDOMINIUM,12624,1173,127162
VARSITY PARK CONDOMINIUM,11471,1066,127448
SEASTRAND,9572,889,518188
WOODHAVEN,10603,985,737808
SIMEI GREEN CONDOMINIUM,9222,857,529866
THE PARC CONDOMINIUM,10155,943,127140
BLUWATERS,8702,808,506962
THE BOUTIQ,25528,2372,239565
THE JADE,10297,957,658074
BELYSA,7726,718,519532
AMARYLLIS VILLE,16230,1508,307953
GARDENVISTA,13140,1221,589482
N.A.,16461,1529,277188
VIBES @ EAST COAST,14947,1389,423858
THE TRIZON,18456,1715,276693
HILLBROOKS,11385,1058,669610
FLAMINGO VALLEY,14828,1378,454943
THOMSON GRAND,6938,645,573931
THE BOUTIQ,25685,2386,239565
21 RICHARDS,14303,1329,546430
SKYLINE RESIDENCES,19974,1856,109026
THE SUNNY SPRING,8649,803,398074
MARTIN PLACE RESIDENCES,20309,1887,237990
BLOSSOM RESIDENCES,7663,712,677722
SIMS GREEN,8261,767,388134
MONTEBLEU,17075,1586,308162
N.A.,6756,628,466088
DOUBLE BAY RESIDENCES,9686,900,529886
CENTRA LOFT,11172,1038,387935
ROBERTSON 100,17500,1626,238250
REFLECTIONS AT KEPPEL BAY,23793,2210,98419
VIBES @ EAST COAST,15974,1484,423858
THE MILTONIA RESIDENCES,10055,934,768104
REGENT HEIGHTS,8821,819,659801
N.A.,14851,1380,538285
WATERFRONT GOLD,9200,855,479260
THOMSON GRAND,6938,645,573930
THE CLIFT,21528,2000,69047
AXIS @ SIGLAP,13537,1258,458950
DUKES RESIDENCE,18710,1738,268906
KOVAN GRANDEUR,13736,1276,535193
THE AMARELLE,15745,1463,438128
SEASTRAND,10317,958,518188
PARK VIEW MANSION,7097,659,618644
COSMO,12424,1154,399914
GUILLEMARD VIEW,7254,674,399850
THE CITRINE,12584,1169,329415
TRELLIS TOWERS,11438,1063,319773
HAZEL PARK TERRACE,15295,1421,678923
BELYSA,7512,698,519531
N.A.,10268,954,424065
NOVA 88,12151,1129,329640
FERRARIA PARK CONDOMINIUM,11292,1049,506945
THE INTERWEAVE,13704,1273,328805
THE PARC CONDOMINIUM,11061,1028,127158
VIBES @ EAST COAST,15132,1406,423858
DUNMAN PLACE,10967,1019,439204
THE WARREN,8304,771,689685
THE BOUTIQ,25263,2347,239565
NOTTINGHILL SUITES,16723,1554,596195
TERRASSE,9378,871,544778
THE VIRIDIAN,16080,1494,329507
GAMBIER COURT,13657,1269,239381
LOYANG VILLAS,8628,802,507282
UBER 388,15237,1416,466477
CENTRA LOFT,13375,1243,387935
SCOTTS 28,23137,2149,228223
RV SUITES,17551,1631,248289
URBAN RESIDENCES,12950,1203,534051
THE MILTONIA RESIDENCES,9080,844,768121
SEASTRAND,10795,1003,518182
BELYSA,5995,557,519532
THE MINTON,9156,851,534082
BELYSA,5658,526,519531
WOODHAVEN,11044,1026,737809
QUEENSWAY TOWER,8636,802,149053
BRIGHTVIEW APARTMENTS,8621,801,398495
BELYSA,7494,696,519531
TERRASSE,10963,1018,544776
MERALODGE,8685,807,669583
BISHAN LOFT,11321,1052,579819
CITY SQUARE RESIDENCES,18302,1700,207224
PASIR PANJANG GARDENS,14748,1370,128133
THE BAYSHORE,10108,939,469970
N.A.,8392,780,546035
PARC PALAIS,10684,993,598752
NIN RESIDENCE,12658,1176,348271
CLEMENTI PARK,10701,994,597159
THE MEZZO,13704,1273,329682
COSTA ESTE,10000,929,425653
ASCENTIA SKY,15661,1455,158748
THE MILTONIA RESIDENCES,9366,870,768114
SEASTRAND,9982,927,518183
SUMMERDALE,6692,622,649927
THE INTERWEAVE,14380,1336,328805
TERRASSE,12702,1180,544778
BLUWATERS,10541,979,509439
BLOSSOM VIEW,8333,774,398498
THE MILTONIA RESIDENCES,9504,883,768120
BINJAI CREST,7348,683,587946
THE ESPARIS,7708,716,519464
CASTLE GREEN,9205,855,787058
EVERGREEN PARK,7982,742,538803
D'MANOR,6026,560,465785
WATERFORD RESIDENCE,14947,1389,239332
STRATFORD COURT,7211,670,489929
WATERVIEW,8881,825,528685
NORTHVALE,8135,756,689674
BLOSSOM RESIDENCES,7765,721,677723
N.A.,13385,1243,757342
THE MINTON,7922,736,534078
VISTA RESIDENCES,15234,1415,329426
THE MILTONIA RESIDENCES,8954,832,768114
BELYSA,7207,670,519531
PARK GREEN,6982,649,545043
THE ORCHARD RESIDENCES,46278,4299,237973
PARKVIEW APARTMENTS,8143,756,658881
CASTLE GREEN,8411,781,787058
BRIGHTVIEW APARTMENTS,8621,801,398495
BRIGHTVIEW APARTMENTS,8621,801,398495
BRIGHTVIEW APARTMENTS,8621,801,398495
BRIGHTVIEW APARTMENTS,9615,893,398495
THE PIER AT ROBERTSON,23980,2228,239013
DOUBLE BAY RESIDENCES,9402,873,528716
IVORY HEIGHTS,6354,590,600120
SKYLINE RESIDENCES,22506,2091,109025
TANGLIN VIEW,14019,1302,159012
VIBES @ EAST COAST,13781,1280,423858
THE BAYSHORE,10435,969,469970
SEASTRAND,10253,953,518186
BRIGHTVIEW APARTMENTS,9740,905,398495
ILLUMINAIRE ON DEVONSHIRE,27907,2593,239900
SEASTRAND,10104,939,518188
BRIGHTVIEW APARTMENTS,8621,801,398495
BRIGHTVIEW APARTMENTS,8621,801,398495
BRIGHTVIEW APARTMENTS,8621,801,398495
BRIGHTVIEW APARTMENTS,8621,801,398495
TERRASSE,11035,1025,544778
NATURALIS,8882,825,425279
REGENT PARK,10659,990,128805
D'LEEDON,16645,1546,267955
BLOSSOM RESIDENCES,7622,708,677722
YUNNAN GARDENS,10342,961,637990
BLOSSOM RESIDENCES,7621,708,677723
BRIGHTVIEW APARTMENTS,8621,801,398495
BRIGHTVIEW APARTMENTS,8621,801,398495
THE WARREN,8696,808,689682
PARC OASIS,8535,793,609778
JOOL SUITES,17792,1653,217811
EVERGREEN PARK,8368,777,538802
JOOL SUITES,17611,1636,217811
BLOSSOM RESIDENCES,7722,717,677721
WATERFRONT KEY,10717,996,479250
VIBES @ EAST COAST,16200,1505,423858
SELETAR HILLS ESTATE,7902,734,808480
CUSCADEN RESIDENCES,21530,2000,249722
THE INFINITI,9619,894,127712
SERANGOON PARK,13654,1268,358980
SEASTRAND,10210,949,518180
UBER 388,12329,1145,466477
SYMPHONY HEIGHTS,10941,1016,598738
WOODHAVEN,9657,897,737808
GLENTREES,12800,1189,277054
THE SAIL @ MARINA BAY,21279,1977,18985
MELVILLE PARK,6752,627,529948
THE BAYSHORE,10773,1001,469970
QUEENS,12432,1155,148954
RIO VISTA,8276,769,534208
ROBERTSON EDGE,20811,1933,238010
CHUAN PARK,9767,907,556747
SERAYA 9,15192,1411,437276
SELETARIS,8355,776,757711
AZALEA PARK CONDOMINIUM,8077,750,509730
MELVILLE PARK,8483,788,529942
GOLDENHILL PARK CONDOMINIUM,12906,1199,568426
ONE FORT,13158,1222,439069
COSTA DEL SOL,12869,1196,469987
PALMERA RESIDENCE,10667,991,425163
VALLEY PARK,16875,1568,248368
CENTRAL GREEN CONDOMINIUM,14535,1350,169479
MODENA,8153,757,529870
CLOVER BY THE PARK,11963,1111,573973
LIVIA,8702,808,518209
TRILIGHT,20454,1900,307997
WATER PLACE,12719,1182,436607
MERAPRIME,14754,1371,169568
THE COAST AT SENTOSA COVE,24194,2248,98449
N.A.,4947,460,738294
LIVIA,7584,705,518208
SIMEI GREEN CONDOMINIUM,7793,724,529868
GOLDENHILL PARK CONDOMINIUM,13081,1215,568431
PEBBLE BAY,12247,1138,436921
ASTOR GREEN,10391,965,597592
KELULUT HILL,11667,1084,805855
PINE GROVE,10443,970,591401
THE MILTONIA RESIDENCES,10375,964,768117
HARMONY @ 1A,11308,1051,547810
THE MINTON,9285,863,534072
URBAN RESORT CONDOMINIUM,32238,2995,229720
NINETEEN SHELFORD ROAD,14412,1339,288408
OASIS @ ELIAS,8905,827,519944
MAYA,10756,999,423953
TANAMERA CREST,8624,801,486060
VERSILIA ON HAIG,12105,1125,438641
BAYSHORE PARK,10716,996,469985
REFLECTIONS AT KEPPEL BAY,18666,1734,98412
SEASTRAND,9528,885,518183
THE MINTON,9850,915,534080
PALM OASIS,12391,1151,426052
VACANZA @ EAST,11547,1073,417391
BELYSA,7472,694,519531
N.A.,9679,899,417171
THE JADE,9854,915,658074
COSTA RHU,11031,1025,437431
NORTHVALE,7238,672,689674
NIN RESIDENCE,10924,1015,348271
SERANGOON GARDEN ESTATE,14894,1384,559765
FONTAINE PARRY,12152,1129,546779
LE LOYANG,7769,722,509371
SUNGLADE,11321,1052,556133
THE LAKESHORE,11279,1048,649413
THE STELLAR,12737,1183,126824
SUNSHINE PLAZA,13985,1299,187948
PRIVE,7504,697,828816
N.A.,8071,750,536267
FIORENZA,12692,1179,549576
THE MINTON,10533,979,534082
WOODHAVEN,11997,1115,737809
BLUWATERS,7524,699,506961
CARIBBEAN AT KEPPEL BAY,17063,1585,98635
CENTRA LOFT,12909,1199,387935
MUTIARA CREST,10053,934,249183
CASAFINA,8672,806,469338
MACPHERSON GARDEN ESTATE,16788,1560,368649
THE SCENIC @ BRADDELL,10385,965,359944
THE MILTONIA RESIDENCES,8176,760,768106
BLOSSOM RESIDENCES,6899,641,677721
VIBES @ EAST COAST,16269,1511,423858
LIMAU PARK,8983,835,468499
HILLTOP GROVE,7878,732,669619
PATERSON RESIDENCE,25830,2400,238549
TRIBECA,17917,1664,239497
GLOBAL VILLE,10843,1007,329192
D'LEEDON,16052,1491,267955
SELETAR HILLS ESTATE,8512,791,808827
TEXTILE CENTRE,9732,904,199018
SEASTRAND,10104,939,518183
ICON,18140,1685,78878
THE TRILLIUM,21154,1965,239432
CITYLIGHTS,19091,1774,208747
PARC BLEU,13125,1219,427946
ARDMORE II,31649,2940,259947
THOMSON HILLS ESTATE,9886,918,574917
TOPAZ MANSIONS,8367,777,327848
TROPICANA CONDOMINIUM,7895,733,488067
HEDGES PARK CONDOMINIUM,9781,909,506886
BELMOND GREEN,18222,1693,259819
ALPHA APARTMENTS,10748,998,427037
THE FLORIDA,7418,689,534260
THE TENERIFFE,9234,858,275949
NINETEEN SHELFORD ROAD,14352,1333,288408
DAWN VILLE,10180,946,439444
LAKEPOINT CONDOMINIUM,8647,803,648923
SUNHAVEN,9848,915,486069
THOMSON GRAND,13888,1290,573917
BREEZE BY THE EAST,13276,1233,465520
THE AMERY,10913,1014,425612
AQUARIUS BY THE PARK,10060,935,478929
BUKIT REGENCY,9469,880,588132
THE FLORIDA,7273,676,538805
THE BAYSHORE,9890,919,469973
MAYSPRINGS,7423,690,678267
THE MILTONIA RESIDENCES,9390,872,768121
WATERFRONT KEY,10550,980,479250
REGENT GROVE,7639,710,689527
VIBES @ EAST COAST,16092,1495,423858
TANGLIN PARK,20134,1871,248473
SUMMERDALE,7523,699,649927
YISHUN EMERALD,7301,678,768429
EIGHT COURTYARDS,8896,826,768142
MOUNT SINAI,19097,1774,277115
THE MILTONIA RESIDENCES,9399,873,768106
8@WOODLEIGH,14865,1381,357902
THE ORCHARD RESIDENCES,37667,3499,237973
THE MINTON,10187,946,534076
VIVA,19181,1782,307462
JEWEL @ CHUAN HOE,5575,518,549856
TEACHER'S HOUSING ESTATE,11614,1079,787252
REFLECTIONS AT KEPPEL BAY,26941,2503,98413
MONTVIEW,16049,1491,277116
PARC BLEU,10645,989,427944
RIS GRANDEUR,9441,877,519931
ASPEN HEIGHTS,16327,1517,238307
THOMSON GRAND,7202,669,573919
SOUTHAVEN II,5895,548,587969
BLOSSOM RESIDENCES,7830,727,677722
THE MINTON,9927,922,534072
THE MILTONIA RESIDENCES,9372,871,768106
WATERVIEW,9200,855,529780
LIVIA,8974,834,518208
DENG FU VILLE,10215,949,417777
ZENITH,19623,1823,247785
WOODHAVEN,10224,950,737811
THE SAIL @ MARINA BAY,32813,3048,18987
RIVERVALE CREST,7730,718,545084
MIRAGE TOWER,17544,1630,239426
N.A.,9712,902,399190
KOVAN MELODY,10840,1007,548104
TERRASSE,12453,1157,544774
BELYSA,7393,687,519531
SOUTHAVEN II,6131,570,587969
SERANGOON GARDEN ESTATE,9560,888,558854
THE VUE,14718,1367,534958
THE CLIFT,30077,2794,69047
FORESQUE RESIDENCES,12050,1120,678274
FORESQUE RESIDENCES,12267,1140,678274
THE INTERLACE,11440,1063,109703
IVORY HEIGHTS,8165,759,600124
BLOSSOM RESIDENCES,7561,702,677721
THE MILTONIA RESIDENCES,9147,850,768120
THE MILTONIA RESIDENCES,10700,994,768104
FRANKEL ESTATE,13401,1245,459820
LILYDALE,7461,693,768964
VILLAS LAGUNA,8333,774,466472
EIGHT COURTYARDS,8800,818,768097
WATERFRONT WAVES,11074,1029,479248
REGENT HEIGHTS,8926,829,659802
CASHEW HEIGHTS CONDOMINIUM,9870,917,679670
EAST COAST RESIDENCES,12410,1153,466488
BLOSSOM RESIDENCES,5942,552,677722
CARIBBEAN AT KEPPEL BAY,16534,1536,98650
MELROSE PARK,18235,1694,248904
HARBOUR SUITES,18715,1739,99454
THE SERENADE @ HOLLAND,12771,1186,278698
WATERFRONT KEY,10566,982,479250
PATERSON SUITES,30273,2812,238550
ST NICHOLAS VIEW,11000,1022,568006
COSTA RHU,13993,1300,437433
NORTHVALE,7455,693,689672
THE RAINTREE,10042,933,587845
CASA MERAH,11825,1099,465524
THE FLORENTINE,8855,823,549561
THE GARDENS AT BISHAN,10122,940,575577
SERANGOON GARDEN ESTATE,8759,814,559894
TERRASSE,11128,1034,544779
COSTA DEL SOL,12697,1180,469987
BLOSSOM RESIDENCES,7656,711,677721
CARIBBEAN AT KEPPEL BAY,16667,1548,98637
CLOVER BY THE PARK,11583,1076,573975
THE ELEGANCE @ CHANGI,12800,1189,426446
WATERFRONT WAVES,10495,975,479248
TAIPAN GRAND,10435,969,449303
THE PEAK@BALMEG,15068,1400,119918
PEBBLE BAY,11687,1086,436919
PARC BLEU,14258,1325,427946
THE MAYFAIR,9831,913,609479
HIGH OAK CONDOMINIUM,9664,898,596290
SEASONS PARK,8167,759,787082
THOMSON GRAND,10577,983,573915
WESTCOVE CONDOMINIUM,7273,676,128042
BALMY COURT,7630,709,388105
THE CALROSE,12015,1116,787066
CHILTERN PARK,9322,866,556112
ZEPHYR PARK,10813,1005,487408
MODA,15185,1411,428762
N.A.,12703,1180,538079
THE GERANIUM,10538,979,424980
ST PATRICK'S RESIDENCES,11356,1055,424217
VARSITY PARK CONDOMINIUM,12500,1161,127452
ST PATRICK'S RESIDENCES,11357,1055,424217
MOUNT FABER LODGE,13295,1235,99200
THREE THREE ROBIN,20945,1946,258208
AALTO,17857,1659,437981
THE COSMOPOLITAN,21301,1979,239471
D'LOTUS,12667,1177,328784
FORTUNE JADE,12059,1120,439193
THE MILTONIA RESIDENCES,9966,926,768108
UBER 388,13164,1223,466477
HOLLAND PEAK,14706,1366,278739
N.A.,20502,1905,429802
CASPIAN,13674,1270,648318
THE MILTONIA RESIDENCES,8714,810,768110
BALLOTA PARK CONDOMINIUM,6456,600,507082
STRATFORD COURT,7754,720,489929
CENTRAL GROVE,9268,861,389779
THE VUE,12878,1196,534958
BLOSSOM RESIDENCES,7439,691,677721
AQUARIUS BY THE PARK,8634,802,478931
TERRASSE,9969,926,544776
THE SAIL @ MARINA BAY,21739,2020,18985
SAVANNAH CONDOPARK,8531,793,528779
MEADOWS @ PEIRCE,13456,1250,787130
VISTA RESIDENCES,15748,1463,329426
NEWTON SUITES,18957,1761,307994
MI CASA,9500,883,689861
VIBES @ EAST COAST,15164,1409,423858
FLAMINGO VALLEY,14515,1349,455940
THE SUITES AT CENTRAL,22945,2132,239897
THE SEA VIEW,18082,1680,439946
TREE HOUSE,9626,894,679520
TREVISTA,11845,1100,319583
CITY SQUARE RESIDENCES,18491,1718,207229
VIBES @ EAST COAST,15318,1423,423858
BELYSA,7840,728,519530
JOOL SUITES,17792,1653,217811
THE SEA VIEW,16993,1579,439947
SERANGOON GARDEN ESTATE,8735,811,559940
EVERGREEN PARK,7402,688,538800
THE GARDENS AT BISHAN,10000,929,575575
STRATTON GREEN,12719,1182,805643
OPERA ESTATE,11369,1056,459480
N.A.,34371,3193,208634
THE VUE,13241,1230,534958
THE ELYSIA,8676,806,328688
HILLVIEW REGENCY,8333,774,659920
COSTA DEL SOL,12484,1160,469987
MIMOSA TERRACE,13867,1288,805605
SAVANNAH CONDOPARK,7746,720,528781
THE LEVELZ,16554,1538,268836
DUNMAN VIEW,10367,963,438797
VIDA,23750,2206,228307
THE FLORIDA,7143,664,534260
SKYLINE RESIDENCES,19392,1802,109025
THE PLAZA,13088,1216,199591
THE SHELFORD,15707,1459,286891
THE INTERLACE,12734,1183,109702
BELYSA,7304,679,519531
THE TRIZON,16390,1523,276697
WATERFRONT GOLD,10565,981,479256
THOMSON GRAND,9542,886,573917
SUITES@BRADDELL,13898,1291,359965
SERANGOON GARDEN ESTATE,10173,945,555993
REGENT GROVE,7407,688,689527
THE LEGEND,17065,1585,259725
HOLLAND PEAK,13018,1209,278740
THE PEARL @ MOUNT FABER,13682,1271,99206
REGENTVILLE,8571,796,538686
BLOSSOM RESIDENCES,7725,718,677721
N.A.,9360,870,534898
EAST MEADOWS,10000,929,465560
SARHAD VILLE,10982,1020,119167
HILLVIEW REGENCY,9524,885,659920
THOMSON GRAND,14418,1339,575579
THE MINTON,9719,903,534079
GRANDEUR 8,10676,992,567749
ALEXIS,18694,1737,159949
AALTO,21527,2000,437981
PARC BLEU,14131,1313,427944
10 SHELFORD,20173,1874,288353
RIVER PLACE,14567,1353,169660
THE RAINTREE,11356,1055,587847
WOODHAVEN,12029,1118,737809
1 KING ALBERT PARK,11597,1077,598326
ST THOMAS SUITES,23519,2185,238141
SEMBAWANG HILLS ESTATE,9560,888,576309
AURALIS,12397,1152,423423
AURALIS,12397,1152,429081
HUNDRED TREES,11588,1077,128015
AVA TOWERS,9633,895,329949
SERANGOON GARDEN ESTATE,9804,911,559851
THE CLEARWATER,8318,773,479236
HUNDRED TREES,11986,1114,128002
BLOSSOMS @ WOODLEIGH,12589,1170,357907
GOLDEN HILL ESTATE,13062,1214,557016
PARC OASIS,8571,796,609774
CASA RIVIERA,10268,954,547802
THE SHAUGHNESSY,4770,443,768240
SKYPARK,21538,2001,238107
CARISSA PARK CONDOMINIUM,8969,833,507025
THE CASCADIA,19714,1831,589657
SKYLINE RESIDENCES,20825,1935,109025
CATHAY GARDENS,16131,1499,456975
SUNFLOWER REGENCY,7477,695,398753
TRIBECA,18438,1713,239497
HORIZON GREEN,5263,489,567774
MONTEBLEU,15876,1475,308162
CHUAN PARK,8592,798,556748
THE DAFFODIL,9441,877,466584
SIGNATURE PARK,10269,954,596745
N.A.,9276,862,546730
PEACE CENTRE/MANSIONS,7248,673,228149
SUITES@BRADDELL,14179,1317,359965
N.A.,22284,2070,427903
VILLA VERDE,10726,996,688694
THE CLIFT,22604,2100,69047
N.A.,15941,1481,217759
THOMSON GRAND,6938,645,573933
PARC VISTA,8347,775,649816
BELYSA,7273,676,519531
THE SUMMIT,10826,1006,466503
UBER 388,12957,1204,466477
SIMSVILLE,9670,898,389757
THE CLAYMORE,28617,2659,229544
SEASTRAND,10423,968,518187
COMPASS HEIGHTS,9718,903,545076
WATERFRONT WAVES,11067,1028,479245
SEMBAWANG HILLS ESTATE,7198,669,578310
BAYSHORE PARK,10000,929,469977
SERANGOON GARDEN ESTATE,11797,1096,556179
THE CANOPY,6415,596,768860
ESPARINA RESIDENCES,8156,758,544818
N.A.,10853,1008,417070
THONG SIA BUILDING,18307,1701,229922
SELETAR SPRINGS CONDOMINIUM,8108,753,798593
ESPARINA RESIDENCES,8758,814,544817
WATERFORD RESIDENCE,17009,1580,239332
THE WATERSIDE,14152,1315,436879
NUOVO,9231,858,569788
BLOSSOM RESIDENCES,7792,724,677721
BAYSHORE PARK,10230,950,469985
BALLOTA PARK CONDOMINIUM,6289,584,507082
MELVILLE PARK,7411,688,529947
TERRASSE,8930,830,544778
SKYLINE RESIDENCES,18143,1686,109026
THE MINTON,10276,955,534073
LIVIA,9091,845,518219
SKYLINE RESIDENCES,20911,1943,109026
SKYLINE RESIDENCES,19794,1839,109030
N.A.,8640,803,547458
SEASTRAND,9037,840,518187
BELYSA,7569,703,519530
LOYANG VILLAS,6974,648,507476
SIGLAP GARDEN,12571,1168,456109
KOVAN RESIDENCES,9633,895,544897
TROPICAL SPRING,9073,843,529880
THE PROMONT,22556,2096,229790
PARK COURT,9773,908,426641
SEASTRAND,10540,979,518182
VIVA,20445,1899,307465
SEASTRAND,9611,893,518183
THE MINTON,9285,863,534073
PASIR RIS BEACH PARK,5640,524,519229
BELYSA,7574,704,519532
ORCHARD COURT,11852,1101,238619
TELOK INDAH,6453,599,426277
INTERNATIONAL PLAZA,11439,1063,79903
TANAMERA CREST,8230,765,486061
FLAMINGO VALLEY,13524,1256,454943
ONE-NORTH RESIDENCES,15789,1467,138642
THE CLIFT,24612,2287,69047
REFLECTIONS AT KEPPEL BAY,18823,1749,98415
CHUAN VILLAS,6598,613,554909
N.A.,9514,884,455863
KEW GATE,5977,555,466077
HAIG ELEVEN,10829,1006,438866
PALM GROVE CONDOMINIUM,9690,900,547325
THE TANAMERA,7801,725,466665
HUME PARK I,9600,892,598725
N.A.,14413,1339,467258
THE CLIFT,25265,2347,69047
MOONSTONE RESIDENCES,10435,969,328465
SELETAR HILLS ESTATE,8897,827,807745
THE CLIFT,23673,2199,69047
SOMMERVILLE GRANDEUR,17836,1657,259278
WATERFRONT GOLD,12000,1115,479258
SEASONS VIEW,10142,942,576150
ZEDGE,18889,1755,309973
CASTLE GREEN,8305,772,787058
CHELSEA LODGE,9875,917,437083
SKYLINE RESIDENCES,26222,2436,109025
MOUNTBATTEN LODGE,16364,1520,437745
THE ESPIRA,8743,812,425566
WHITEWATER,8539,793,518764
SKYPARK,21528,2000,238107
KIM KEAT HOUSE,7504,697,328827
ST REGIS RESIDENCES SINGAPORE,23467,2180,247912
THE CLIFT,24130,2242,69047
RIO VISTA,8281,769,534201
SERANGOON GARDEN ESTATE,9830,913,558656
SUNRISE GARDENS,8507,790,806746
ONE ST MICHAEL'S,11880,1104,328006
THE ESPARIS,7279,676,519463
MAYSPRINGS,8947,831,678267
38 I SUITES,16786,1559,438646
LIVIA,9576,890,518205
SAVANNAH CONDOPARK,9333,867,528792
THE FLORAVALE,6696,622,648366
N.A.,4377,407,588556
VIBES @ EAST COAST,16200,1505,423858
LIVIA,9161,851,518208
BRADDELL HEIGHTS ESTATE,14786,1374,359656
N.A.,7530,700,779217
THOMSON GRAND,15207,1413,573918
THE MINTON,9250,859,534072
RIO VISTA,9052,841,534204
VALLEY PARK,14648,1361,248368
THE SUNNY SPRING,9368,870,398074
THOMSON GRAND,16296,1514,575579
CLOVER BY THE PARK,8826,820,573975
MONTROSA,7813,726,669605
PARKVIEW APARTMENTS,8708,809,658882
TAMPINES COURT,6884,640,521131
NINETEEN SHELFORD ROAD,15341,1425,288408
THE GALE,10047,933,506914
SELETARIS,8497,789,757710
SEASTRAND,9134,849,518180
OLA RESIDENCES,14275,1326,437830
THE ARTE,13980,1299,329216
THE PARC CONDOMINIUM,11842,1100,127140
THE SAIL @ MARINA BAY,23725,2204,18985
THE PEAK@BALMEG,12075,1122,119918
HAPPY GARDENS,11564,1074,369774
SKYLINE RESIDENCES,19567,1818,109030
WOODHAVEN,10739,998,737811
BELYSA,7491,696,519531
BLOSSOM RESIDENCES,7700,715,677721
BELYSA,7796,724,519530
MIMOSA TERRACE,13201,1226,805744
SOLEIL @ SINARAN,20920,1943,307467
BARTLEY RISE ESTATE,15659,1455,539087
BELYSA,7536,700,519530
N.A.,5654,525,739864
THE MILTONIA RESIDENCES,9897,919,768117
THE MINTON,9615,893,538752
RIS GRANDEUR,9495,882,519933
THE BERTH BY THE COVE,16571,1540,98621
GRANDE VISTA,7979,741,809691
SPRING GROVE,17021,1581,249565
AMARYLLIS VILLE,15256,1417,307990
N.A.,8968,833,457252
CENTENNIA SUITES,23052,2142,239427
CARIBBEAN AT KEPPEL BAY,17442,1620,98644
SIMS GREEN,8391,780,388134
NIN RESIDENCE,11954,1111,348270
WOODHAVEN,11210,1041,737809
ADRIA,18430,1712,309466
THOMSON GRAND,6907,642,573924
SEASTRAND,9998,929,518180
OPTIMA @ TANAH MERAH,10335,960,465515
THE MAKENA,13721,1275,437932
THE OCEANFRONT @ SENTOSA COVE,23756,2207,98528
SOLEIL @ SINARAN,19444,1806,307467
THE ESPARIS,7963,740,519459
HORIZON TOWER,13777,1280,239228
FORESQUE RESIDENCES,12124,1126,678274
TERRASSE,10918,1014,544776
THE WATER EDGE,14620,1358,398106
THE INTERLACE,13513,1255,109687
THE PARC CONDOMINIUM,9587,891,127159
BLOSSOM RESIDENCES,7885,733,677723
THE FLORENTINE,8290,770,549555
CASHEW HEIGHTS CONDOMINIUM,9150,850,679664
COSTA RHU,13548,1259,437434
LUCKY PLAZA,21242,1973,238863
CASPIAN,9262,860,648320
DE PARADISO,10714,995,328644
RIVERIA GARDENS,23361,2170,238406
THE MILTONIA RESIDENCES,8113,754,768120
ELIZABETH HEIGHT,20213,1878,229668
THE HERMITAGE,18987,1764,258117
SKYLINE RESIDENCES,19700,1830,109030
CALARASI,7704,716,328882
FERRARIA PARK CONDOMINIUM,9034,839,506950
SEASTRAND,9572,889,518180
THE WARREN,8588,798,689680
HEDGES PARK CONDOMINIUM,9862,916,506884
WATERFRONT GOLD,13081,1215,479257
SELETAR HILLS ESTATE,8470,787,808889
THE GARDENS AT BISHAN,7294,678,575578
SERENITY PARK,8421,782,806111
SELETAR HILLS ESTATE,7830,727,808599
FABER CREST,8941,831,129201
TAMPINES COURT,6415,596,521134
THE AZURE,23464,2180,98584
PARC OASIS,8509,790,609777
THE CASCADIA,16341,1518,589641
THE TRILLIUM,22330,2075,239434
MELVILLE PARK,8258,767,529947
WATERFRONT ISLE,12071,1121,479261
DAISY APARTMENTS,11923,1108,359453
ONE SHENTON,19914,1850,68803
ONE SHENTON,21526,2000,68803
SPRINGDALE CONDOMINIUM,10581,983,587975
RIO VISTA,8435,784,534207
ROBERTSON EDGE,20114,1869,238010
ROSEWOOD,7982,742,737935
ONE SHENTON,19921,1851,68803
N.A.,8668,805,328156
NORTHVALE,7627,709,689669
GEMINI APARTMENTS,8432,783,457263
PALM VISTA,9694,901,426225
CHANGI COURT,10741,998,486832
THE BENCOOLEN,14227,1322,189647
BREEZE BY THE EAST,11658,1083,466452
REGENT HEIGHTS,8148,757,659804
UE SQUARE,14563,1353,238275
WOODHAVEN,10370,963,737811
THE BELVEDERE,19154,1779,437876
THOMSON GRAND,14932,1387,573918
EUPHONY GARDENS,7423,690,759151
YEW MEI GREEN,7300,678,689574
SUITES 28,11953,1110,398361
AUSTVILLE RESIDENCES,7679,713,544806
THE MILTONIA RESIDENCES,10604,985,768104
THE COTZ,15000,1394,423824
SEASTRAND,10849,1008,518180
SEASTRAND,10423,968,518189
SEASTRAND,9785,909,518180
SEASTRAND,9998,929,518180
HORIZON GREEN,5640,524,567817
THE MILTONIA RESIDENCES,8899,827,768114
PRIVE,7375,685,828809
NORMANTON PARK,10424,968,119002
EIGHT COURTYARDS,8695,808,768100
CHUAN LOFT,8857,823,554611
H2O RESIDENCES,10159,944,797530
SKYLINE RESIDENCES,19369,1799,109030
WOODHAVEN,9987,928,737808
THE MINTON,9615,893,534083
THOMSON GRAND,6907,642,573922
LUXUS HILLS,15867,1474,805248
PARK GREEN,7778,723,545042
SEASTRAND,8532,793,518182
TREVISTA,13516,1256,319582
SKYLINE RESIDENCES,20987,1950,109025
VACANZA @ EAST,12160,1130,417391
SEASTRAND,10508,976,518186
THE FLORIDA,7000,650,534260
BEACON HEIGHTS,11024,1024,328689
ONE AMBER,14667,1363,439972
CLOVER BY THE PARK,13445,1249,573975
WATERFORD RESIDENCE,17347,1612,239332
REFLECTIONS AT KEPPEL BAY,17010,1580,98414
PRIVE,7552,702,828818
SANCTUARY GREEN,13462,1251,436925
GRANDEUR 8,9369,870,567749
REFLECTIONS AT KEPPEL BAY,16951,1575,98414
THE GREENWOOD,11339,1053,286918
MARINA BAY RESIDENCES,24387,2266,18980
N.A.,7563,703,400832
N.A.,18196,1690,249010
DOVER PARKVIEW,11494,1068,138685
BLOSSOM RESIDENCES,5989,556,677721
KOVAN RESIDENCES,12090,1123,544895
WANG LODGE,7128,662,399264
PEBBLE BAY,12486,1160,436919
SOLEIL @ SINARAN,18148,1686,307467
THE WATER EDGE,14322,1331,398106
THOMSON GRAND,14358,1334,573918
THOMSON GRAND,13889,1290,573918
THOMSON GRAND,8789,817,573916
NOTTINGHILL SUITES,17216,1599,596195
PARC IMPERIAL,15623,1451,118618
KERRISDALE,11826,1099,207852
WATTEN HILL,13320,1237,287133
PALM SPRING,16547,1537,259326
THE MILTONIA RESIDENCES,9325,866,768121
D'LEEDON,18995,1765,266224
SEASTRAND,10639,988,518182
SKYLINE RESIDENCES,19550,1816,109030
SKYLINE RESIDENCES,19613,1822,109030
THE HILLSIDE,9825,913,588195
BALLOTA PARK CONDOMINIUM,7311,679,507082
BUCKLEY CLASSIQUE,17398,1616,309767
DOUBLE BAY RESIDENCES,9655,897,529883
HILLVIEW REGENCY,9223,857,659920
TAMPINES COURT,5969,555,521131
PARBURY HILL CONDOMINIUM,11012,1023,467304
SERANGOON GARDEN ESTATE,11406,1060,555046
CENTRA LOFT,14200,1319,387935
VACANZA @ EAST,12146,1128,417393
ONE SHENTON,18728,1740,68803
SKYLINE RESIDENCES,20800,1932,109025
N.A.,8582,797,467161
ESPARINA RESIDENCES,8156,758,544814
THE MILTONIA RESIDENCES,8491,789,768114
THE PARC CONDOMINIUM,12111,1125,127140
SEASTRAND,10382,964,518186
THOMSON GRAND,10833,1006,573915
THE IMPERIAL,20747,1927,239620
CASPIAN,8991,835,648320
AQUARIUS BY THE PARK,8491,789,478930
THE CENTRIS,8784,816,648335
THOMSON GRAND,6921,643,573926
SANCTUARY GREEN,13542,1258,436922
ZEDGE,19556,1817,309973
SUMMERHILL,10256,953,596231
SOMMERVILLE PARK,16777,1559,259281
THE BOUTIQ,25430,2363,239565
SEASTRAND,8977,834,518181
NORTHOAKS,6681,621,738085
FLAMINGO VALLEY,13333,1239,454855
ASCENTIA SKY,14730,1368,158749
ICON,20148,1872,78878
CASHEW VILLAS,12667,1177,679830
THE SOUND,16568,1539,429072
REFLECTIONS AT KEPPEL BAY,27985,2600,98415
THE MILTONIA RESIDENCES,10335,960,768117
THE CENTRIS,10873,1010,648332
ASTOR GREEN,10156,944,597592
BELYSA,7193,668,519531
WATERFRONT KEY,10628,987,479250
KOVAN RESIDENCES,13636,1267,544916
EASTERN LAGOON,11600,1078,455286
COMPASS HEIGHTS,9596,891,545076
N.A.,8945,831,466031
THE PEAK@BALMEG,12264,1139,119918
THE MILTONIA RESIDENCES,9388,872,768105
THE MILTONIA RESIDENCES,9434,876,768113
LEONIE STUDIO,21609,2008,239223
ASTON MANSIONS,6383,593,398026
THE PEAK@BALMEG,14663,1362,119916
HUME PARK I,9746,905,598719
HILLCREST PARK,17388,1615,289065
VACANZA @ EAST,11853,1101,417391
WOODHAVEN,11784,1095,737809
WOODHAVEN,11338,1053,737809
THE PARC CONDOMINIUM,11858,1102,127140
AMBER RESIDENCES,16748,1556,439888
THE MINTON,9611,893,534080
BUTTERWORTH 8,12705,1180,439423
TERRASSE,9168,852,544781
BELLE VUE RESIDENCES,25084,2330,238599
GRAND TOWER,18165,1688,308140
SKYLINE RESIDENCES,20560,1910,109030
THE INTERWEAVE,13944,1295,328805
BELYSA,7772,722,519532
N.A.,20563,1910,98335
THE VERTE,10044,933,426146
VACANZA @ EAST,12179,1132,417394
BLOSSOM RESIDENCES,8181,760,677721
THOMSON GRAND,14611,1357,573918
THOMSON GRAND,13895,1291,573916
SKYLINE RESIDENCES,20610,1915,109025
MI CASA,9274,862,689866
N.A.,17155,1594,298532
BUKIT REGENCY,10060,935,588134
GRANDEUR 8,9697,901,567743
THOMSON GRAND,7078,658,573921
SKYLINE RESIDENCES,19143,1778,109026
PEBBLE BAY,12668,1177,436920
SOUTHAVEN II,9064,842,587968
THOMSON GRAND,15669,1456,575579
PARC PALAIS,8828,820,598752
NIN RESIDENCE,11345,1054,348271
CHERRYHILL,8854,823,536471
SEASTRAND,10019,931,518183
THE MINTON,9450,878,538752
N.A.,10766,1000,577082
BELYSA,7466,694,519531
THE SEA VIEW,18269,1697,439946
REGENT GROVE,7667,712,689528
DUCHESS CREST,13120,1219,269200
SENNETT ESTATE,12131,1127,349661
WOODSVALE,6817,633,738093
ELIAS GREEN,6690,622,519960
THE MILTONIA RESIDENCES,9050,841,768114
THOMSON GRAND,13518,1256,573913
THE WOODS,5104,474,648289
ASPEN HEIGHTS,15582,1448,238307
AUSTVILLE RESIDENCES,7893,733,544805
THE CITRINE,11926,1108,329415
THE BAYSHORE,9737,905,469974
SERANGOON GARDEN ESTATE,9942,924,558879
THE WOODS,5215,484,648263
VACANZA @ EAST,15244,1416,417393
VACANZA @ EAST,12000,1115,417394
NOTTINGHILL SUITES,17799,1654,596195
N.A.,8009,744,548042
SUITES@BRADDELL,14392,1337,359965
TANJONG RIA CONDOMINIUM,11875,1103,436914
LA CRYSTAL,16837,1564,239568
N.A.,8462,786,438938
COTE D'AZUR,13141,1221,449301
TEACHER'S HOUSING ESTATE,9985,928,789458
TERRASSE,9302,864,544777
CITY PLAZA,10765,1000,409286
TIVOLI GARDENS,9153,850,534370
WATERFORD RESIDENCE,16796,1560,239332
MARTIN NO 38,25267,2347,239059
ROSEWOOD SUITES,11172,1038,737876
VACANZA @ EAST,11642,1082,417394
AUSTVILLE RESIDENCES,7463,693,544809
N.A.,10504,976,426084
SUITES@BRADDELL,14002,1301,359965
SILVERSEA,23732,2205,449306
SELETAR HILLS ESTATE,9411,874,808284
LAKEPOINT CONDOMINIUM,6560,609,648923
KOVAN APARTMENTS,9058,842,548102
HAZEL PARK CONDOMINIUM,10532,978,678950
YEW MEI GREEN,7886,733,689574
THOMSON GRAND,15682,1457,575579
N.A.,12666,1177,549855
CHANGI COURT,10000,929,486832
MULBERRY TREE,19500,1812,308092
SKYLINE RESIDENCES,21008,1952,109025
BELMOND GREEN,18000,1672,259816
THOMSON GRAND,7204,669,573941
THOMSON GRAND,6953,646,573940
THOMSON GRAND,6953,646,573938
RIS GRANDEUR,6401,595,519935
WOODHAVEN,11274,1047,737810
N.A.,10617,986,806817
FORESQUE RESIDENCES,10686,993,678276
SKYLINE RESIDENCES,19325,1795,109025
SKYLINE RESIDENCES,20275,1884,109025
LEONIE HILL RESIDENCES,20078,1865,239191
LA CRYSTAL,17191,1597,239568
GARDENVILLE,20485,1903,257654
FLAMINGO VALLEY,13955,1296,454946
SEASTRAND,9040,840,518187
THE BELVEDERE,18086,1680,437874
SKYLINE RESIDENCES,18338,1704,109026
PAVILION PARK,11619,1079,658697
N.A.,38532,3580,228367
OLEANAS RESIDENCE,14097,1310,239347
FLAMINGO VALLEY,13653,1268,454852
SKYLINE RESIDENCES,19731,1833,109030
TIVOLI GRANDE,12684,1178,427059
THE MILTONIA RESIDENCES,7953,739,768105
N.A.,10772,1001,327991
VIBES @ EAST COAST,15292,1421,423858
PARC OASIS,8377,778,609783
JADE VINE GARDENS,10343,961,548223
EAST COAST RESIDENCES,12099,1124,466488
SKYLINE RESIDENCES,19338,1797,109025
KOVAN RESIDENCES,11676,1085,544896
SUITES@BRADDELL,12288,1142,359965
MARTIN PLACE RESIDENCES,21011,1952,237988
N.A.,23713,2203,309205
BELYSA,7843,729,519530
N.A.,11896,1105,535978
BLOSSOM RESIDENCES,7890,733,677723
THE VUE,12886,1197,534958
SELETAR HILLS ESTATE,7922,736,808966
EDELWEISS PARK CONDOMINIUM,8871,824,509743
MONTVIEW,14917,1386,277116
WILKIE 80,21053,1956,228079
THE WATER EDGE,14825,1377,398106
N.A.,12596,1170,757218
BELYSA,7440,691,519531
THE FORESTA @ MOUNT FABER,21508,1998,98748
THE MINTON,9487,881,534080
SKYLINE RESIDENCES,20258,1882,109025
NIN RESIDENCE,13405,1245,348271
CAIRNHILL CREST,23026,2139,229814
WEMBLY RESIDENCES,12692,1179,545678
EIGHT COURTYARDS,8519,791,768097
CASA AERATA,12444,1156,398484
SPRINGLEAF GARDEN,12944,1203,788172
THE WATER EDGE,14561,1353,398106
RIVER PLACE,13636,1267,169659
THE MILTONIA RESIDENCES,8504,790,768118
BELYSA,7611,707,519532
BELYSA,7500,697,519532
N.A.,12289,1142,546431
PALM GARDENS,7965,740,689050
CARIBBEAN AT KEPPEL BAY,16867,1567,98645
H2O RESIDENCES,10366,963,797531
SEASTRAND,9785,909,518180
ONE AMBER,14531,1350,439972
TERRASSE,10586,983,544780
SKYLINE RESIDENCES,19286,1792,109025
BELYSA,6989,649,519531
FORESQUE RESIDENCES,11721,1089,678274
SEASTRAND,10593,984,518180
SKYLINE RESIDENCES,19403,1803,109025
D'LEEDON,18680,1735,266224
THOMSON GRAND,12074,1122,573916
VACANZA @ EAST,10563,981,417396
THE INTERLACE,11766,1093,109702
N.A.,10843,1007,389391
VIDA,27625,2566,228307
THE FORESTA @ MOUNT FABER,20949,1946,98751
SUNGLADE,11900,1106,556133
BELYSA,7445,692,519531
BAYSHORE PARK,10642,989,469977
MANDARIN GARDEN CONDOMINIUM,10411,967,448909
BULLION PARK,9829,913,789095
WINDY HEIGHTS,8043,747,419593
N.A.,11309,1051,368165
LATITUDE,23944,2224,249208
LATITUDE,23568,2189,249208
GLASGOW RESIDENCE,14750,1370,549338
THE TANAMERA,8862,823,466664
N.A.,7606,707,469465
TERESA VILLE,11044,1026,99308
CASA AERATA,10446,970,398484
LIVIA,8872,824,518215
OPAL SUITES,14143,1314,328396
PALM GARDENS,7655,711,689049
EAST MEADOWS,9469,880,465559
MIRO,22584,2098,308365
ONE SHENTON,23859,2217,68803
FLORIDIAN,19584,1819,589649
COSMO,17432,1620,399914
THE SERENNIA,11846,1101,424385
TERRASSE,11384,1058,544776
TRIBECA,19944,1853,239497
CYAN,21613,2008,258709
THE GREENWOOD,11107,1032,286875
THE MINTON,9549,887,534083
NIN RESIDENCE,10145,942,348271
WOODHAVEN,10370,963,737811
NEWTON 18,17884,1661,307989
RIS GRANDEUR,10167,945,519933
PEOPLE'S PARK COMPLEX,11512,1069,59108
CRYSTAL LODGE,6745,627,398870
THE MINTON,9439,877,534079
SKYLINE RESIDENCES,20475,1902,109025
VIBES @ EAST COAST,15974,1484,423858
YONG AN PARK,18685,1736,238361
MODA,16678,1549,428762
SKYLINE RESIDENCES,18078,1679,109026
THE LAKEFRONT RESIDENCES,11161,1037,648305
THE MILTONIA RESIDENCES,10471,973,768117
THE VUE,12795,1189,534958
THE TENERIFFE,8733,811,275916
THOMSON GRAND,14140,1314,575581
THE INTERWEAVE,14704,1366,328805
SKYLINE RESIDENCES,20400,1895,109025
PARC OASIS,8680,806,609781
SKYLINE RESIDENCES,20833,1935,109026
HILLTOP GROVE,7681,714,669619
GUILIN VIEW,10513,977,659247
N.A.,31362,2914,228160
ONE ST MICHAEL'S,11638,1081,328006
MAYSPRINGS,8571,796,678267
SUITES@BRADDELL,13843,1286,359965
THE MILTONIA RESIDENCES,10465,972,768104
BELYSA,7338,682,519531
NV RESIDENCES,8973,834,518213
TERRASSE,10963,1018,544776
WOODHAVEN,10274,955,737808
HILLTOP GROVE,7516,698,669621
WESTCOVE CONDOMINIUM,8795,817,128044
PAVILION PARK,12674,1177,658563
THE MILTONIA RESIDENCES,10625,987,768117
THOMSON GRAND,14876,1382,573918
NUOVO,7576,704,569786
CENTRAL GROVE,9316,865,389779
BALLOTA PARK CONDOMINIUM,6514,605,507083
DOUBLE BAY RESIDENCES,9686,900,528718
ALEXIS,16667,1548,159949
WOODHAVEN,11657,1083,737809
CENTRO RESIDENCES,14643,1360,567752
SKYLINE RESIDENCES,19440,1806,109030
N.A.,12983,1206,467731
D'MANOR,6522,606,465651
AUSTVILLE RESIDENCES,7720,717,544810
THE MILTONIA RESIDENCES,7969,740,768110
DOUBLE BAY RESIDENCES,10925,1015,529883
H2O RESIDENCES,10418,968,797531
THOMSON GRAND,13606,1264,573913
ONE-NORTH RESIDENCES,16140,1499,138642
WOODHAVEN,10838,1007,737811
N.A.,18232,1694,297833
NV RESIDENCES,8827,820,518190
MEDGE,18256,1696,308186
THE SERENNIA,11900,1106,424382
THE SERENNIA,13997,1300,424385
COSTA DEL SOL,13130,1220,469993
THE TROPICA,8767,814,529771
THE MILTONIA RESIDENCES,9279,862,768113
SKYLINE RESIDENCES,20113,1868,109030
BELYSA,7425,690,519531
SKYLINE RESIDENCES,19597,1821,109025
ROSEWOOD SUITES,8889,826,737875
WOODHAVEN,11870,1103,737809
EIGHT COURTYARDS,8631,802,768097
VIVA,20989,1950,307464
THE MAYLEA,15652,1454,117494
CLEMENTIWOODS CONDOMINIUM,11410,1060,126818
