Project Name,Address,Unit Price ($ psm),Unit Price ($ psf),Postal Code
KINGSFORD WATERBAY,64 Upper Serangoon View  #07-07 ,11645,1082,533886
THE MAYFAIR,7 Jurong East Street 32  #02-07 ,9184,853,609480
CASHEW HEIGHTS CONDOMINIUM,91 Cashew Road  #05-02 ,9013,837,679662
CARIBBEAN AT KEPPEL BAY,4 Keppel Bay Drive  #02-03 ,15378,1429,98637
OASIS GARDEN,51 Jalan Bunga Rampai  #05-01 ,11761,1093,538420
THE VENUE RESIDENCES,12 Tai Thong Crescent  #16-17 ,16130,1498,347846
TREE HOUSE,62 Chestnut Avenue  #12-09 ,11293,1049,679518
THE SKYWOODS,7 Dairy Farm Heights  #14-19 ,14814,1376,677669
THE FLORAVALE,226 Westwood Avenue  #03-20 ,7217,671,648357
SIMS URBAN OASIS,16 Sims Drive  #01-57 ,14611,1357,387393
KINGSFORD WATERBAY,70 Upper Serangoon View  #05-28 ,11800,1096,533883
GOODWOOD RESIDENCE,261 Bukit Timah Road  #03-07 ,23376,2172,259703
THE SAIL @ MARINA BAY,2 Marina Boulevard  #16-06 ,21437,1992,18987
CLEMENTIWOODS CONDOMINIUM,82 West Coast Road  #05-27 ,11792,1096,126817
THE GLADES,8 Bedok Rise  #07-23 ,15256,1417,469600
KINGSFORD WATERBAY,68 Upper Serangoon View  #09-22 ,12141,1128,533884
KINGSFORD WATERBAY,64 Upper Serangoon View  #10-08 ,12091,1123,533886
THE VENUE RESIDENCES,12 Tai Thong Crescent  #09-18 ,15771,1465,347846
KINGSFORD WATERBAY,80 Upper Serangoon View  #08-73 ,12414,1153,533878
TRILIVE,115 Tampines Road  #09-16 ,16774,1558,533901
E MAISON,32 Braddell Road  #03-26 ,13857,1287,359967
RIVERSAILS,8 Upper Serangoon Crescent  #16-18 ,11182,1039,534032
CANNAVILLE,40A Duku Road ,10619,987,429198
N.A.,23 King'S Road ,19781,1838,268073
KINGSFORD WATERBAY,68 Upper Serangoon View  #05-22 ,11969,1112,533884
THE SHELFORD,1B Shelford Road  #04-14 ,17083,1587,288535
KINGSFORD WATERBAY,64 Upper Serangoon View  #04-08 ,11833,1099,533886
LAKE LIFE,10 Tao Ching Road  #13-23 ,9337,867,618725
KINGSFORD WATERBAY,80 Upper Serangoon View  #03-78 ,11373,1057,533878
MARINA BAY SUITES,3 Central Boulevard  #59-01 ,31731,2948,18965
THE PANORAMA,20 Ang Mo Kio Avenue 2  #09-39 ,13101,1217,567701
FLORAVIEW,3 Ang Mo Kio Street 66  #03-16 ,13917,1293,567706
LAKEVILLE,11 Jurong Lake Link  #11-44 ,15025,1396,648155
ORCHID PARK CONDOMINIUM,89 Yishun Street 81  #11-06 ,6548,608,768449
TWIN FOUNTAINS,11 Woodlands Avenue 6  #13-03 ,8246,766,738992
N.A.,14 Jalan Girang ,10300,957,359185
8 NAPIER,8 Napier Road  #07-03 ,33238,3088,258502
THE LINCOLN MODERN,20 Lincoln Road  #06-06 ,14885,1383,308353
HERITAGE VIEW,8 Dover Rise  #15-09 ,12377,1150,138679
CHANGI RISE CONDOMINIUM,10 Simei Rise  #04-27 ,9053,841,528804
KINGSFORD WATERBAY,64 Upper Serangoon View  #06-08 ,11924,1108,533886
KINGSFORD WATERBAY,80 Upper Serangoon View  #07-75 ,12381,1150,533878
KINGSFORD WATERBAY,76 Upper Serangoon View  #04-54 ,11750,1092,533880
KINGSFORD WATERBAY,78 Upper Serangoon View  #09-70 ,11627,1080,533879
SEVENTY SAINT PATRICK'S,86 St. Patrick'S Road  #05-44 ,19359,1798,424184
THE QUINTET,40 Choa Chu Kang Street 64  #04-11 ,7966,740,689103
KINGSFORD WATERBAY,64 Upper Serangoon View  #02-05 ,11316,1051,533886
THE TEMBUSU,107A Tampines Road  #08-08 ,14938,1388,534009
RIVERTREES RESIDENCES,25 Fernvale Close  #20-11 ,10930,1015,797462
R MAISON,1 Sommerville Walk  #03-01 ,13772,1279,357699
LAKE LIFE,8 Tao Ching Road  #04-16 ,8853,823,618724
THE INTERLACE,198 Depot Road  #07-37 ,15200,1412,109693
DUCHESS MANOR,20A Duchess Road  #03-05 ,18229,1694,269031
KINGSFORD WATERBAY,74 Upper Serangoon View  #07-51 ,12052,1120,533881
EIGHT RIVERSUITES,2 Whampoa East  #22-08 ,16385,1522,338517
WATERFRONT @ FABER,48 Faber Walk  #04-27 ,13526,1257,128993
LAKE LIFE,8 Tao Ching Road  #12-13 ,9455,878,618724
SUNNYVALE RESIDENCES,132 Lorong K Telok Kurau  #02-03 ,15099,1403,425790
KINGSFORD WATERBAY,66 Upper Serangoon View  #11-15 ,12219,1135,533885
SEVENTY SAINT PATRICK'S,86 St. Patrick'S Road  #05-47 ,18877,1754,424184
KINGSFORD WATERBAY,68 Upper Serangoon View  #11-21 ,12222,1135,533884
KINGSFORD WATERBAY,68 Upper Serangoon View  #15-18 ,12341,1146,533884
SIMS URBAN OASIS,2 Sims Drive  #10-10 ,15427,1433,387386
KINGSFORD WATERBAY,68 Upper Serangoon View  #09-21 ,12143,1128,533884
KINGSFORD WATERBAY,78 Upper Serangoon View  #05-63 ,11443,1063,533879
KINGSFORD WATERBAY,74 Upper Serangoon View  #07-53 ,11909,1106,533881
SIMS URBAN OASIS,2 Sims Drive  #13-06 ,15380,1429,387386
SIMS URBAN OASIS,10 Sims Drive  #16-37 ,15934,1480,387390
SIMS URBAN OASIS,2 Sims Drive  #16-07 ,15245,1416,387386
HILLTOPS,101 Cairnhill Circle  #06-03 ,32703,3038,229809
VILLA VERDE,125 Verde Crescent ,10333,960,688462
SIMS URBAN OASIS,2 Sims Drive  #15-04 ,15603,1450,387386
PARC PALAIS,57 Hume Avenue  #07-05 ,11053,1027,598753
SIMS URBAN OASIS,2 Sims Drive  #18-09 ,15842,1472,387386
REZI 3TWO,48 Lorong 32 Geylang  #05-06 ,16833,1564,398308
DE ROYALE,31 Jalan Rama Rama  #14-02 ,12983,1206,329111
CITY SQUARE RESIDENCES,14 Kitchener Link  #24-28 ,12957,1204,207223
BELLEWATERS,25 Anchorvale Crescent  #01-29 ,7733,718,544656
SIMS URBAN OASIS,2 Sims Drive  #05-06 ,14855,1380,387386
THE RIVERSIDE PIAZZA,11 Keng Cheow Street  #04-01 ,13409,1246,59608
KOVAN RESIDENCES,3 Kovan Road  #06-10 ,11880,1104,544917
BELLEWATERS,25 Anchorvale Crescent  #03-29 ,8267,768,544656
LA CRYSTAL,160 Killiney Road  #14-02 ,16138,1499,239568
THE SPRINGBLOOM,143 Serangoon Avenue 3  #08-04 ,11095,1031,556121
TANGLIN VIEW,156 Prince Charles Crescent  #07-17 ,15062,1399,159015
COMMONWEALTH TOWERS,230 Commonwealth Avenue  #26-01 ,18500,1719,149739
CHELSEA VILLAGE,45 Jambol Place ,13088,1216,119372
OLA RESIDENCES,839 Mountbatten Road  #05-03 ,10746,998,437831
PARK INFINIA AT WEE NAM,6A Lincoln Road  #29-15 ,20333,1889,308366
SIMS URBAN OASIS,2 Sims Drive  #09-09 ,15296,1421,387386
ONE DEVONSHIRE,1 Devonshire Road  #06-06 ,22764,2115,239896
COMPASS HEIGHTS,9 Sengkang Square  #05-17 ,9028,839,545075
LUXUS HILLS,53 Luxus Hill Avenue ,18667,1734,804841
SIMS URBAN OASIS,10 Sims Drive  #05-34 ,14984,1392,387390
SERANGOON GARDEN ESTATE,26 Walmer Drive ,9704,902,555051
BELLEWATERS,19 Anchorvale Crescent  #01-18 ,8591,798,544653
SIMS URBAN OASIS,10 Sims Drive  #17-34 ,15882,1475,387390
DOMAIN 21,23 Delta Road  #05-05 ,15546,1444,169814
CAVENDISH PARK,20 Pine Grove  #11-02 ,11475,1066,597595
LA CASA,52 Woodlands Drive 16  #10-06 ,8208,762,737900
KINGSFORD WATERBAY,66 Upper Serangoon View  #05-17 ,11795,1096,533885
KINGSFORD WATERBAY,78 Upper Serangoon View  #06-63 ,11492,1068,533879
SIMS URBAN OASIS,2 Sims Drive  #04-04 ,14984,1392,387386
FAIRMOUNT CONDOMINIUM,30 Eastwood Road  #04-09 ,9888,919,486365
KINGSFORD WATERBAY,80 Upper Serangoon View  #01-75 ,12111,1125,533878
BELLEWATERS,13 Anchorvale Crescent  #12-08 ,9314,865,544650
KINGSFORD WATERBAY,66 Upper Serangoon View  #12-09 ,12178,1131,533885
CANARY PARK,126 Jalan Simpang Bedok ,16852,1566,488233
MORO MANSIONS,3 Lorong 37 Geylang  #07-02 ,9460,879,387901
HERITAGE VIEW,8 Dover Rise  #15-05 ,12131,1127,138679
EAST TREASURE,36 Lorong N Telok Kurau  #02-02 ,11266,1047,425160
CITY GATE,371 Beach Road  #17-05 ,19515,1813,199597
WATERWOODS,15 Punggol Field Walk  #04-03 ,8588,798,828746
KINGSFORD WATERBAY,68 Upper Serangoon View  #07-21 ,12048,1119,533884
VIVA,2 Suffolk Walk  #11-01 ,22515,2092,307462
KINGSFORD WATERBAY,64 Upper Serangoon View  #08-08 ,12015,1116,533886
THE BAYSHORE,30 Bayshore Road  #19-08 ,9318,866,469974
SIMS URBAN OASIS,10 Sims Drive  #13-34 ,15513,1441,387390
THE MAKENA,123 Meyer Road  #22-01 ,14019,1302,437934
PIN MANSIONS,18 Lim Ah Pin Road  #01-04 ,10517,977,547837
THE TREVOSE,60 Trevose Crescent  #03-20 ,13665,1269,298090
KINGSFORD WATERBAY,64 Upper Serangoon View  #07-05 ,11526,1071,533886
KINGSFORD WATERBAY,74 Upper Serangoon View  #05-51 ,11969,1112,533881
LAKEVILLE,1 Jurong Lake Link  #02-08 ,13414,1246,648160
THE PROMINENCE,101 Haig Road  #02-01 ,8537,793,438749
SEA HORIZON,21 Pasir Ris Rise  #11-42 ,8934,830,518090
KINGSFORD WATERBAY,70 Upper Serangoon View  #13-31 ,12313,1144,533883
THE SKYWOODS,5 Dairy Farm Heights  #07-09 ,13914,1293,677668
THE SANTORINI,21 Tampines Street 86  #11-01 ,11676,1085,528592
BELLEWOODS,104 Woodlands Avenue 5  #05-12 ,8853,822,739012
ARDMORE II,2 Ardmore Park  #13-04 ,25000,2323,259947
N.A.,18/18A Joo Avenue ,15942,1481,219313
KINGSFORD WATERBAY,64 Upper Serangoon View  #07-08 ,11970,1112,533886
THE AMORE,53 Edgedale Plains  #07-01 ,8333,774,828692
TRILIVE,115 Tampines Road  #11-15 ,17510,1627,533901
KINGSFORD WATERBAY,68 Upper Serangoon View  #08-18 ,11955,1111,533884
THE AMORE,55A Edgedale Plains  #07-14 ,8185,760,828680
SIMS URBAN OASIS,2 Sims Drive  #08-17 ,14568,1353,387386
LANGSTON VILLE,15 Kim Yam Road  #04-05 ,14943,1388,239328
IDYLLIC RESIDENCES,52 Lorong M Telok Kurau  #04-06 ,12278,1141,425346
NOUVELLE PARK,137 Poh Huat Road West  #04-07 ,9028,839,546687
THE GRANGE,1 Grange Garden  #10-05 ,24528,2279,249631
KINGSFORD WATERBAY,68 Upper Serangoon View  #11-23 ,12220,1135,533884
BELLEWATERS,13 Anchorvale Crescent  #10-07 ,8808,818,544650
CRYSTAL COURT,456 River Valley Road  #04-03 ,11934,1109,248342
THE TRILLIUM,112 Kim Seng Road  #24-02 ,22635,2103,239432
KINGSFORD WATERBAY,78 Upper Serangoon View  #01-65 ,11793,1096,533879
KOVAN MELODY,23 Kovan Road  #07-19 ,10867,1010,548193
DE ROYALE,33 Jalan Rama Rama  #30-06 ,13613,1265,329112
WATER PLACE,175 Tanjong Rhu Road  #08-09 ,13540,1258,436606
EIGHT RIVERSUITES,2 Whampoa East  #18-08 ,16058,1492,338517
SIMS URBAN OASIS,16 Sims Drive  #06-56 ,14915,1386,387393
STARVILLE,62 Lengkong Tiga  #07-06 ,10885,1011,417455
FORESQUE RESIDENCES,101 Petir Road  #24-03 ,8172,759,678272
LAKE LIFE,12 Tao Ching Road  #10-29 ,9260,860,618726
KOVAN RESIDENCES,5 Kovan Road  #13-19 ,12652,1175,544894
SELETAR HILLS ESTATE,30 Nim Drive ,10128,941,807669
D'ECOSIA,27 Still Road South  #03-02 ,16000,1486,423936
TIVOLI GRANDE,128 Koon Seng Road  #02-13 ,15000,1394,427060
ST FRANCIS LODGE,98 St. Francis Road  #08-01 ,9217,856,328074
THE AMORE,53A Edgedale Plains  #02-06 ,8305,772,828693
KINGSFORD WATERBAY,84 Upper Serangoon View ,11818,1098,533876
KINGSFORD WATERBAY,70 Upper Serangoon View  #07-27 ,11911,1107,533883
FRANKEL ESTATE,3 Frankel Place ,14763,1372,458072
TANGLIN PARK,5C Ridley Park  #01-05 ,19231,1787,248479
BOTANIC GARDENS VIEW,9 Taman Serasi  #08-11 ,19018,1767,257720
THE SKYWOODS,3 Dairy Farm Heights  #01-08 ,12243,1137,677667
LEGENDA AT JOO CHIAT,23 Joo Chiat Lane  #02-13 ,9292,863,428125
FLAMINGO VALLEY,478 Siglap Road  #05-70 ,9091,845,454852
THE CENTRIS,65 Jurong West Central 3  #07-03 ,11591,1077,648332
THE ANCHORAGE,370E Alexandra Road  #07-10 ,12805,1190,159958
KINGSFORD WATERBAY,68 Upper Serangoon View  #15-25 ,12333,1146,533884
SIMS URBAN OASIS,2 Sims Drive  #08-07 ,14822,1377,387386
EASTPOINT GREEN,5 Simei Street 3  #05-07 ,8364,777,529892
BELLEWATERS,19 Anchorvale Crescent  #12-17 ,9324,866,544653
THE MADEIRA,50 Bukit Batok Street 31  #07-06 ,9694,901,659442
THE QUARTZ,53 Compassvale Bow  #13-05 ,10707,995,544985
VILLA MARINA,21 Jalan Sempadan  #02-08 ,10603,985,457398
COSTA RHU,9 Rhu Cross  #06-01 ,13655,1269,437436
V ON SHENTON,5A Shenton Way  #45-17 ,28683,2665,68814
KINGSFORD WATERBAY,68 Upper Serangoon View  #10-21 ,12175,1131,533884
# 1 SUITES,1 Lorong 20 Geylang  #08-14 ,12650,1175,398721
MELVILLE PARK,20 Simei Street 1  #03-11 ,8644,803,529944
NATHAN PLACE,16 Nathan Road  #05-03 ,11811,1097,248742
THE ESPARIS,9B Pasir Ris Drive 4  #04-27 ,8000,743,519464
THE LUXURIE,19 Compassvale Road  #02-17 ,11295,1049,544753
KINGSFORD WATERBAY,72 Upper Serangoon View  #15-36 ,12341,1146,533882
SYMPHONY SUITES,17 Yishun Close  #02-33 ,10922,1015,768012
ALTEZ,16 Enggor Street  #12-04 ,21765,2022,79717
KINGSFORD WATERBAY,76 Upper Serangoon View  #03-62 ,11689,1086,533880
SIMS URBAN OASIS,2 Sims Drive  #07-06 ,15074,1400,387386
LAKE LIFE,6 Tao Ching Road  #02-10 ,9027,839,618723
IMPERIAL HEIGHTS,16 Ipoh Lane  #13-02 ,14167,1316,438620
THE BELVEDERE,51 Meyer Road  #11-04 ,15950,1482,437874
LA CASA,54 Woodlands Drive 16  #07-10 ,8283,770,737899
BEDOK RIA,1 Bedok Ria Terrace ,8785,816,489726
EAST PALM,1 Palm Road  #03-05 ,11343,1054,456448
LAKEVILLE,9 Jurong Lake Link  #01-36 ,13253,1231,648164
CITY GATE,371 Beach Road  #20-14 ,20415,1897,199597
THE SANTORINI,21 Tampines Street 86  #13-06 ,12688,1179,528592
REGENT HEIGHTS,50 Bukit Batok East Avenue 5  #21-06 ,9630,895,659801
THE SKYWOODS,11 Dairy Farm Heights  #11-27 ,13290,1235,677661
KINGSFORD WATERBAY,68 Upper Serangoon View  #06-26 ,11844,1100,533884
CITY GATE,371 Beach Road  #21-05 ,20591,1913,199597
THE TRILINQ,28B Jalan Lempeng  #05-22 ,14376,1336,128809
UE SQUARE,207 River Valley Road  #06-54 ,13866,1288,238275
CLOVER BY THE PARK,2 Bishan Street 25  #03-08 ,11504,1069,573973
THE TERRACE,92 Edgedale Plains  #03-27 ,8051,748,828686
ECO SANCTUARY,65 Chestnut Avenue  #16-17 ,12861,1195,679524
CASTLE GREEN,481 Yio Chu Kang Road  #10-14 ,8855,823,787056
MANDALE HEIGHTS,45 Mandalay Road  #08-04 ,15755,1464,308225
EIGHT RIVERSUITES,2 Whampoa East  #20-08 ,16212,1506,338517
WATERFALL GARDENS,10 Farrer Road  #07-08 ,16275,1512,268822
# 1 SUITES,1 Lorong 20 Geylang  #04-28 ,11992,1114,398721
JEWEL @ BUANGKOK,85 Compassvale Bow  #15-17 ,13434,1248,544685
ONE JERVOIS,11 Jervois Close  #01-21 ,16720,1553,249107
SYMPHONY SUITES,1 Yishun Close  #06-02 ,11014,1023,768004
LAKE LIFE,6 Tao Ching Road  #15-12 ,9060,842,618723
KINGSFORD WATERBAY,76 Upper Serangoon View  #06-60 ,11595,1077,533880
SIMS URBAN OASIS,2 Sims Drive  #17-10 ,15780,1466,387386
THE ESPARIS,9A Pasir Ris Drive 4  #09-20 ,8500,790,519463
PARK NATURA,31 Bukit Batok East Avenue 6  #03-02 ,11374,1057,659763
COSTA DEL SOL,82 Bayshore Road  #28-30 ,14228,1322,469993
WEST BAY CONDOMINIUM,50 West Coast Crescent  #05-07 ,9506,883,128035
SIMS URBAN OASIS,2 Sims Drive  #01-11 ,14034,1304,387386
KINGSFORD WATERBAY,76 Upper Serangoon View  #12-56 ,12262,1139,533880
THE FLORIDA,78 Hougang Avenue 7  #07-30 ,7603,706,534260
WATERMARK ROBERTSON QUAY,3 Rodyk Street  #06-19 ,18293,1699,238213
SEVENTY SAINT PATRICK'S,82 St. Patrick'S Road  #02-31 ,17218,1600,424182
MINBU VILLA,56 Minbu Road  #06-04 ,10256,953,308185
THE PARC CONDOMINIUM,15 West Coast Walk  #12-27 ,13830,1285,127162
KINGSFORD WATERBAY,70 Upper Serangoon View  #15-33 ,12390,1151,533883
KERRISDALE,36 Sturdee Road  #14-16 ,11144,1035,207855
PARADISE PALMS,505 Dunman Road  #08-04 ,13176,1224,439198
RIO VISTA,20 Upper Serangoon View  #06-18 ,8348,776,534203
JEWEL @ BUANGKOK,85 Compassvale Bow  #16-18 ,13233,1229,544685
KINGSFORD WATERBAY,80 Upper Serangoon View  #09-73 ,12459,1158,533878
THE RISE @ OXLEY - RESIDENCES,73 Oxley Rise  #05-02 ,25000,2323,238699
HAZEL PARK CONDOMINIUM,29 Hazel Park Terrace  #01-05 ,9375,871,678950
NINE RESIDENCES,14 Yishun Avenue 9  #13-20 ,13906,1292,768895
N.A.,8 Orange Grove Road  #02-01 ,19663,1827,258342
WELLINGTON PARK,103 Ellington Square ,12666,1177,568985
THE QUARTZ,53 Compassvale Bow  #14-06 ,10825,1006,544985
BALESTIER PLAZA,400 Balestier Road  #16-03 ,11251,1045,329802
ONE-NORTH RESIDENCES,7 One-North Gateway  #08-03 ,14853,1380,138642
WOODSVALE,19 Woodlands Drive 72  #08-51 ,7076,657,738098
SYMPHONY SUITES,1 Yishun Close  #06-03 ,10945,1017,768004
THE SKYWOODS,11 Dairy Farm Heights  #05-25 ,11832,1099,677661
MIMOSA TERRACE,3 Mimosa Terrace ,11045,1026,805720
SERANGOON GARDEN ESTATE,8 Cardiff Grove ,12573,1168,558875
SIMS URBAN OASIS,2 Sims Drive  #02-11 ,13931,1294,387386
THE GARDENS AT BISHAN,3 Sin Ming Walk  #18-32 ,11850,1101,575575
THE AMORE,53 Edgedale Plains  #12-03 ,9140,849,828692
MARINA ONE RESIDENCES,21 Marina Way  #24-05 ,24989,2322,18978
SELETAR HILLS ESTATE,11 Saraca Road ,12624,1173,807358
N.A.,3A Ah Soo Garden ,19133,1777,539994
EVERGREEN PARK,31 Hougang Avenue 7  #08-01 ,8500,790,538800
SIMS URBAN OASIS,2 Sims Drive  #10-06 ,15192,1411,387386
COTE D'AZUR,62 Marine Parade Road  #19-05 ,14175,1317,449298
ORCHID VILLAGE,38 Vanda Road ,18392,1709,287798
CASABLANCA,25 Rosewood Drive  #10-17 ,9279,862,737919
RIVERTREES RESIDENCES,29 Fernvale Close  #05-19 ,11080,1029,797464
THE MINTON,10C Hougang Street 11  #11-43 ,13596,1263,534077
CITY TOWERS,317 Bukit Timah Road  #10-317 ,12917,1200,259711
EIGHT RIVERSUITES,2 Whampoa East  #28-08 ,16846,1565,338517
HILLINGTON GREEN,53 Hillview Avenue  #06-04 ,10563,981,669566
JEWEL @ BUANGKOK,85 Compassvale Bow  #07-17 ,12563,1167,544685
SIMS URBAN OASIS,2 Sims Drive  #14-11 ,14801,1375,387386
PALM GREEN,481 Pasir Panjang Road  #04-08 ,10147,943,117621
LAKE LIFE,12 Tao Ching Road  #08-26 ,9394,873,618726
REGENT GROVE,54 Choa Chu Kang North 7  #06-40 ,7932,737,689529
ORCHARD TOWERS,1 Claymore Drive  #11-01 ,13661,1269,229594
SAVANNAH CONDOPARK,61 Simei Rise  #08-64 ,9719,903,528794
CAMWOOD PARK,8G Gallop Road ,18390,1709,258973
RIVERBAY,23 Mar Thoma Road  #11-07 ,13571,1261,328704
KINGSFORD WATERBAY,74 Upper Serangoon View  #03-47 ,11468,1065,533881
E MAISON,30 Braddell Road  #05-17 ,13099,1217,359946
WATERFRONT @ FABER,50 Faber Walk  #05-32 ,13171,1224,128994
THE VISION,81 West Coast Crescent  #14-08 ,12951,1203,126794
TREE HOUSE,66 Chestnut Avenue  #21-13 ,11862,1102,679520
HILLVIEW REGENCY,28 Bukit Batok East Avenue 2  #20-15 ,9417,875,659921
BELLEWATERS,25 Anchorvale Crescent  #11-29 ,8829,820,544656
BELLEWATERS,29 Anchorvale Crescent  #16-40 ,8401,781,544658
KINGSFORD WATERBAY,78 Upper Serangoon View  #12-66 ,12266,1140,533879
THE TRILLIUM,112 Kim Seng Road  #19-03 ,20462,1901,239432
THE TEMBUSU,107A Tampines Road  #07-07 ,15748,1463,534009
WATERFRONT @ FABER,42 Faber Walk  #05-11 ,12929,1201,128990
STUDIOS@TEMBELING,233 Tembeling Road  #03-03 ,18485,1717,423718
WATERFRONT KEY,772 Bedok Reservoir Road  #08-12 ,13023,1210,479251
AMBER RESIDENCES,50 Amber Road  #07-01 ,13107,1218,439888
DUCHESS CREST,52 Duchess Avenue  #03-03 ,14064,1307,269197
SANCTUARY GREEN,183 Tanjong Rhu Road  #06-02 ,12710,1181,436923
LAKEVILLE,9 Jurong Lake Link  #05-31 ,15303,1422,648164
BULLION PARK,170 Lentor Loop  #14-03 ,10000,929,789099
ALANA,120 Sunrise Terrace ,9158,851,804537
BELLEWOODS,114 Woodlands Avenue 5  #05-29 ,8529,792,739017
TWIN HEIGHTS,350 Balestier Road  #10-01 ,12273,1140,329779
COCO PALMS,31 Pasir Ris Grove  #05-62 ,9690,900,518075
SYMPHONY SUITES,7 Yishun Close  #03-13 ,10688,993,768007
LAKE LIFE,12 Tao Ching Road  #13-26 ,9587,891,618726
KINGSFORD WATERBAY,64 Upper Serangoon View  #05-05 ,11439,1063,533886
BELLEWOODS,100 Woodlands Avenue 5  #10-04 ,8959,832,739010
BELLEWATERS,23 Anchorvale Crescent  #07-26 ,8778,815,544655
KINGSFORD WATERBAY,68 Upper Serangoon View  #05-21 ,11968,1112,533884
PINEVALE,8 Tampines Street 73  #14-04 ,8067,749,528826
CITY GATE,371 Beach Road  #14-05 ,19489,1811,199597
SKYPARK RESIDENCES,1 Sembawang Crescent  #01-02 ,7599,706,757093
RIVERBAY,23 Mar Thoma Road  #10-05 ,12757,1185,328704
BELLEWATERS,17 Anchorvale Crescent  #11-16 ,8616,800,544652
SIMS URBAN OASIS,2 Sims Drive  #16-11 ,15172,1410,387386
SERANGOON GARDEN ESTATE,4 York Place ,10417,968,554920
WATERWOODS,17 Punggol Field Walk  #15-05 ,8824,820,828747
LAKE LIFE,2 Tao Ching Road  #03-01 ,9340,868,618721
KINGSFORD WATERBAY,74 Upper Serangoon View  #08-45 ,11956,1111,533881
THE SKYWOODS,5 Dairy Farm Heights  #02-12 ,13534,1257,677668
THE TERRACE,90 Edgedale Plains  #03-22 ,8370,778,828685
WATERWOODS,21 Punggol Field Walk  #10-14 ,8765,814,828749
PARK INFINIA AT WEE NAM,2A Lincoln Road  #27-05 ,20149,1872,308364
MANDARIN GARDEN CONDOMINIUM,5 Siglap Road  #05-42 ,11613,1079,448908
THE GARDENS AT BISHAN,1 Sin Ming Walk  #05-40 ,10000,929,575574
THE GLADES,16 Bedok Rise  #07-50 ,15916,1479,465409
KINGSFORD WATERBAY,66 Upper Serangoon View  #08-09 ,11956,1111,533885
SIMS URBAN OASIS,10 Sims Drive  #12-34 ,15474,1438,387390
THE SANTORINI,21 Tampines Street 86  #12-06 ,12587,1169,528592
AQUARIUS BY THE PARK,3 Bedok Reservoir View  #14-03 ,10088,937,478927
THE TERRACE,96 Edgedale Plains  #06-33 ,8658,804,828688
PARC OASIS,35 Jurong East Avenue 1  #12-05 ,9105,846,609774
LAKE LIFE,2 Tao Ching Road  #14-01 ,9870,917,618721
PARK NATURA,35 Bukit Batok East Avenue 6  #04-19 ,11728,1090,659765
N.A.,52 Clover Crescent ,14926,1387,579213
RIVERSAILS,8 Upper Serangoon Crescent  #18-20 ,8284,770,534032
LIV ON WILKIE,9 Wilkie Terrace  #06-06 ,26058,2421,228025
SIMS URBAN OASIS,2 Sims Drive  #03-06 ,14768,1372,387386
THOMSON RIDGE ESTATE,41 Jalan Lembah Thomson ,18960,1761,577511
WESTCOVE CONDOMINIUM,16 West Coast Crescent  #06-01 ,9709,902,128044
BELLEWATERS,21 Anchorvale Crescent  #13-22 ,8980,834,544654
CITY GATE,371 Beach Road  #26-05 ,21545,2002,199597
KERRISDALE,32 Sturdee Road  #07-07 ,10991,1021,207853
HILLION RESIDENCES,10 Jelebu Road  #12-13 ,15884,1476,677672
CITY GATE,371 Beach Road  #19-14 ,19623,1823,199597
SIMS URBAN OASIS,10 Sims Drive  #12-38 ,15599,1449,387390
LAKEVILLE,1 Jurong Lake Link  #16-03 ,14831,1378,648160
EUPHONY GARDENS,3 Jalan Mata Ayer  #04-12 ,8750,813,759150
ONE AMBER,7 Amber Gardens  #09-18 ,15063,1399,439974
SYMPHONY SUITES,5 Yishun Close  #03-10 ,10880,1011,768006
VILLA MARINA,27 Jalan Sempadan  #02-09 ,11034,1025,457401
THE RAINTREE,85 Bukit Drive  #02-12 ,10417,968,587848
WATERWOODS,17 Punggol Field Walk  #14-05 ,8803,818,828747
HILLVISTA,1 Elizabeth Drive  #03-06 ,12792,1188,669743
KINGSFORD . HILLVIEW PEAK,105 Hillview Rise  #01-36 ,12672,1177,667968
MELVILLE PARK,24 Simei Street 1  #07-10 ,8764,814,529946
REGENT HEIGHTS,52 Bukit Batok East Avenue 5  #07-04 ,8632,802,659802
EUPHONY GARDENS,3 Jalan Mata Ayer  #02-15 ,7482,695,759150
SIMS URBAN OASIS,2 Sims Drive  #08-08 ,14620,1358,387386
SUITES @ EASTCOAST,173 Upper East Coast Road  #03-09 ,18000,1672,455275
N.A.,7 Draycott Drive  #04-02 ,20051,1863,259421
WATERFRONT @ FABER,44 Faber Walk  #04-15 ,12583,1169,128991
PARKVIEW APARTMENTS,1 Bukit Batok Street 25  #03-09 ,8221,764,658882
VUE 8 RESIDENCE,99 Pasir Ris Heights  #06-29 ,9836,914,519291
LAKE LIFE,6 Tao Ching Road  #02-09 ,8952,832,618723
PEOPLE'S PARK COMPLEX,1 Park Road  #13-774 ,8462,786,59108
RIVERBAY,23 Mar Thoma Road  #10-07 ,13543,1258,328704
THE AMORE,55A Edgedale Plains  #07-15 ,8696,808,828680
HILLVIEW HEIGHTS,29A Hillview Avenue  #07-03 ,10194,947,669562
SIMS URBAN OASIS,2 Sims Drive  #17-11 ,15081,1401,387386
COCO PALMS,13 Pasir Ris Grove  #13-11 ,10352,962,518141
PARK INFINIA AT WEE NAM,2A Lincoln Road  #09-08 ,20993,1950,308364
THE AMORE,53A Edgedale Plains  #14-06 ,8439,784,828693
D'NEST,145 Pasir Ris Grove  #03-66 ,10750,999,518137
THE EDEN AT TAMPINES,27 Tampines Street 34  #01-25 ,7029,653,529235
KINGSFORD WATERBAY,78 Upper Serangoon View  #03-67 ,11873,1103,533879
# 1 SUITES,1 Lorong 20 Geylang  #04-27 ,12030,1118,398721
COCO PALMS,23 Pasir Ris Grove  #11-38 ,11827,1099,518071
THE VISION,81 West Coast Crescent  #14-07 ,11967,1112,126794
LAKEVILLE,5 Jurong Lake Link  #02-22 ,13489,1253,648162
SYMPHONY SUITES,15 Yishun Close  #02-32 ,10922,1015,768011
THE TAMPINES TRILLIANT,17 Tampines Central 7  #15-15 ,6526,606,528772
KINGSFORD . HILLVIEW PEAK,101 Hillview Rise  #07-04 ,15129,1405,667981
THE GLADES,6 Bedok Rise  #12-17 ,17015,1581,469599
MACPHERSON GARDEN ESTATE,9 Jalan Mulia ,16403,1524,368626
THE PARC CONDOMINIUM,11 West Coast Walk  #07-23 ,14184,1318,127161
D'LEEDON,13 Leedon Heights  #10-49 ,17188,1597,266224
PEOPLE'S GARDEN,21 Lorong 6 Realty Park ,13401,1245,536834
THE TAMPINES TRILLIANT,27 Tampines Central 7  #15-35 ,6061,563,528611
GLOBAL VILLE,20 Jalan Raja Udang  #12-03 ,11126,1034,329192
WEST BAY CONDOMINIUM,60 West Coast Crescent  #02-08 ,10120,940,128040
RIVERVALE CREST,9 Rivervale Crescent  #05-24 ,7589,705,545086
WINDERMERE,32 Choa Chu Kang Street 64  #17-01 ,7037,654,689099
NORTHOAKS,22 Woodlands Crescent  #08-35 ,6875,639,738082
EVERGREEN PARK,31 Hougang Avenue 7  #13-01 ,8800,818,538800
STARLIGHT SUITES,11 River Valley Close  #23-02 ,23418,2176,238437
SKY VUE,3 Bishan Street 15  #26-17 ,18030,1675,573911
SEMBAWANG SPRINGS ESTATE,45 Jalan Malu-Malu ,7030,653,769662
BELLEWATERS,19 Anchorvale Crescent  #06-17 ,8914,828,544653
THE TERRACE,100 Edgedale Plains  #08-41 ,8995,836,828690
COMMONWEALTH TOWERS,232 Commonwealth Avenue  #29-20 ,18143,1686,149740
LAGUNA PARK,5000C Marine Parade Road  #14-12 ,9200,855,449286
ESTELLA GARDENS,23 Flora Road  #08-12 ,9074,843,509739
SIMS URBAN OASIS,10 Sims Drive  #04-37 ,14155,1315,387390
CITY GATE,371 Beach Road  #11-02 ,17875,1661,199597
ECO,225 Bedok South Avenue 3 ,13378,1243,469313
BELLEWOODS,112 Woodlands Avenue 5  #04-28 ,8986,835,739016
SEVEN CRESCENT,7K Crescent Road ,9002,836,436531
SIMS URBAN OASIS,2 Sims Drive  #08-02 ,15310,1422,387386
SIMS URBAN OASIS,10 Sims Drive  #14-34 ,15592,1449,387390
THE INFINITI,39F West Coast Park  #10-20 ,10000,929,127717
SIMS URBAN OASIS,2 Sims Drive  #08-11 ,14354,1334,387386
BELLEWATERS,23 Anchorvale Crescent  #10-27 ,9224,857,544655
ECO,227 Bedok South Avenue 3 ,13903,1292,465467
AMARYLLIS VILLE,20 Newton Road  #10-03 ,16045,1491,307953
RICH EAST GARDEN,302 Upper East Coast Road  #01-05 ,10045,933,466440
LAGUNA PARK,5000C Marine Parade Road  #15-11 ,9200,855,449286
LUXUS HILLS,85 Seletar Green View ,15952,1482,805096
MARINA BAY SUITES,3 Central Boulevard  #56-02 ,24503,2276,18965
SANCTUARY @ 813,813 Upper Serangoon Road  #04-04 ,11622,1080,534085
JEWEL @ BUANGKOK,85 Compassvale Bow  #06-16 ,11965,1112,544685
BELLEWATERS,21 Anchorvale Crescent  #04-21 ,8048,748,544654
SIMS URBAN OASIS,10 Sims Drive  #13-38 ,15856,1473,387390
RIVER PLACE,60 Havelock Road  #09-26 ,13250,1231,169658
V ON SHENTON,5A Shenton Way  #40-11 ,27915,2593,68814
# 1 SUITES,1 Lorong 20 Geylang  #06-26 ,12351,1147,398721
ARC AT TAMPINES,21 Tampines Avenue 8  #11-36 ,8183,760,529604
SIMS URBAN OASIS,2 Sims Drive  #18-06 ,15793,1467,387386
KINGSFORD WATERBAY,66 Upper Serangoon View  #09-09 ,12022,1117,533885
CITIGATE RESIDENCE,168 Rangoon Road  #03-05 ,14245,1323,218437
THE GARDENS AT BISHAN,7 Sin Ming Walk  #09-13 ,10789,1002,575577
JADE RESIDENCES,5 Lew Lian Vale  #05-09 ,13333,1239,537018
FORESTVILLE,38 Woodlands Drive 16  #04-39 ,7808,725,737773
ASPEN HEIGHTS,263 River Valley Road  #06-21 ,15136,1406,238309
RIVERPARC RESIDENCE,98 Punggol Drive  #17-17 ,10364,963,828798
LAKEVILLE,1 Jurong Lake Link  #15-07 ,13330,1238,648160
SIMS URBAN OASIS,2 Sims Drive  #08-06 ,15064,1399,387386
BURLINGTON SQUARE,175B Bencoolen Street  #08-10 ,13837,1285,189651
CENTRO RESIDENCES,59 Ang Mo Kio Avenue 8  #09-02 ,16158,1501,567752
SIMS URBAN OASIS,10 Sims Drive  #07-36 ,13983,1299,387390
COMMONWEALTH TOWERS,232 Commonwealth Avenue  #17-13 ,18756,1742,149740
CITY GATE,371 Beach Road  #23-03 ,19941,1853,199597
LAKE LIFE,10 Tao Ching Road  #11-23 ,9277,862,618725
LAKE LIFE,6 Tao Ching Road  #18-12 ,9111,846,618723
V ON SHENTON,5A Shenton Way  #10-23 ,19772,1837,68814
MEDALLION,146L Braddell Road ,7128,662,359959
SIMS URBAN OASIS,2 Sims Drive  #16-09 ,15646,1454,387386
SIMS URBAN OASIS,12 Sims Drive  #09-45 ,16667,1548,387391
REGENT GROVE,52 Choa Chu Kang North 7  #03-24 ,7870,731,689528
D'MANOR,215 Tanah Merah Kechil Avenue ,6680,621,465735
KINGSFORD WATERBAY,64 Upper Serangoon View  #05-08 ,11879,1104,533886
GOLDHILL GARDENS,3 Goldhill Drive ,20325,1888,308952
PEAKVILLE PARK,36 Peakville Terrace ,14250,1324,487709
D'NEST,139 Pasir Ris Grove  #07-45 ,10833,1006,518134
SIMS URBAN OASIS,2 Sims Drive  #12-06 ,15317,1423,387386
SIMS URBAN OASIS,2 Sims Drive  #15-06 ,15602,1449,387386
TRE RESIDENCES,9 Geylang East Avenue 1  #06-16 ,15662,1455,389783
NIN RESIDENCE,85 Pheng Geck Avenue  #11-11 ,13866,1288,348271
D'LEEDON,13 Leedon Heights  #32-40 ,22373,2078,266224
GOODWOOD RESIDENCE,261 Bukit Timah Road  #04-03 ,26331,2446,259703
SIMS URBAN OASIS,2 Sims Drive  #06-02 ,14769,1372,387386
FLORAVIEW,3 Ang Mo Kio Street 66  #02-11 ,13313,1237,567706
BULLION PARK,162 Lentor Loop  #03-02 ,10640,988,789095
ADAM PARK CONDOMINIUM,29A Adam Road  #04-09 ,13717,1274,289902
VILLA VERDE,36 Verde Avenue ,10200,948,688304
THE CITRON RESIDENCES,1 Marne Road  #04-07 ,20278,1884,208380
LA FIESTA,72 Sengkang Square  #01-50 ,10568,982,544706
EIGHT RIVERSUITES,10 Whampoa East  #29-29 ,15769,1465,338521
OPTIMA @ TANAH MERAH,78 Tanah Merah Kechil Avenue  #14-02 ,9052,841,465538
EDELWEISS PARK CONDOMINIUM,102 Flora Road  #08-67 ,6734,626,509744
SIMS GREEN,7 Lorong 27a Geylang  #03-08 ,9607,892,388133
TRE RESIDENCES,7 Geylang East Avenue 1  #10-08 ,17038,1583,389782
DUNMAN VIEW,100 Haig Road  #07-04 ,10631,988,438797
SYMPHONY SUITES,5 Yishun Close  #01-11 ,10189,947,768006
OASIS @ ELIAS,68 Elias Road  #06-13 ,9758,907,519942
N.A.,58 Clover Crescent ,10286,956,579219
3BHC,3D Bright Hill Crescent ,6803,632,574000
THE SHORE RESIDENCES,87 Amber Road  #07-21 ,17055,1584,439897
CITY GATE,371 Beach Road  #22-14 ,20302,1886,199597
FORESTVILLE,20 Woodlands Drive 16  #06-01 ,8180,760,737879
EIGHT RIVERSUITES,2 Whampoa East  #19-08 ,16154,1501,338517
COMMONWEALTH TOWERS,230 Commonwealth Avenue  #23-01 ,18205,1691,149739
# 1 SUITES,1 Lorong 20 Geylang  #08-22 ,12578,1169,398721
SIMS URBAN OASIS,10 Sims Drive  #11-34 ,15406,1431,387390
LOYANG VILLAS,130 Loyang Rise ,9533,886,507471
SIMS URBAN OASIS,2 Sims Drive  #11-06 ,15256,1417,387386
THE TERRACE,90 Edgedale Plains  #10-23 ,8305,772,828685
N.A.,55 Jalan Lengkok Sembawang ,13481,1252,759236
SIMS URBAN OASIS,10 Sims Drive  #06-35 ,13931,1294,387390
SIMS URBAN OASIS,10 Sims Drive  #08-37 ,15079,1401,387390
SUN PLAZA,30 Sembawang Drive  #07-12 ,8384,779,757713
TRE RESIDENCES,7 Geylang East Avenue 1  #02-08 ,16510,1534,389782
JEWEL @ BUANGKOK,87 Compassvale Bow  #05-26 ,12093,1123,544686
N.A.,25 Lengkong Enam ,8686,807,417591
KINGSFORD WATERBAY,64 Upper Serangoon View  #16-08 ,10235,951,533886
ECOPOLITAN,132 Punggol Walk  #01-18 ,8225,764,828777
SELETAR GARDEN,178 Cactus Road ,12853,1194,809667
GOODWOOD RESIDENCE,263 Bukit Timah Road  #05-09 ,27679,2571,259704
THE TAMPINES TRILLIANT,19 Tampines Central 7  #07-20 ,8753,813,528773
SIMS URBAN OASIS,4 Sims Drive  #17-21 ,14898,1384,387387
THE SANTORINI,21 Tampines Street 86  #07-02 ,12122,1126,528592
LAKE LIFE,6 Tao Ching Road  #03-09 ,9345,868,618723
MOUNTBATTEN SUITES,861 Mountbatten Road  #02-01 ,16829,1563,437842
THE BELVEDERE,53 Meyer Road  #11-07 ,15826,1470,437876
THE LAURELS,40 Cairnhill Road  #11-15 ,26034,2419,229660
THE PANORAMA,18 Ang Mo Kio Avenue 2  #16-32 ,13582,1262,567700
ECO,221 Bedok South Avenue 3 ,14250,1324,469311
SIMS URBAN OASIS,10 Sims Drive  #10-41 ,14684,1364,387390
LAKE LIFE,6 Tao Ching Road  #15-09 ,9586,891,618723
JEWEL @ BUANGKOK,85 Compassvale Bow  #07-20 ,12183,1132,544685
N.A.,4 Jalan Kemaman ,21772,2023,329319
THE AMORE,57 Edgedale Plains  #12-19 ,8647,803,828681
THE CRISTALLO,70 Lorong K Telok Kurau  #03-09 ,14560,1353,425687
SEA HORIZON,19 Pasir Ris Rise  #05-39 ,8331,774,518089
BELLEWATERS,23 Anchorvale Crescent  #05-27 ,8796,817,544655
EAST MEADOWS,32 Tanah Merah Kechil Road  #07-17 ,9821,912,465559
CASHEW HEIGHTS CONDOMINIUM,97 Cashew Road  #12-03 ,9610,893,679668
STEVEN'S COURT,88 Stevens Road  #03-01 ,13158,1222,257865
SYMPHONY SUITES,3 Yishun Close  #07-08 ,10984,1020,768005
N.A.,32 Jalan Tupai ,36743,3414,249160
THE MINTON,12C Hougang Street 11  #07-67 ,12661,1176,534072
JERVOIS MEADOWS,107 Jervois Road  #04-02 ,10638,988,249063
SEA HORIZON,19 Pasir Ris Rise  #09-39 ,8573,796,518089
KINGSFORD WATERBAY,76 Upper Serangoon View  #03-54 ,11682,1085,533880
THE INTERLACE,204 Depot Road  #08-46 ,11118,1033,109696
LAKEVILLE,3 Jurong Lake Link  #02-11 ,12506,1162,648161
SIMS URBAN OASIS,2 Sims Drive  #15-10 ,15777,1466,387386
FORESTVILLE,24 Woodlands Drive 16  #06-10 ,8911,828,737881
MONTEREY PARK CONDOMINIUM,25 West Coast Rise  #10-05 ,12231,1136,127468
SIMS URBAN OASIS,10 Sims Drive  #16-33 ,15725,1461,387390
RIVERBANK @ FERNVALE,17 Fernvale Close  #18-35 ,11400,1059,797478
SIMS URBAN OASIS,10 Sims Drive  #10-37 ,15421,1433,387390
SKIES MILTONIA,21 Miltonia Close  #02-02 ,10581,983,768058
PEBBLE BAY,136 Tanjong Rhu Road  #04-04 ,15534,1443,436921
NATHAN PLACE,16 Nathan Road  #03-01 ,17835,1657,248742
VUE 8 RESIDENCE,99 Pasir Ris Heights  #15-29 ,11213,1042,519291
RIVERTREES RESIDENCES,21 Fernvale Close  #22-04 ,11747,1091,797460
LAKEHOLMZ,82 Corporation Road  #17-04 ,8693,808,649820
SKYPARK RESIDENCES,15 Sembawang Crescent  #09-28 ,8202,762,757060
LAKE LIFE,8 Tao Ching Road  #06-16 ,9147,850,618724
SKY@ELEVEN,11 Thomson Lane  #15-09 ,16977,1577,297727
THE GLADES,6 Bedok Rise  #08-18 ,16338,1518,469599
SEMBAWANG HILLS ESTATE,24 Jalan Lanjut ,9625,894,577667
MARINA ONE RESIDENCES,21 Marina Way  #18-04 ,25929,2409,18978
LAKE LIFE,10 Tao Ching Road  #07-21 ,9181,853,618725
LAKE LIFE,2 Tao Ching Road  #15-02 ,9450,878,618721
LAKE LIFE,10 Tao Ching Road  #12-24 ,9267,861,618725
SIMS URBAN OASIS,2 Sims Drive  #05-02 ,14763,1372,387386
SERANGOON GARDEN ESTATE,5 York Place ,10727,997,554921
BLISS REGALIA,80 Sing Avenue  #02-01 ,12235,1137,217920
PARK VILLAS,48 Park Villas Rise ,10671,991,545360
FUDU PARK,33 Lentor Terrace ,10511,976,788928
SIMS URBAN OASIS,12 Sims Drive  #03-44 ,16020,1488,387391
LAKE LIFE,6 Tao Ching Road  #17-08 ,9504,883,618723
THE SKYWOODS,11 Dairy Farm Heights  #10-26 ,12119,1126,677661
THE SKYWOODS,7 Dairy Farm Heights  #15-17 ,12065,1121,677669
SIMS URBAN OASIS,10 Sims Drive  #07-34 ,15107,1403,387390
SIMS URBAN OASIS,10 Sims Drive  #16-34 ,15801,1468,387390
WATERWOODS,21 Punggol Field Walk  #02-16 ,8836,821,828749
THE RAINTREE,97 Bukit Drive  #07-38 ,10492,975,587842
PINEVALE,2 Tampines Street 73  #08-03 ,8083,751,528823
BULLION PARK,164 Lentor Loop  #06-05 ,10880,1011,789096
CITY GATE,371 Beach Road  #17-09 ,19344,1797,199597
D'LEEDON,5 Leedon Heights  #32-11 ,17071,1586,267952
SIMS URBAN OASIS,10 Sims Drive  #07-37 ,15237,1416,387390
CAMELOT BY-THE-WATER,110 Tanjong Rhu Road  #07-02 ,14694,1365,436928
SIMS URBAN OASIS,4 Sims Drive  #08-18 ,14878,1382,387387
THE SKYWOODS,5 Dairy Farm Heights  #05-12 ,13575,1261,677668
THE SKYWOODS,1 Dairy Farm Heights  #14-03 ,13466,1251,677666
JEWEL @ BUANGKOK,91 Compassvale Bow  #14-39 ,13099,1217,544688
SIMS URBAN OASIS,10 Sims Drive  #17-35 ,14569,1353,387390
SIMS URBAN OASIS,10 Sims Drive  #06-36 ,13931,1294,387390
CASA MEYFORT,79 Meyer Road  #16-01 ,14634,1360,437906
HILLINGTON GREEN,51 Hillview Avenue  #01-03 ,10145,942,669565
SIMS URBAN OASIS,10 Sims Drive  #01-43 ,14039,1304,387390
EAST MEADOWS,32 Tanah Merah Kechil Road  #03-13 ,10563,981,465559
CAIRNHILL PLAZA,53 Cairnhill Road  #03-01 ,15961,1483,229664
THE TAMPINES TRILLIANT,23 Tampines Central 7  #15-27 ,6044,561,528609
SIMS URBAN OASIS,10 Sims Drive  #06-43 ,14243,1323,387390
SIMS URBAN OASIS,2 Sims Drive  #10-04 ,15192,1411,387386
SIMS URBAN OASIS,10 Sims Drive  #09-33 ,15354,1426,387390
SIMS URBAN OASIS,10 Sims Drive  #06-38 ,15107,1403,387390
SIMS URBAN OASIS,2 Sims Drive  #09-11 ,14417,1339,387386
NOVA 88,8 Bhamo Road  #05-06 ,15536,1443,329640
TREVISTA,21 Lorong 3 Toa Payoh  #39-03 ,14646,1361,319581
COCO PALMS,31 Pasir Ris Grove  #09-62 ,9838,914,518075
BELLEWATERS,19 Anchorvale Crescent  #11-19 ,8548,794,544653
KILLINEY 118,118 Killiney Road  #03-01 ,19412,1803,239555
THE TRILINQ,28B Jalan Lempeng  #05-19 ,13882,1290,128809
N.A.,16 Clover Crescent ,10917,1014,579190
SIMS URBAN OASIS,16 Sims Drive  #17-56 ,15676,1456,387393
SIMS URBAN OASIS,10 Sims Drive  #07-38 ,15237,1416,387390
VILLA MARINA,29 Jalan Sempadan  #02-03 ,10000,929,457402
GARDEN PARK RESIDENCES,25 Lorong M Telok Kurau  #05-04 ,11842,1100,425310
SIMS URBAN OASIS,10 Sims Drive  #04-34 ,13996,1300,387390
THE TRILINQ,28 Jalan Lempeng  #05-01 ,15379,1429,128807
BELLEWATERS,23 Anchorvale Crescent  #11-25 ,9000,836,544655
CENTRAL GREEN CONDOMINIUM,9 Jalan Membina  #14-04 ,13274,1233,169483
SIMS URBAN OASIS,10 Sims Drive  #06-37 ,15183,1411,387390
CAVENAGH COURT,151 Cavenagh Road  #02-157 ,13642,1267,229628
THE FLORAVALE,218 Westwood Avenue  #06-02 ,7317,680,648351
ECO SANCTUARY,61 Chestnut Avenue  #15-05 ,13647,1268,679522
SIMS URBAN OASIS,10 Sims Drive  #05-33 ,15077,1401,387390
THE VISION,79 West Coast Crescent  #18-01 ,13077,1215,126793
MOUNTBATTEN SUITES,861 Mountbatten Road  #05-01 ,13067,1214,437842
HILLS TWOONE,21 Hillview Terrace  #05-05 ,14691,1365,669232
SIMS URBAN OASIS,8 Sims Drive  #08-28 ,14529,1350,387389
FABER CREST,50F Faber Heights  #01-44 ,8993,835,129200
BIRMINGHAM MANSIONS,130 Thomson Road  #11-01 ,14500,1347,307682
UE SQUARE,205 River Valley Road  #04-62 ,15784,1466,238274
SIMS URBAN OASIS,10 Sims Drive  #05-37 ,15054,1399,387390
PARC ROSEWOOD,77 Rosewood Drive  #01-43 ,12766,1186,737786
TREVISTA,21 Lorong 3 Toa Payoh  #13-03 ,14535,1350,319581
CAMBIO SUITES,28 Lim Tua Tow Road  #05-09 ,15455,1436,547791
RADIX,18 Jalan Wakaff  #03-02 ,12348,1147,428228
SIMEI GREEN CONDOMINIUM,11 Simei Street 4  #04-02 ,8270,768,529866
A TREASURE TROVE,50 Punggol Walk  #09-01 ,12222,1135,828830
WATERWOODS,17 Punggol Field Walk  #15-06 ,8613,800,828747
SIMS URBAN OASIS,2 Sims Drive  #04-11 ,14070,1307,387386
LAKEVILLE,3 Jurong Lake Link  #14-10 ,15370,1428,648161
SIMS URBAN OASIS,10 Sims Drive  #05-43 ,14278,1326,387390
SENNETT RESIDENCE,35 Pheng Geck Avenue  #03-17 ,14671,1363,348230
SIMS URBAN OASIS,10 Sims Drive  #04-33 ,13996,1300,387390
SIMS URBAN OASIS,10 Sims Drive  #08-33 ,15214,1413,387390
SIMS URBAN OASIS,10 Sims Drive  #05-35 ,13795,1282,387390
CHIVERTON,50 Ewe Boon Road  #14-01 ,15250,1417,259343
TYRWHITT 139,139 Tyrwhitt Road  #05-08 ,17853,1659,207557
WATERFRONT @ FABER,52 Faber Walk  #04-39 ,12778,1187,128995
CASHEW HEIGHTS CONDOMINIUM,95 Cashew Road  #03-01 ,8497,789,679666
CLERMONT RESIDENCE,3 Wallich Street  #51-10 ,34858,3238,78882
BOTANIKA,50 Holland Road  #04-04 ,23162,2152,258853
CITY SQUARE RESIDENCES,14 Kitchener Link  #24-30 ,17308,1608,207223
LUXUS HILLS,59 Luxus Hill Avenue ,15650,1454,804844
SIMS URBAN OASIS,10 Sims Drive  #06-41 ,14374,1335,387390
CARIBBEAN AT KEPPEL BAY,40 Keppel Bay Drive  #03-98 ,16974,1577,98655
PAYA LEBAR RESIDENCES,27 Paya Lebar Road  #04-01 ,11900,1106,409042
THE PANORAMA,10 Ang Mo Kio Avenue 2  #07-09 ,12668,1177,567696
LAKEVILLE,1 Jurong Lake Link  #13-07 ,13186,1225,648160
BISHAN POINT,61 Bright Hill Drive  #21-01 ,10145,942,579653
LE CONNEY PARK,89 Lorong L Telok Kurau  #02-01 ,10000,929,425527
SAVANNAH CONDOPARK,63 Simei Rise  #06-65 ,8596,799,528795
KEW COTTAGES,6 Limau Walk ,10606,985,467768
V ON SHENTON,5A Shenton Way  #49-18 ,23112,2147,68814
SIMS URBAN OASIS,12 Sims Drive  #09-44 ,16397,1523,387391
SIMS URBAN OASIS,10 Sims Drive  #08-36 ,14091,1309,387390
THE PANORAMA,18 Ang Mo Kio Avenue 2  #14-31 ,14095,1309,567700
N.A.,12 Jalan Singa ,11147,1036,418100
TRILIVE,115 Tampines Road  #18-09 ,17065,1585,533901
D' DALVEY,23 Dalvey Estate  #03-05 ,16719,1553,259555
ROSEWOOD SUITES,67 Rosewood Drive  #04-38 ,8796,817,737876
CITY GATE,371 Beach Road  #08-11 ,18095,1681,199597
SEA HORIZON,11 Pasir Ris Rise  #04-21 ,8867,824,518085
N.A.,19 Lucky Gardens ,14200,1319,467667
SHAMROCK PARK,68A Namly Place ,8159,758,267215
THE ROCHESTER,33 Rochester Drive  #17-02 ,13991,1300,138638
THE INTERLACE,218 Depot Road  #05-73 ,14224,1321,109703
CASABLANCA,23 Rosewood Drive  #17-07 ,9045,840,737918
COCO PALMS,23 Pasir Ris Grove  #04-38 ,11513,1070,518071
BEDOK RIA,86 Bedok Ria Crescent ,11462,1065,489902
SIMS URBAN OASIS,10 Sims Drive  #04-38 ,13953,1296,387390
SIMS URBAN OASIS,10 Sims Drive  #17-33 ,15789,1467,387390
SIMS URBAN OASIS,10 Sims Drive  #10-34 ,15418,1432,387390
MODA,42 East Coast Road  #16-05 ,15070,1400,428762
SUNSHINE LODGE,510 Upper Serangoon Road  #01-07 ,7422,690,534530
# 1 SUITES,1 Lorong 20 Geylang  #06-29 ,12351,1147,398721
COCO PALMS,21 Pasir Ris Grove  #05-33 ,11004,1022,518070
CITY GATE,371 Beach Road  #07-06 ,17200,1598,199597
TRILIVE,113 Tampines Road  #07-05 ,17432,1619,533902
D' CASTILIA,45 Joo Chiat Lane  #04-04 ,11792,1096,428104
VILLA VERDE,55 Verde Crescent ,9533,886,688410
V ON SHENTON,5A Shenton Way  #10-15 ,19968,1855,68814
TEN @ SUFFOLK,10 Suffolk Road  #08-03 ,13740,1277,307786
REFLECTIONS AT KEPPEL BAY,33 Keppel Bay View  #20-98 ,20426,1898,98419
PARC VERA,8 Hougang Street 32  #10-16 ,10849,1008,534038
NICON GARDENS,65F Choa Chu Kang Road ,7380,686,689408
SANNY PARK,12 Merryn Road ,25735,2391,298462
NASSIM JADE,3 Nassim Road  #03-07 ,22454,2086,258371
TREE HOUSE,68 Chestnut Avenue  #17-17 ,11215,1042,679521
THE BLOSSOMVALE,900 Dunearn Road  #05-11 ,13843,1286,589473
FREESIA WOODS,63 Sunset Way  #03-12 ,13383,1243,597088
KENTISH GREEN,20 Oxford Road  #04-08 ,9902,920,218815
SELETAR SPRINGS CONDOMINIUM,104 Gerald Drive  #02-68 ,7742,719,798594
CITY GATE,371 Beach Road  #25-04 ,20938,1945,199597
VACANZA @ EAST,38 Lengkong Tujoh  #05-07 ,13462,1251,417392
SIMS URBAN OASIS,12 Sims Drive  #10-44 ,16526,1535,387391
RIVERBANK @ FERNVALE,15 Fernvale Close  #09-26 ,10706,995,797477
SIMS URBAN OASIS,16 Sims Drive  #03-58 ,14488,1346,387393
WATER PLACE,175 Tanjong Rhu Road  #13-10 ,13333,1239,436606
THE MILTONIA RESIDENCES,520 Miltonia Close  #03-06 ,12250,1138,768104
THE TAMPINES TRILLIANT,15 Tampines Central 7  #11-12 ,8864,824,528771
MERA WOODS,136B Hillview Avenue  #10-01 ,10076,936,669607
ECO SANCTUARY,61 Chestnut Avenue  #22-05 ,14152,1315,679522
CLASSICAL TERRACE,19 Jalan Rindu ,11659,1083,537508
BLUWATERS 2,205 Jalan Loyang Besar  #05-10 ,9877,918,509456
MANDARIN GARDEN CONDOMINIUM,5 Siglap Road  #06-48 ,10753,999,448908
ALEX RESIDENCES,28 Alexandra View  #12-06 ,17041,1583,158744
RV RESIDENCES,463 River Valley Road  #02-07 ,22143,2057,248348
CASA MERAH,64 Tanah Merah Kechil Avenue  #09-28 ,11966,1112,465531
N.A.,583A Sembawang Place ,13120,1219,757183
YEWTEE RESIDENCES,25 Choa Chu Kang North 6  #11-13 ,9504,883,689580
SIMS URBAN OASIS,10 Sims Drive  #08-34 ,15290,1420,387390
RIVERGATE,93 Robertson Quay  #29-05 ,21097,1960,238255
N.A.,4 Jalan Chempah ,18675,1735,578445
PARC VERA,2 Hougang Street 32  #13-07 ,11173,1038,534041
N.A.,9 Jalan Molek ,9096,845,399517
THE TRILINQ,28B Jalan Lempeng  #17-19 ,14482,1345,128809
SIMS URBAN OASIS,12 Sims Drive  #06-48 ,15853,1473,387391
N.A.,9A Jalan Molek ,7074,657,399518
RIS GRANDEUR,29 Elias Road  #06-20 ,10505,976,519933
SPRINGHILL,2 Sembawang Walk  #01-114 ,5442,506,757616
WATER PLACE,177 Tanjong Rhu Road  #11-18 ,13103,1217,436607
TIVOLI LODGE,32 Lorong 31 Geylang  #03-01 ,8487,788,388031
THE TENERIFFE,106 Laurel Wood Avenue ,9310,865,275836
N.A.,13 Jalan Molek ,9096,845,399525
CHUAN GREEN,14 Chuan Link ,10112,939,554709
GUILIN VIEW,26 Bukit Batok Street 52  #06-03 ,8675,806,659247
HILLTOPS,101 Cairnhill Circle  #07-14 ,39119,3634,229809
SKYPARK RESIDENCES,15 Sembawang Crescent  #01-25 ,8536,793,757060
BELLEWOODS,100 Woodlands Avenue 5  #05-03 ,7566,703,739010
THE TRIZON,2 Ridgewood Close  #06-01 ,14975,1391,276693
THE INTERLACE,220 Depot Road  #04-76 ,14717,1367,109704
LAKE LIFE,2 Tao Ching Road  #07-06 ,8707,809,618721
THE TRILINQ,28A Jalan Lempeng  #21-09 ,15741,1462,128808
HENRY PARK,23 Mount Sinai Road ,10175,945,276857
SIMEI GREEN CONDOMINIUM,11 Simei Street 4  #03-08 ,7722,717,529866
LAKEHOLMZ,88 Corporation Road  #16-17 ,9913,921,649823
JEWEL @ BUANGKOK,81 Compassvale Bow  #05-03 ,12200,1133,544823
JEWEL @ BUANGKOK,87 Compassvale Bow  #17-26 ,12228,1136,544686
SIMS URBAN OASIS,2 Sims Drive  #16-10 ,15618,1451,387386
LAKE LIFE,6 Tao Ching Road  #06-09 ,9457,879,618723
SYMPHONY SUITES,5 Yishun Close  #01-09 ,10641,989,768006
NINE RESIDENCES,14 Yishun Avenue 9  #09-18 ,11753,1092,768895
HILLVIEW GARDEN ESTATE,62 Jalan Remaja ,15589,1448,668716
SIMS URBAN OASIS,10 Sims Drive  #05-38 ,15130,1406,387390
YISHUN SAPPHIRE,54 Canberra Drive  #11-25 ,8081,751,768440
ESPADA,48 St. Thomas Walk  #29-02 ,28543,2652,238126
NUOVO,25 Ang Mo Kio Avenue 9  #16-14 ,9689,900,569788
PARC OASIS,53 Jurong East Avenue 1  #19-02 ,8772,815,609783
N.A.,13A Jalan Molek ,7074,657,399526
SKYPARK RESIDENCES,5 Sembawang Crescent  #09-11 ,8587,798,757095
SERANGOON GARDEN ESTATE,22 Penshurst Place ,16207,1506,556438
PINEVALE,8 Tampines Street 73  #05-02 ,7271,676,528826
D'LOTUS,10 Lorong Ampas  #14-02 ,12424,1154,328784
ONE FORT,1 Fort Road  #19-03 ,15429,1433,439069
VARSITY PARK CONDOMINIUM,34 West Coast Road  #04-25 ,13471,1251,127335
HILLINGTON GREEN,51 Hillview Avenue  #05-05 ,10668,991,669565
SHAN GATE APARTMENTS,2 Shan Road  #09-03 ,11034,1025,328103
SIMS URBAN OASIS,2 Sims Drive  #18-11 ,15145,1407,387386
THE INTERLACE,200 Depot Road  #07-41 ,11351,1055,109694
CASAFINA,213 Bedok South Avenue 1  #04-21 ,7880,732,469337
BELLEWOODS,112 Woodlands Avenue 5  #06-25 ,8598,799,739016
EASTERN LAGOON,214 Upper East Coast Road  #03-04 ,11736,1090,466402
THE SEA VIEW,29 Amber Road  #15-03 ,20567,1911,439942
SUNHAVEN,781 Upper Changi Road East  #02-02 ,10504,976,486069
V ON SHENTON,5A Shenton Way  #09-20 ,19872,1846,68814
THE TERRACE,96 Edgedale Plains  #15-35 ,8731,811,828688
SEA HORIZON,11 Pasir Ris Rise  #06-21 ,8697,808,518085
THE PANORAMA,18 Ang Mo Kio Avenue 2  #13-33 ,13111,1218,567700
SIMS URBAN OASIS,12 Sims Drive  #05-48 ,15803,1468,387391
URBAN RESORT CONDOMINIUM,32A Cairnhill Road  #15-04 ,24881,2311,229720
THE TRILINQ,28B Jalan Lempeng  #19-19 ,14588,1355,128809
BLUE HORIZON,29 West Coast Crescent  #06-25 ,11573,1075,128049
THE SKYWOODS,11 Dairy Farm Heights  #15-25 ,11691,1086,677661
SYMPHONY SUITES,3 Yishun Close  #05-05 ,10581,983,768005
CHANGI RISE CONDOMINIUM,16 Simei Rise  #08-38 ,9017,838,528807
LAKE LIFE,8 Tao Ching Road  #17-13 ,9287,863,618724
LAKE LIFE,12 Tao Ching Road  #07-26 ,9356,869,618726
LAKEVILLE,11 Jurong Lake Link  #05-40 ,13299,1236,648155
WATERWOODS,23 Punggol Field Walk  #05-20 ,8555,795,828750
WESTMERE,77 Jurong East Street 13  #06-03 ,9313,865,609653
SIMS URBAN OASIS,16 Sims Drive  #12-56 ,15516,1441,387393
CHANGI RISE CONDOMINIUM,16 Simei Rise  #09-38 ,9060,842,528807
SIMEI GARDEN,24 Sea Breeze Walk ,13004,1208,487410
URBAN RESORT CONDOMINIUM,32A Cairnhill Road  #13-04 ,24438,2270,229720
FORESTVILLE,28 Woodlands Drive 16  #03-20 ,7727,718,737768
SIMS URBAN OASIS,10 Sims Drive  #09-41 ,14516,1349,387390
THE TERRACE,82 Edgedale Plains  #04-08 ,8177,760,828736
SUITES @ TOPAZ,3 Topaz Road  #02-04 ,15430,1433,327849
RIVERBANK @ FERNVALE,17 Fernvale Close  #19-35 ,12064,1121,797478
MARINA BAY RESIDENCES,18 Marina Boulevard  #48-02 ,24762,2300,18980
GOODLUCK GARDEN,32 Toh Tuck Road  #03-04 ,10629,987,596710
LAKEVILLE,9 Jurong Lake Link  #13-34 ,14117,1311,648164
N.A.,284C Onan Road ,12316,1144,424667
THE SKYWOODS,11 Dairy Farm Heights  #07-25 ,11741,1091,677661
COSTA DEL SOL,72 Bayshore Road  #18-13 ,15460,1436,469988
TROPIKA EAST,1 Foo Kim Lin Road  #05-12 ,12846,1193,419684
NIN RESIDENCE,85 Pheng Geck Avenue  #15-15 ,17727,1647,348271
SERANGOON GARDEN ESTATE,2 Tavistock Avenue ,15690,1458,555105
VIBES @ KOVAN,93 Kovan Road  #02-06 ,15385,1429,548178
TRE RESIDENCES,7 Geylang East Avenue 1  #17-06 ,12899,1198,389782
SYMPHONY SUITES,15 Yishun Close  #09-32 ,11375,1057,768011
LAKEVILLE,1 Jurong Lake Link  #04-03 ,14163,1316,648160
THE SKYWOODS,5 Dairy Farm Heights  #06-12 ,13772,1279,677668
SEA HORIZON,11 Pasir Ris Rise  #08-23 ,8803,818,518085
THE INTERLACE,206 Depot Road  #11-52 ,16400,1524,109697
PARK GREEN,8 Rivervale Link  #10-15 ,8693,808,545043
TRILIVE,111 Tampines Road  #11-01 ,16439,1527,535133
SYMPHONY SUITES,3 Yishun Close  #09-08 ,11141,1035,768005
SKYPARK RESIDENCES,3 Sembawang Crescent  #02-05 ,8056,748,757094
JEWEL @ BUANGKOK,81 Compassvale Bow  #09-03 ,12333,1146,544823
SYMPHONY SUITES,19 Yishun Close  #03-40 ,10969,1019,768013
LAKEVILLE,3 Jurong Lake Link  #03-15 ,13513,1255,648161
THE SANCTUARY @ GEYLANG,1 Lorong 30 Geylang  #06-01 ,11825,1099,398342
JEWEL @ BUANGKOK,85 Compassvale Bow  #11-18 ,13188,1225,544685
THOMSON VIEW CONDOMINIUM,7 Bright Hill Drive  #15-05 ,8607,800,579599
SIMS URBAN OASIS,12 Sims Drive  #07-48 ,15839,1471,387391
THE SKYWOODS,7 Dairy Farm Heights  #13-19 ,14716,1367,677669
SIMS URBAN OASIS,2 Sims Drive  #12-11 ,14855,1380,387386
ECOPOLITAN,130 Punggol Walk  #02-15 ,8202,762,828776
THE PANORAMA,12 Ang Mo Kio Avenue 2  #17-19 ,14435,1341,567697
SYMPHONY SUITES,13 Yishun Close  #10-28 ,11153,1036,768010
THE COTZ,171 Telok Kurau Road  #05-07 ,9818,912,423824
PARC ROSEWOOD,95 Rosewood Drive  #03-120 ,13500,1254,737795
PALM GREEN,481 Pasir Panjang Road  #02-10 ,9829,913,117621
THE GLADES,20 Bedok Rise  #05-66 ,15577,1447,465411
QUEENS,10 Stirling Road  #29-01 ,13649,1268,148954
THE TROPICA,63 Tampines Avenue 1  #03-05 ,8333,774,529777
FORESQUE RESIDENCES,109 Petir Road  #24-21 ,8137,756,678276
THE VENUE RESIDENCES,8 Tai Thong Crescent  #02-10 ,14769,1372,347842
SYMPHONY SUITES,21 Yishun Close  #01-43 ,10575,982,768014
THE MINTON,10C Hougang Street 11  #14-42 ,14615,1358,534077
SANCTUARY GREEN,181 Tanjong Rhu Road  #05-02 ,12159,1130,436922
CAPITOL PARK,22 Jalan Adat ,27272,2534,299402
YEW LIAN PARK,7 Taman Permata ,19561,1817,575131
D'MANOR,323 Tanah Merah Kechil Avenue ,5863,545,465789
SYMPHONY SUITES,11 Yishun Close  #01-24 ,10624,987,768009
THE GREENWOOD,1 Greenwood Crescent ,19154,1779,286967
THE TRILLIUM,112 Kim Seng Road  #16-03 ,20769,1930,239432
EASTPOINT GREEN,3 Simei Street 3  #08-11 ,8989,835,529891
MAPLEWOODS,989 Bukit Timah Road  #09-06 ,14130,1313,589629
BRADDELL HEIGHTS ESTATE,16B Dunsfold Drive ,13931,1294,359403
VETRO,22A Mar Thoma Road  #04-02 ,13509,1255,328703
TREASURES@G6,35 Lorong 6 Geylang  #06-02 ,14421,1340,399187
THE WHARF RESIDENCE,15 Tong Watt Road  #11-08 ,20315,1887,238026
N.A.,33 Jalan Seaview ,16161,1501,438347
WATERWOODS,21 Punggol Field Walk  #10-15 ,9019,838,828749
LAVERNE'S LOFT,66 Lorong L Telok Kurau  #05-11 ,16432,1527,425509
REZI 3TWO,48 Lorong 32 Geylang  #05-01 ,14967,1390,398308
SYMPHONY SUITES,17 Yishun Close  #09-33 ,11375,1057,768012
NINE RESIDENCES,12 Yishun Avenue 9  #13-06 ,13445,1249,768894
CENTURY MANSIONS,2M Jalan Remaja  #03-04 ,9043,840,668671
FLORAVIEW,3 Ang Mo Kio Street 66  #03-11 ,13517,1256,567706
THE TERRACE,82 Edgedale Plains  #03-06 ,8804,818,828736
PARBURY HILL CONDOMINIUM,36 Parbury Avenue  #03-08 ,11664,1084,467303
THE AMORE,53 Edgedale Plains  #11-04 ,9369,870,828692
THE PANORAMA,18 Ang Mo Kio Avenue 2  #17-33 ,13570,1261,567700
BELLEWATERS,25 Anchorvale Crescent  #05-29 ,8343,775,544656
URBANA,1 River Valley Close  #32-03 ,18845,1751,238427
REFLECTIONS AT KEPPEL BAY,31 Keppel Bay View  #09-92 ,16705,1552,98418
LAKE LIFE,12 Tao Ching Road  #07-25 ,9259,860,618726
DUCHESS RESIDENCES,108 Duchess Avenue  #03-13 ,17586,1634,266312
JEWEL @ BUANGKOK,87 Compassvale Bow  #08-27 ,12064,1121,544686
VIVA VISTA,3 South Buona Vista Road  #03-04 ,19444,1806,118136
D'LEEDON,15 Leedon Heights  #34-51 ,19234,1787,266225
NINE RESIDENCES,14 Yishun Avenue 9  #10-17 ,12938,1202,768895
KING'S MANSION,437 Tanjong Katong Road  #09-03 ,12248,1138,437147
SKYPARK RESIDENCES,11 Sembawang Crescent  #11-24 ,8926,829,757058
SKY HABITAT,7 Bishan Street 15  #09-08 ,14205,1320,573908
SYMPHONY SUITES,7 Yishun Close  #05-15 ,10932,1016,768007
BELLEWATERS,17 Anchorvale Crescent  #07-15 ,8653,804,544652
EIGHT RIVERSUITES,10 Whampoa East  #27-29 ,15615,1451,338521
THE SKYWOODS,7 Dairy Farm Heights  #12-19 ,14618,1358,677669
MONTEREY PARK CONDOMINIUM,27 West Coast Rise  #02-11 ,11139,1035,127470
ECO SANCTUARY,61 Chestnut Avenue  #05-06 ,13141,1221,679522
NATHAN RESIDENCES,23 Nathan Road  #03-04 ,20909,1943,248744
SIMS URBAN OASIS,2 Sims Drive  #07-11 ,14249,1324,387386
SYMPHONY SUITES,21 Yishun Close  #01-44 ,10719,996,768014
PARC ROSEWOOD,97 Rosewood Drive  #03-134 ,12500,1161,737796
RIO VISTA,10 Upper Serangoon View  #17-03 ,8297,771,534198
FLORIDIAN,975 Bukit Timah Road  #04-29 ,18000,1672,589649
YISHUN EMERALD,26 Canberra Drive  #09-16 ,7788,723,768428
FLAMINGO VALLEY,476 Siglap Road  #02-53 ,14108,1311,454946
LAKE LIFE,10 Tao Ching Road  #17-23 ,9455,878,618725
PARC VISTA,456 Corporation Road  #10-07 ,8621,801,649813
CITYLIGHTS,80 Jellicoe Road  #26-03 ,15574,1447,208766
N.A.,303B Tanjong Katong Road ,8409,781,437086
BAYSHORE PARK,60 Bayshore Road  #20-08 ,11356,1055,469982
LAKE LIFE,12 Tao Ching Road  #19-28 ,9452,878,618726
NORTHOAKS,32 Woodlands Crescent  #06-03 ,7042,654,738087
THE TERRACE,80 Edgedale Plains  #10-01 ,8711,809,828735
SIMS URBAN OASIS,2 Sims Drive  #06-11 ,14263,1325,387386
THE AMORE,55A Edgedale Plains  #12-15 ,8725,811,828680
LA FIESTA,50 Sengkang Square  #02-04 ,11904,1106,544830
SYMPHONY SUITES,17 Yishun Close  #03-33 ,10804,1004,768012
LA FIESTA,50 Sengkang Square  #07-02 ,11440,1063,544830
WATERFRONT @ FABER,42 Faber Walk  #04-12 ,11717,1089,128990
SYMPHONY SUITES,1 Yishun Close  #03-01 ,10734,997,768004
CLOVER BY THE PARK,6 Bishan Street 25  #33-13 ,13580,1262,573975
NINE RESIDENCES,14 Yishun Avenue 9  #11-20 ,13698,1273,768895
COCO PALMS,31 Pasir Ris Grove  #02-62 ,9480,881,518075
RIVERBANK @ FERNVALE,11 Fernvale Close  #09-06 ,10103,939,797475
PARC PALAIS,53 Hume Avenue  #08-07 ,10714,995,598751
WATERWOODS,17 Punggol Field Walk  #03-05 ,8396,780,828747
THE SANTORINI,21 Tampines Street 86  #13-10 ,12789,1188,528592
BELLEWATERS,21 Anchorvale Crescent  #05-21 ,8590,798,544654
BELLEWOODS,112 Woodlands Avenue 5  #02-28 ,8753,813,739016
EAST MEADOWS,30 Tanah Merah Kechil Road  #02-11 ,10239,951,465558
LAKE LIFE,10 Tao Ching Road  #16-24 ,9386,872,618725
BERKELEY RESIDENCES,11 Lorong N Telok Kurau  #05-01 ,11841,1100,425141
FORESTVILLE,22 Woodlands Drive 16  #02-08 ,7744,719,737880
THE MARBELLA,29 Mount Sinai Rise  #16-03 ,18102,1682,276952
MON JERVOIS,47 Jervois Road  #05-25 ,15655,1454,247656
RIVERVALE CREST,5 Rivervale Crescent  #16-06 ,8302,771,545084
HILLVIEW REGENCY,26 Bukit Batok East Avenue 2  #20-04 ,8919,829,659920
THE DEW,32 Bukit Batok Street 21  #02-14 ,8443,784,659637
WATERWOODS,21 Punggol Field Walk  #11-16 ,8914,828,828749
SPOTTISWOODE 18,18 Spottiswoode Park Road  #06-03 ,21250,1974,88642
SYMPHONY SUITES,17 Yishun Close  #07-36 ,11014,1023,768012
THE ESPARIS,7 Pasir Ris Drive 4  #02-02 ,7780,723,519459
ARDMORE PARK,9 Ardmore Park  #08-01 ,27985,2600,259955
SYMPHONY SUITES,19 Yishun Close  #01-40 ,10875,1010,768013
THE BAYSHORE,32 Bayshore Road  #05-02 ,9833,914,469975
THE TERRACE,94 Edgedale Plains  #09-30 ,8513,791,828687
LAKEVILLE,5 Jurong Lake Link  #11-16 ,13047,1212,648162
FORESQUE RESIDENCES,103 Petir Road  #24-09 ,8879,825,678273
TWIN HEIGHTS,350 Balestier Road  #12-02 ,12273,1140,329779
BELLEWATERS,29 Anchorvale Crescent  #12-38 ,8532,793,544658
GUILLEMARD SUITES,213 Guillemard Road  #03-38 ,16630,1545,399733
SYMPHONY SUITES,3 Yishun Close  #01-08 ,10641,989,768005
EIGHT RIVERSUITES,6 Whampoa East  #24-09 ,15615,1451,338519
PASIR VIEW PARK,200 Pasir Panjang Road  #01-08 ,12043,1119,118571
THE CREST,105 Prince Charles Crescent  #09-16 ,17292,1606,159019
THOMSON THREE,43 Bright Hill Drive  #15-10 ,15083,1401,573894
LAKE LIFE,8 Tao Ching Road  #17-15 ,9345,868,618724
KINGSFORD . HILLVIEW PEAK,103 Hillview Rise  #10-15 ,15625,1452,667982
TIARA,1 Kim Seng Walk  #09-05 ,19393,1802,239403
LAKE LIFE,2 Tao Ching Road  #09-02 ,9289,863,618721
CITY GATE,371 Beach Road  #19-03 ,20059,1864,199597
WATER PLACE,177 Tanjong Rhu Road  #12-22 ,12682,1178,436607
SERANGOON GARDEN ESTATE,36 Bridport Avenue ,11799,1096,559326
SOMMERVILLE PARK,79 Farrer Drive  #12-01 ,14917,1386,259283
THE SHAUGHNESSY,112 Miltonia Close ,5311,493,768242
BLUE HORIZON,25 West Coast Crescent  #04-18 ,9927,922,128047
COSTA DEL SOL,68 Bayshore Road  #30-01 ,10656,990,469986
APLETON VIEW,71 Sinaran Drive  #13-02 ,15663,1455,308323
HAZEL PARK CONDOMINIUM,25 Hazel Park Terrace  #10-10 ,10472,973,678948
ORCHID PARK CONDOMINIUM,89 Yishun Street 81  #06-04 ,7397,687,768449
THE GLADES,12 Bedok Rise  #01-44 ,15656,1454,465407
SKYPARK RESIDENCES,1 Sembawang Crescent  #13-01 ,8350,776,757093
# 1 SUITES,1 Lorong 20 Geylang  #08-12 ,12630,1173,398721
D'LEEDON,13 Leedon Heights  #26-47 ,17463,1622,266224
THE PANORAMA,20 Ang Mo Kio Avenue 2  #05-35 ,12277,1141,567701
SIMS URBAN OASIS,10 Sims Drive  #08-41 ,14468,1344,387390
RIVERTREES RESIDENCES,21 Fernvale Close  #09-03 ,11055,1027,797460
THE VENUE RESIDENCES,8 Tai Thong Crescent  #02-06 ,12907,1199,347842
THE VENUE RESIDENCES,6 Tai Thong Crescent  #02-03 ,12907,1199,347840
BELLEWATERS,11 Anchorvale Crescent  #13-02 ,8716,810,544649
COCO PALMS,31 Pasir Ris Grove  #06-61 ,11048,1026,518075
FORESTVILLE,46 Woodlands Drive 16  #10-48 ,8649,803,737777
NORTHWOOD,70 Jalan Mata Ayer  #05-25 ,7568,703,757488
GOODWOOD RESIDENCE,261 Bukit Timah Road  #09-03 ,27359,2542,259703
SIMS URBAN OASIS,10 Sims Drive  #09-34 ,15278,1419,387390
LAKE LIFE,8 Tao Ching Road  #15-15 ,9310,865,618724
FLORENCE REGENCY,716 Hougang Avenue 2  #04-367 ,5962,554,530716
LAKE LIFE,12 Tao Ching Road  #14-30 ,9359,869,618726
THE MILTONIA RESIDENCES,546 Miltonia Close  #02-59 ,12083,1123,768117
LAKE LIFE,10 Tao Ching Road  #15-22 ,9224,857,618725
SKYPARK RESIDENCES,1 Sembawang Crescent  #09-01 ,7995,743,757093
LAKE LIFE,8 Tao Ching Road  #16-14 ,9683,900,618724
PARC ROSEWOOD,73 Rosewood Drive  #01-11 ,13083,1215,737784
VALLEY PARK,483 River Valley Road  #03-03 ,14571,1354,248368
TANAMERA CREST,6 Pari Dedap Walk  #02-06 ,9248,859,486060
BLAIR PLAIN CONSERVATION AREA,34 Blair Road ,37518,3486,89934
ONE AMBER,1 Amber Gardens  #17-06 ,14407,1338,439957
TRILIVE,115 Tampines Road  #01-14 ,16477,1531,533901
THE VERMONT ON CAIRNHILL,12A Cairnhill Rise  #13-04 ,21371,1985,229746
TEACHER'S HOUSING ESTATE,120 Tagore Avenue ,12053,1120,787710
URBAN RESORT CONDOMINIUM,32A Cairnhill Road  #10-04 ,23996,2229,229720
N.A.,15 Lorong Biawak ,14368,1335,358779
FERRARIA PARK CONDOMINIUM,22 Flora Drive  #07-40 ,10000,929,506948
COSTA DEL SOL,70 Bayshore Road  #15-11 ,13040,1211,469987
N.A.,40 Woodgrove Avenue ,8325,773,738316
THE PANORAMA,10 Ang Mo Kio Avenue 2  #13-10 ,12952,1203,567696
SEA HORIZON,19 Pasir Ris Rise  #06-38 ,8590,798,518089
CITY GATE,371 Beach Road  #19-05 ,20341,1890,199597
THE ESTUARY,99 Yishun Avenue 1  #10-38 ,10909,1013,769139
THE BOTANIC ON LLOYD,33 Lloyd Road  #02-07 ,20681,1921,239106
SKYPARK RESIDENCES,1 Sembawang Crescent  #07-01 ,7991,742,757093
LAKE LIFE,10 Tao Ching Road  #11-20 ,9577,890,618725
ECO SANCTUARY,61 Chestnut Avenue  #17-07 ,13816,1283,679522
CENTRO RESIDENCES,59 Ang Mo Kio Avenue 8  #08-02 ,15098,1403,567752
COMMONWEALTH TOWERS,230 Commonwealth Avenue  #22-01 ,18136,1685,149739
CASA AROMA,21 Chiku Road  #05-02 ,8477,788,429433
THE PANORAMA,18 Ang Mo Kio Avenue 2  #15-33 ,13351,1240,567700
EIGHT RIVERSUITES,6 Whampoa East  #26-10 ,15769,1465,338519
THE MAYFAIR,5 Jurong East Street 32  #16-06 ,11301,1050,609479
