Project Name,Unit Price ($ psm),Unit Price ($ psf),Postal Code
HUME PARK I,8095,752,598726
GILSTEAD TWO,22482,2089,309061
THOMSON 800,11589,1077,298187
MELVILLE PARK,5908,549,529948
SPRING @ KATONG,9416,875,429748
TREE HOUSE,8737,812,679518
MARINA BAY RESIDENCES,32834,3050,18980
ISUITES @ TANI,10356,962,548540
THE SUNNY SPRING,7427,690,398074
CITY EDGE,13551,1259,308133
KIM KEAT HOUSE,6436,598,328827
THE MINTON,9540,886,534071
THE MINTON,9877,918,534076
THE MINTON,8790,817,534076
ASCENTIA SKY,11799,1096,158749
THE MINTON,9280,862,534071
THE PARC CONDOMINIUM,11520,1070,127162
HILLVISTA,12132,1127,669744
CASA MERAH,9469,880,465524
THE MINTON,9945,924,534070
THE MINTON,7348,683,534073
TROPICAL SPRING,8099,752,529876
THE SUNNY SPRING,8117,754,398074
AVON PARK,9492,882,357741
OASIS @ ELIAS,8407,781,519939
THE MINTON,9277,862,534076
THE MINTON,9135,849,534078
THE MINTON,9341,868,538751
ONE SHENTON,21373,1986,68803
SELANTING GREEN,8306,772,598368
SPRING @ LANGSAT,10386,965,426691
SUITES @ SHREWSBURY,14647,1361,307842
ASCENTIA SKY,13727,1275,158748
OPTIMA @ TANAH MERAH,10231,950,465517
VARSITY PARK CONDOMINIUM,9918,921,126826
THE MINTON,8582,797,538751
ALLSWORTH PARK,14286,1327,278640
GOLDENHILL PARK CONDOMINIUM,11839,1100,568429
THE MINTON,8763,814,538755
TREE HOUSE,8606,800,679521
TOWNHOUSE APARTMENTS,10798,1003,229627
ST FRANCIS COURT,5789,538,328071
THE MINTON,9078,843,534070
LOYANG VALLEY,5275,490,509064
THE MINTON,6159,572,534073
SYMPHONY HEIGHTS,10000,929,598739
THE CASCADIA,15633,1452,589657
THE MINTON,9260,860,534076
THE MINTON,9417,875,538756
THE CASCADIA,15408,1431,589644
WATERBANK AT DAKOTA,11795,1096,399941
RAJAH TOWERS,7371,685,329141
THE TROPICA,6826,634,529777
THE WARREN,6748,627,689685
WATERFRONT WAVES,9944,924,479245
THE MINTON,7157,665,534071
GILSTEAD TWO,19460,1808,309061
THE MINTON,9431,876,534076
THE MINTON,9453,878,534071
CENTRAL VIEW,7967,740,538749
EASTSIDE LOFT,11321,1052,437154
THE SHELFORD,15104,1403,288533
RIO VISTA,7174,666,534203
CAMELOT BY-THE-WATER,16327,1517,436928
THE MINTON,9286,863,538751
HILLVIEW REGENCY,8226,764,659920
HUME PARK II,8632,802,598732
THE MINTON,9488,881,534070
TOWNHOUSE APARTMENTS,10360,963,229627
HILLVISTA,11208,1041,669743
THE VISION,9968,926,126794
PARC REGENCY,8770,815,118652
HORIZON TOWER,13727,1275,239228
THE INTERLACE,11134,1034,109690
THOMSON V ONE,13095,1217,575630
FLORIDIAN,17118,1590,589664
THE MINTON,9228,857,534075
SUITES @ SHREWSBURY,15281,1420,307842
THE MINTON,6385,593,534075
KOVAN MELODY,9752,906,545024
THE INTERLACE,11531,1071,109705
THE MINTON,9947,924,534077
CENTRO RESIDENCES,13765,1279,567752
COUNTRY PARK CONDOMINIUM,9634,895,469567
THE ARTE,13455,1250,329215
THE MINTON,11211,1041,534077
PARC OASIS,7000,650,609778
BLUE HORIZON,8717,810,128045
DUNEARN SUITES,19231,1787,289609
RESIDENCE 66,10986,1021,423788
THE MINTON,9106,846,534071
SOLEIL @ SINARAN,16667,1548,307468
THE MINTON,9937,923,534071
THE MINTON,9229,857,534070
THE MINTON,10024,931,534071
SILVERSEA,17029,1582,449307
ASCENTIA SKY,13687,1272,158749
THE MINTON,8513,791,538752
THE MINTON,9110,846,538751
THE MINTON,9890,919,534070
THE MINTON,8889,826,538752
THE MINTON,6394,594,538752
POMEX COURT,6957,646,426657
THE MINTON,9676,899,534071
THE MINTON,9330,867,534070
ISUITES @ TANI,11369,1056,548540
THE MINTON,9308,865,534076
THE MINTON,8059,749,538752
THE LEGACY,14085,1308,259750
THE MINTON,6486,603,534079
THE MINTON,11192,1040,534077
THE MINTON,9131,848,534072
THE MINTON,9246,859,534076
THE MINTON,9182,853,534076
THE MINTON,8561,795,534071
ESPADA,25434,2363,238126
FLORIDIAN,16403,1524,589664
THE PRINCETON,13750,1277,259313
CITYLIGHTS,13676,1271,208745
KENSINGTON PARK,8210,763,557320
LIVINGSTON MANSIONS,7966,740,425571
THE MINTON,10788,1002,534077
THE CASCADIA,15267,1418,589641
THE BALMORAL,16185,1504,259848
THE MINTON,9374,871,538751
PRESTIGE HEIGHTS,15710,1459,329778
AQUARIUS BY THE PARK,8434,784,478931
THE MINTON,9800,910,534071
THE CASCADIA,15824,1470,589657
THE MINTON,9378,871,534076
THE MINTON,9448,878,534082
THE MINTON,6087,565,534073
NEWTON EDGE,14431,1341,228598
CITY SQUARE RESIDENCES,13063,1214,207226
CITY EDGE,13364,1242,308133
HUNDRED TREES,13000,1208,128018
QUEENSWAY TOWER,7625,708,149053
CRAIG PLACE,11786,1095,89692
HILLBROOKS,8280,769,669590
CENTENNIA SUITES,20734,1926,239427
THE MINTON,9415,875,534076
FLORIDIAN,18923,1758,589626
FLORIDIAN,16013,1488,589664
N.A.,13717,1274,276474
LAKESIDE TOWER,4783,444,618650
AQUARIUS BY THE PARK,7772,722,478931
THE MINTON,9242,859,534082
THE MINTON,6538,607,534080
MILL POINT,16094,1495,247811
LA BRISA,9877,918,398453
D' FRESCO,9972,926,428109
CITY SQUARE RESIDENCES,13462,1251,207223
SILVERSEA,13688,1272,449305
EDELWEISS PARK CONDOMINIUM,7282,677,507006
TERESA VILLE,11270,1047,99309
THE MINTON,10632,988,534077
MELVILLE PARK,6103,567,529945
CASTLE GREEN,7500,697,787057
THE MINTON,9330,867,534082
THE AXIS,11887,1104,308227
MONTEBLEU,13886,1290,308162
NOVENA COURT,10250,952,308604
THE INTERLACE,11329,1053,109685
THE MINTON,6373,592,538756
THE ARTE,10920,1014,329215
THE MINTON,8223,764,538752
THE CALROSE,9333,867,787084
BISHAN 8,10185,946,574045
HILLVISTA,11351,1054,669743
THE INTERLACE,12488,1160,109687
TANJONG RIA CONDOMINIUM,10938,1016,436914
THE BAYSHORE,8556,795,469971
NOVELIS,16429,1526,308322
MOUNT SOPHIA SUITES,18318,1702,228163
FLORIDIAN,15742,1463,589664
THE MINTON,10596,984,534077
TRILIGHT,20583,1912,307945
THE MINTON,8850,822,538752
THE MINTON,8059,749,538755
PARC OASIS,6864,638,609783
SIGNATURE PARK,9375,871,596742
THE REGENCY AT TIONG BAHRU,13814,1283,169905
THE MORNINGSIDE,13991,1300,239639
PALM GARDENS,6473,601,689051
HILLVIEW APARTMENTS,6901,641,669570
SHELFORD SUITES,12310,1144,286653
THE CASCADIA,15981,1485,589657
THE MINTON,9488,881,534070
KOVAN MELODY,9389,872,548192
LAKEPOINT CONDOMINIUM,4847,450,648927
THE CASCADIA,15783,1466,589657
THE MINTON,9484,881,534072
THE MINTON,7504,697,534074
CASA ROSA,6975,648,536445
ORCHID PARK CONDOMINIUM,6473,601,768447
THE MINTON,9301,864,534080
THE MINTON,9400,873,534076
THE MINTON,9908,920,534077
KOVAN RESIDENCES,10427,969,544916
THE MINTON,9934,923,538751
SIMSVILLE,6831,635,389757
LUSH ON HOLLAND HILL,14021,1303,278737
BEDOK COURT,6694,622,469296
TROPICANA CONDOMINIUM,6561,609,488067
SELETARIS,6696,622,757708
THE CLIFT,19891,1848,69047
SUITES DE LAUREL,14672,1363,588997
REGENTVILLE,6392,594,538686
AVON PARK,8824,820,357741
TANAMERA CREST,8688,807,486062
THE MINTON,9736,905,534082
THE MINTON,10368,963,534077
THE SUNNY SPRING,8107,753,398074
WILKIE APARTMENTS,11404,1059,228064
ISUITES @ TANI,11546,1073,548540
CAIRNHILL PLAZA,16612,1543,229664
THE BELVEDERE,15745,1463,437876
LIMAU PARK,7273,676,468505
CYAN,21000,1951,258709
TANAMERA CREST,7336,682,486062
THE CASCADIA,14318,1330,589645
MELVILLE PARK,7126,662,529943
GRANDEUR 8,8837,821,567744
TROPICAL SPRING,8024,745,529877
CYAN,21632,2010,258709
CASA JERVOIS,13158,1222,249055
N.A.,6579,611,427677
SUN PLAZA,6178,574,757713
THE MINTON,6394,594,534082
CENTRAL MEADOWS,7312,679,398240
THE MINTON,8671,806,534077
GILSTEAD TWO,21667,2013,309061
CASSIA VIEW,10159,944,399746
THE MINTON,10193,947,534077
THE MINTON,7880,732,534076
D' IXORAS,13603,1264,308172
THE LAKESHORE,9612,893,649411
PARKVIEW ECLAT,39292,3650,249617
HAIG COURT,10694,994,438791
TANGLIN REGENCY,11829,1099,247965
SCOTTS HIGHPARK,23602,2193,228232
TANGLIN VIEW,13333,1239,159015
ORCHID PARK CONDOMINIUM,7130,662,768451
THE DAIRY FARM,8953,832,679036
COSTA DEL SOL,11475,1066,469986
FLORIDIAN,18078,1679,589626
GRAND DUCHESS AT ST PATRICK'S,13093,1216,424210
BLUE HORIZON,9112,847,128045
THE WATERINA,8696,808,398077
SILVERSEA,13830,1285,449308
ESCADA VIEW,6348,590,417657
LAGOON VIEW,6732,625,449295
KERRISDALE,9293,863,207852
GILSTEAD TWO,22743,2113,309061
ELIAS GREEN,5556,516,519961
SEASCAPE,33862,3146,98308
THE VISION,7556,702,126794
AQUARIUS BY THE PARK,8193,761,478933
CARIBBEAN AT KEPPEL BAY,16935,1573,98650
WATERBANK AT DAKOTA,13132,1220,399947
SILVERSEA,16393,1523,449307
THE MONTAGE,10951,1017,425342
THE MINTON,9398,873,534072
TANGLIN VIEW,12593,1170,159015
MONTVIEW,13812,1283,277116
THE MINTON,8602,799,534080
D'PAVILION,10635,988,534671
MOUNTBATTEN SUITES,11031,1025,437842
GRAND CHATEAU,8348,776,598435
THE MINTON,9708,902,534076
PARC MACKENZIE,10714,995,228687
CENTRAL GREEN CONDOMINIUM,11806,1097,169481
TREE HOUSE,8808,818,679518
TREVISTA,11417,1061,319583
THE CASCADIA,15273,1419,589659
THE MINTON,10596,984,534077
THE MINTON,8481,788,534078
SOUTHAVEN I,7500,697,587972
CASTLE GREEN,6723,625,787058
GILSTEAD TWO,20547,1909,309061
THE MINTON,8939,830,534072
INTERNATIONAL PLAZA,9167,852,79903
PANDAN VALLEY,9984,927,597628
THE MINTON,9356,869,534074
THE MINTON,9340,868,538752
CARABELLE,10761,1000,127019
PARK WEST,7500,697,128797
THE MINTON,9453,878,534076
SUITES @ KATONG,13472,1252,437050
BOON TECK TOWERS,8182,760,329608
MEYER RESIDENCE,13271,1233,437991
CLOVER BY THE PARK,10767,1000,573975
QUEENSBERRY LODGE,13246,1231,248185
SAVANNAH CONDOPARK,5683,528,528793
SERENITY PARK,7197,669,806109
SHEARES VILLE,15387,1430,249446
LAKEHOLMZ,6533,607,649821
THE MINTON,6854,637,534079
HORIZON RESIDENCES,13839,1286,118863
THE MINTON,10385,965,534077
DAKOTA RESIDENCES,13238,1230,399936
BISHAN POINT,8136,756,579653
LOYANG VALLEY,5172,481,509068
GILSTEAD TWO,14785,1374,309061
GILSTEAD TWO,15003,1394,309061
DOVER PARKVIEW,9977,927,138687
MAPLEWOODS,12658,1176,589627
THE MINTON,6740,626,534081
TANGLIN REGENCY,10680,992,247965
PARC VISTA,6555,609,649812
HILLINGTON GREEN,8373,778,669614
THE MINTON,9978,927,534070
THE MINTON,9981,927,534077
THE MINTON,8865,824,534076
COASTAL BREEZE RESIDENCES,7748,720,509049
REGENTVILLE,4938,459,538683
THE MINTON,10018,931,534077
THE MINTON,9566,889,534082
CAIRNHILL CREST,18658,1733,229814
THE INTERLACE,10385,965,109699
CARIBBEAN AT KEPPEL BAY,16064,1492,98657
COUNTRY PARK CONDOMINIUM,9220,857,469569
GILSTEAD TWO,21939,2038,309061
GLENDALE PARK,8464,786,669556
OCEAN PARK,11122,1033,458969
PEOPLE'S PARK COMPLEX,9256,860,59108
THE RIVERINE BY THE PARK,18393,1709,339098
IDYLLIC RESIDENCES,9730,904,425346
THE MINTON,8989,835,534077
GILSTEAD TWO,21526,2000,309061
BAYSHORE PARK,9250,859,469983
REGENT HEIGHTS,6759,628,659804
BLUE HORIZON,9524,885,128048
JANSEN MANSIONS,6282,584,548429
TRILIGHT,19128,1777,307945
N.A.,5545,515,427511
FERRARIA PARK CONDOMINIUM,8496,789,506947
PARC MACKENZIE,12742,1184,228687
GILSTEAD TWO,20199,1877,309061
THE MINTON,9305,864,538756
THE MINTON,5623,522,534080
THE MINTON,8747,813,534078
THE MINTON,5764,536,534072
THE MINTON,6398,594,534078
THE MINTON,8846,822,538752
THE MINTON,9694,901,534076
GILSTEAD TWO,21710,2017,309061
CASUARINA COVE,9817,912,436916
VANADIUM,10924,1015,219406
THE BELLEFORTE,8266,768,329974
THE MINTON,9284,862,534076
COSTA RHU,11515,1070,437434
LAKEHOLMZ,7269,675,649819
NORTHVALE,6837,635,689673
THE CASCADIA,16495,1532,589660
THE CASCADIA,15915,1479,589645
BELLA CASITA,14489,1346,438610
WEST BAY CONDOMINIUM,8193,761,128038
WATERFRONT KEY,9364,870,479250
THE MINTON,9238,858,534081
THE CLEARWATER,7227,671,479236
AA CENTRE,10052,934,238366
THE SOLITAIRE,19330,1796,259866
KOVAN RESIDENCES,9323,866,544895
ISUITES @ TANI,12877,1196,548540
KUM HING COURT,21060,1956,247856
THE STERLING,13136,1220,596289
MAYSPRINGS,6431,597,678267
FREESIA WOODS,11364,1056,597090
GILSTEAD TWO,21634,2010,309061
THE PARC CONDOMINIUM,11303,1050,127160
THE MADEIRA,7069,657,659443
GILSTEAD TWO,20091,1866,309061
SIMSVILLE,7130,662,389758
THE MINTON,8874,824,538756
CASA ROSA,7952,739,536443
PARC MONDRIAN,8846,822,357916
THE DAIRY FARM,6202,576,679036
SKY@ELEVEN,14961,1390,297727
PARC EMILY,17843,1658,228491
OLEANAS RESIDENCE,14132,1313,239347
VILLA MARINA,7118,661,457398
TAMPINES COURT,4968,462,521133
THE INTERLACE,10889,1012,109705
THE CALROSE,6755,628,787066
FLORIDIAN,16076,1493,589664
THE MINTON,9280,862,538755
THE TRUMPS,9327,866,419154
THE PRINCETON,13465,1251,259313
CITYLIGHTS,15873,1475,208745
HORIZON RESIDENCES,15222,1414,118862
THE MINTON,9394,873,534077
1 KING ALBERT PARK,12908,1199,598326
THE PIER AT ROBERTSON,20992,1950,239013
CASPIAN,7571,703,648319
LATITUDE,21707,2017,249210
THE HILLSIDE,8814,819,588197
TANAMERA CREST,8638,802,486062
RESIDENCES @ EVELYN,18750,1742,309306
THE MINTON,8759,814,538752
DOUBLE BAY RESIDENCES,6060,563,528719
HORIZON RESIDENCES,14967,1390,118864
HAIG ELEVEN,10667,991,438866
HERITAGE VIEW,9730,904,138678
THE MINTON,9402,873,534070
MOUNT SOPHIA SUITES,19700,1830,228163
HILLVISTA,11905,1106,669743
MERAWOODS,8778,815,669606
CHANGI COURT,7426,690,486838
EDELWEISS PARK CONDOMINIUM,7727,718,507005
SUITES DE LAUREL,14245,1323,588997
THE PETALS,9174,852,669624
THE MINTON,9550,887,538755
THE OXLEY,18627,1731,238697
KOVAN RESIDENCES,9539,886,544896
TRELLIS TOWERS,12092,1123,319773
GILSTEAD TWO,20873,1939,309061
THE AMERY,10656,990,425612
SHERWOOD TOWER,5844,543,588996
THE MINTON,9106,846,538755
THE REGENCY AT TIONG BAHRU,13776,1280,169905
BLEU @ EAST COAST,10000,929,466580
THE MINTON,10070,936,534077
KENTISH GREEN,7843,729,218815
COMPASS HEIGHTS,7661,712,545075
NAM PENG CENTRE,5098,474,534635
TELOK INDAH,5503,511,426282
SIGNATURE PARK,8924,829,596740
CITY SQUARE RESIDENCES,12212,1135,207229
DUCHESS CREST,11302,1050,269199
PALM GREEN,8029,746,117621
CHATELET,12269,1140,258542
CHELSEA LODGE,9843,914,437083
EVERGREEN PARK,6409,595,538802
PARC VISTA,6838,635,649812
DAKOTA RESIDENCES,11662,1083,399937
THE MINTON,9402,873,538752
ISUITES @ TANI,11385,1058,548540
GOLDENHILL PARK CONDOMINIUM,11129,1034,568431
THE MINTON,9791,910,534070
THE MINTON,9224,857,534077
THE MINTON,9198,855,534075
THE MINTON,9236,858,534070
THE MINTON,9349,869,534077
LOYANG VALLEY,5381,500,509067
THE MINTON,9449,878,534072
NORTHVALE,6270,582,689672
ONE AMBER,11304,1050,439974
SUITES DE LAUREL,14983,1392,588997
THE MINTON,9315,865,534070
GALLERY 8,9120,847,424376
KING'S COURT,8186,761,219014
TRILIGHT,18765,1743,307997
BUTTERWORTH 8,10827,1006,439423
URBAN LOFTS,14450,1342,218375
THE MINTON,7078,658,534078
SUITES @ SHREWSBURY,15323,1424,307842
THE MINTON,9143,849,538752
CELESTIA,9449,878,427305
TREVISTA,9386,872,319583
FERNWOOD TOWERS,8882,825,458555
PARC ELEGANCE,13983,1299,423912
DUNEARN SUITES,18795,1746,289609
SOUTHBANK,16310,1515,198784
AQUARIUS BY THE PARK,6798,632,478934
THE MINTON,8711,809,538755
CONCOURSE SKYLINE,18519,1720,199599
SUITES DE LAUREL,14153,1315,588997
FORTUNE PARK,8000,743,535131
MARINA BAY RESIDENCES,28534,2651,18980
IRESIDENCES,12088,1123,329550
THE PARC CONDOMINIUM,10981,1020,127162
THE WARREN,7577,704,689679
CASSIA VIEW,11136,1035,399746
THE MINTON,6357,591,538752
FLAMINGO VALLEY,14929,1387,454855
VISTAYA VIEW,8729,811,409042
D'MIRA,11073,1029,329602
THE MINTON,9236,858,534072
SUITES DE LAUREL,14535,1350,588997
ASTON MANSIONS,6711,623,398026
THE ABODE AT DEVONSHIRE,16346,1519,239895
GILSTEAD TWO,20982,1949,309061
THE MINTON,7486,695,538755
WING FONG COURT,6090,566,398922
COSTA DEL SOL,10261,953,469992
THE MINTON,8648,803,538751
SUITES @ SHREWSBURY,15452,1435,307842
CITY SQUARE RESIDENCES,14103,1310,207227
THE MINTON,8820,819,534080
THE MINTON,9660,897,534070
THE CASCADIA,15840,1472,589645
THE PARC CONDOMINIUM,11594,1077,127159
BISHAN 8,9815,912,574044
GRAND CHATEAU,8448,785,598435
REGENTVILLE,6495,603,538686
THE LEVELZ,15591,1448,268836
REGENT HEIGHTS,6895,641,659802
THE INTERLACE,11750,1092,109704
THE CENTRIO,11364,1056,329552
CITY SQUARE RESIDENCES,12768,1186,207224
OXFORD SUITES,10813,1005,218817
MAPLEWOODS,11829,1099,589630
THE CASCADIA,15158,1408,589645
THE MINTON,6131,570,534078
MELVILLE PARK,6040,561,529942
THE MINTON,9076,843,538752
THE MINTON,9161,851,538752
ONE AMBER,11406,1060,439972
THE MINTON,9323,866,534082
PARC VISTA,7296,678,649811
D' CHATEAU @ SHELFORD,13889,1290,288415
MONTEREY PARK CONDOMINIUM,9134,849,127472
THE MINTON,8412,782,538752
THE COSMOPOLITAN,20452,1900,239471
THE MINTON,8809,818,534077
BULLION PARK,9333,867,789094
PARKVIEW APARTMENTS,7260,674,658881
THE MINTON,9193,854,538755
THE PETALS,8120,754,669625
GLENTREES,10880,1011,277055
PEOPLE'S PARK COMPLEX,7115,661,59108
SUITES DE LAUREL,14627,1359,588997
LOYANG VALLEY,5917,550,509060
THE MINTON,7890,733,534083
NINETEEN SHELFORD ROAD,13011,1209,288408
SILVERSEA,18197,1691,449305
THE MINTON,9145,850,534073
THE CASCADIA,15032,1397,589643
QUEENS,11909,1106,148955
ARDMORE PARK,35000,3252,259955
THE MINTON,9175,852,534077
THE MINTON,9480,881,534082
WATERBANK AT DAKOTA,13451,1250,399941
BEDOK SHOPPING COMPLEX,2832,263,469461
THE SOUND,15595,1449,429073
GILSTEAD TWO,22591,2099,309061
THE MINTON,7322,680,534077
D'MIRA,10998,1022,329602
SUITES DE LAUREL,14433,1341,588997
THE MINTON,9480,881,534072
THE MINTON,8624,801,538752
COASTAL BREEZE RESIDENCES,6158,572,509050
THE MINTON,6602,613,534078
EASTWOOD REGENCY,13205,1227,486397
THE CASCADIA,14769,1372,589645
THE MINTON,8699,808,534076
CITY SQUARE RESIDENCES,14340,1332,207227
KELLOCK LODGE,10182,946,248902
ONE AMBER,11406,1060,439972
THE MINTON,9028,839,534073
THE MINTON,9574,889,538752
THE MINTON,8813,819,534080
SUITES DE LAUREL,14059,1306,588997
FLORIDIAN,18081,1680,589648
THE MINTON,9574,889,534070
THE MINTON,8443,784,534077
SUITES DE LAUREL,15083,1401,588997
KOVAN RESIDENCES,9366,870,544894
THE CASCADIA,14627,1359,589645
GREEN LODGE,8000,743,596684
THE CASCADIA,16031,1489,589657
THE MINTON,8939,830,534073
THE MINTON,9340,868,538756
HOLLAND PEAK,13842,1286,278740
MARINA BAY SUITES,27033,2511,18965
AVILA GARDENS,6707,623,509735
THE MINTON,9395,873,534082
HORIZON RESIDENCES,15062,1399,118862
ONE AMBER,11406,1060,439972
MARINA BAY SUITES,26859,2495,18965
ONE AMBER,11406,1060,439972
SILVERSEA,16154,1501,449307
MACPHERSON GREEN,7522,699,368237
NORTHVALE,8281,769,689673
DUCHESS CREST,12598,1170,269204
THOMSON VALE,12896,1198,307666
EASTWOOD REGENCY,13487,1253,486397
ONE AMBER,11406,1060,439972
YISHUN SAPPHIRE,6518,606,768438
FLORIDIAN,16166,1502,589664
THE MINTON,9479,881,534077
THE MINTON,9608,893,534077
THE BAYSHORE,9295,864,469976
MAYSPRINGS,6417,596,678265
NATURALIS,12708,1181,425279
THE MINTON,9229,857,538752
RAFFLESIA CONDOMINIUM,10412,967,579800
EUPHONY GARDENS,7159,665,759151
THE MINTON,8923,829,538751
L'VIV,26460,2458,307955
VARSITY PARK CONDOMINIUM,10122,940,127343
FLORIDIAN,16268,1511,589664
THE MINTON,10385,965,534077
MANDARIN GARDEN CONDOMINIUM,10317,959,448908
FLORIDIAN,16429,1526,589664
GILSTEAD TWO,21091,1959,309061
THE MINTON,8983,835,534072
THE MINTON,9106,846,538752
THE TRIZON,16298,1514,276698
ADAM PARK CONDOMINIUM,12545,1166,289901
THE PEAK@BALMEG,13989,1300,119913
THE MINTON,8586,798,538752
SUITES DE LAUREL,14537,1351,588997
CITYLIGHTS,12705,1180,208766
ESCADA VIEW,8571,796,417657
OPTIMA @ TANAH MERAH,11092,1031,465517
YISHUN EMERALD,6081,565,768425
SOMMERVILLE PARK,13347,1240,259282
BALLOTA PARK CONDOMINIUM,7011,651,507082
THE MINTON,7655,711,534071
ESPADA,25111,2333,238126
SUITES @ SHREWSBURY,14400,1338,307842
THE CASCADIA,16666,1548,589660
PARC VISTA,7300,678,649810
DOMAIN 21,14423,1340,169814
THE CASCADIA,15362,1427,589641
CASSIA VIEW,9738,905,399746
PINE GROVE,8449,785,591401
SOPHIA RESIDENCE,17227,1600,228192
THE MINTON,10155,943,534077
LAKEVIEW ESTATE,7667,712,574328
THE MINTON,9060,842,538755
THE MINTON,9050,841,534071
THE MINTON,9981,927,534077
THE MINTON,6487,603,538755
THE INSPIRA,16474,1530,239949
URBAN SUITES,28229,2623,229158
THE MINTON,6873,638,538756
THE CASCADIA,14261,1325,589643
TEMBELING MANSIONS,6685,621,423742
THE PETALS,7590,705,669623
FLAMINGO VALLEY,13559,1260,455943
THE MINTON,10192,947,534077
N.A.,7666,712,218178
THE NEXUS,13200,1226,589652
THE MINTON,9827,913,534077
HILLSIDE MANSIONS,7689,714,548943
ESPA,9223,857,679693
THE MINTON,9315,865,538752
THE CASCADIA,15719,1460,589658
THE CASCADIA,15143,1407,589658
8 @ MOUNT SOPHIA,15609,1450,228463
CHARISMA VIEW,9180,853,598671
THE MINTON,9832,913,534071
PARC OASIS,7211,670,609783
MI CASA,8029,746,689863
THE MINTON,8665,805,534080
CASA AERATA,10188,947,398484
CENTRAL GREEN CONDOMINIUM,10761,1000,169483
THE MINTON,6185,575,534071
THE MINTON,10192,947,534077
THE SEAFRONT ON MEYER,14738,1369,437878
EUNOS MANSION,7083,658,419535
TREE HOUSE,9185,853,679520
ONE AMBER,11406,1060,439957
THE MINTON,8728,811,534080
THE MINTON,9124,848,534077
THE MINTON,8394,780,534078
THE MINTON,9857,916,534070
THE MINTON,10239,951,534077
THE SOUND,17125,1591,429070
COTE D'AZUR,11542,1072,449300
THE MINTON,9330,867,534080
RIVERGATE,20833,1935,238258
THE MINTON,9800,910,534077
THE MINTON,8954,832,534078
ONE AMBER,11409,1060,439972
HORIZON RESIDENCES,18167,1688,118862
OLEANDER TOWERS,10250,952,319772
THE CASCADIA,15767,1465,589658
THE VISION,10294,956,126794
THE MINTON,9827,913,534077
EVERGREEN PARK,7071,657,538800
THE CASCADIA,15357,1427,589658
TREE HOUSE,9026,838,679521
SPRING @ LANGSAT,9311,865,426691
THE PARC CONDOMINIUM,9523,885,127158
SUITES DE LAUREL,15340,1425,588997
THE MIDAS,8553,795,398359
COSTA DEL SOL,11250,1045,469993
MARINA BAY RESIDENCES,32498,3019,18980
CITY SQUARE RESIDENCES,14151,1315,207224
VENTUNO BALMORAL,18033,1675,259805
ATRIUM RESIDENCES,7895,733,398414
KASTURINA LODGE,13143,1221,248969
OASIS @ ELIAS,7913,735,519941
GILSTEAD TWO,23493,2183,309061
D'ECOSIA,14889,1383,423936
THE MINTON,9986,928,534077
CASA AERATA,9243,859,398484
RIVIERA RESIDENCES,10756,999,467205
CYAN,25676,2385,258709
TWO8ONE STUDIO,18327,1703,238322
THE SUNNY SPRING,7364,684,398074
ROSEWOOD,5434,505,737940
PARC PALAIS,8147,757,598752
THE MINTON,8971,833,534082
TREVOSE PARK,13386,1244,298069
THE MINTON,9508,883,534076
THE CALROSE,6874,639,787067
HILLTOP GROVE,7000,650,669620
RIVIERA RESIDENCES,10521,977,467205
ROSEWOOD,6412,596,737939
BLUWATERS,8716,810,509439
ESTELLA GARDENS,7083,658,509739
WATERSCAPE AT CAVENAGH,20593,1913,229632
CITYLIGHTS,15422,1433,208749
THE MINTON,9057,841,538752
ONE AMBER,11408,1060,439957
SIMS GREEN,6638,617,388133
SUITES @ SURREY,14916,1386,307745
MELVILLE PARK,6100,567,529948
THE WATERSIDE,15075,1401,436896
ROSALIA PARK,5769,536,536412
HAZEL PARK CONDOMINIUM,7903,734,678946
TREVISTA,11202,1041,319583
BLUWATERS,7556,702,509439
ONE AMBER,12919,1200,439958
CASSIA VIEW,10658,990,399746
FLAMINGO VALLEY,14649,1361,455939
THE PARC CONDOMINIUM,9917,921,127158
MI CASA,7527,699,689867
THE PARC CONDOMINIUM,10603,985,127146
THE TANAMERA,7303,678,466663
THE MINTON,9354,869,534075
THE MINTON,9816,912,534077
THE CASCADIA,15149,1407,589659
KENG YEE GARDEN,6353,590,419825
THE BOTANIC ON LLOYD,20828,1935,239106
SUITES @ SHREWSBURY,15156,1408,307842
THE TESSARINA,13268,1233,276308
THE CASCADIA,15697,1458,589643
ICON,18269,1697,78878
BOTANIC GARDENS VIEW,18702,1737,257723
CITY SQUARE RESIDENCES,13097,1217,207226
ESTELLA GARDENS,9180,853,509739
CASA AERATA,10429,969,398484
KERRISDALE,9783,909,207852
PARVIS,16453,1529,278746
LINCOLN SUITES,21959,2040,308381
CLEMENTIWOODS CONDOMINIUM,11200,1041,126815
ESPADA,27539,2558,238126
THE PARC CONDOMINIUM,9663,898,127158
THE MINTON,9512,884,534077
URBAN LOFTS,15375,1428,218375
THE PLAZA,11863,1102,199591
THE CASCADIA,15255,1417,589644
THE PARC CONDOMINIUM,9959,925,127162
THE MINTON,9169,852,534077
THE MINTON,8983,835,534073
THE GARDENS AT BISHAN,7735,719,575577
THE MINTON,7936,737,534077
YISHUN EMERALD,6749,627,768425
THE CASCADIA,15933,1480,589657
THE MINTON,8849,822,538756
THE MINTON,8990,835,534077
THE MINTON,9198,854,538751
TREE HOUSE,8773,815,679518
THE MINTON,6335,589,534080
SILVERSEA,20354,1891,449307
THE MINTON,9648,896,534077
THE MINTON,10088,937,534077
WATERBANK AT DAKOTA,11664,1084,399942
ASTORIA PARK,9191,854,416827
ASTON MANSIONS,7234,672,398026
THE MINTON,9215,856,534072
THE MINTON,9079,843,534077
REGENTVILLE,7009,651,538683
COSTA DEL SOL,9197,854,469990
CASSIA VIEW,9289,863,399746
GALLOP GABLES,17658,1640,268853
RIVERVALE CREST,6000,557,545085
THE TANAMERA,7801,725,466665
ORCHID PARK CONDOMINIUM,6523,606,768449
DOVER PARKVIEW,9200,855,138687
FLAMINGO VALLEY,14544,1351,454852
CASSIA VIEW,10464,972,399746
THE MINTON,8719,810,534077
THE INTERLACE,8603,799,109700
THE CASCADIA,15391,1430,589643
ASCENTIA SKY,12814,1190,158748
DAKOTA RESIDENCES,13238,1230,399936
THE PARC CONDOMINIUM,10388,965,127159
THE CASCADIA,15245,1416,589642
THE CASCADIA,15104,1403,589643
DUNMAN VIEW,8500,790,438797
THE MINTON,9028,839,534072
CHANGI RISE CONDOMINIUM,7436,691,528805
THE BELLEFORTE,9677,899,329974
ST FRANCIS COURT,6254,581,328071
RIO VISTA,7739,719,534207
CASA ESPANIA,5161,479,538977
CASSIA VIEW,10032,932,399746
CARIBBEAN AT KEPPEL BAY,15726,1461,98651
SHELFORD SUITES,15308,1422,286653
BULLION PARK,5385,500,789097
FLAMINGO VALLEY,13409,1246,454852
FLAMINGO VALLEY,13880,1290,454855
WEST BAY CONDOMINIUM,7590,705,128038
WING FONG COURT,6173,574,398922
CASSIA VIEW,10307,957,399746
THE IMPERIAL,21244,1974,239617
RIO VISTA,7155,665,534205
CASSIA VIEW,11570,1075,399746
HILLVIEW REGENCY,7933,737,659920
THE CASCADIA,15373,1428,589644
COSTA DEL SOL,11535,1072,469992
THE MINTON,9477,880,534076
FIFTH AVENUE CONDOMINIUM,13200,1226,268800
THE MARBELLA,14029,1303,276954
CITY SQUARE RESIDENCES,12380,1150,207223
REGENT HEIGHTS,6771,629,659801
BOTANNIA,11282,1048,127724
CASAFINA,7522,699,469338
THE HAMILTON SCOTTS,34450,3200,228229
DUNEARN SUITES,19179,1782,289609
KOVAN RESIDENCES,9084,844,544896
VIDA,24750,2299,228307
CENTURY MANSIONS,7529,699,668671
GILSTEAD TWO,20852,1937,309061
THE MINTON,9310,865,534077
THE 101,13240,1230,189703
TREE HOUSE,10749,999,679518
EASTPOINT GREEN,7978,741,529891
FABER CREST,7559,702,129202
COMPASS HEIGHTS,7724,718,545076
THE TROPICA,7158,665,529773
PARKVIEW APARTMENTS,6731,625,658880
THE WINDSOR,8431,783,576190
CASA MERAH,10261,953,465533
THE BAYSHORE,9319,866,469970
EAST MEWS,9697,901,437838
RIVERGATE,20452,1900,238258
EASTERN LAGOON,11286,1048,466402
BELLA CASITA,15000,1394,438610
SUN PLAZA,6716,624,757713
GOLDENHILL PARK CONDOMINIUM,11475,1066,568426
HERITAGE RESIDENCES,12851,1194,425537
ST PATRICK'S GARDEN,9562,888,424185
RIVER PLACE,12562,1167,169658
SIGNATURE PARK,9000,836,596746
THE CASCADIA,15944,1481,589645
THE MINTON,9655,897,534071
HAZEL PARK CONDOMINIUM,7975,741,678948
THE MINTON,11000,1022,534077
THE QUARTZ,9910,921,544985
THE MINTON,9877,918,534077
THE MINTON,8745,812,534076
THE MINTON,8983,835,534077
THE CASCADIA,16152,1501,589657
SUITES DE LAUREL,14522,1349,588997
THE CASCADIA,16251,1510,589643
KOVAN RESIDENCES,10218,949,544918
PEIRCE VIEW,8486,788,574418
THE CASCADIA,15576,1447,589659
CASA MERAH,10439,970,465526
THE CASCADIA,15617,1451,589643
THE MINTON,9704,902,534077
PRESTIGE HEIGHTS,16213,1506,329778
THE MINTON,10088,937,534077
THE MINTON,9112,846,534071
THE MINTON,9585,890,534082
EAST MEADOWS,7857,730,465560
SOHO @ FARRER,10682,992,218605
SUITES @ SHREWSBURY,14151,1315,307842
FABER GARDEN CONDOMINIUM,9795,910,579981
SIGNATURE PARK,9242,859,596741
SUITES DE LAUREL,15623,1451,588997
CENTURY MANSIONS,7021,652,668671
GRAND DUCHESS AT ST PATRICK'S,13333,1239,424212
THE MINTON,9242,859,534072
CARIBBEAN AT KEPPEL BAY,16147,1500,98642
URBAN LOFTS,13710,1274,218375
GARDENVISTA,10780,1001,589486
THE FOLIAGE,13298,1235,118707
HAIG COURT,10550,980,438791
THE WARREN,7224,671,689677
THE LAURELS,33982,3157,229660
CASSIA VIEW,9106,846,399746
THE LAURELS,33628,3124,229660
SHERWOOD TOWER,5586,519,588996
SUI GENERIS,20332,1889,259920
THE WATERINA,10075,936,398085
NASSIM JADE,24854,2309,258371
MIN YUAN,10815,1005,187958
N.A.,4084,379,424654
CASTLE GREEN,7955,739,787056
TREVISTA,10009,930,319582
THE GLACIER,9040,840,427941
SOMMERVILLE PARK,15372,1428,259281
SEASONS PARK,8017,745,787079
CENTURY MANSIONS,7660,712,668671
VALLEY PARK,15348,1426,248360
REGENT COURT,10000,929,328190
CASHEW HEIGHTS CONDOMINIUM,9091,845,679668
EDELWEISS PARK CONDOMINIUM,7704,716,509743
BALLOTA PARK CONDOMINIUM,6848,636,507081
THE MINTON,6661,619,538755
TANAMERA CREST,7589,705,486061
THE MINTON,9153,850,534078
MAYSPRINGS,7235,672,678265
HORIZON RESIDENCES,14984,1392,118862
TREE HOUSE,10398,966,679517
THE MINTON,9072,843,534083
PAPILLON,10000,929,329089
THE ARTE,11299,1050,329215
THE CENTRIS,9697,901,648336
GLENTREES,13792,1281,277055
THE MINTON,10338,960,534076
SERENE HOUSE,3733,347,258746
COSTA DEL SOL,12409,1153,469991
THE MINTON,6406,595,534079
STRATA,17766,1650,309329
THE SOUND,15123,1405,429073
CASABLANCA,7527,699,737921
COSTA DEL SOL,11464,1065,469986
HORIZON RESIDENCES,13859,1288,118863
8 RODYK,19921,1851,238216
GRANDEUR 8,6463,600,567741
RITZ REGENCY,11695,1086,438611
PARC OASIS,7500,697,609781
NORTHVALE,6483,602,689672
THE BAYSHORE,8864,823,469970
THE CASCADIA,17542,1630,589643
CARISSA PARK CONDOMINIUM,8140,756,507025
REGENT COURT,10220,949,328190
ROCHELLE AT NEWTON,12302,1143,308414
CHARLESTON,12444,1156,248184
THE MINTON,9076,843,534082
THE MINTON,9259,860,534077
THE CASCADIA,16195,1505,589660
LIVIA,7967,740,518208
HILLTOP GROVE,6503,604,669621
BELLE VUE RESIDENCES,22222,2064,238594
SUITES @ SHREWSBURY,15531,1443,307842
BELLE VUE RESIDENCES,24364,2263,238598
THE MINTON,8515,791,534078
RIVERGATE,21474,1995,238255
GOLD COAST CONDOMINIUM,8759,814,118699
RICHMOND PARK,24468,2273,229920
FLAMINGO VALLEY,11939,1109,455943
VIZ AT HOLLAND,16144,1500,276750
THE PARC CONDOMINIUM,10373,964,127162
THE QUARTZ,9667,898,544985
COSTA RHU,11576,1075,437434
SOMMERVILLE PARK,14876,1382,259281
ASTON MANSIONS,7234,672,398026
THE CASCADIA,14486,1346,589642
THE MINTON,9646,896,538755
GUILIN VIEW,7485,695,659247
BOTANNIA,10067,935,127649
AALTO,16740,1555,437981
THE MINTON,9115,847,534071
RIVERGATE,17228,1601,238255
THE RAINTREE,10039,933,587841
THE GARDENS AT BISHAN,8411,781,575578
SIMSVILLE,7155,665,389757
ROSEWOOD SUITES,6389,594,737874
HIGHGATE,8644,803,596730
CITYLIGHTS,13140,1221,208745
ONE LEICESTER,10672,991,358828
THE BAYSHORE,9773,908,469974
THE CASCADIA,16137,1499,589641
THE ARIZON,4269,397,389493
DRAYCOTT EIGHT,24749,2299,259405
KENTISH GREEN,8200,762,218815
NEWTON 18,15776,1466,307989
KOVAN MELODY,9558,888,545019
REGENT COURT,10764,1000,328190
REGENT COURT,10760,1000,328190
CHANGI COURT,7778,723,486836
THE LENOX,12558,1167,419845
REGENT COURT,10226,950,328190
ROCHELLE AT NEWTON,12778,1187,308414
THE GARDENS AT BISHAN,8224,764,575575
CYAN,22616,2101,258710
COSTA RHU,14183,1318,437436
ROSEWOOD,6968,647,737940
OXFORD SUITES,12289,1142,218817
MI CASA,8853,823,689863
CASA MEYFORT,11860,1102,437906
REGENT COURT,10226,950,328190
REGENT HEIGHTS,6239,580,659804
THE CALROSE,6590,612,787083
JERVOIS JADE APARTMENTS,9691,900,249114
INTERNATIONAL PLAZA,12500,1161,79903
THE ORCHARD RESIDENCES,32075,2980,248652
REGENT COURT,10226,950,328190
THE CASCADIA,16356,1520,589660
RIVERIA GARDENS,23681,2200,238406
RIVERIA GARDENS,19905,1849,238406
RIVERIA GARDENS,19905,1849,238406
BUTTERWORTH 8,10368,963,439445
LIVIA,7929,737,518217
FERNWOOD TOWERS,9079,843,458555
KOVAN RESIDENCES,10593,984,544897
PRESTIGE LOFT,9451,878,423911
BISHAN POINT,9023,838,579653
THE MINTON,9210,856,534082
RIVERIA GARDENS,19898,1849,238406
THE CASCADIA,17372,1614,589660
SUITES DE LAUREL,14642,1360,588997
THE PARC CONDOMINIUM,10760,1000,127140
FLORIDIAN,17834,1657,589626
THE MINTON,8528,792,534076
THE GARDENS AT BISHAN,7991,742,575575
IRESIDENCES,12708,1181,329550
THE MINTON,9225,857,534082
EMERALD GARDEN,15909,1478,69415
THE MINTON,9166,852,534077
THE MINTON,7317,680,534070
RIVERIA GARDENS,19905,1849,238406
BUTTERWORTH 8,10632,988,439445
THE CASCADIA,14532,1350,589645
REGENT COURT,10444,970,328190
REGENT COURT,9795,910,328190
THE INFINITI,10119,940,127713
THE SERENADE @ HOLLAND,11014,1023,278698
THE MINTON,9302,864,534076
COMPASS HEIGHTS,7927,736,545076
KOVAN RESIDENCES,9539,886,544896
CLEMENTI PARK,10831,1006,597159
BLUWATERS 2,9259,860,509456
CASPIAN,8108,753,648316
FLORIDIAN,18000,1672,589648
JERVOIS JADE APARTMENTS,9856,916,249114
THE MINTON,9901,920,534077
THE CASCADIA,14386,1337,589645
FLAMINGO VALLEY,13845,1286,455939
THE VISION,10183,946,126794
ESPADA,24719,2296,238126
SUITES DE LAUREL,16556,1538,588997
RIVERIA GARDENS,19905,1849,238406
MONTEBLEU,14151,1315,308162
RIVERIA GARDENS,19898,1849,238406
SUITES 123,12741,1184,218401
RIVERIA GARDENS,19898,1849,238406
LINCOLN SUITES,19731,1833,308380
RIVERIA GARDENS,19898,1849,238406
THE LAKESHORE,9818,912,649411
REGENT COURT,10226,950,328190
ASCENTIA SKY,15032,1397,158748
CITY SQUARE RESIDENCES,12768,1186,207224
SKY@ELEVEN,15180,1410,297725
KOVAN MELODY,9504,883,545021
8 RODYK,18833,1750,238216
RIVERIA GARDENS,19905,1849,238406
THE METROPOLITAN CONDOMINIUM,12308,1143,158747
HORIZON RESIDENCES,14065,1307,118864
RIVERIA GARDENS,19898,1849,238406
CALARASI,8636,802,328882
SANCTUARY GREEN,10566,982,436925
SUN PLAZA,6503,604,757713
ONE AMBER,13721,1275,439958
LINCOLN SUITES,28279,2627,308381
MELVILLE PARK,6238,579,529944
ICON,17778,1652,78878
LAGUNA GREEN,8073,750,468726
KOVAN RESIDENCES,9707,902,544896
GILSTEAD TWO,20765,1929,309061
8 @ MOUNT SOPHIA,15455,1436,228463
VIZ AT HOLLAND,16087,1495,276750
THE CASCADIA,16076,1494,589645
SIMS RESIDENCES,7099,660,387882
THE MINTON,8844,822,534078
SAVANNAH CONDOPARK,7719,717,528791
PARK INFINIA AT WEE NAM,19694,1830,308345
VILLA MARINA,8267,768,457404
VERTIS,10336,960,439979
WATERBANK AT DAKOTA,11222,1043,399941
CANARY VILLE,9188,854,423484
MALVERN SPRINGS,6578,611,424775
THE ROCHESTER,12139,1128,138638
THE SHORE RESIDENCES,15334,1425,439894
THE TANAMERA,6878,639,466664
MERAWOODS,8387,779,669608
THOMSON EURO-ASIA,17083,1587,307605
TANGLIN REGENCY,11000,1022,247965
THE MINTON,9732,904,534077
THE MINTON,9280,862,538755
STARLIGHT SUITES,22508,2091,238437
D' IXORAS,13703,1273,308172
THE MINTON,9604,892,534076
CASSIA VIEW,10622,987,399746
THE MINTON,8982,834,534080
TANAH MERAH MANSION,7763,721,466671
THE CASCADIA,14608,1357,589645
BRADDELL VIEW,6660,619,579722
THE LAKESHORE,9721,903,649413
THE INTERLACE,10602,985,109692
CITY EDGE,12897,1198,308133
SIMS MEADOWS,6970,648,387977
BLOSSOM VIEW,6848,636,398498
THE MONTANA,15615,1451,249188
TEMBELING COURT,7487,696,423596
PARC IMPERIAL,15556,1445,117425
HUNDRED TREES,9847,915,127997
LATITUDE,22349,2076,249208
MAYSPRINGS,8280,769,678265
THE CASCADIA,16333,1517,589657
THE INTERLACE,8741,812,109697
THE INTERLACE,10973,1019,109697
THE CASCADIA,15869,1474,589657
FLORIDIAN,18060,1678,589648
TRIBECA,17378,1614,239497
THE MINTON,6888,640,534080
THE MINTON,8885,825,538752
THE SEA VIEW,13725,1275,439942
REFLECTIONS AT KEPPEL BAY,30958,2876,98417
DUCHESS RESIDENCES,18658,1733,266312
GOLDENHILL PARK CONDOMINIUM,11290,1049,568431
CYAN,21807,2026,258709
BALESTIER PLAZA,7598,706,329802
THE CASCADIA,13711,1274,589642
THE INTERLACE,6657,618,109696
THE INTERLACE,10708,995,109696
THE MINTON,9341,868,534082
THE HUNTINGTON,12778,1187,308095
THE CARPMAELINA,8628,802,429974
THE SUNNYDALE,7344,682,556124
THE MINTON,7249,673,534070
THE REGENCY AT TIONG BAHRU,14004,1301,169907
KOVAN RESIDENCES,10122,940,544918
N.A.,6000,557,457593
ADAM PARK CONDOMINIUM,12000,1115,289902
BRADDELL PARK,8557,795,359145
OXFORD SUITES,13208,1227,218817
THE MINTON,8499,790,538752
MELVILLE PARK,6071,564,529942
L'VIV,23152,2151,307955
CITY SQUARE RESIDENCES,14103,1310,207227
THE BLOSSOMVALE,11382,1057,589473
CITYLIGHTS,12295,1142,208766
FAR HORIZON GARDENS,6354,590,569758
THE MINTON,10788,1002,534077
NORTHVALE,6832,635,689674
THE VISION,10486,974,126793
WING FONG MANSIONS,5682,528,398924
THE SUNNY SPRING,6984,649,398074
SOLEIL @ SINARAN,17978,1670,307467
HERITAGE VIEW,9788,909,138680
FLORIDIAN,18440,1713,589648
THE BAYSHORE,8686,807,469972
THE OCEANFRONT @ SENTOSA COVE,21143,1964,98532
CHILTERN PARK,7907,735,556113
ENG KONG GREEN,7835,728,599426
LAKEPOINT CONDOMINIUM,6235,579,648923
KOVAN RESIDENCES,9954,925,544918
MAYSPRINGS,6198,576,678267
RIS GRANDEUR,7971,741,519933
FREESIA WOODS,11024,1024,597092
JOO CHIAT MANSIONS,6071,564,427897
CASTLE GREEN,7710,716,787059
VETRO,12614,1172,328703
CHILTERN PARK,7966,740,556112
THE CASCADIA,17803,1654,589660
THE CASCADIA,16818,1562,589658
THE MINTON,9416,875,534077
ICON,17012,1580,78878
THE MINTON,6410,596,534072
THE MINTON,9558,888,538755
THE MINTON,9417,875,538752
THE CASCADIA,14955,1389,589642
THE CASCADIA,15610,1450,589645
DAHLIA PARK CONDOMINIUM,7250,674,507010
THE SOUND,16807,1561,429070
DAKOTA RESIDENCES,11576,1075,399938
NATHAN SUITES,21227,1972,248743
THE MINTON,8739,812,534077
LEEDON 2,13851,1287,267829
SIGLAP V,15833,1471,458278
THE PARC CONDOMINIUM,9900,920,127146
HIGHGATE,8333,774,596723
THE MINTON,8644,803,534080
THE INTERLACE,11190,1040,109699
THE SUNNY SPRING,8020,745,398074
EBONY MANSIONS,8559,795,425312
THE CALLISTA,7821,727,328702
OPTIMA @ TANAH MERAH,9449,878,465514
VISTA RESIDENCES,15242,1416,329426
THE CASCADIA,15282,1420,589659
ASCENTIA SKY,14047,1305,158748
GARDENVISTA,10753,999,589487
WHITESCAPE,9674,899,425239
LANDBAY CONDOMINIUM,10526,978,468704
MANDARIN GARDEN CONDOMINIUM,10000,929,448908
SUTTON PLACE,16672,1549,268831
N.A.,11829,1099,437031
VALLEY PARK,12708,1181,248360
NATHAN SUITES,19616,1822,248743
ROSEWOOD,6750,627,737934
THE RAINTREE,10058,934,587841
THE INTERLACE,11964,1111,109698
HOLLAND RESIDENCES,21607,2007,276337
VILLA MARINA,7975,741,457406
VILLA MARINA,8224,764,457406
CASPIAN,8261,767,648316
LAGUNA GREEN,8263,768,468726
CHUAN PARK,7606,707,556748
THE PARC CONDOMINIUM,10545,980,127158
REGENT COURT,9256,860,328190
CARISSA PARK CONDOMINIUM,9741,905,507026
WARNER COURT,14286,1327,278966
ASTORIA PARK,7640,710,416826
BLU CORAL,9730,904,425602
RIVER VALLEY APARTMENTS,10600,985,248298
WATER PLACE,11765,1093,436607
HORIZON RESIDENCES,14842,1379,118863
DAHLIA PARK CONDOMINIUM,7458,693,507011
HARVEST MANSIONS,8684,807,169638
THE METZ,29259,2718,239864
WATER PLACE,11667,1084,436607
WOODGROVE CONDOMINIUM,5348,497,738207
THE CASCADIA,16947,1574,589660
THE CASCADIA,16300,1514,589658
CAVENDISH PARK,11011,1023,597593
HORIZON RESIDENCES,13972,1298,118863
EDELWEISS PARK CONDOMINIUM,7541,701,507001
RIO VISTA,6711,623,534208
THE MERLOT,10744,998,219261
THE INTERLACE,12054,1120,109698
BOTANIC GARDENS MANSION,15337,1425,257721
THE MINTON,9563,888,534077
ELIAS GREEN,5282,491,519961
HILLVISTA,12151,1129,669744
PARC HAVEN,10071,936,328743
BULLION PARK,7146,664,789098
THE PARC CONDOMINIUM,11088,1030,127140
CASA MERAH,10224,950,465534
CASABELLA,15217,1414,269187
CENTENNIA SUITES,22768,2115,239427
REGENT HEIGHTS,6852,637,659802
RIVER PLACE,12687,1179,169659
RIVIERA POINT,12549,1166,239320
SUNGLADE,9563,888,556134
HOLLAND PEAK,12338,1146,278739
FLAMINGO VALLEY,13269,1233,454946
RIVERVALE CREST,6622,615,545086
SOUTHBANK,15112,1404,198784
ROSEWOOD,6989,649,737940
EASTWOOD GREEN,7064,656,486364
EDELWEISS PARK CONDOMINIUM,5301,492,507001
VALLEY PARK,14159,1315,248358
NEWTON EDGE,15573,1447,228598
ARTHUR 118,14022,1303,439827
REGENTVILLE,7286,677,538686
LOYANG VALLEY,5103,474,509068
RESIDENCES AT W SPORE SENTOSA CV,30078,2794,98373
EAST ELEGANCE,7923,736,427336
ASIA GARDENS,12222,1135,89394
CASSIA VIEW,9317,866,399746
CHANGI COURT,9103,846,486828
KOVAN RESIDENCES,8717,810,544894
GUILIN VIEW,7875,732,659245
THE LAURELS,35294,3279,229660
WATERBANK AT DAKOTA,14124,1312,399942
THE INTERLACE,10963,1019,109686
STUDIOS @ MARNE,14111,1311,208393
CASA AERATA,10833,1006,398484
THE SERENNIA,8075,750,424382
ESTELLA GARDENS,7869,731,509742
TRIBECA,20465,1901,239497
CHANGI RISE CONDOMINIUM,7662,712,528808
ROBERTSON 100,16543,1537,238250
SUITES DE LAUREL,15472,1437,588997
BALLOTA PARK CONDOMINIUM,5949,553,507083
CASA MERAH,10330,960,465536
THE MINTON,8970,833,534072
THE MINTON,5212,484,538756
THE MINTON,9536,886,534077
NORTHVALE,6282,584,689673
THE ALCOVE,6917,643,388199
THE SEA VIEW,13740,1277,439943
ESTELLA GARDENS,8852,822,509739
PEPYS HILL CONDOMINIUM,8491,789,118450
RESIDENCES @ SOMME,9459,879,208108
GOLDENHILL PARK CONDOMINIUM,11169,1038,568430
CLEMENTI PARK,10952,1018,597158
THE ATRIA AT MEYER,13280,1234,437885
THE MAYLEA,11368,1056,117491
VERSILIA ON HAIG,11789,1095,438639
THE VISION,9938,923,126794
THE BLOSSOMVALE,11626,1080,589473
JANSEN SPRING,6277,583,548461
CYAN,21804,2026,258709
THE VISION,9988,928,126794
EUPHONY GARDENS,6195,576,759152
URBAN RESORT CONDOMINIUM,32432,3013,229657
CASA AERATA,10500,975,398484
BLUE HORIZON,9368,870,128046
NORTHVALE,6610,614,689668
CASA AERATA,10389,965,398484
THE MINTON,8634,802,534078
WATERFRONT KEY,9159,851,479251
NINETEEN SHELFORD ROAD,12817,1191,288408
THE BAYCOURT,8312,772,466507
URBAN RESORT CONDOMINIUM,31267,2905,229657
THE CASCADIA,15700,1459,589657
EAST 25 APARTMENTS,5821,541,388224
THE MINTON,8309,772,538752
THE MINTON,9039,840,534078
CENTRO RESIDENCES,14163,1316,567752
CASA AERATA,10104,939,398484
ESTELLA GARDENS,9279,862,509740
THE COTZ,13324,1238,423824
BISHAN POINT,8598,799,579653
THE MINTON,8941,831,534076
CASSIA VIEW,11412,1060,399746
AQUARIUS BY THE PARK,8313,772,478931
1 KING ALBERT PARK,11622,1080,598326
SPANISH VILLAGE,14563,1353,268845
VIDA,26750,2485,228307
CAIRNHILL CREST,21536,2001,229814
SUNGLADE,8500,790,556135
THE PARC CONDOMINIUM,10384,965,127146
THE SUNNY SPRING,7909,735,398074
REGENT HEIGHTS,7248,673,659802
TRILIGHT,20291,1885,307945
PALM GARDENS,6518,606,689049
CHANGI GREEN,7519,699,486843
CASSIA VIEW,10149,943,399746
THE MINTON,8888,826,538752
SILVERSEA,15931,1480,449307
STADIA,9100,845,545542
SCOTTS SQUARE,36070,3351,228238
KOVAN RESIDENCES,9321,866,544896
MOUNT FABER LODGE,12990,1207,99200
EAST VIEW,11317,1051,429986
SIGNATURE PARK,8698,808,596745
OPTIMA @ TANAH MERAH,9430,876,465538
ASTON MANSIONS,7128,662,398026
GRAND RESIDENCE,9741,905,426237
CENTENNIA SUITES,23043,2141,239427
GRANDEUR 8,9091,845,567746
WATERFALL GARDENS,18623,1730,268824
CHILTERN PARK,8190,761,556114
ESTELLA GARDENS,6983,649,509740
THE PETALS,8841,821,669625
SAVANNAH CONDOPARK,7807,725,528788
THE GLACIER,8800,818,427941
EASTPOINT GREEN,7314,680,529890
DUNEARN LODGE,9510,883,289674
THE HOLLAND COLLECTION,22614,2101,258859
IMPERIAL HEIGHTS,13611,1265,438620
TANGLIN VIEW,11724,1089,159015
THE CASCADIA,15036,1397,589644
REGENT COURT,10222,950,328190
THE MINTON,8160,758,538752
THE CASCADIA,16000,1486,589657
HORIZON RESIDENCES,14635,1360,118863
CASA AERATA,9545,887,398484
KOVAN RESIDENCES,8949,831,544894
THE AZZURO,9706,902,426140
THE CASCADIA,15983,1485,589658
KOVAN RESIDENCES,10445,970,544918
MONTROSA,7749,720,669604
ASTOR GREEN,9596,891,597592
MINT RESIDENCES @ JANSEN,10373,964,548411
TANGLIN PARK,22903,2128,248466
CASA AERATA,9893,919,398484
EAST MEADOWS,8288,770,465558
NORTHWOOD,8065,749,759158
THE CASCADIA,16067,1493,589658
WHITESCAPE,12082,1122,425239
FLORIDIAN,15610,1450,589664
THE CASCADIA,15950,1482,589658
MARINA BAY RESIDENCES,30137,2800,18980
EAST MEWS,7172,666,437838
MAYSPRINGS,8120,754,678265
DUNEARN SUITES,20128,1870,289609
FABER CREST,7265,675,129206
TREE HOUSE,8576,797,679521
THE VISION,9618,894,126794
MELVILLE PARK,6759,628,529942
THE CASCADIA,16233,1508,589658
EDELWEISS PARK CONDOMINIUM,4934,458,507007
SUFFOLK PREMIER,12990,1207,307781
WESTCOVE CONDOMINIUM,7212,670,128042
EAST MEWS,6985,649,437838
CARISSA PARK CONDOMINIUM,7143,664,507025
ONE JERVOIS,17217,1600,249099
CASA AERATA,10212,949,398484
GREEN LODGE,8199,762,596684
MARINA BAY SUITES,24340,2261,18965
ASTOR GREEN,9949,924,597592
CASA AERATA,9242,859,398484
BULLION PARK,9333,867,789098
THE CASCADIA,13983,1299,589659
MILL CREEK,9235,858,417052
THOMSON V ONE,11065,1028,575630
WARNER COURT,15315,1423,278966
CASA AERATA,9873,917,398484
NORTHVALE,6891,640,689670
THE ABERDEEN,9124,848,329023
THE ANSLEY,11597,1077,308214
THE LINEAR,6859,637,678183
PARC VISTA,6837,635,649810
REGENT HEIGHTS,6239,580,659804
CASA AERATA,10013,930,398484
KOVAN RESIDENCES,9634,895,544894
CASA AERATA,8700,808,398484
REGENT GROVE,6351,590,689527
QUINTERRA,12651,1175,278636
THE WILSHIRE,10330,960,268828
THOMSON 800,13113,1218,298189
PALM GARDENS,6071,564,689049
BALLOTA PARK CONDOMINIUM,6241,580,507082
SPRINGDALE CONDOMINIUM,10238,951,587976
ESCADA VIEW,6500,604,417657
BELMOND GREEN,16393,1523,259817
CASA PASIR RIS,6353,590,509506
RIVERGATE,19107,1775,238255
LOYANG VALLEY,5485,510,509058
IVORY HEIGHTS,6076,564,600122
TAMPINES COURT,4684,435,521120
CASA AERATA,10611,986,398484
WATERFRONT KEY,8913,828,479250
URBAN SUITES,28118,2612,229158
TREE HOUSE,8766,814,679521
MI CASA,8552,794,689865
REFLECTIONS AT KEPPEL BAY,18222,1693,98416
THE LENOX,11352,1055,419845
ONE AMBER,11409,1060,439972
ONE AMBER,11412,1060,439974
EASTPOINT GREEN,6883,639,529891
SIMSVILLE,7912,735,389758
BOTANNIA,9664,898,127649
ONE AMBER,11408,1060,439957
MULBERRY TREE,16429,1526,308092
THE CITRINE,9748,906,329415
THE GALE,8830,820,506912
CASA AERATA,9395,873,398484
WATERFRONT KEY,9277,862,479251
CASA AERATA,10429,969,398484
THE MINTON,10280,955,534077
WATERFRONT KEY,9042,840,479251
FLORIDIAN,15479,1438,589664
REGENT HEIGHTS,6842,636,659802
ONE AMBER,11406,1060,439972
ROSEWOOD SUITES,6484,602,737873
FLORIDIAN,16112,1497,589664
THE GERANIUM,10000,929,424980
ICON,17224,1600,78878
THE CASCADIA,13626,1266,589658
TORIEVILLE,5474,509,399202
SPOTTISWOODE PARK,7595,706,80101
MARINA BAY SUITES,25367,2357,18965
FLORIDIAN,16733,1555,589664
THE CALLISTA,10182,946,328702
ROBIN REGALIA,14375,1335,258210
LE REVE,7489,696,417779
GOODWOOD RESIDENCE,16793,1560,259703
LAGUNA PARK,10133,941,449288
THE SEA VIEW,16145,1500,439943
COTE D'AZUR,11803,1097,449301
THE ARIZON,4637,431,389493
REGENT GROVE,6410,596,689528
PRESTIGE LOFT,8771,815,423911
COMPASS HEIGHTS,7609,707,545075
EASTWOOD GREEN,6606,614,486364
THE INTERLACE,11301,1050,109703
CASA MEYFORT,12500,1161,437906
BOULEVARD VUE,33280,3092,249697
CASA AERATA,10448,971,398484
DOUBLE BAY RESIDENCES,5945,552,529883
SUNSHINE LODGE,8364,777,534530
REGENT GROVE,6393,594,689529
CASA AERATA,10538,979,398484
PARC ELEGANCE,13415,1246,423763
HORIZON RESIDENCES,14188,1318,118864
SYMPHONY HEIGHTS,8804,818,598739
L'VIV,22136,2056,307955
MELROSE VILLE,12237,1137,437370
SPRINGDALE CONDOMINIUM,8429,783,587976
REGENT GROVE,7163,665,689529
THE WARREN,7457,693,689686
MAPLEWOODS,12742,1184,589628
MABELLE,11103,1031,425303
FLORIDIAN,16623,1544,589664
ROBERTSON 100,15873,1475,238250
CASA AERATA,10551,980,398484
AQUARIUS BY THE PARK,7229,672,478934
THE JADE,7664,712,658074
CASPIAN,8345,775,648320
CASA AERATA,11231,1043,398484
FLAMINGO VALLEY,13800,1282,454946
ESPADA,30335,2818,238126
THE INTERLACE,8773,815,109688
THE SHORE RESIDENCES,13728,1275,439897
TREVISTA,10089,937,319582
THE TRIZON,14332,1332,276693
THE MINTON,10184,946,534077
RESIDENCE 66,7305,679,423788
FLORIDIAN,17008,1580,589664
RESIDENCES AT 338A,14107,1311,238381
FLAMINGO VALLEY,14500,1347,454855
PARC OASIS,6496,604,609775
SANDALWOOD,10092,938,423480
CASA AERATA,10014,930,398484
THE INTERLACE,12009,1116,109698
ASPEN HEIGHTS,14851,1380,238307
THE SHORE RESIDENCES,14284,1327,439893
CASA AERATA,10230,950,398484
IRIDIUM,13636,1267,308349
CASA AERATA,11050,1027,398484
ROSEWOOD,6842,636,737934
DUCHESS ROYALE,15073,1400,269105
COASTAL BREEZE RESIDENCES,6250,581,509051
CASA AERATA,10320,959,398484
WATERBANK AT DAKOTA,11939,1109,399948
PRESTIGE HEIGHTS,15588,1448,329778
ROSEWOOD SUITES,6222,578,737874
BALLOTA PARK CONDOMINIUM,6067,564,507085
FLAMINGO VALLEY,15039,1397,455939
MARTIN NO 38,25420,2362,239059
THE BEACON,12444,1156,89775
HORIZON RESIDENCES,14996,1393,118862
VENTANA,11680,1085,118893
THE ARTE,13129,1220,329215
CASA AERATA,10102,938,398484
TREE HOUSE,8697,808,679521
CASA AERATA,9469,880,398484
N.A.,9977,927,398061
TAMPINES COURT,4906,456,521134
CASA AERATA,9245,859,398484
EASTERN LAGOON,11791,1095,455286
PARC OASIS,7807,725,609776
SKY@ELEVEN,14107,1311,297725
N.A.,8307,772,589822
BRADDELL VIEW,7595,706,579727
WATERBANK AT DAKOTA,11983,1113,399941
CASA AERATA,9788,909,398484
TREE HOUSE,8820,819,679520
LE REVE,7803,725,417784
BEDOK SHOPPING COMPLEX,2965,275,469473
CASA AERATA,9463,879,398484
CASA AERATA,10444,970,398484
FLAMINGO VALLEY,16125,1498,454855
CAVENDISH PARK,10112,939,597593
LE REVE,7848,729,417780
ATTITUDE AT KIM YAM,18871,1753,239319
REGENT GROVE,7064,656,689529
FLORIDIAN,16234,1508,589664
ORCHID PARK CONDOMINIUM,5987,556,768452
N.A.,3578,332,399702
D'GROVE VILLAS,22390,2080,258343
REGENT HEIGHTS,6560,609,659801
WATERBANK AT DAKOTA,11743,1091,399941
CASA AERATA,10047,933,398484
NORTHVALE,7188,668,689674
MANDARIN GARDEN CONDOMINIUM,10074,936,448908
THE HAMILTON SCOTTS,30144,2800,228229
SOLEIL @ SINARAN,15606,1450,307467
THE TRIZON,14992,1393,276697
EMERALD GARDEN,15698,1458,69415
EUPHONY GARDENS,6273,583,759154
THE PLAZA,11477,1066,199591
FLAMINGO VALLEY,13521,1256,455939
BURLINGTON SQUARE,12821,1191,189651
AQUARIUS BY THE PARK,7073,657,478927
BEACON HEIGHTS,6996,650,328689
EAST VIEW,10000,929,429986
THE CASCADIA,15867,1474,589658
THE TRILLIUM,20462,1901,239434
THE BAYSHORE,9023,838,469974
SKY@ELEVEN,15391,1430,297726
JERVOIS JADE APARTMENTS,10309,958,249114
LANDBAY CONDOMINIUM,10690,993,468698
MONTEBLEU,14052,1305,308162
DELIGHT COURT,7083,658,387982
TANAH MERAH MANSION,6567,610,466671
WING FONG MANSIONS,5614,522,398924
THE SERENADE @ HOLLAND,9086,844,278698
BOTANNIA,9000,836,127724
VERSILIA ON HAIG,11053,1027,438641
RIO VISTA,7543,701,534209
LAKEHOLMZ,7522,699,649823
BELLA CASITA,14214,1321,438610
TRENDALE TOWER,16208,1506,229681
GLOBAL VILLE,9524,885,329192
BEDOK COURT,6780,630,469296
GOODWOOD RESIDENCE,25918,2408,259703
DAHLIA PARK CONDOMINIUM,7480,695,507012
HONG HENG GARDEN,4335,403,779084
FLORA EAST,7018,652,427928
DUCHESS ROYALE,18141,1685,269105
SANCTUARY GREEN,10142,942,436922
ONE DEVONSHIRE,21517,1999,239896
SPRING @ LANGSAT,12614,1172,426691
BEDOK COURT,6429,597,469298
ASCENTIA SKY,12686,1179,158749
ST PATRICK'S GARDEN,9732,904,424184
SOMMERVILLE GRANDEUR,14706,1366,259279
OASIS @ ELIAS,7578,704,519938
COSTA RHU,12553,1166,437434
THE SUITES AT CENTRAL,21639,2010,239899
FONTAINE PARRY,10504,976,546785
THE TESSARINA,12441,1156,276308
THE MADEIRA,6897,641,659445
HILLVISTA,11776,1094,669744
COMPASS HEIGHTS,10532,978,545075
NOVENA COURT,10375,964,308608
SKY@ELEVEN,15606,1450,297727
HILLTOP GROVE,6765,629,669620
EAST SIGNATURE,7933,737,458656
EURO-ASIA PARK,7754,720,357920
DAHLIA PARK CONDOMINIUM,7034,653,507012
THE GARDENS AT BISHAN,8415,782,575577
THE CARPMAELINA,8604,799,429974
STARLIGHT SUITES,22185,2061,238437
THE SPRINGBLOOM,7778,723,556121
TREE HOUSE,8731,811,679521
THE INTERLACE,7399,687,109690
WOODGROVE CONDOMINIUM,5617,522,738212
NORTHWOOD,7903,734,759158
FLAMINGO VALLEY,12383,1150,455939
FIFTY-TWO STEVENS,20870,1939,257848
D'PAVILION,10730,997,534163
ORCHID PARK CONDOMINIUM,6404,595,768447
THE INTERLACE,9899,920,109698
MARTIN NO 38,24911,2314,239059
CARIBBEAN AT KEPPEL BAY,16140,1499,98656
THE INTERLACE,12728,1182,109707
CASA AERATA,10627,987,398484
FLAMINGO VALLEY,13524,1256,454946
CASA AERATA,10320,959,398484
CASA AERATA,10213,949,398484
THE GRANDIFLORA,9667,898,425554
BAYWATER,8678,806,479241
NORTHVALE,6337,589,689673
STADIA,10775,1001,545542
TEMBELING RESIDENCE,11386,1058,423725
MONTEREY PARK CONDOMINIUM,8887,826,127466
MIRAGE TOWER,14000,1301,239426
FLAMINGO VALLEY,17033,1582,454855
FLAMINGO VALLEY,16548,1537,454855
TREVISTA,11474,1066,319583
DOUBLE BAY RESIDENCES,8966,833,529881
MEADOWS @ PEIRCE,10761,1000,787130
FLAMINGO VALLEY,15788,1467,454946
AQUARIUS BY THE PARK,7516,698,478932
KENG LEE COURT,8777,815,219250
SUNRISE GARDENS,6349,590,806748
PARVIS,16453,1529,278746
FLAMINGO VALLEY,15128,1405,454943
URBAN RESORT CONDOMINIUM,29274,2720,229657
NASSIM PARK RESIDENCES,39284,3650,258386
MERAWOODS,7031,653,669598
REGAL COURT,8622,801,328837
EASTWOOD GREEN,6944,645,486364
AQUENE,10212,949,426341
EASTERN LAGOON,12313,1144,466402
LEITH GROVE,9114,847,547933
SERAYA VILLE,7279,676,437286
THE PETALS,7782,723,669587
PARK WEST,8617,801,128802
SUNGLADE,8649,803,556132
AVON PARK,8390,779,357741
BEACON HEIGHTS,9469,880,328689
CASA MEYFORT,12105,1125,437906
MELROSE VILLE,10000,929,437370
16 @ AMBER,18889,1755,439866
SHELFORD SUITES,15271,1419,286653
FLORIDIAN,17984,1671,589648
THE MINTON,8990,835,538752
EUPHONY GARDENS,4690,436,759153
HAIG COURT,10204,948,438793
RESIDENCES BOTANIQUE,12115,1125,545551
BAYSHORE PARK,9195,854,469982
THE REGENCY AT TIONG BAHRU,13559,1260,169905
COTE D'AZUR,13557,1260,449301
THE PIER AT ROBERTSON,18947,1760,239013
ONE DEVONSHIRE,21628,2009,239896
THE BEVERLY,10000,929,596720
ESTELLA GARDENS,9016,838,509741
THE SUNNY SPRING,7459,693,398074
ADAM PLACE,12121,1126,289882
FLAMINGO VALLEY,11618,1079,454944
THE SOUND,15823,1470,429073
THE GARDENS AT BISHAN,7850,729,575574
COSTA DEL SOL,10232,951,469987
THE CALROSE,9259,860,787084
NEPTUNE COURT,8882,825,449026
CITYLIGHTS,15683,1457,208745
THE LAKESHORE,8542,794,649412
ESCADA VIEW,6849,636,417657
UNIT 8,12097,1124,258869
SIGNATURE PARK,9231,858,596742
THE SUNNIDORA,10123,940,426223
CASHEW HEIGHTS CONDOMINIUM,8442,784,679672
MILL CREEK,8947,831,417052
THE CENTRIS,9780,909,648338
EMERALD PARK,10522,977,169588
CARIBBEAN AT KEPPEL BAY,15070,1400,98653
PARC OASIS,6822,634,609782
VILLA DE WEST,8571,796,118719
SUNSHINE PLAZA,8857,823,187948
PACIFIC MANSION,13651,1268,238433
PALM OASIS,7955,739,426052
THE PEARL @ MOUNT FABER,11628,1080,99196
HIGH OAK CONDOMINIUM,8281,769,596290
THE INSPIRA,16518,1535,239949
KOVAN RESIDENCES,10096,938,544918
KOVAN MELODY,9425,876,545024
RITZ MANSIONS,9125,848,329776
RESIDENCES @ JANSEN,10857,1009,548432
WATERBANK AT DAKOTA,9887,919,399941
THE RIVERINE BY THE PARK,17232,1601,339098
THE VISION,10840,1007,126794
TROPICAL SPRING,6838,635,529876
FLAMINGO VALLEY,13451,1250,454946
BELLA VISTA,7941,738,358227
CASA AERATA,10226,950,398484
TREVISTA,10962,1018,319582
CARIBBEAN AT KEPPEL BAY,15232,1415,98642
GRANDEUR 8,8407,781,567749
CASA AERATA,9593,891,398484
CASA AERATA,9927,922,398484
THE VISION,7832,728,126794
THE CLEARWATER,7778,723,479232
TAMPINES COURT,5032,468,520121
CASA AERATA,9505,883,398484
FLAMINGO VALLEY,13130,1220,455939
ESPADA,25595,2378,238126
TRELLIS TOWERS,12510,1162,319773
THE SILVER FIR,13125,1219,439424
CASAFINA,7407,688,469337
ONE AMBER,15281,1420,439958
N.A.,11646,1082,437045
FLAMINGO VALLEY,14013,1302,454946
TREVISTA,10382,965,319582
CASA AERATA,10769,1000,398484
CASA RIVIERA,7261,675,547802
WILKIE STUDIO,13592,1263,228096
FLAMINGO VALLEY,14622,1358,454855
BISHAN POINT,8736,812,579653
WATERBANK AT DAKOTA,12037,1118,399948
REGENT GROVE,6468,601,689527
SUNRISE GARDENS,6383,593,806748
THE WATERINA,7885,733,398075
CRYSTAL MANSIONS,5299,492,399165
PLATINUM EDGE,10095,938,358847
THE VERVE,13659,1269,329138
NIVEN LOFT,7767,722,228421
CITYLIGHTS,13955,1296,208747
THE LEVELZ,13750,1277,268836
FLAMINGO VALLEY,14671,1363,454855
CORONATION SHOPPING PLAZA,9223,857,269707
RIVEREDGE,14037,1304,436593
FLAMINGO VALLEY,12189,1132,454944
BRADDELL VIEW,6963,647,579724
UE SQUARE,11840,1100,238274
CASPIAN,8077,750,648318
THE DAIRY FARM,8390,779,679042
DUCHESS CREST,13027,1210,269199
FERRARIA PARK CONDOMINIUM,7683,714,506944
THE LAURELS,32075,2980,229658
QUEENS,11261,1046,148957
THE CLEARWATER,7419,689,479234
COSY 23,5981,556,398355
REGENT HEIGHTS,5474,509,659802
WATERCREST,7258,674,509028
KOVAN RESIDENCES,9103,846,544896
ONE AMBER,13242,1230,439972
DAKOTA RESIDENCES,11316,1051,399937
PALAZZETTO,11579,1076,436891
ASPEN HEIGHTS,17450,1621,238307
THE IMPERIAL,19533,1815,239616
AQUARIUS BY THE PARK,7171,666,478930
GUILIN VIEW,7179,667,659245
MODENA,7122,662,529871
BALLOTA PARK CONDOMINIUM,6768,629,507079
ONE AMBER,15169,1409,439957
PALM GARDENS,6652,618,689050
GOODWOOD RESIDENCE,25801,2397,259703
THOMSON VIEW CONDOMINIUM,6387,593,579597
EVERGREEN PARK,6522,606,538803
THE MORNINGTON,7522,699,328005
DUCHESS CREST,11340,1054,269204
THE MADEIRA,6813,633,659442
DOVER PARKVIEW,8664,805,138685
THE SEA VIEW,14602,1357,439946
THE SAIL @ MARINA BAY,30151,2801,18987
FLAMINGO VALLEY,14163,1316,454855
DAKOTA RESIDENCES,11257,1046,399939
MANDALE HEIGHTS,11681,1085,308225
EVERGREEN PARK,6900,641,538800
RIVER PLACE,14021,1303,169661
FLAMINGO VALLEY,12387,1151,454944
ARDMORE PARK,33582,3120,259955
FORTUNE PARK,7483,695,535131
PARKVIEW APARTMENTS,7593,705,658882
SIGNATURE PARK,9375,871,596745
FLAMINGO VALLEY,13420,1247,454855
TREE HOUSE,8623,801,679520
CYAN,21912,2036,258709
TREE HOUSE,9012,837,679518
MARINA BAY SUITES,28436,2642,18965
TREE HOUSE,8660,805,679521
THE INTERLACE,10293,956,109700
PARK INFINIA AT WEE NAM,18072,1679,308366
RIVERVALE CREST,6773,629,545085
CHUAN PARK,7798,724,556748
CENTRO MANSIONS,7375,685,398280
TANGLIN VIEW,11675,1085,159013
CENTRO RESIDENCES,13210,1227,567752
THE SIXTH AVENUE RESIDENCES,16508,1534,276545
TEMBELING RESIDENCE,15128,1405,423725
THE TROPICA,7478,695,529773
BEACON HEIGHTS,9500,883,328689
CHILTERN PARK,8046,747,556114
BELLA CASITA,14125,1312,438610
ONE AMBER,12821,1191,439974
THE WATERSIDE,14573,1354,436887
REGENTVILLE,6290,584,538688
LUSH ON HOLLAND HILL,15094,1402,278737
D'MIRA,11312,1051,329602
ORCHID PARK CONDOMINIUM,6638,617,768449
REGENTVILLE,7143,664,538683
BEACON HEIGHTS,9500,883,328689
CITY REGENCY,13333,1239,327977
BEACON HEIGHTS,10806,1004,328689
N.A.,17843,1658,218696
DOVER PARKVIEW,7143,664,138686
THE EDGE ON CAIRNHILL,20169,1874,229717
D'GROVE VILLAS,21649,2011,258343
SUNSHINE RESIDENCE,11154,1036,425671
THE BAYSHORE,8953,832,469970
ASCENTIA SKY,13170,1224,158748
RIVEREDGE,11959,1111,436593
TWIN REGENCY,14912,1385,169278
N.A.,9369,870,398915
CASA AERATA,9680,899,398484
BELLA CASITA,14667,1363,438610
HILLVISTA,11589,1077,669743
BALMORAL CREST,16667,1548,259882
PALM GARDENS,5804,539,689051
N.A.,9670,898,398919
THE CLIFT,19379,1800,69047
HAZEL PARK CONDOMINIUM,7520,699,678948
RESIDENCES AT W SPORE SENTOSA CV,30195,2805,98369
CASABLANCA,7143,664,737917
DAKOTA RESIDENCES,11353,1055,399939
CARIBBEAN AT KEPPEL BAY,18952,1761,98651
CASA AERATA,10340,961,398484
HERITAGE VIEW,9556,888,138679
TREE HOUSE,8641,803,679520
EASTPOINT GREEN,7865,731,529892
CASPIAN,8163,758,648316
PARC PALAIS,8316,773,598752
THE MINTON,7004,651,534079
BURLINGTON SQUARE,11532,1071,189651
N.A.,9842,914,398917
GRANDEUR 8,8198,762,567745
CHANGI RISE CONDOMINIUM,7524,699,528804
HILLVISTA,11669,1084,669743
BELLA VISTA,9639,895,358227
D'LOTUS,12170,1131,328784
CYAN,26777,2488,258710
THE GARDENS AT BISHAN,8720,810,575575
LATITUDE,19410,1803,249210
ELIAS GREEN,5035,468,519961
LIVIA,8941,831,518206
PALM GARDENS,6304,586,689050
SOMMERVILLE GRANDEUR,14035,1304,259278
SPRING @ LANGSAT,9434,876,426691
JC RESIDENCE,10000,929,428129
BISHAN 8,10000,929,574045
NEWTON EDGE,17442,1620,228600
SCOTTS HIGHPARK,26702,2481,228232
CASA SARINA,7733,718,416730
TAMPINES COURT,5177,481,521120
COTE D'AZUR,12876,1196,449298
TRELLIS TOWERS,11594,1077,319773
WATERSCAPE AT CAVENAGH,19893,1848,229620
URBAN SUITES,28006,2602,229158
N.A.,6667,619,307852
SELETARIS,6589,612,757707
THE SAIL @ MARINA BAY,27500,2555,18985
THE TRUMPS,10075,936,419154
THE INTERLACE,12787,1188,109707
MIRAGE TOWER,14388,1337,239426
D' CHATEAU @ SHELFORD,13855,1287,288416
CASA AERATA,10123,940,398484
CASSIA VIEW,9866,917,399746
OASIS @ ELIAS,8352,776,519939
HILLTOP GROVE,6913,642,669619
WATERCREST,6423,597,509033
N.A.,3802,353,398579
MARINA BAY SUITES,28850,2680,18965
MORO MANSIONS,6786,630,387901
SAGE,34709,3225,258379
CASA AERATA,10213,949,398484
FERRARIA PARK CONDOMINIUM,8896,827,506944
THE BAYSHORE,8291,770,469976
SANCTUARY GREEN,10000,929,436924
THE INTERLACE,10937,1016,109694
WOODGROVE CONDOMINIUM,5800,539,738211
CASA AERATA,9961,925,398484
LANDBAY CONDOMINIUM,9813,912,468698
SILVERSEA,20123,1869,449307
ESPADA,29717,2761,238126
HAIG RESIDENCES,9308,865,438774
PEOPLE'S PARK COMPLEX,7064,656,59108
PEOPLE'S PARK COMPLEX,7064,656,59108
PEOPLE'S PARK COMPLEX,7064,656,59108
MI CASA,8938,830,689865
THE SHORE RESIDENCES,13636,1267,439893
CASA AERATA,9134,849,398484
FERNWOOD TOWERS,8693,808,458556
GOODLUCK GARDEN,7867,731,596712
D'MIRA,11482,1067,329602
TRESALVEO,12969,1205,573963
CASA AERATA,9189,854,398484
PEOPLE'S PARK COMPLEX,7064,656,59108
DUNEARN SUITES,18803,1747,289609
CASA AERATA,9680,899,398484
THE CASCADIA,15945,1481,589657
MELVILLE PARK,6112,568,529943
THE SHORE RESIDENCES,15041,1397,439893
VIDA,24532,2279,228307
RIVERWALK APARTMENT,13333,1239,58416
18 SHELFORD,15071,1400,288407
PEOPLE'S PARK COMPLEX,7064,656,59108
CHANGI RISE CONDOMINIUM,7619,708,528811
MARTIN NO 38,24400,2267,239059
THOMSON GROVE,7175,667,787073
REGENT GROVE,6713,624,689527
TREE HOUSE,8637,802,679521
ASCENTIA SKY,14626,1359,158748
BALLOTA PARK CONDOMINIUM,5182,481,507084
THE TRESOR,14135,1313,269029
ROSYTH LODGE,6356,590,546143
THE BEACON,12965,1205,89775
THE INTERLACE,11785,1095,109701
CASA AERATA,10322,959,398484
TREE HOUSE,9013,837,679521
PRESTIGE HEIGHTS,15469,1437,329778
COASTARINA,8876,825,459135
TRELLIS TOWERS,13961,1297,319773
SUNVILLE,7710,716,327981
THE SUNNY SPRING,7596,706,398074
THE PARC CONDOMINIUM,10540,979,127146
REGENT GROVE,6330,588,689527
THE SAIL @ MARINA BAY,27031,2511,18985
DAHLIA PARK CONDOMINIUM,6024,560,507010
RESIDENCES @ JANSEN,7980,741,548432
THE CORNWALL,18603,1728,269678
HOUGANG GREEN,6292,585,539748
CLOVER BY THE PARK,10500,975,573975
TREE HOUSE,8703,809,679520
NORMANTON PARK,10169,945,119000
OLEANDER TOWERS,8551,794,319771
YONG AN PARK,18166,1688,238359
PALM GARDENS,6384,593,689050
RIVIERA RESIDENCES,11616,1079,467202
TREE HOUSE,8851,822,679518
ALESSANDREA,11569,1075,159967
THE COSMOPOLITAN,23143,2150,239471
THE SOUND,16105,1496,429074
PARC VISTA,7137,663,649810
IVORY HEIGHTS,6065,563,600117
QUEENSWAY TOWER,6898,641,149053
BAYSHORE PARK,8759,814,469982
THE SHORE RESIDENCES,14074,1308,439897
EAST TREASURE,8980,834,425160
TREVISTA,9863,916,319583
COUNTRY GRANDEUR,7821,727,576439
ESTELLA GARDENS,8276,769,509739
FLAMINGO VALLEY,13063,1214,454946
PARC EMILY,16667,1548,228495
TREVISTA,11429,1062,319583
CASA AERATA,9622,894,398484
CASA AERATA,10222,950,398484
CASA AERATA,10538,979,398484
SOLEIL @ SINARAN,18633,1731,307467
GLOUCESTER MANSIONS,15082,1401,307947
THE CENTRIO,13604,1264,329552
RIVERGATE,23143,2150,238255
MELVILLE PARK,5720,531,529944
BELLE VUE RESIDENCES,29068,2700,238599
OASIS GARDEN,10455,971,538420
THE SHORE RESIDENCES,14171,1317,439897
WATERBANK AT DAKOTA,12543,1165,399947
CASA AERATA,10105,939,398484
ATRIUM RESIDENCES,5385,500,398416
REGENT GROVE,5721,531,689528
DAKOTA RESIDENCES,12105,1125,399938
CASA AERATA,9027,839,398484
PARC PALAIS,8261,767,598752
ESPADA,25288,2349,238126
THE INTERLACE,10957,1018,109705
THE PARC CONDOMINIUM,10989,1021,127161
ESPADA,29193,2712,238126
RIVERGATE,20451,1900,238255
REFLECTIONS AT KEPPEL BAY,17020,1581,98410
DAHLIA PARK CONDOMINIUM,7206,669,507012
CASPIAN,8261,767,648318
CASA AERATA,9888,919,398484
CASA AERATA,9318,866,398484
HILLVIEW REGENCY,7500,697,659920
APLETON VIEW,13904,1292,308323
M21,15287,1420,308208
DAISY LODGE,7454,692,359426
FLORIDIAN,15016,1395,589664
HILLINGTON GREEN,8238,765,669566
THE HILLSIDE,9078,843,588197
PARK INFINIA AT WEE NAM,16793,1560,308342
THE RIVERINE BY THE PARK,17214,1599,339098
BLUE HORIZON,9159,851,128047
CARIBBEAN AT KEPPEL BAY,14017,1302,98643
MARINA BAY RESIDENCES,29065,2700,18980
PEBBLE BAY,12398,1152,436919
TREVISTA,11131,1034,319582
BAYSHORE PARK,8184,760,469982
PARC PALAIS,7895,733,598748
REGENT HEIGHTS,7105,660,659804
EASTWOOD GREEN,6806,632,486364
MARINA BAY RESIDENCES,33366,3100,18980
D'PAVILION,10199,947,534671
CAIRNHILL CREST,23681,2200,229811
DAHLIA PARK CONDOMINIUM,5980,556,507012
TREVISTA,11344,1054,319583
WEST BAY CONDOMINIUM,7061,656,128036
TREE HOUSE,9401,873,679517
GUILIN VIEW,7000,650,659247
BELMOND GREEN,15043,1398,259817
THE LEVELZ,14118,1312,268836
FLAMINGO VALLEY,13203,1227,454946
THE INTERLACE,12551,1166,109707
PASIR VIEW PARK,8629,802,118571
CARIBBEAN AT KEPPEL BAY,16340,1518,98640
GOLDEN HEIGHTS,10634,988,556126
NORTHVALE,6287,584,689672
PARC IMPERIAL,16297,1514,117423
MELVILLE PARK,6448,599,529948
FLAMINGO VALLEY,13130,1220,455939
CHILTERN PARK,8039,747,556114
SKY@ELEVEN,14315,1330,297727
N.A.,1757,163,399421
SOMMERVILLE PARK,16529,1536,259281
VISTAYA VIEW,10669,991,409042
PATERSON RESIDENCE,23921,2222,238549
MAYSPRINGS,6818,633,678267
TEXTILE CENTRE,8232,765,199018
THE INTERLACE,9782,909,109698
THE INTERLACE,11875,1103,109701
