Project Name,,Unit Price ($ psm),Unit Price ($ psf),Postal Code
LAGUNA PARK,,9556,888,449284
KOVAN RESIDENCES,,12575,1168,544895
CUBE 8,,16386,1522,298130
SERANGOON GARDEN ESTATE,,15120,1405,559315
THE HERMITAGE,,19079,1772,258117
SCOTTS 28,,21711,2017,228223
ELIAS GREEN,,6500,604,519960
N.A.,,13097,1217,439685
GUILLEMARD SUITES,,13115,1218,399733
SERANGOON GARDEN ESTATE,,16166,1502,559034
THE WATERSIDE,,15578,1447,436882
THOMSON VIEW CONDOMINIUM,,8670,805,579599
CHERRYHILL,,11147,1036,536470
TAI HWAN PARK,,15738,1462,555532
VISTA PARK,,9735,904,118172
AQUARIUS BY THE PARK,,9756,906,478927
HOLLAND GROVE,,13905,1292,276178
WATERFRONT @ FABER,,12886,1197,128993
SEVENTY SAINT PATRICK'S,,18667,1734,424179
LAKEPOINT CONDOMINIUM,,6385,593,648925
HELIOS RESIDENCES,,27097,2517,229815
SEVENTY SAINT PATRICK'S,,17771,1651,424183
ASTON MANSIONS,,8843,822,398026
EIGHT COURTYARDS,,10714,995,768097
D' FRESCO,,12432,1155,428109
RIO VISTA,,9526,885,534201
TAMPINES COURT,,5222,485,521120
DE ROYALE,,13675,1270,329112
THE RAINTREE,,10544,980,587850
VIIO @ BALESTIER,,17000,1579,329853
RV RESIDENCES,,21349,1983,248350
D'LEEDON,,16055,1492,266224
CHANGI RISE CONDOMINIUM,,8849,822,528800
ESCADA VIEW,,8846,822,417657
THE MINTON,,10859,1009,534078
FORTE SUITES,,20295,1885,219062
KOVAN MELODY,,11500,1068,548191
BEDOK COURT,,8038,747,469298
RIDGEWOOD,,13733,1276,277113
DUCHESS CREST,,12944,1203,269210
NATHAN RESIDENCES,,21250,1974,248744
ASTOR,,10395,966,417660
N.A.,,20043,1862,589177
SERANGOON GARDEN ESTATE,,10470,973,556341
WATERWOODS,,9062,842,828749
THE MINTON,,12035,1118,534071
SEVENTY SAINT PATRICK'S,,17645,1639,424181
THE MAYFAIR,,9537,886,609477
HALLMARK RESIDENCES,,20245,1881,259325
SEVENTY SAINT PATRICK'S,,17864,1660,424183
LA CASA,,8217,763,737900
WATERFRONT GOLD,,11641,1081,479256
VIDA,,20408,1896,228307
LAKEVILLE,,13012,1209,648160
CASTLE GREEN,,8365,777,787057
EUHABITAT,,13633,1267,415870
WEST BAY CONDOMINIUM,,9709,902,128035
LILYDALE,,8249,766,768965
D'GROVE VILLAS,,18526,1721,258343
D'BELLA TERRACE,,14647,1361,549502
MACPHERSON GARDEN ESTATE,,19488,1811,368445
THE SAIL @ MARINA BAY,,21364,1985,18987
EASTVILLE APARTMENTS,,11512,1069,428103
VALVISTA,,12632,1174,558511
CITYLIGHTS,,16049,1491,208749
QUEENS,,11712,1088,148954
EIGHT RIVERSUITES,,15500,1440,338520
RICCHEZZA,,12195,1133,425399
RIVERTREES RESIDENCES,,10594,984,797464
ONE-NORTH RESIDENCES,,14113,1311,138642
THE SKYWOODS,,13741,1277,677669
WATERWOODS,,8773,815,828750
SEVENTY SAINT PATRICK'S,,16970,1577,424175
THE SKYWOODS,,14983,1392,677669
THE EDEN AT TAMPINES,,8870,824,529236
DAKOTA RESIDENCES,,15784,1466,399937
N.A.,,10767,1000,466607
SEVENTY SAINT PATRICK'S,,18072,1679,424182
LAKEVILLE,,13038,1211,648161
N.A.,,11253,1045,578011
THREE THREE ROBIN,,21447,1993,258208
HUNDRED TREES,,13361,1241,127997
EIGHT COURTYARDS,,13725,1275,768138
HIGHLINE RESIDENCES,,20251,1881,168593
WATERFRONT @ FABER,,12929,1201,128989
LANDBAY CONDOMINIUM,,14278,1326,468704
ORCHID PARK CONDOMINIUM,,8827,820,768452
EMILY RESIDENCE,,17213,1599,228485
FORESQUE RESIDENCES,,12704,1180,678274
SUNNYVALE RESIDENCES,,16011,1487,425790
# 1 SUITES,,12671,1177,398721
THE ESTA,,15878,1475,439970
SYMPHONY HEIGHTS,,12889,1197,598739
HUNDRED TREES,,11956,1111,128017
THE INTERLACE,,14948,1389,109685
THE CASCADIA,,16826,1563,589646
CRYSTAL MANSIONS,,7564,703,399165
SEVENTY SAINT PATRICK'S,,18926,1758,424183
VISTA PARK,,7950,739,118167
PARC OASIS,,9688,900,609781
HILLTOP GROVE,,6647,618,669620
AQUARIUS BY THE PARK,,9737,905,478931
HIGHLINE RESIDENCES,,19965,1855,168593
MAYSPRINGS,,9895,919,678267
MIMOSA TERRACE,,16853,1566,805744
SEVENTY SAINT PATRICK'S,,17050,1584,424184
MARTIN NO 38,,26452,2457,239059
NINE RESIDENCES,,13906,1292,768894
EIGHT COURTYARDS,,9825,913,768096
HELIOS RESIDENCES,,28387,2637,229815
BAYVILLE CONDOMINIUM,,9910,921,118166
MERA EAST,,11786,1095,419977
THE OCTET,,15140,1407,398628
THE ESPARIS,,8333,774,519462
MANDALE HEIGHTS,,14507,1348,308225
THE BLOSSOMVALE,,14823,1377,589473
GEMINI APARTMENTS,,8808,818,457263
LA CASA,,9121,847,737893
THOMSON VIEW CONDOMINIUM,,8926,829,579599
SEVENTY SAINT PATRICK'S,,18949,1760,424175
LAKEVILLE,,15424,1433,648162
SEVENTY SAINT PATRICK'S,,17644,1639,424183
SKY@ELEVEN,,19084,1773,297724
SERANGOON GARDEN ESTATE,,18924,1758,557519
SEVENTY SAINT PATRICK'S,,15694,1458,424177
BARTLEY RIDGE,,11010,1023,368057
BOONVIEW,,13833,1285,574036
WOODSVALE,,7042,654,738093
8 FARRER SUITES,,18000,1672,217820
YISHUN SAPPHIRE,,7965,740,768437
EUNOSVILLE,,7143,664,400840
COCO PALMS,,11106,1032,518142
HERITAGE VIEW,,12889,1197,138679
WATERBANK AT DAKOTA,,19333,1796,399941
THE SCALA,,14948,1389,554479
THE BAYSHORE,,10455,971,469974
LYNWOOD EIGHT,,6957,646,358688
LUXUS HILLS,,20000,1858,804902
N.A.,,8727,811,489477
N.A.,,8770,815,489476
HILLVIEW REGENCY,,9257,860,659921
HUME PARK II,,12348,1147,598731
RIVERSAILS,,11451,1064,534030
HIGHLINE RESIDENCES,,20256,1882,168592
JEWEL @ BUANGKOK,,15031,1396,544684
BEACON HEIGHTS,,13710,1274,328689
COMMONWEALTH TOWERS,,15859,1473,149740
THE SKYWOODS,,12986,1206,677669
COCO PALMS,,10958,1018,518143
HAZEL PARK CONDOMINIUM,,9677,899,678946
SUITES @ SIMS,,18182,1689,387544
PARK INFINIA AT WEE NAM,,18854,1752,308364
LAKEVILLE,,14948,1389,648161
THE OCTET,,15125,1405,398628
SEVENTY SAINT PATRICK'S,,17791,1653,424180
PARC OASIS,,10000,929,609781
HELIOS RESIDENCES,,30886,2869,229816
FRANKEL ESTATE,,12238,1137,457091
THE OCTET,,14102,1310,398628
PARK EAST,,11278,1048,457264
CARABELLE,,11405,1060,127017
PEBBLE BAY,,13281,1234,436920
REGENCY PARK,,18900,1756,248727
THE REGALIA,,15763,1464,238428
THE OCTET,,14222,1321,398628
LA CASA,,8349,776,737893
HIGHLINE RESIDENCES,,18128,1684,168592
BINJAI CREST,,7092,659,588648
DUCHESS CREST,,14943,1388,269198
WATERFRONT WAVES,,12137,1128,479246
REGENT PARK,,10561,981,128805
SELETARIS,,7432,690,757707
SELETAR SPRINGS CONDOMINIUM,,8659,804,799036
SERANGOON GARDEN ESTATE,,9373,871,556026
HILLVIEW HEIGHTS,,11250,1045,669562
THE CASCADIA,,16717,1553,589646
HOLLAND GARDENS,,17876,1661,277310
CANBERRA RESIDENCES,,8939,830,768130
SEVENTY SAINT PATRICK'S,,17645,1639,424181
BELMOND GREEN,,18852,1751,259817
N.A.,,11515,1070,546323
WATERWOODS,,8911,828,828750
THE BAYSHORE,,10435,969,469972
KOVAN GRANDEUR,,13585,1262,535193
WOLSKEL LODGE,,7210,670,357991
RIVERVALE CREST,,8306,772,545086
THE CALROSE,,8670,805,787067
THE SKYWOODS,,12714,1181,677667
ROBIN RESIDENCES,,24847,2308,258261
BARTLEY RIDGE,,13051,1213,368059
SEVENTY SAINT PATRICK'S,,18308,1701,424184
RIVERBANK @ FERNVALE,,10451,971,797477
THE LAKEFRONT RESIDENCES,,14306,1329,648305
VALLEY PARK,,16519,1535,248360
THE MINTON,,12396,1152,534076
CRESCENDO PARK,,11646,1082,457269
ROSYTH VILLE,,9709,902,546134
NASSIM PARK RESIDENCES,,36271,3370,258386
LUXUS HILLS,,20000,1858,804833
THE LAKEFRONT RESIDENCES,,12500,1161,648305
N.A.,,22080,2051,258548
PARK INFINIA AT WEE NAM,,19839,1843,308364
CLEMENTIWOODS CONDOMINIUM,,11792,1096,126815
SELETAR SPRINGS CONDOMINIUM,,6908,642,798594
HUNDRED TREES,,11842,1100,128016
RIVERTREES RESIDENCES,,11512,1070,797461
LUXUS HILLS,,20000,1858,804834
WATERWOODS,,8487,788,828750
TROPIKA EAST,,15011,1395,419679
FLAMINGO VALLEY,,13368,1242,454946
HIGHLINE RESIDENCES,,18397,1709,168593
LEEDON RESIDENCE,,21452,1993,266220
HERITAGE EAST,,18813,1748,429024
PINE GROVE,,8889,826,591401
EIGHT RIVERSUITES,,12775,1187,338517
ONE DUCHESS,,25976,2413,268977
WATERWOODS,,8656,804,828748
THE TRILINQ,,16182,1503,128807
HIGHLINE RESIDENCES,,17646,1639,168592
FORTE SUITES,,18283,1699,219062
LAKEVILLE,,14644,1360,648160
THE ANCHORAGE,,13889,1290,159957
FRANKEL ESTATE,,16107,1496,455781
HIGHLINE RESIDENCES,,20074,1865,168593
HIGHLINE RESIDENCES,,19842,1843,168593
HIGHLINE RESIDENCES,,21412,1989,168593
PINEVALE,,8358,777,528827
TRIBECA,,18504,1719,239497
GAO MIN HUA YUAN,,13993,1300,597570
PARC ROSEWOOD,,14500,1347,737783
THE MORNINGSIDE,,16736,1555,239639
N.A.,,12439,1156,466377
HIGHLINE RESIDENCES,,19896,1848,168592
HIGHLINE RESIDENCES,,22127,2056,168593
THE LAKEFRONT RESIDENCES,,11364,1056,648305
THE PEARL @ MOUNT FABER,,12481,1159,99206
HIGHLINE RESIDENCES,,21389,1987,168592
HIGHLINE RESIDENCES,,20256,1882,168592
HIGHLINE RESIDENCES,,17513,1627,168592
HIGHLINE RESIDENCES,,18923,1758,168593
RIVERBAY,,12693,1179,328704
GOODWOOD RESIDENCE,,23923,2223,259703
HIGHLINE RESIDENCES,,19553,1817,168592
HIGHLINE RESIDENCES,,20715,1924,168593
FABER CREST,,10000,929,129197
COSTA DEL SOL,,14862,1381,469988
CLEMENTI PARK,,11400,1059,597158
GOODWOOD RESIDENCE,,26250,2439,259703
DUKE'S GARDEN,,25078,2330,268987
EIGHT RIVERSUITES,,14945,1388,338517
WOODGROVE CONDOMINIUM,,6592,612,738209
HIGHLINE RESIDENCES,,19443,1806,168592
HIGHLINE RESIDENCES,,19790,1839,168592
YISHUN SAPPHIRE,,6972,648,768437
BARTLEY RIDGE,,11668,1084,368057
THE PANORAMA,,12966,1205,567695
THE PARC CONDOMINIUM,,13333,1239,127161
THE SKYWOODS,,14655,1361,677669
HIGHLINE RESIDENCES,,17937,1666,168592
THE SKYWOODS,,13512,1255,677669
SEVENTY SAINT PATRICK'S,,17908,1664,424179
HIGHLINE RESIDENCES,,19053,1770,168592
THE TRILINQ,,15176,1410,128809
FORTE SUITES,,19012,1766,219062
HILLVIEW HEIGHTS,,11613,1079,669561
HIGHLINE RESIDENCES,,17728,1647,168592
EIGHT RIVERSUITES,,14560,1353,338517
HIGHLINE RESIDENCES,,19608,1822,168593
8 RAJA,,13451,1250,329217
ONE SHENTON,,21529,2000,68803
CARISSA PARK CONDOMINIUM,,9618,894,507025
CASUARINA COVE,,11746,1091,436904
THE TRILINQ,,13233,1229,128809
SERANGOON GARDEN ESTATE,,14726,1368,559587
WATERFRONT ISLE,,12720,1182,479264
LAKEVILLE,,14888,1383,648155
WING FONG MANSIONS,,8230,765,398924
CARABELLE,,13523,1256,127021
SELETAR HILLS ESTATE,,7642,710,799402
MAYSPRINGS,,9933,923,678265
HIGHLINE RESIDENCES,,19313,1794,168593
KEW VALE,,9221,857,466235
COMMONWEALTH TOWERS,,17753,1649,149739
THE INTERLACE,,15084,1401,109687
CORALS AT KEPPEL BAY,,21578,2005,98022
PEAKVIEW ESTATE,,13148,1222,487804
ECOPOLITAN,,8389,779,828773
WING ON LIFE GARDEN,,17231,1601,259718
THE FLORIDA,,7664,712,538804
CORALS AT KEPPEL BAY,,23529,2186,98021
HIGHLINE RESIDENCES,,20415,1897,168593
THE QUARTZ,,11215,1042,544985
SPOTTISWOODE RESIDENCES,,21875,2032,88660
HARBOURLIGHTS,,14352,1333,98830
THE INTERLACE,,8366,777,109691
MODENA,,9287,863,529869
SEVENTY SAINT PATRICK'S,,17153,1594,424181
HIGHLINE RESIDENCES,,19718,1832,168593
WATERWOODS,,8613,800,828746
WOODGROVE ESTATE,,10354,962,738408
NADIA MANSIONS,,9811,911,329977
OLEANAS RESIDENCE,,15194,1412,239347
WATERWOODS,,8786,816,828747
THOMSON THREE,,14667,1363,573894
SERANGOON GARDEN ESTATE,,12326,1145,556466
LAKEVILLE,,13544,1258,648161
BLUE HORIZON,,11852,1101,128048
THE SKYWOODS,,13691,1272,677669
HIGHLINE RESIDENCES,,18580,1726,168593
HIGHLINE RESIDENCES,,18308,1701,168592
LOYANG VILLAS,,9000,836,507251
THE SAIL @ MARINA BAY,,21818,2027,18987
THE PANORAMA,,13126,1219,567701
WATERWOODS,,8667,805,828751
THE MEZZO,,15641,1453,329682
HIGHLINE RESIDENCES,,20385,1894,168592
THE PANORAMA,,13075,1215,567695
DYNASTY LODGE,,14674,1363,276560
HIGHLINE RESIDENCES,,18902,1756,168593
LAKEVILLE,,13470,1251,648161
WATERWOODS,,8622,801,828749
THE SHORE RESIDENCES,,17160,1594,439893
THE MADEIRA,,9089,844,659442
CARABELLE,,13692,1272,127019
CITY GATE,,18585,1727,199597
COCO PALMS,,9918,921,518075
HIGHLINE RESIDENCES,,20897,1941,168593
ASPEN HEIGHTS,,15865,1474,238309
LAKEVIEW ESTATE,,8867,824,574327
ISLAND VIEW,,12500,1161,119521
RIVERVALE CREST,,8450,785,545084
THE SAIL @ MARINA BAY,,20774,1930,18987
THE QUINN,,14566,1353,539763
SEVENTY SAINT PATRICK'S,,17864,1660,424182
ALEX RESIDENCES,,17410,1617,158744
REGENCY SUITES,,18681,1736,169279
KENG LEE VIEW,,10448,971,219268
ALEXIS,,20000,1858,159949
THE VENUE RESIDENCES,,15093,1402,347846
VILLA VERDE,,6890,640,688614
ONE AMBER,,15823,1470,439972
EIGHT RIVERSUITES,,13208,1227,338520
THE CENTRIS,,12121,1126,648336
NINE RESIDENCES,,11591,1077,768895
N.A.,,9453,878,436527
CASHEW HEIGHTS CONDOMINIUM,,9968,926,679672
VALLEY PARK,,16000,1486,248368
THE GLADES,,16143,1500,465407
HIGHLINE RESIDENCES,,22437,2084,168593
SUITES @ PAYA LEBAR,,15500,1440,534049
HIGHLINE RESIDENCES,,20617,1915,168592
MACKENZIE 88,,16889,1569,228697
WATERFRONT ISLE,,12262,1139,479264
THE QUINN,,14711,1367,539763
FLAME TREE PARK,,10878,1011,575728
RIO VISTA,,9052,841,534207
VARSITY PARK CONDOMINIUM,,10160,944,126827
LAKEHOLMZ,,10000,929,649823
WATERMARK ROBERTSON QUAY,,20814,1934,238212
THE SEAFRONT ON MEYER,,16327,1517,437880
SENNETT ESTATE,,12821,1191,348136
SELETAR PARK,,8190,761,807162
REFLECTIONS AT KEPPEL BAY,,34286,3185,98413
THE OCEANFRONT @ SENTOSA COVE,,17721,1646,98534
COCO PALMS,,11291,1049,518144
LUXUS HILLS,,20333,1889,804893
WILLYN VILLE,,17286,1606,278965
SHERWOOD TOWER,,6294,585,588998
LAGUNA GREEN,,10980,1020,468726
FORESTVILLE,,7853,730,737879
THOMSON RISE ESTATE,,14607,1357,578628
VIIO @ BALESTIER,,16744,1556,329853
THE ROCHESTER,,16737,1555,138638
KENTISH GREEN,,10500,975,218815
SHAMROCK PARK,,20234,1880,267500
LAGOON VIEW,,7974,741,449294
N.A.,,13333,1239,578616
KENSINGTON PARK CONDOMINIUM,,10500,975,557323
THE JADE,,10429,969,658074
HOLLAND GREEN,,11166,1037,276170
SKYPARK RESIDENCES,,8566,796,757060
HIGHLINE RESIDENCES,,20592,1913,168593
RIVERBANK @ FERNVALE,,10299,957,797476
PARC OASIS,,9286,863,609783
HIGHLINE RESIDENCES,,21366,1985,168593
CLEMENTI PARK,,10500,975,597159
THE SEAFRONT ON MEYER,,13333,1239,437978
BARTLEY RIDGE,,12972,1205,368055
SKYLINE RESIDENCES,,24675,2292,109026
BAYSHORE PARK,,11172,1038,469977
WOODSVALE,,6885,640,738096
CARIBBEAN AT KEPPEL BAY,,17742,1648,98645
TREASURES@G6,,14423,1340,399187
BLUWATERS,,6614,614,506962
N.A.,,18469,1716,98313
SPRINGLEAF GARDEN,,10609,986,788279
FORESTVILLE,,7930,737,737773
YEW MEI GREEN,,6673,620,689574
EIGHT RIVERSUITES,,12613,1172,338519
THE RIVERVALE,,7674,713,545125
N.A.,,21725,2018,258322
FOUR SEASONS PARK,,26996,2508,249692
THE PARC CONDOMINIUM,,13167,1223,127160
THE EQUATORIAL,,17857,1659,257872
RIVERTREES RESIDENCES,,13241,1230,797462
COMMONWEALTH TOWERS,,17264,1604,149739
EIGHT RIVERSUITES,,12613,1172,338517
A TREASURE TROVE,,11062,1028,828832
UNIVERSITY PARK,,15339,1425,297770
RIVIERA RESIDENCES,,12795,1189,467202
THOMSON HILLS ESTATE,,12854,1194,574595
KIM LIN PARK,,41188,3826,248704
RV RESIDENCES,,21563,2003,248354
THE LUSH,,15185,1411,429266
ESTELLA GARDENS,,8618,801,509741
HIGHLINE RESIDENCES,,19661,1827,168592
COMMONWEALTH TOWERS,,18591,1727,149740
THE BEACON EDGE,,12238,1137,423728
THE INTERLACE,,15750,1463,109698
STRATUM,,8617,801,519951
FORESTVILLE,,7754,720,737763
GOODWOOD RESIDENCE,,28755,2671,259704
CASSIA EDGE,,14333,1332,399764
LEVILLE ISUITES,,14425,1340,429621
ATRIUM RESIDENCES,,7285,677,398406
BARTLEY RIDGE,,12595,1170,368059
