Project Name,Unit Price ($ psm),Unit Price ($ psf),Postal Code
RIVERSAILS,9432,876,534031
THE TOPIARY,7834,728,797495
LIBERTE,25707,2388,258125
BARTLEY RIDGE,13555,1259,368055
D'NEST,10229,950,518132
PARRY PARK,15577,1447,547029
11 AMBER ROAD,14000,1301,439857
D'NEST,11107,1032,518135
KOVAN RESIDENCES,15181,1410,544918
CITYLIFE@TAMPINES,9111,846,528594
ARC AT TAMPINES,8641,803,529595
THE TOPIARY,8228,764,797497
VALLEY PARK,15139,1406,248362
THE INSPIRA,20782,1931,239949
CITYSCAPE @FARRER PARK,14517,1349,219067
THE INTERLACE,12500,1161,109704
HILLION RESIDENCES,14242,1323,677671
THE FLORIDA,8500,790,538805
BARTLEY RIDGE,14301,1329,368055
N.A.,9609,893,509523
THE VISION,13992,1300,126793
D'NEST,10465,972,518135
BARTLEY RIDGE,12954,1203,368060
THE SHAUGHNESSY,6164,573,768385
ST PATRICK'S LOFT,12975,1205,424166
CASPIAN,11828,1099,648318
THE TOPIARY,8009,744,797502
ONE JERVOIS,19258,1789,249115
JALAN BESAR PLAZA,10830,1006,208511
JADE RESIDENCES,17223,1600,537018
ORCHARD BEL AIR,14167,1316,248648
SUITES @ NEWTON,20560,1910,307740
JADE RESIDENCES,17520,1628,537016
CENTURY MANSIONS,10086,937,668671
D'NEST,10329,960,518131
N.A.,13826,1284,417132
KATONG GARDENS,11765,1093,423720
BELMOND GREEN,18367,1706,259801
D'NEST,10127,941,518136
HILLION RESIDENCES,15258,1417,677673
LIBERTE,28261,2625,258125
URBAN VISTA,15090,1402,465422
LAGUNA 88,11571,1075,486356
HEDGES PARK CONDOMINIUM,9073,843,506890
ECO,16616,1544,465491
THE FORESTA @ MOUNT FABER,17857,1659,98749
REGENT GROVE,8547,794,689527
KINGSFORD . HILLVIEW PEAK,14204,1320,667981
JADE RESIDENCES,17418,1618,537019
THE COSMOPOLITAN,23089,2145,239471
SPOTTISWOODE SUITES,29214,2714,88661
THE CANOPY,7500,697,768858
THE TOPIARY,7928,737,797500
E MAISON,14555,1352,359966
URBAN VISTA,14034,1304,465427
ICON,18571,1725,78878
THE TOPIARY,7504,697,797502
OXLEY EDGE,18350,1705,238349
SKY@ELEVEN,20437,1899,297725
CITYLIFE@TAMPINES,8890,826,528596
ECHELON,17128,1591,158742
THE ESTUARY,11983,1113,769137
N.A.,15011,1395,537313
SYMPHONY HEIGHTS,13953,1296,598739
WATERCOLOURS,7742,719,518169
ECHELON,17886,1662,158741
THE TAMPINES TRILLIANT,8524,792,528772
CITYLIFE@TAMPINES,5377,500,528597
SANT RITZ,15122,1405,348196
JADE RESIDENCES,17478,1624,537016
D'OASIA,14063,1306,416905
DOUBLE BAY RESIDENCES,11393,1058,528721
URBAN VISTA,16009,1487,465426
MELVILLE PARK,7869,731,529947
REGENT GROVE,8559,795,689528
LA CASA,8239,765,737893
LINCOLN SUITES,21306,1979,308381
1 CANBERRA,7549,701,768071
D'LEEDON,17588,1634,266225
D'LEEDON,17957,1668,266224
URBAN VISTA,15224,1414,465423
ECHELON,15673,1456,158741
SPRINGDALE CONDOMINIUM,12201,1133,587977
THE FORD @ HOLLAND,13072,1214,268733
WATERCOLOURS,7576,704,518154
THE TOPIARY,7646,710,797502
ZENITH,21449,1993,247785
OXLEY EDGE,21390,1987,238349
THE TAMPINES TRILLIANT,8000,743,528769
HAIG COURT,13450,1250,438793
H2O RESIDENCES,10395,966,797530
MODA,18270,1697,428762
CITYLIFE@TAMPINES,8604,799,528595
SEAHILL,19817,1841,126777
THE CENTRIO,14690,1365,329552
SHELFORD 23,14773,1372,286655
BARTLEY RIDGE,13361,1241,368060
D'NEST,13483,1253,518179
SANT RITZ,16116,1497,348196
THE VIRIDIAN,16340,1518,329507
RIVERSAILS,9210,856,534031
BARTLEY RIDGE,13514,1255,368060
THE LANAI,16793,1560,669600
N.A.,9907,920,536381
N.A.,9557,888,538871
LEGEND @ JANSEN,9581,890,548467
HILLION RESIDENCES,15030,1396,677672
THE TAMPINES TRILLIANT,8076,750,528772
D'LEEDON,18419,1711,267955
KINGSFORD . HILLVIEW PEAK,14306,1329,667981
SKYLINE 360 @ ST THOMAS WALK,24545,2280,238142
WATER PLACE,16471,1530,436607
CHANGI COURT,11795,1096,486836
TANGLIN VIEW,14112,1311,159013
BARTLEY RIDGE,13659,1269,368058
SKIES MILTONIA,11377,1057,768063
Q BAY RESIDENCES,11493,1068,528584
EAST MEADOWS,11327,1052,465560
OLEANDER TOWERS,13494,1254,319772
SANT RITZ,15923,1479,348196
SENNETT RESIDENCE,15884,1476,348228
GLASGOW RESIDENCE,10659,990,549338
ONE JERVOIS,17068,1586,249115
JADE RESIDENCES,16174,1503,537018
SANT RITZ,17316,1609,348196
RIO VISTA,10000,929,534201
THE INTERLACE,10099,938,109699
Q BAY RESIDENCES,11075,1029,528586
URBAN VISTA,14927,1387,465421
THE TAMPINES TRILLIANT,7268,675,528772
MELROSE VILLE,16000,1486,437370
PARC CENTROS,13953,1296,828724
LATITUDE,23899,2220,249206
NV RESIDENCES,11901,1106,518211
N.A.,21474,1995,799052
SKYLINE 360 @ ST THOMAS WALK,24005,2230,238142
SKYLINE 360 @ ST THOMAS WALK,24845,2308,238142
HOLLAND HILL PARK,14286,1327,278731
JALAN BESAR PLAZA,9412,874,208511
THE TOPIARY,8010,744,797501
SANT RITZ,16464,1530,348196
THE TOPIARY,7776,722,797497
URBAN VISTA,15178,1410,465424
BARTLEY RIDGE,15319,1423,368063
OXLEY EDGE,21379,1986,238349
E MAISON,16215,1506,359966
E MAISON,16325,1517,359966
URBAN VISTA,17984,1671,465422
OXLEY EDGE,21528,2000,238349
SULTAN GATE PLACE,14222,1321,198474
SPAZIO @ KOVAN,14242,1323,534635
THE CENTRIS,12069,1121,648341
R MAISON,15685,1457,357699
E MAISON,14769,1372,359946
LAGOON VIEW,9150,850,449294
OCEAN FRONT SUITES,16137,1499,509428
NOVENA REGENCY,24873,2311,307689
SENNETT RESIDENCE,16330,1517,348228
LA CASA,7925,736,737892
SUITES @ SHREWSBURY,19794,1839,307842
URBAN VISTA,15570,1447,465419
E MAISON,16215,1506,359966
H2O RESIDENCES,10828,1006,797530
BARTLEY RIDGE,14308,1329,368062
SANT RITZ,15009,1394,348196
BLUE HORIZON,13095,1217,128046
THE CLEARWATER,11440,1063,479234
ASTRID MEADOWS,17478,1624,269269
FULCRUM,26102,2425,439092
PARC OLYMPIA,9922,922,506870
OXLEY EDGE,20624,1916,238349
OXLEY EDGE,21528,2000,238349
THE INFINITI,11111,1032,127714
D'NEST,10352,962,518132
THE TAMPINES TRILLIANT,7406,688,528769
BARTLEY RIDGE,14572,1354,368055
1 CANBERRA,7927,736,768101
LA CASA,9209,856,737894
NATHAN PLACE,21443,1992,248742
URBAN VISTA,16008,1487,465424
THE SPRINGSIDE,12576,1168,786379
N.A.,7030,653,419770
SILVERSEA,18542,1723,449305
PARC CENTENNIAL,15784,1466,228867
TEN @ SUFFOLK,16154,1501,307786
D'NEST,10291,956,518132
URBAN VISTA,17764,1650,465422
WATERBAY,8119,754,828711
N.A.,17943,1667,456802
CARABELLE,14188,1318,127022
D' DALVEY,15000,1394,259555
BARTLEY RIDGE,13285,1234,368058
URBAN VISTA,16337,1518,465422
SKY HABITAT,15474,1438,573908
D'NEST,10730,997,518134
D'NEST,10563,981,518134
JADE RESIDENCES,17518,1627,537019
R MAISON,15314,1423,357699
TEACHER'S HOUSING ESTATE,13740,1276,788642
THE FLORAVALE,8087,751,648366
LA FIESTA,12059,1120,544831
NOVENA REGENCY,24650,2290,307689
SCENIC HEIGHTS,13436,1248,329929
CITYLIFE@TAMPINES,9048,841,528594
1 CANBERRA,8206,762,768075
THE EDEN AT TAMPINES,9043,840,529237
BARTLEY RIDGE,16509,1534,368062
PARC OLYMPIA,8989,835,506859
THE AMSTON,9754,906,669596
H2O RESIDENCES,10607,985,797530
KINGSFORD . HILLVIEW PEAK,14944,1388,667981
OLINA LODGE,13245,1230,278735
THE CENTRIO,17235,1601,329552
THE TRILINQ,17185,1596,128809
THE BEVERLY,8187,761,596720
THE MERASAGA,16610,1543,278104
THE CALROSE,13991,1300,787066
SPAZIO @ KOVAN,14167,1316,534635
THE QUARTZ,12323,1145,544990
MANDALE HEIGHTS,13982,1299,308225
SANT RITZ,17120,1590,348196
Q BAY RESIDENCES,11683,1085,528585
ARC AT TAMPINES,8641,803,529598
CITYLIFE@TAMPINES,8175,759,528595
BARTLEY RIDGE,14748,1370,368063
D'NEST,10264,954,518136
THE SPRINGSIDE,17761,1650,786173
THE SPRINGS,16277,1512,308144
GRAND REGENCY,13259,1232,598431
THE LANAI,16361,1520,669600
SUI GENERIS,20685,1922,259916
# 1 LOFT,14248,1324,398614
SAVANNAH CONDOPARK,10263,953,528790
D'NEST,10509,976,518136
THE OCTET,14625,1359,398628
BARTLEY RIDGE,13806,1283,368057
PARK WEST,9877,918,128800
H2O RESIDENCES,10626,987,797533
MODA,16961,1576,428762
THE LANAI,16254,1510,669600
THE ESTUARY,10761,1000,769137
BARTLEY RIDGE,12836,1193,368061
THE TOPIARY,8460,786,797496
H2O RESIDENCES,10954,1018,797531
REGENT HEIGHTS,9368,870,659802
REFLECTIONS AT KEPPEL BAY,19200,1784,98418
THE TOPIARY,7580,704,797496
SPOTTISWOODE RESIDENCES,24527,2279,88660
CITY SQUARE RESIDENCES,17938,1666,207223
PARK NATURA,14000,1301,659765
CITYLIFE@TAMPINES,8755,813,528596
EIGHT RIVERSUITES,13052,1213,338517
NOVENA REGENCY,19265,1790,307689
THE TOPIARY,7834,728,797495
BISHAN POINT,11017,1023,579653
LA FIESTA,13194,1226,544703
JADE RESIDENCES,15322,1423,537019
BARTLEY RIDGE,14798,1375,368062
BARTLEY RIDGE,14196,1319,368057
PARC PALAIS,11667,1084,598751
THE OCTET,14500,1347,398628
BARTLEY RIDGE,13854,1287,368056
OXLEY EDGE,21379,1986,238349
THE BEVERLY,8939,830,596720
BELLERIVE,18876,1754,258711
KINGSFORD . HILLVIEW PEAK,12065,1121,667982
THE LANAI,15458,1436,669629
PLATINUM EDGE,14235,1322,358847
KINGSFORD . HILLVIEW PEAK,13727,1275,667981
HUNDRED TREES,14215,1321,128015
THE SPRINGFIELD,7353,683,486277
EVERGREEN PARK,9250,859,538800
BARTLEY RIDGE,14846,1379,368063
THE TRILINQ,16034,1490,128808
GALLOP GABLES,17870,1660,268853
VISTA PARK,10761,1000,118174
VIVACE,24528,2279,238011
D'LEEDON,17593,1634,267953
AMARYLLIS VILLE,16629,1545,307953
THE TRILINQ,17000,1579,128809
LOYANG VALLEY,7583,704,509065
WATERFRONT KEY,12941,1202,479253
BARTLEY RIDGE,14441,1342,368056
NOVENA REGENCY,25077,2330,307689
BARTLEY RIDGE,14683,1364,368063
CUBE 8,16628,1545,298130
VISTA RESIDENCES,15477,1438,329425
N.A.,10764,1000,809549
HIGHGATE,10625,987,596724
THE OXLEY,23472,2181,238697
N.A.,1952,181,489058
THE WATERLINE,16250,1510,546693
THE MINTON,13333,1239,534077
RESIDENCES BOTANIQUE,13617,1265,545551
THE TOPIARY,7463,693,797502
THE TOPIARY,8332,774,797495
RIPPLE BAY,13333,1239,518161
THE TOPIARY,7794,724,797495
JADE RESIDENCES,15972,1484,537020
H2O RESIDENCES,9375,871,797530
THE TESSARINA,17638,1639,276308
D'NEST,10100,938,518178
GOLD COAST CONDOMINIUM,11905,1106,118699
PALMS @ SIXTH AVENUE,12389,1151,275773
SKYLINE 360 @ ST THOMAS WALK,25618,2380,238142
VARSITY PARK CONDOMINIUM,9531,885,127343
BARTLEY RIDGE,11554,1073,368060
CASABLANCA,9904,920,737922
SANT RITZ,13944,1295,348196
8 EDEN GROVE,12717,1181,539060
# 1 LOFT,14915,1386,398614
REGENTVILLE,8598,799,538685
SPAZIO @ KOVAN,14241,1323,534635
BARTLEY RIDGE,12586,1169,368061
JADE RESIDENCES,16380,1522,537019
OXLEY EDGE,20818,1934,238349
SANT RITZ,16169,1502,348196
KINGSFORD . HILLVIEW PEAK,12303,1143,667968
PEBBLE BAY,14063,1306,436918
D'NEST,10730,997,518138
THE VIRIDIAN,15060,1399,329507
CASA FORTUNA,12887,1197,329980
EIGHT RIVERSUITES,17707,1645,338517
THE TOPIARY,7532,700,797495
N.A.,7101,660,829676
SANCTUARY GREEN,14474,1345,436923
LA CASA,8360,777,737901
ARC AT TAMPINES,8372,778,529595
CARIBBEAN AT KEPPEL BAY,16102,1496,98635
GRANDE VISTA,9935,923,809689
SANT RITZ,15750,1463,348196
WATERBANK AT DAKOTA,18444,1714,399941
KERRISDALE,13913,1293,207855
NOVENA REGENCY,24842,2308,307689
PEOPLE'S PARK COMPLEX,8750,813,59108
NADIA MANSIONS,11736,1090,329977
BARTLEY RIDGE,11110,1032,368057
LA CASA,8681,807,737892
BALMORAL POINT,15705,1459,259806
ICON,19452,1807,78878
# 1 LOFT,14163,1316,398614
1 CANBERRA,7770,722,768073
NEWTON 18,19419,1804,307989
ORCHID PARK CONDOMINIUM,9506,883,768452
BARTLEY RIDGE,11975,1112,368057
1 CANBERRA,8243,766,768071
MACPHERSON GARDEN ESTATE,17503,1626,368420
PARKWAY MANSION,15976,1484,439854
RIVERGATE,22061,2050,238257
FAR HORIZON GARDENS,8393,780,569765
CASA JERVOIS,16667,1548,249055
WATERBAY,7960,739,828711
JADE RESIDENCES,16266,1511,537018
CENTRO RESIDENCES,15395,1430,567752
VARSITY PARK CONDOMINIUM,13469,1251,126843
BARTLEY RIDGE,13590,1263,368055
ECO SANCTUARY,12560,1167,679522
THE CASCADIA,18876,1754,589639
HILLION RESIDENCES,14621,1358,677671
LUSH ON HOLLAND HILL,16163,1502,278737
CASA SARINA,10909,1013,416729
MAPLEWOODS,16084,1494,589630
CASPIAN,11937,1109,648316
HILLION RESIDENCES,13833,1285,677673
THE OCTET,14000,1301,398628
GARDENVISTA,13981,1299,589474
TRESALVEO,10963,1018,573963
TRESALVEO,10953,1018,573963
HILLION RESIDENCES,13321,1238,677671
BARTLEY RIDGE,13139,1221,368056
H2O RESIDENCES,9979,927,797534
SAVANNAH CONDOPARK,10526,978,528782
THE PALETTE,13142,1221,518174
THE TOPIARY,7993,743,797498
URBAN VISTA,14114,1311,465420
BARTLEY RIDGE,12832,1192,368061
KINGSFORD . HILLVIEW PEAK,15306,1422,667982
D'LEEDON,17548,1630,267955
CONCOURSE SKYLINE,22059,2049,199599
OXLEY EDGE,22165,2059,238349
THE ESTUARY,10820,1005,769136
D'NEST,10454,971,518139
URBAN VISTA,16910,1571,465425
KINGSFORD . HILLVIEW PEAK,11680,1085,667982
KINGSFORD . HILLVIEW PEAK,11856,1101,667968
LOYANG VILLAS,9533,886,507362
THOMSON V ONE,16707,1552,575630
THE ESTUARY,11818,1098,769136
RIVERSAILS,9567,889,534032
NOVENA REGENCY,18367,1706,307690
COSTA DEL SOL,12609,1171,469993
LA FIESTA,10650,989,544705
OXLEY EDGE,21551,2002,238349
PAVILION SQUARE,16437,1527,389366
N.A.,13711,1274,547273
D'NEST,9931,923,518178
URBAN VISTA,17073,1586,465424
THE BEVERLY,9209,856,596720
PARC ROSEWOOD,13750,1277,737785
KINGSFORD . HILLVIEW PEAK,11892,1105,667981
THE VIRIDIAN,16723,1554,329507
PARK GREEN,8720,810,545040
D'LEEDON,15992,1486,267952
VERDANA VILLAS,8744,812,554509
MICHAELS' RESIDENCES,14262,1325,677713
BARTLEY RIDGE,13219,1228,368056
BARTLEY RIDGE,15465,1437,368063
CHELSEA LODGE,11184,1039,437083
SELETAR HILLS ESTATE,13638,1267,807112
SPANISH VILLAGE,17639,1639,268846
THE TOPIARY,7669,712,797498
ELLIOT AT THE EAST COAST,14247,1324,458708
THE COUNTRYSIDE,9538,886,789739
CENTRO RESIDENCES,20667,1920,567752
H2O RESIDENCES,9495,882,797530
SUITES @ AMBER,16964,1576,439874
NOVENA REGENCY,25115,2333,307689
MAYSPRINGS,10235,951,678267
BARTLEY RIDGE,11505,1069,368063
V ON SHENTON,23832,2214,68814
THE LAKEFRONT RESIDENCES,9949,924,648324
N.A.,10873,1010,419446
LIBERTE,28812,2677,258125
HARBOURLIGHTS,16265,1511,98830
ARC AT TAMPINES,8421,782,529596
BALESTIER PLAZA,10331,960,329802
FORTUNE JADE,11396,1059,439193
THE TOPIARY,8285,770,797495
TREASURE MANSIONS,11413,1060,546242
THE NAUTICAL,8957,832,769474
RIPPLE BAY,10101,938,518164
LINCOLN SUITES,22680,2107,308381
URBAN VISTA,16662,1548,465419
URBAN VISTA,17545,1630,465422
N.A.,12278,1141,416771
HERON BAY,6545,608,534020
KINGSFORD . HILLVIEW PEAK,14431,1341,667968
THE VIRIDIAN,15711,1460,329507
OXLEY EDGE,21551,2002,238349
D'NEST,10142,942,518179
PAVILION SQUARE,17115,1590,389366
SPAZIO @ KOVAN,10768,1000,534635
KINGSFORD . HILLVIEW PEAK,12399,1152,667982
PEOPLE'S GARDEN,13557,1260,536915
THE TOPIARY,7765,721,797500
URBAN VISTA,17499,1626,465421
H RESIDENCES,13131,1220,426049
# 1 LOFT,13878,1289,398614
SUNNY LODGE,17027,1582,416757
BARTLEY RIDGE,13454,1250,368060
ECHELON,21950,2039,158741
GROVE RESIDENCE,28118,2612,279137
THE BAYSHORE,10795,1003,469976
URBAN VISTA,17112,1590,465420
THE OCTET,13915,1293,398628
N.A.,13428,1247,129546
ORCHID PARK CONDOMINIUM,8915,828,768446
SIMEI GREEN CONDOMINIUM,9414,875,529862
D'LEEDON,15812,1469,267951
SPOTTISWOODE RESIDENCES,24441,2271,88660
R MAISON,16321,1516,357699
D'NEST,10448,971,518136
TREASURES @ G20,12385,1151,398751
D'NEST,10588,984,518132
D'NEST,12650,1175,518130
THE TAMPINES TRILLIANT,8914,828,528608
D'NEST,10361,963,518138
VERSILIA ON HAIG,14286,1327,438641
OXLEY EDGE,21528,2000,238349
D'NEST,8743,812,518132
R MAISON,15000,1394,357699
CENTURY MANSIONS,9412,874,668671
GOLDENHILL PARK CONDOMINIUM,15172,1410,568426
RIVERSOUND RESIDENCE,9626,894,544813
SKYLINE 360 @ ST THOMAS WALK,25253,2346,238142
D'NEST,10631,988,518136
# 1 LOFT,14167,1316,398614
OXLEY EDGE,24029,2232,238349
THE SCOTTS TOWER,36074,3351,228240
ECHELON,20938,1945,158742
BARTLEY RIDGE,14451,1343,368055
PARC OLYMPIA,9696,901,506858
D'NEST,9733,904,518133
NOVENA REGENCY,24754,2300,307689
BARTLEY RIDGE,14970,1391,368063
D'NEST,10466,972,518134
HILLION RESIDENCES,14227,1322,677673
THE TOPIARY,7517,698,797495
57 @ KOVAN,11983,1113,548147
HILLION RESIDENCES,14000,1301,677673
OXLEY EDGE,20539,1908,238349
HILLION RESIDENCES,13641,1267,677673
D'NEST,10286,956,518131
SELETAR PARK RESIDENCE,13881,1290,807019
HILLION RESIDENCES,15600,1449,677671
# 1 LOFT,14915,1386,398614
KINGSFORD . HILLVIEW PEAK,15054,1399,667982
BALESTIER PLAZA,11290,1049,329802
JADE RESIDENCES,16153,1501,537019
WING FONG MANSIONS,7193,668,398924
PARK GREEN,9134,849,545044
D'LEEDON,17370,1614,267951
D'LEEDON,17340,1611,266225
D'LEEDON,16165,1502,267951
KINGSFORD . HILLVIEW PEAK,14875,1382,667968
D'NEST,10277,955,518178
D'NEST,10411,967,518137
SIGLAP PARK,12284,1141,455153
D'NEST,8875,825,518138
SELETAR HILLS ESTATE,15947,1481,808363
KIM KEAT HOUSE,11128,1034,328827
D'NEST,9794,910,518133
D'NEST,9083,844,518139
D'LEEDON,16365,1520,267954
THE NEXUS,16000,1486,589650
LA CASA,8360,777,737900
D'NEST,10314,958,518133
SIGNATURE AT LEWIS,20508,1905,258617
D'NEST,10575,982,518134
LA CASA,8458,786,737898
URBAN VISTA,17545,1630,465422
URBAN VISTA,17264,1604,465422
PAVILION SQUARE,15135,1406,389366
EIGHT RIVERSUITES,13967,1298,338517
SANT RITZ,17185,1597,348196
KINGSFORD . HILLVIEW PEAK,13034,1211,667968
JADE RESIDENCES,16700,1551,537016
LOYANG VALLEY,6761,628,509059
SEMBAWANG SPRINGS ESTATE,8066,749,769852
HEDGES PARK CONDOMINIUM,9107,846,506882
D'LEEDON,18311,1701,267955
PALACIO,8624,801,423397
Q BAY RESIDENCES,11504,1069,528590
1 CANBERRA,8145,757,768101
LILYDALE,8018,745,768966
ECHELON,17736,1648,158741
REFLECTIONS AT KEPPEL BAY,22378,2079,98417
BARTLEY RIDGE,11270,1047,368058
D'NEST,9699,901,518136
CITYLIFE@TAMPINES,8972,834,528616
HILLION RESIDENCES,13221,1228,677671
SPAZIO @ KOVAN,13859,1288,534635
OXLEY EDGE,23432,2177,238349
BARTLEY RIDGE,15042,1397,368062
N.A.,13682,1271,417274
N.A.,12561,1167,538388
CITYLIFE@TAMPINES,8703,809,528615
VILLAGE @ PASIR PANJANG,14851,1380,118797
D'NEST,12954,1203,518132
URBAN VISTA,14459,1343,465417
THE TOPIARY,8122,755,797497
NOVENA REGENCY,25558,2374,307690
CITYLIFE@TAMPINES,8101,753,528596
D'NEST,10319,959,518131
BARTLEY RIDGE,14830,1378,368063
PARVIS,20886,1940,278743
SENNETT RESIDENCE,15570,1446,348232
D'NEST,10260,953,518179
KINGSFORD . HILLVIEW PEAK,14294,1328,667981
PACIFIC MANSION,14789,1374,238436
THE INTERLACE,9790,909,109699
WATERCOLOURS,8224,764,518169
LEONIE STUDIO,20313,1887,239223
HILLION RESIDENCES,14742,1370,677673
N.A.,17183,1596,278348
THE WATERSIDE,15578,1447,436879
Q BAY RESIDENCES,11690,1086,528583
AMBER RESIDENCES,16456,1529,439888
D'NEST,10194,947,518136
URBAN VISTA,15307,1422,465422
CITYLIFE@TAMPINES,8111,754,528596
D'NEST,10326,959,518136
BARTLEY RIDGE,14433,1341,368063
D'LEEDON,14574,1354,266225
DOVER PARKVIEW,12556,1166,138686
THE LANAI,15533,1443,669600
THE TOPIARY,7352,683,797502
GARDENVISTA,14691,1365,589482
KINGSFORD . HILLVIEW PEAK,15245,1416,667982
D'LEEDON,16212,1506,267951
LA FIESTA,12818,1191,544705
TANAMERA CREST,9150,850,486062
D'LEEDON,17704,1645,267953
HILLION RESIDENCES,14470,1344,677672
RIVERSAILS,10070,936,534034
D'NEST,10083,937,518179
NEWTON ONE,19643,1825,307943
D'NEST,9673,899,518139
RIVERSAILS,9166,851,534030
VERDANA VILLAS,9046,840,557759
LA FIESTA,12415,1153,544833
URBAN VISTA,17112,1590,465421
ECO SANCTUARY,11706,1088,679522
BARTLEY RIDGE,14760,1371,368063
SUITES DE LAUREL,17931,1666,588997
D'NEST,10142,942,518136
SERANGOON GARDEN ESTATE,16169,1502,555948
THE INTERLACE,13418,1247,109687
RIVERSOUND RESIDENCE,8752,813,544740
THE ARISTO @ AMBER,16833,1564,439871
THE MAYFAIR,12458,1157,609479
JARDIN,21176,1967,589489
OXLEY EDGE,24011,2231,238349
BARTLEY RIDGE,13326,1238,368060
D'LEEDON,16115,1497,267953
NOVENA REGENCY,25200,2341,307690
BARTLEY RIDGE,15388,1430,368063
WOODHAVEN,8590,798,737832
SANT RITZ,17177,1596,348196
THE PLAZA,14400,1338,199591
OASIS GARDEN,13409,1246,538420
D'NEST,8380,779,518139
BARTLEY RIDGE,12054,1120,368058
BARTLEY RIDGE,13818,1284,368058
R MAISON,15046,1398,357699
BARTLEY RIDGE,13015,1209,368055
OXLEY EDGE,21551,2002,238349
Q BAY RESIDENCES,11285,1048,528584
D'LEEDON,22483,2089,267955
R MAISON,15208,1413,357699
THE TOPIARY,8184,760,797502
JADE RESIDENCES,17294,1607,537019
SEMBAWANG HILLS ESTATE,18797,1746,579430
ALLSWORTH PARK,15934,1480,278639
EDENZ LOFT,13988,1300,398623
V ON SHENTON,24266,2254,68814
OXLEY EDGE,22359,2077,238349
THE WHITLEY RESIDENCES,9369,870,297672
CENTRAL GROVE,10789,1002,389778
DORSETT RESIDENCES,26920,2501,88764
NORTHVALE,8051,748,689670
BARTLEY RIDGE,15388,1430,368063
LAUREL TREE,13767,1279,669267
BARTLEY RIDGE,13138,1221,368057
HILLION RESIDENCES,14167,1316,677671
EIGHT RIVERSUITES,13320,1237,338520
ST PATRICK'S RESIDENCES,14590,1355,423467
BARTLEY RIDGE,13329,1238,368060
BARTLEY RIDGE,14003,1301,368055
KOVAN MELODY,12619,1172,545021
THE TOPIARY,7765,721,797500
BARTLEY RIDGE,11297,1050,368058
BARTLEY RIDGE,13454,1250,368057
NATHAN PLACE,18524,1721,248742
THE SHAUGHNESSY,5954,553,768253
D'NEST,8595,799,518131
N.A.,15902,1477,579650
KINGSFORD . HILLVIEW PEAK,14153,1315,667968
BARTLEY RIDGE,12768,1186,368055
EIGHT RIVERSUITES,14943,1388,338520
D'NEST,10395,966,518178
D'NEST,8622,801,518139
CANDEVILLE,10596,984,425316
THE ALCOVE,8594,798,388199
KINGSFORD . HILLVIEW PEAK,15518,1442,667982
WATERCOLOURS,8244,766,518150
WATERTOWN,14639,1360,828843
BARTLEY RIDGE,13342,1239,368063
OCEAN FRONT SUITES,16050,1491,509428
THE CENTRIS,12319,1144,648341
YEW MEI GREEN,8048,748,689574
URBAN VISTA,15199,1412,465422
NATHAN RESIDENCES,14894,1384,248745
WATERTOWN,14513,1348,828843
SENNETT RESIDENCE,15487,1439,348228
THE TOPIARY,8286,770,797498
D'NEST,10463,972,518178
BARTLEY RIDGE,14100,1310,368057
BLUWATERS 2,8282,769,509456
EASTPOINT GREEN,9831,913,529890
E MAISON,15595,1449,359967
H2O RESIDENCES,10694,993,797531
KINGSFORD . HILLVIEW PEAK,14771,1372,667982
D'NEST,10841,1007,518136
SIGNATURE PARK,11692,1086,596745
RIPPLE BAY,9826,913,518163
BARTLEY RIDGE,12892,1198,368055
LOFT @ NATHAN,15543,1444,248749
WATERCOLOURS,8135,756,518151
OXLEY EDGE,21981,2042,238349
D'NEST,11304,1050,518136
N.A.,12743,1184,438216
D'NEST,10446,970,518179
THE TRILINQ,16576,1540,128808
SENNETT RESIDENCE,14685,1364,348226
BARTLEY RIDGE,12282,1141,368056
BARTLEY RIDGE,13931,1294,368056
D'NEST,8457,786,518138
URBAN VISTA,15306,1422,465421
N.A.,17420,1618,266979
D'NEST,10531,978,518137
WATERBAY,7729,718,828715
CITYLIFE@TAMPINES,8097,752,528595
N.A.,15648,1454,277233
D'NEST,10380,964,518139
D'LEEDON,14485,1346,267952
D'LEEDON,17487,1625,267955
BARTLEY RIDGE,13142,1221,368060
DUNEARN LODGE,11841,1100,289674
BARTLEY RIDGE,13953,1296,368057
SUITES@CHANGI,17561,1631,419740
SERENITY BREEZE,12810,1190,425927
LAUREL TREE,13721,1275,669267
D'LEEDON,17556,1631,267953
THE TOPIARY,8241,766,797502
BARTLEY RIDGE,13928,1294,368055
BARTLEY RIDGE,15239,1416,368057
PEARL BANK APARTMENT,9417,875,169016
THE LAKEFRONT RESIDENCES,12805,1190,648324
SUITES @ TOPAZ,17429,1619,327849
SEASTRAND,10561,981,518183
SUITES @ NEWTON,21775,2023,307740
KINGSFORD . HILLVIEW PEAK,15500,1440,667968
THE COSMOPOLITAN,22358,2077,239471
OLEANDER TOWERS,10941,1016,319772
N.A.,17361,1613,266981
URBAN VISTA,18056,1677,465419
BARTLEY RIDGE,15451,1435,368062
URBAN VISTA,16227,1508,465422
BARTLEY RIDGE,14760,1371,368063
HILLION RESIDENCES,14091,1309,677671
SKY HABITAT,17742,1648,573908
ECHELON,16566,1539,158742
MARTIN PLACE RESIDENCES,25833,2400,237988
KINGSFORD . HILLVIEW PEAK,14486,1346,667968
Q BAY RESIDENCES,10604,985,528586
KINGSFORD . HILLVIEW PEAK,14764,1372,667981
HERITAGE VIEW,13063,1214,138678
THE OCTET,14255,1324,398628
BARTLEY RIDGE,13849,1287,368062
KINGSFORD . HILLVIEW PEAK,14731,1369,667982
JADE RESIDENCES,17224,1600,537019
OXLEY EDGE,23811,2212,238349
SEASTRAND,10244,952,518183
JARDIN,19063,1771,589488
CASTLE GREEN,8991,835,787058
CITYLIFE@TAMPINES,5720,531,528593
BARTLEY RIDGE,14412,1339,368063
DOMAIN 21,17500,1626,169814
THE TRILINQ,17569,1632,128809
CITYLIFE@TAMPINES,8289,770,528598
JADE RESIDENCES,17520,1628,537020
BARTLEY RIDGE,14901,1384,368056
BARTLEY RIDGE,13331,1238,368059
D'LEEDON,16001,1487,267951
HILLTOPS,31444,2921,229809
SENNETT RESIDENCE,15001,1394,348232
WATERCOLOURS,8182,760,518155
PATERSON SUITES,27941,2596,238551
BARTLEY RIDGE,14551,1352,368063
N.A.,12089,1123,799661
HILLION RESIDENCES,13833,1285,677672
Q BAY RESIDENCES,11291,1049,528590
D'NEST,9674,899,518137
JADE RESIDENCES,16153,1501,537019
RIVERSAILS,9576,890,534031
BARTLEY RIDGE,14553,1352,368062
CITYLIFE@TAMPINES,9397,873,528598
SOMMERVILLE PARK,17355,1612,259281
EIGHT RIVERSUITES,17829,1656,338517
BARTLEY RIDGE,12796,1189,368063
D'NEST,8785,816,518134
LA CASA,8376,778,737901
COSTA DEL SOL,16788,1560,469988
THE TOPIARY,7160,665,797502
D'LEEDON,16328,1517,267954
TREASURES @ G20,12128,1127,398751
BARTLEY RIDGE,14130,1313,368058
N.A.,12667,1177,467591
NORTHOAKS,7828,727,738081
THE WARREN,8541,793,689676
SERANGOON PARK,16993,1579,358891
BARTLEY RIDGE,16005,1487,368063
THE TOPIARY,7110,661,797502
BARTLEY RIDGE,16300,1514,368062
SUNGLADE,12925,1201,556130
TREASURES @ G20,12385,1151,398751
SENNETT RESIDENCE,15238,1416,348228
URBAN VISTA,14805,1375,465417
RIPPLE BAY,9798,910,518163
BARTLEY RIDGE,13707,1273,368058
E MAISON,16101,1496,359966
DUCHESS CREST,11905,1106,269129
CITYLIFE@TAMPINES,8804,818,528596
D'LEEDON,15740,1462,267952
SUMMERHILL,12631,1173,596230
LUMA,21884,2033,238403
BARTLEY RIDGE,14152,1315,368055
NAUNG RESIDENCE,14632,1359,537670
PAVILION SQUARE,17029,1582,389366
N.A.,16400,1524,466993
THE PALETTE,12814,1190,518174
THE TOPIARY,7550,701,797502
URBAN VISTA,16552,1538,465421
THE GALE,12292,1142,506918
THE TANAMERA,9593,891,466664
CENTRAL VIEW,9690,900,538749
KINGSFORD . HILLVIEW PEAK,14375,1335,667968
BARTLEY RIDGE,13542,1258,368062
D'NEST,10768,1000,518139
BARTLEY RIDGE,14970,1391,368063
# 1 LOFT,14915,1386,398614
BARTLEY RIDGE,14702,1366,368055
TREASURES @ G20,12385,1151,398751
SEMBAWANG HILLS ESTATE,20000,1858,576338
MODA,16726,1554,428762
THE TRILINQ,16939,1574,128808
KINGSFORD . HILLVIEW PEAK,14268,1326,667982
URBAN VISTA,16339,1518,465419
THE GARDENS AT GERALD,7055,655,797666
PARC OLYMPIA,7725,718,506860
BARTLEY RIDGE,14376,1336,368055
BARTLEY RIDGE,16230,1508,368062
SEASTRAND,11011,1023,518185
M21,15951,1482,308208
D'NEST,10046,933,518134
URBAN VISTA,14583,1355,465417
TANAH MERAH GREEN,11347,1054,465585
LA FIESTA,12960,1204,544699
BARTLEY RIDGE,14481,1345,368063
THE FORD @ HOLLAND,13154,1222,268728
GRANGE INFINITE,25941,2410,239700
TREASURES @ G20,12385,1151,398751
URBAN VISTA,17224,1600,465421
URBAN VISTA,13715,1274,465427
SERANGOON GARDEN ESTATE,11691,1086,556582
VISTA PARK,10000,929,118170
SILVERSEA,15989,1485,449305
CABANA,8413,782,806399
TIVOLI GRANDE,17342,1611,427060
N.A.,14203,1319,417083
THREE BALMORAL,28070,2608,259785
D'NEST,10679,992,518134
MERAWOODS,10640,988,669608
BARTLEY RIDGE,13486,1253,368056
RIO VISTA,9217,856,534208
N.A.,5293,492,598023
GRANDE VISTA,10087,937,809694
CITYLIFE@TAMPINES,9551,887,528598
BAYSHORE PARK,10551,980,469977
THE TAMPINES TRILLIANT,8114,754,528608
JARDIN,20192,1876,589488
JARDIN,19241,1787,589488
N.A.,16903,1570,679124
SENNETT RESIDENCE,15708,1459,348232
MILL POINT,20612,1915,247811
SEAHILL,17408,1617,126778
SERANGOON GARDEN ESTATE,11574,1075,557899
CITYLIFE@TAMPINES,8698,808,528594
ARC AT TAMPINES,7973,741,529598
THE LANAI,14400,1338,669600
THE WHITLEY RESIDENCES,9434,876,297652
BARTLEY RIDGE,14227,1322,368055
SANT RITZ,17333,1610,348196
HILLION RESIDENCES,13221,1228,677673
BARTLEY RIDGE,12834,1192,368063
HUNDRED TREES,15059,1399,128015
D'NEST,10437,970,518131
Q BAY RESIDENCES,11480,1067,528586
THE TOPIARY,7897,734,797496
D'NEST,9801,911,518134
D'NEST,8955,832,518136
LA BRISA,16429,1526,398453
THE MEDLEY,12149,1129,426258
YISHUN EMERALD,8789,817,768425
GRANDIOSO 8,10381,964,573906
URBAN VISTA,17053,1584,465418
BARTLEY RIDGE,13659,1269,368062
WILKIE STUDIO,13772,1279,228096
EMERALD PARK,12174,1131,169588
BARTLEY RIDGE,13985,1299,368056
THE CLEARWATER,10234,951,479232
URBAN VISTA,17347,1612,465423
NATHAN RESIDENCES,21545,2002,248744
LA FIESTA,12382,1150,544831
CASABLANCA,9423,875,737917
THE GARDENS AT BISHAN,11565,1074,575574
RIVERSAILS,10000,929,534034
AZALEA PARK CONDOMINIUM,9615,893,509730
THE CASCADIA,19468,1809,589646
THE LINC,17227,1600,308346
KINGSFORD . HILLVIEW PEAK,13896,1291,667981
GARDENVISTA,13580,1262,589482
THE MERCURY,19373,1800,248201
THE MAKENA,15603,1450,437932
URBAN VISTA,16611,1543,465418
KINGSFORD . HILLVIEW PEAK,11857,1102,667982
BARTLEY RIDGE,13533,1257,368062
MILL POINT,20200,1877,247813
RICHMOND PARK,26472,2459,229920
ASPEN LOFT,7746,720,427317
THE MAKENA,14486,1346,437936
GALLERY FIFTEEN,12090,1123,329370
BARTLEY RIDGE,14078,1308,368055
URBAN VISTA,16523,1535,465424
THE TOPIARY,8129,755,797501
THE TRILINQ,16708,1552,128809
PAVILION SQUARE,16846,1565,389366
D'ZIRE,10930,1015,546290
BARTLEY RIDGE,14813,1376,368063
THE NAUTICAL,8880,825,769473
THE TOPIARY,7496,696,797502
COSTA DEL SOL,12960,1204,469986
BARTLEY RIDGE,13819,1284,368057
NAUNG RESIDENCE,15800,1468,537670
KINGSFORD . HILLVIEW PEAK,14319,1330,667968
LIBERTE,27352,2541,258125
THE TOPIARY,7891,733,797497
SELETAR VIEW,7970,740,807043
LAKEVIEW ESTATE,8500,790,574329
D'NEST,9705,902,518133
D'NEST,13460,1251,518136
OXLEY EDGE,21551,2002,238349
EIGHT RIVERSUITES,17707,1645,338519
PAVILION SQUARE,16846,1565,389366
HEDGES PARK CONDOMINIUM,8920,829,506882
STRATA,17949,1667,309329
URBAN VISTA,13434,1248,465423
D'NEST,10404,967,518132
THE NAUTICAL,9034,839,769474
NV RESIDENCES,11892,1105,518214
D'NEST,13106,1218,518179
TREE HOUSE,11603,1078,679521
ZENITH,18095,1681,247785
HILLION RESIDENCES,13298,1235,677671
ESCADA VIEW,11111,1032,417657
CITYLIFE@TAMPINES,9487,881,528595
URBAN VISTA,14123,1312,465418
SHERWOOD TOWER,9076,843,588998
GRANDE VISTA,10591,984,809694
N.A.,3412,317,388979
M21,16061,1492,308208
N.A.,15002,1394,129058
THE MADEIRA,10765,1000,659445
SPOTTISWOODE RESIDENCES,24354,2263,88660
THE SEA VIEW,17226,1600,439947
RIVERSAILS,9365,870,534030
THE SAIL @ MARINA BAY,31250,2903,18987
SUITES @ EASTCOAST,11975,1112,455273
HILLION RESIDENCES,13682,1271,677672
CITYLIFE@TAMPINES,8561,795,528615
E MAISON,16105,1496,359966
HILLION RESIDENCES,16488,1532,677673
D'NEST,11234,1044,518136
URBAN VISTA,14605,1357,465425
HERON BAY,7605,707,534014
H2O RESIDENCES,10300,957,797530
SPOTTISWOODE PARK,10000,929,80102
REGENT GROVE,8657,804,689529
RIVER PLACE,15417,1432,169658
Q BAY RESIDENCES,11482,1067,528583
BRIZAY PARK,10949,1017,279951
CLOVER BY THE PARK,11250,1045,573973
LAGOON VIEW,9031,839,449293
CHESTERVALE,7769,722,679973
LAKEVIEW ESTATE,9307,865,574329
TREE HOUSE,12507,1162,679517
LA FIESTA,12948,1203,544707
WATERBAY,7590,705,828711
LEVILLE ISUITES,14383,1336,429621
G RESIDENCES,14227,1322,426233
N.A.,9593,891,388038
URBAN VISTA,16337,1518,465417
KINGSFORD . HILLVIEW PEAK,12691,1179,667982
ESTIQUE,15857,1473,437361
ECO,17745,1649,465491
HAIG COURT,13246,1231,438795
PEARL BANK APARTMENT,8943,831,169016
THE GALE,10598,985,506911
URBAN VISTA,13384,1243,465425
BARTLEY RIDGE,13201,1226,368056
BUKIT REGENCY,10714,995,588133
CHARLTON CORNER,9381,872,539631
THE GREENWOOD,28732,2669,287078
ICON @ PASIR PANJANG,12918,1200,118579
KINGSFORD . HILLVIEW PEAK,14330,1331,667982
KINGSFORD . HILLVIEW PEAK,14429,1340,667981
1 CANBERRA,7830,727,768073
RIVERVALE CREST,9717,903,545086
SPOTTISWOODE SUITES,27366,2542,88661
THE ESTUARY,11475,1066,769134
BARTLEY RIDGE,14713,1367,368058
PAVILION SQUARE,16486,1532,389366
D'NEST,8133,756,518178
URBAN VISTA,18184,1689,465419
HILLSIDE MANSIONS,10849,1008,548943
BARTLEY RIDGE,15179,1410,368063
OXLEY EDGE,24229,2251,238349
THE TOPIARY,8000,743,797501
THE BAYSHORE,10692,993,469972
NV RESIDENCES,12101,1124,518211
H2O RESIDENCES,10646,989,797531
BARTLEY RIDGE,11969,1112,368060
BARTLEY RIDGE,14205,1320,368062
HEDGES PARK CONDOMINIUM,9172,852,506887
URBAN VISTA,14596,1356,465420
BARTLEY RIDGE,13732,1276,368057
HIGH OAK CONDOMINIUM,10325,959,596290
EIGHT RIVERSUITES,14400,1338,338520
H2O RESIDENCES,10559,981,797530
D'LEEDON,21393,1987,266224
SPOTTISWOODE SUITES,22314,2073,88661
H2O RESIDENCES,10694,993,797530
PARC OLYMPIA,9928,922,506859
SUITES@CHANGI,16977,1577,419740
THE LAKEFRONT RESIDENCES,15435,1434,648305
THE TOPIARY,8100,752,797501
PAVILION SQUARE,16028,1489,389366
BUONA VISTA GARDENS,10308,958,117688
RIVERSOUND RESIDENCE,7093,659,544811
FABER CREST,10862,1009,129200
D'NEST,10455,971,518139
THE LANAI,14531,1350,669600
HAIG COURT,14097,1310,438791
THE TOPIARY,7743,719,797498
BARTLEY RIDGE,14359,1334,368062
SIMS RESIDENCES,8730,811,387882
D'NEST,9989,928,518137
EAST MEADOWS,10523,978,465558
URBAN VISTA,16667,1548,465421
HILLION RESIDENCES,13262,1232,677673
1 CANBERRA,7726,718,768069
BARTLEY RIDGE,13406,1245,368055
BARTLEY RIDGE,14639,1360,368058
URBAN VISTA,16775,1558,465425
LAGOON VIEW,8745,812,449291
BARTLEY RIDGE,15102,1403,368062
MON JERVOIS,21952,2039,249094
BARTLEY RIDGE,16160,1501,368062
ESTA RUBY,15714,1460,399839
NOVENA REGENCY,24842,2308,307690
D'NEST,9583,890,518137
THE COAST AT SENTOSA COVE,19255,1789,98450
DAHLIA PARK CONDOMINIUM,9916,921,507009
THE LEVELZ,18304,1700,268836
RIVERSAILS,9095,845,534031
BARTLEY RIDGE,14340,1332,368058
GARDENVISTA,12716,1181,589482
KINGSFORD . HILLVIEW PEAK,15377,1429,667981
BARTLEY RIDGE,15204,1413,368063
H2O RESIDENCES,9969,926,797530
THE WATERINA,14463,1344,398081
CITYLIFE@TAMPINES,8619,801,528597
MAKEWAY VIEW,21185,1968,228599
THE CLIFT,28253,2625,69047
CASA SARINA,10680,992,416730
THE TOPIARY,8191,761,797496
URBAN VISTA,16667,1548,465422
URBAN VISTA,16447,1528,465427
SANT RITZ,15710,1460,348196
D'NEST,9621,894,518133
BARTLEY RIDGE,13149,1222,368056
HILLION RESIDENCES,16860,1566,677671
KINGSFORD . HILLVIEW PEAK,14583,1355,667982
D'NEST,11986,1114,518135
D'NEST,8314,772,518137
LOFT @ NATHAN,15603,1450,248749
BARTLEY RIDGE,14379,1336,368056
THE VIRIDIAN,15217,1414,329507
CHILTERN PARK,12353,1148,556114
ECHELON,17458,1622,158742
URBAN VISTA,16068,1493,465421
THE PARC CONDOMINIUM,13805,1283,127140
ARC AT TAMPINES,8028,746,529598
THE VERMONT ON CAIRNHILL,25976,2413,229747
HILLION RESIDENCES,14712,1367,677671
CASA FORTUNA,12174,1131,329981
GRANDE VISTA,10261,953,809694
ARDMORE PARK,31336,2911,259959
OXLEY EDGE,20658,1919,238349
SEASUITES,16990,1578,118617
HILLION RESIDENCES,14788,1374,677672
D'LEEDON,17961,1669,267953
D'NEST,9894,919,518136
BARTLEY RIDGE,15163,1409,368062
HILLION RESIDENCES,14864,1381,677672
THE QUINTET,8219,764,689102
Q BAY RESIDENCES,13175,1224,528583
URBAN VISTA,15522,1442,465423
BARTLEY RIDGE,15090,1402,368062
WATERBAY,8189,761,828711
D'NEST,9627,894,518134
HILLION RESIDENCES,15667,1455,677672
URBAN VISTA,14343,1332,465424
CITYLIFE@TAMPINES,8974,834,528593
BARTLEY RIDGE,15270,1419,368063
D'NEST,10387,965,518179
THE BAYSHORE,10675,992,469970
BARTLEY RIDGE,13202,1227,368058
N.A.,16789,1560,546517
CITYLIFE@TAMPINES,8925,829,528593
THE IMPERIAL,20585,1912,239618
HILLION RESIDENCES,15333,1425,677672
THE GALE,11556,1074,506916
ECHELON,23676,2200,158742
BARTLEY RIDGE,13853,1287,368062
D'NEST,11595,1077,518130
HILLION RESIDENCES,15651,1454,677671
N.A.,11004,1022,546289
BARTLEY RIDGE,14763,1371,368062
URBAN VISTA,16112,1497,465425
ECO,14625,1359,465491
RIVERSOUND RESIDENCE,10495,975,544740
BARTLEY RIDGE,13866,1288,368062
THE SCALA,15584,1448,554478
GRANGE INFINITE,25450,2364,239700
WEMBLY RESIDENCES,12366,1149,545678
URBAN VISTA,15263,1418,465425
D'NEST,8340,775,518132
BARTLEY RIDGE,14339,1332,368063
D'NEST,10741,998,518134
D'NEST,10408,967,518134
HILLION RESIDENCES,16341,1518,677672
D'LEEDON,16734,1555,267954
SKIES MILTONIA,11080,1029,768062
D'NEST,10416,968,518134
RIVERSOUND RESIDENCE,8992,835,544740
HILLION RESIDENCES,14152,1315,677673
D'NEST,9823,913,518134
URBAN VISTA,14108,1311,465424
H2O RESIDENCES,10732,997,797531
BARTLEY RIDGE,13140,1221,368058
CHANGI RISE CONDOMINIUM,9701,901,528804
NV RESIDENCES,11107,1032,518192
NAUNG RESIDENCE,14618,1358,537670
BARTLEY RIDGE,14494,1347,368057
D'LEEDON,17311,1608,267951
IVORY HEIGHTS,7742,719,600117
THE NAUTICAL,8991,835,769474
THE BENCOOLEN,16361,1520,189647
BARTLEY RIDGE,14893,1384,368062
HILLION RESIDENCES,14742,1370,677672
BARTLEY RIDGE,13723,1275,368062
THE OXLEY,23333,2168,238697
D'NEST,10683,993,518133
BARTLEY RIDGE,15726,1461,368063
BARTLEY RIDGE,13201,1226,368055
ECO,14842,1379,465491
SOUTHAVEN II,11447,1063,587971
D'NEST,11042,1026,518136
D'NEST,10279,955,518139
THE TOPIARY,7579,704,797495
D'NEST,9301,864,518133
BARTLEY RIDGE,12749,1184,368056
LA FIESTA,13184,1225,544707
THE PETALS,12421,1154,669624
MOONSTONE RESIDENCES,10609,986,328465
D'NEST,10691,993,518179
THE TRILINQ,16123,1498,128809
PINEWOOD TERRACE,9146,850,738324
URBAN VISTA,16523,1535,465423
SENNETT RESIDENCE,14326,1331,348226
URBAN VISTA,14870,1381,465427
OXLEY EDGE,21390,1987,238349
THE TOPIARY,7907,735,797502
D'NEST,12548,1166,518178
LAKEVIEW ESTATE,8887,826,574327
D'LEEDON,18412,1711,266224
D'NEST,10385,965,518131
THE JADE,11360,1055,658074
H2O RESIDENCES,10383,965,797531
BARTLEY RIDGE,13880,1290,368057
THE SHAUGHNESSY,5738,533,768333
THE DAFFODIL,11675,1085,466584
HILLION RESIDENCES,15535,1443,677673
BARTLEY RIDGE,13481,1252,368055
D'NEST,8579,797,518135
BARTLEY RIDGE,14065,1307,368062
THE QUINTET,8562,795,689101
THE SCALA,15258,1417,554477
ALLSWORTH PARK,16923,1572,278639
H2O RESIDENCES,10511,976,797531
D'LEEDON,16152,1501,267951
THE SCALA,15584,1448,554477
URBAN VISTA,16447,1528,465422
16 @ AMBER,18157,1687,439866
BARTLEY RIDGE,13419,1247,368056
BARTLEY RIDGE,13065,1214,368058
HILLION RESIDENCES,14652,1361,677673
BARTLEY RIDGE,13324,1238,368057
LILYDALE,7957,739,768965
PARC IMPERIAL,20000,1858,117423
BARTLEY RIDGE,14274,1326,368062
BARTLEY RIDGE,13453,1250,368062
BARTLEY RIDGE,14553,1352,368062
HILLION RESIDENCES,15470,1437,677673
# 1 LOFT,14538,1351,398614
HILLION RESIDENCES,14183,1318,677671
HILLION RESIDENCES,13641,1267,677671
D'NEST,10958,1018,518130
D'LEEDON,14322,1331,267952
HILLION RESIDENCES,14697,1365,677671
BARTLEY RIDGE,13097,1217,368060
GRANDEUR 8,13140,1221,567749
HILLION RESIDENCES,14348,1333,677673
BARTLEY RIDGE,14135,1313,368062
D'NEST,10582,983,518133
BARTLEY RIDGE,15237,1416,368062
ARC AT TAMPINES,8869,824,529595
EIGHT RIVERSUITES,12992,1207,338521
HILLION RESIDENCES,14000,1301,677672
D'NEST,10496,975,518179
BARTLEY RIDGE,13719,1275,368063
URBAN VISTA,16803,1561,465423
BARTLEY RIDGE,14551,1352,368063
BARTLEY RIDGE,12801,1189,368058
R MAISON,15993,1486,357699
D'NEST,11421,1061,518130
HILLVIEW PARK,10696,994,669554
URBAN VISTA,17052,1584,465419
D'NEST,11285,1048,518132
THE TOPIARY,7958,739,797502
URBAN VISTA,14037,1304,465425
MERAWOODS,11200,1041,669606
THE TOPIARY,8410,781,797496
D'LEEDON,22152,2058,267955
BARTLEY RIDGE,15017,1395,368062
THE TOPIARY,8124,755,797495
URBAN VISTA,17286,1606,465424
BARTLEY RIDGE,13365,1242,368058
H2O RESIDENCES,10742,998,797531
THE CAPE,23256,2161,439872
D'LEEDON,17439,1620,266225
D'NEST,10488,974,518138
URBAN VISTA,17106,1589,465422
BARTLEY RIDGE,15381,1429,368062
WATERBAY,8428,783,828711
R MAISON,15443,1435,357699
Q BAY RESIDENCES,11437,1063,528591
EMILY RESIDENCE,17568,1632,228485
EAST COAST HILL,17386,1615,467021
BARTLEY RIDGE,13471,1252,368063
BARTLEY RIDGE,14724,1368,368062
URBAN VISTA,16953,1575,465424
BARTLEY RIDGE,14774,1373,368063
BARTLEY RIDGE,12711,1181,368061
BARTLEY RIDGE,13991,1300,368063
WATERBAY,7625,708,828713
HILLION RESIDENCES,14204,1320,677671
BARTLEY RIDGE,13951,1296,368062
1 CANBERRA,7604,706,768103
URBAN VISTA,16340,1518,465427
CITYLIFE@TAMPINES,9046,840,528595
BARTLEY RIDGE,12893,1198,368058
EASTVALE,8743,812,519492
BARTLEY RIDGE,15109,1404,368063
BARTLEY RIDGE,13585,1262,368058
D'NEST,9973,927,518138
SKIES MILTONIA,13627,1266,768060
URBAN VISTA,15769,1465,465423
D'NEST,8795,817,518179
BARTLEY RIDGE,13243,1230,368061
D'NEST,9863,916,518134
BARTLEY RIDGE,14490,1346,368058
KINGSFORD . HILLVIEW PEAK,14216,1321,667982
BARTLEY RIDGE,12964,1204,368060
KINGSFORD . HILLVIEW PEAK,15030,1396,667982
BARTLEY RIDGE,14505,1348,368062
URBAN VISTA,15694,1458,465418
URBAN VISTA,16232,1508,465424
BARTLEY RIDGE,14902,1384,368062
THE FLORIDA,8605,799,538805
BARTLEY RIDGE,13536,1258,368063
STUDIO 3,20096,1867,248196
BARTLEY RIDGE,15242,1416,368062
URBAN VISTA,15694,1458,465426
HILLION RESIDENCES,14424,1340,677673
BARTLEY RIDGE,14678,1364,368056
BARTLEY RIDGE,13149,1222,368061
D'NEST,10792,1003,518135
PALM ISLES,9383,872,506893
BARTLEY RIDGE,13535,1257,368063
BARTLEY RIDGE,13307,1236,368058
RIVERSAILS,9166,851,534030
EIGHT RIVERSUITES,17366,1613,338519
EIGHT RIVERSUITES,17366,1613,338519
EIGHT RIVERSUITES,17366,1613,338517
EIGHT RIVERSUITES,13514,1255,338519
D'LEEDON,16573,1540,267953
BARTLEY RIDGE,13355,1241,368058
D'NEST,10387,965,518136
URBAN VISTA,17609,1636,465426
CASPIAN,12300,1143,648315
RIVERSAILS,9687,900,534030
D'NEST,13275,1233,518136
ARC AT TAMPINES,8670,805,529601
URBAN VISTA,14108,1311,465424
THE ELEMENT @ STEVENS,17979,1670,257873
LAGUNA GREEN,10367,963,468726
BARTLEY RIDGE,12973,1205,368058
BARTLEY RIDGE,14212,1320,368062
ARTHUR 118,15765,1465,439827
D'NEST,13207,1227,518136
D'NEST,10651,989,518137
LA FIESTA,12280,1141,544832
URBAN VISTA,17764,1650,465426
D'LEEDON,14170,1316,266225
R MAISON,15253,1417,357699
BARTLEY RIDGE,14042,1305,368058
D'NEST,10447,971,518138
HILLION RESIDENCES,16860,1566,677671
BARTLEY RIDGE,13601,1264,368063
BARTLEY RIDGE,14247,1324,368057
CENTRO RESIDENCES,19156,1780,567752
BARTLEY RIDGE,15139,1406,368063
BARTLEY RIDGE,12385,1151,368055
MONTEBLEU,15612,1450,308162
SANCTUARY GREEN,12308,1143,436925
D'NEST,12117,1126,518130
WATERSCAPE AT CAVENAGH,22545,2095,229630
HILLION RESIDENCES,15424,1433,677673
D'LEEDON,18092,1681,267955
BARTLEY RIDGE,14763,1371,368062
BARTLEY RIDGE,13704,1273,368055
HEDGES PARK CONDOMINIUM,8972,834,506881
SERANGOON GARDEN ESTATE,13600,1263,559366
SERAYA 9,15190,1411,437276
OXLEY EDGE,21389,1987,238349
HERON BAY,7596,706,534014
BARTLEY RIDGE,13218,1228,368058
BARTLEY RIDGE,13918,1293,368062
D'NEST,9845,915,518133
HILLION RESIDENCES,14742,1370,677672
BARTLEY RIDGE,14174,1317,368057
JC VILLE,10863,1009,427920
BARTLEY RIDGE,15521,1442,368062
# 1 LOFT,14005,1301,398614
BARTLEY RIDGE,11930,1108,368060
URBAN VISTA,17325,1610,465426
BARTLEY RIDGE,13743,1277,368058
HILLION RESIDENCES,13909,1292,677673
D'LEEDON,14141,1314,267952
BARTLEY RIDGE,12999,1208,368059
VILLAGE @ PASIR PANJANG,17724,1647,118797
THE VIRIDIAN,15229,1415,329507
N.A.,11073,1029,798759
SELETAR PARK RESIDENCE,13750,1277,807019
SKIES MILTONIA,11500,1068,768064
BARTLEY RIDGE,13731,1276,368063
URBAN VISTA,16557,1538,465420
D'LEEDON,14438,1341,267952
ARC AT TAMPINES,8189,761,529595
D'LEEDON,16408,1524,266225
D'NEST,11103,1031,518136
URBAN VISTA,13161,1223,465426
H2O RESIDENCES,10082,937,797530
1 CANBERRA,6565,610,768078
BARTLEY RIDGE,13861,1288,368063
ROSEWOOD SUITES,7401,688,737875
THE TOPIARY,8186,760,797499
16 @ AMBER,17208,1599,439866
D'LEEDON,17338,1611,267955
BARTLEY RIDGE,15586,1448,368063
DUCHESS CREST,14740,1369,269200
ECO,14522,1349,465491
THE TAMPINES TRILLIANT,9000,836,528610
LOFT @ RANGOON,17949,1667,218392
KERRISDALE,10810,1004,207855
BARTLEY RIDGE,14103,1310,368062
EIGHT RIVERSUITES,13947,1296,338521
URBAN VISTA,13975,1298,465419
HILLION RESIDENCES,14303,1329,677672
BARTLEY RIDGE,14414,1339,368062
EIGHT RIVERSUITES,16677,1549,338519
D'NEST,8780,816,518179
WATERCOLOURS,7751,720,518169
URBAN VISTA,16471,1530,465424
D'NEST,9564,889,518138
BARTLEY RIDGE,11275,1047,368058
HILLION RESIDENCES,13421,1247,677671
ECHELON,19742,1834,158742
HERON BAY,7897,734,534015
OEI TIONG HAM PARK,15553,1445,267057
MANDALE HEIGHTS,13839,1286,308225
BARTLEY RIDGE,13448,1249,368056
D'NEST,8050,748,518139
BARTLEY RIDGE,14528,1350,368056
BARTLEY RIDGE,13086,1216,368057
BARTLEY RIDGE,11806,1097,368056
URBAN VISTA,16501,1533,465418
URBAN VISTA,16555,1538,465423
BARTLEY RIDGE,12522,1163,368062
D'NEST,8501,790,518137
N.A.,13018,1209,469170
SKY HABITAT,15908,1478,573908
CITYLIFE@TAMPINES,8507,790,528598
THE SCALA,16444,1528,554476
THE TOPIARY,7905,734,797501
RIS GRANDEUR,6851,636,519929
A TREASURE TROVE,6555,609,828785
URBAN VISTA,16667,1548,465420
BARTLEY RIDGE,15181,1410,368062
RIVERSOUND RESIDENCE,8957,832,544740
D'LEEDON,16072,1493,267953
D'LEEDON,16247,1509,267954
LUCIDA,20441,1899,307780
BARTLEY RIDGE,14484,1346,368062
THE MEYERISE,18578,1726,437918
BARTLEY RIDGE,14270,1326,368057
RESIDENCES @ KILLINEY,23841,2215,239566
CITIGATE RESIDENCE,17105,1589,218437
D'NEST,8738,812,518131
URBAN VISTA,16394,1523,465424
D'NEST,10372,964,518132
URBAN VISTA,15102,1403,465425
BARTLEY RIDGE,12768,1186,368056
HILLION RESIDENCES,13818,1284,677672
1 CANBERRA,7991,742,768070
D'NEST,10251,952,518134
BARTLEY RIDGE,15935,1480,368063
SKYLINE 360 @ ST THOMAS WALK,25758,2393,238142
THE TOPIARY,8051,748,797496
THE TOPIARY,8239,765,797496
PALACIO,8733,811,423396
BARTLEY RIDGE,14121,1312,368063
TREASURES @ G20,12385,1151,398751
D'LEEDON,14555,1352,266225
BARTLEY RIDGE,14972,1391,368062
D'NEST,12363,1149,518132
THE ESTUARY,10537,979,769135
URBAN VISTA,17340,1611,465419
D'LEEDON,16585,1541,267953
CITYLIFE@TAMPINES,7709,716,528617
BARTLEY RIDGE,13529,1257,368063
BARTLEY RIDGE,13216,1228,368056
VILLA VERDE,11133,1034,688518
VILLA AZURA,14365,1335,279871
SUNGLADE,10971,1019,556134
BOATHOUSE RESIDENCES,11519,1070,534042
THE TAMPINES TRILLIANT,7309,679,528612
SEASONS PARK,9175,852,787078
# 1 LOFT,14617,1358,398614
OXLEY EDGE,23243,2159,238349
BARTLEY RIDGE,14691,1365,368063
BARTLEY RIDGE,13596,1263,368062
URBAN VISTA,16996,1579,465426
THE PIER AT ROBERTSON,21377,1986,239013
WILKINSON 8,9759,907,436585
HILLION RESIDENCES,15788,1467,677671
D'NEST,10437,970,518131
BARTLEY RIDGE,13078,1215,368058
THE LANAI,15661,1455,669600
WEST SHORE RESIDENCES,9324,866,117393
BARTLEY RIDGE,13566,1260,368058
HILLION RESIDENCES,13190,1225,677673
URBAN VISTA,17052,1584,465419
D'NEST,10683,993,518134
SEASUITES,17747,1649,118617
BARTLEY RIDGE,13387,1244,368056
BARTLEY RIDGE,15319,1423,368063
ECO,17299,1607,465491
D'NEST,10319,959,518179
HILLION RESIDENCES,15167,1409,677671
URBAN VISTA,16830,1564,465419
D'NEST,10902,1013,518136
URBAN VISTA,15855,1473,465425
THE RAINTREE,12651,1175,587841
CITYLIFE@TAMPINES,9005,837,528615
BARTLEY RIDGE,12892,1198,368056
THE SCALA,16159,1501,554476
URBAN VISTA,16986,1578,465422
D'NEST,8586,798,518131
BARTLEY RIDGE,12707,1181,368058
ECO SANCTUARY,12417,1154,679523
EIGHT RIVERSUITES,13320,1237,338520
URBAN VISTA,15380,1429,465423
BARTLEY RIDGE,11611,1079,368055
CITYLIFE@TAMPINES,8249,766,528615
D'NEST,10651,989,518139
BARTLEY RIDGE,15656,1454,368063
BARTLEY RIDGE,14345,1333,368057
WATERBANK AT DAKOTA,14634,1360,399941
URBAN VISTA,16688,1550,465424
ONE AMBER,19101,1775,439958
D'NEST,10710,995,518136
BARTLEY RIDGE,13913,1293,368062
BARTLEY RIDGE,14344,1333,368062
ECO SANCTUARY,13018,1209,679524
HEDGES PARK CONDOMINIUM,9692,900,506885
BARTLEY RIDGE,12831,1192,368058
BARTLEY RIDGE,14833,1378,368062
BARTLEY RIDGE,13218,1228,368057
THE TRILINQ,16492,1532,128809
URBAN VISTA,15339,1425,465423
URBAN VISTA,16340,1518,465427
HILLBROOKS,10957,1018,669590
BARTLEY RIDGE,13214,1228,368058
BARTLEY RIDGE,12777,1187,368062
OCEAN FRONT SUITES,16946,1574,509428
N.A.,9963,926,358038
BARTLEY RIDGE,14972,1391,368062
D'NEST,9924,922,518134
BARTLEY RIDGE,13942,1295,368057
PARRYVILLE,13491,1253,546806
D'NEST,12498,1161,518132
BARTLEY RIDGE,14569,1353,368057
THOMSON 800,14436,1341,298190
THE TOPIARY,8342,775,797495
BISHAN LOFT,11676,1085,579820
URBAN VISTA,15769,1465,465424
HILLION RESIDENCES,14470,1344,677671
URBAN VISTA,16177,1503,465424
HILLION RESIDENCES,13222,1228,677673
ALTEZ,25129,2335,79717
URBAN VISTA,15144,1407,465425
THE TOPIARY,7484,695,797495
BARTLEY RIDGE,12584,1169,368058
STADIA,12391,1151,545542
BLUWATERS 2,9603,892,509456
URBAN VISTA,16144,1500,465424
R MAISON,16321,1516,357699
D'NEST,10474,973,518132
BISHAN POINT,11441,1063,579653
THE ESPARIS,8624,801,519460
BARTLEY RIDGE,14902,1384,368062
RIVERSAILS,8449,785,534030
ESPADA,26286,2442,238126
BARTLEY RIDGE,15112,1404,368062
D'NEST,10727,997,518135
THE CANOPY,7628,709,768859
ASPEN HEIGHTS,17333,1610,238307
D'NEST,13494,1254,518179
THE PLAZA,12647,1175,199591
HERON BAY,8088,751,534018
D'NEST,10379,964,518133
D'NEST,11031,1025,518139
CARISSA PARK CONDOMINIUM,9917,921,507025
N.A.,8222,764,546427
REGENT GROVE,8889,826,689527
SENNETT RESIDENCE,15424,1433,348226
RIVERSOUND RESIDENCE,9977,927,544741
HEDGES PARK CONDOMINIUM,9172,852,506882
BARTLEY RIDGE,14266,1325,368058
D'NEST,10770,1001,518139
URBAN VISTA,16200,1505,465424
HAPPY MANSION,8661,805,369764
THE PALETTE,12952,1203,518174
D'NEST,9725,904,518139
MONTROSA,11125,1034,669604
BARTLEY RIDGE,13017,1209,368060
EURO-ASIA PARK,11831,1099,357920
OXLEY EDGE,20484,1903,238349
KEMBANGAN SUITES,15306,1422,418941
BARTLEY RIDGE,13782,1280,368063
THE TOPIARY,7346,682,797496
HILLION RESIDENCES,15651,1454,677672
BARTLEY RIDGE,14484,1346,368062
BARTLEY RIDGE,15209,1413,368063
URBAN VISTA,16555,1538,465422
THE TRUMPS,12204,1134,419154
URBAN VISTA,13189,1225,465427
URBAN VISTA,15769,1465,465423
BARTLEY RIDGE,13031,1211,368060
D'NEST,10771,1001,518136
BARTLEY RIDGE,14066,1307,368062
HILLION RESIDENCES,14182,1318,677673
SKIES MILTONIA,11418,1061,768064
URBAN VISTA,16232,1508,465427
D'NEST,10249,952,518137
HILLION RESIDENCES,13565,1260,677673
D'NEST,10420,968,518138
BARTLEY RIDGE,13779,1280,368055
D'NEST,10260,953,518131
NV RESIDENCES,12027,1117,518214
D'NEST,8768,815,518134
THE FLORAVALE,7724,718,648365
RIVERSOUND RESIDENCE,9591,891,544740
PALM HAVEN,10504,976,547312
HERON BAY,8100,753,534019
D'NEST,8295,771,518139
URBAN VISTA,16042,1490,465425
D'NEST,10922,1015,518137
LA FIESTA,12699,1180,544830
SEMBAWANG HILLS ESTATE,14347,1333,575858
NICOLE GREEN,12870,1196,399710
D'NEST,8988,835,518137
THE TROPICA,10414,968,529771
D'NEST,8400,780,518137
D'NEST,12017,1116,518138
RIVERSAILS,9725,904,534030
D'NEST,11063,1028,518130
URBAN VISTA,16447,1528,465420
EMERALD GARDEN,19890,1848,69415
SEA BREEZE TERRACE,17428,1619,487551
URBAN VISTA,16340,1518,465423
URBAN VISTA,16068,1493,465417
BARTLEY RIDGE,13077,1215,368056
BARTLEY RIDGE,14180,1317,368056
URBAN VISTA,16231,1508,465424
HILLION RESIDENCES,13818,1284,677671
BARTLEY RIDGE,12589,1170,368062
Q BAY RESIDENCES,11854,1101,528590
WATER PLACE,14454,1343,436607
D'LEEDON,18269,1697,267954
PARC IMPERIAL,18333,1703,117423
D'NEST,11467,1065,518135
CITYSCAPE @FARRER PARK,15500,1440,219067
ARC AT TAMPINES,8425,783,529595
URBAN VISTA,15851,1473,465421
URBAN VISTA,14648,1361,465425
THE NAUTICAL,8778,815,769473
MARINA BAY RESIDENCES,26515,2463,18980
NORTHOAKS,7914,735,738087
URBAN VISTA,17115,1590,465424
368 THOMSON,16951,1575,298127
THE TOPIARY,7937,737,797496
CITYSCAPE @FARRER PARK,16346,1519,219067
BARTLEY RIDGE,15237,1416,368063
HILLION RESIDENCES,13492,1253,677671
D'NEST,11900,1106,518130
D'NEST,10505,976,518134
THE ESTUARY,11837,1100,769135
D'NEST,9771,908,518137
BARTLEY RIDGE,15249,1417,368063
SPOTTISWOODE SUITES,23522,2185,88661
SENNETT RESIDENCE,15379,1429,348228
SIMSVILLE,10769,1000,389757
D'NEST,9985,928,518134
D'NEST,10716,996,518139
URBAN VISTA,14940,1388,465427
BARTLEY RIDGE,15040,1397,368063
BARTLEY RIDGE,13240,1230,368058
BARTLEY RIDGE,15009,1394,368063
URBAN VISTA,16503,1533,465419
HILLION RESIDENCES,15667,1455,677671
D'NEST,10972,1019,518136
D'NEST,9674,899,518137
D'NEST,10011,930,518133
HILLION RESIDENCES,17047,1584,677671
HILLVIEW GREEN,11318,1051,598744
ORCHID PARK CONDOMINIUM,8385,779,768451
URBAN VISTA,15694,1458,465427
D'NEST,8320,773,518134
HILLION RESIDENCES,13909,1292,677672
HILLION RESIDENCES,15767,1465,677672
D'NEST,11509,1069,518135
THE TROPICA,9850,915,529774
DOUBLE BAY RESIDENCES,12295,1142,528719
D'NEST,10846,1008,518135
URBAN VISTA,15346,1426,465427
D'NEST,10288,956,518139
URBAN VISTA,16386,1522,465419
LOFT @ RANGOON,16696,1551,218392
D'NEST,10868,1010,518137
HILLION RESIDENCES,13556,1259,677673
HILLION RESIDENCES,15545,1444,677673
D'NEST,10406,967,518134
D'NEST,11650,1082,518135
URBAN VISTA,15059,1399,465427
URBAN VISTA,15586,1448,465422
URBAN VISTA,16036,1490,465424
D'NEST,10367,963,518139
THE TRILINQ,16508,1534,128809
URBAN VISTA,15568,1446,465425
CITYLIFE@TAMPINES,8325,773,528598
CITYLIFE@TAMPINES,9118,847,528616
URBAN VISTA,15446,1435,465423
URBAN VISTA,16359,1520,465425
HILLION RESIDENCES,14652,1361,677672
D'NEST,9889,919,518137
CITYLIFE@TAMPINES,8830,820,528595
KINGSGROVE,9733,904,569979
HILLION RESIDENCES,15258,1417,677673
BARTLEY RIDGE,14135,1313,368062
SPOTTISWOODE SUITES,23860,2217,88661
URBAN VISTA,16886,1569,465426
URBAN VISTA,16667,1548,465417
CITYLIFE@TAMPINES,9252,859,528594
HILLION RESIDENCES,14258,1325,677672
BARTLEY RIDGE,14942,1388,368057
BARTLEY RIDGE,15672,1456,368062
URBAN VISTA,16663,1548,465424
D'NEST,10304,957,518134
URBAN VISTA,16177,1503,465417
BARTLEY RIDGE,13695,1272,368057
PRIMO RESIDENCES,14783,1373,537653
26 NEWTON,28247,2624,307957
URBAN VISTA,15985,1485,465424
ARC AT TAMPINES,9343,868,529601
BARTLEY RIDGE,13926,1294,368063
D'NEST,10201,948,518131
BARTLEY RIDGE,12706,1180,368056
HILLVIEW GARDEN ESTATE,11692,1086,668716
D'NEST,9907,920,518138
HILLION RESIDENCES,14576,1354,677673
HILLION RESIDENCES,13262,1232,677673
TREVISTA,16267,1511,319581
CARIBBEAN AT KEPPEL BAY,18902,1756,98644
URBAN VISTA,15525,1442,465426
D'NEST,10293,956,518179
URBAN VISTA,15317,1423,465425
D'NEST,10229,950,518135
PARC SOPHIA,19510,1813,229976
PHOENIX HEIGHTS,6394,594,668378
THE GALE,11052,1027,506916
MERALODGE,9763,907,669583
URBAN VISTA,17810,1655,465420
D'NEST,10251,952,518139
THE LAURELS,31074,2887,229658
D'NEST,10532,978,518137
KINGSFORD . HILLVIEW PEAK,14688,1365,667982
URBAN VISTA,13346,1240,465426
THE TOPIARY,8089,752,797495
SPACE @ KOVAN,15263,1418,545679
HILLION RESIDENCES,13500,1254,677672
Q BAY RESIDENCES,9830,913,528587
RIPPLE BAY,10225,950,518166
HERON BAY,7851,729,534020
COSMO,16923,1572,399914
H2O RESIDENCES,10511,976,797530
D'NEST,8839,821,518139
D'NEST,10585,983,518138
URBAN VISTA,13403,1245,465423
COUNTRY ESQUIRE,13644,1268,576438
RESIDENCES @ EVELYN,19761,1836,309306
D'NEST,13579,1261,518179
D'NEST,10071,936,518133
URBAN VISTA,16688,1550,465420
SENNETT RESIDENCE,16377,1521,348230
D'NEST,10317,958,518134
URBAN VISTA,16667,1548,465426
A TREASURE TROVE,9808,911,828830
SUNNY LODGE,16838,1564,416757
BARTLEY RIDGE,13079,1215,368060
D'NEST,9408,874,518133
BARTLEY RIDGE,13451,1250,368060
URBAN VISTA,16103,1496,465423
THE PARC CONDOMINIUM,9553,888,127158
BARTLEY RIDGE,12861,1195,368055
VILLA VERDE,9250,859,688336
N.A.,17025,1582,578108
URBAN VISTA,16776,1559,465422
ECO,14889,1383,465491
ASTRID MEADOWS,16526,1535,269264
SEAHILL,19625,1823,126778
HIGHGATE,10147,943,596723
THE TRILINQ,16136,1499,128808
D'NEST,8954,832,518179
D'NEST,10436,970,518178
SEASTRAND,10332,960,518183
SANTA FE MANSIONS,13889,1290,438073
D'NEST,13393,1244,518136
HILLION RESIDENCES,14076,1308,677672
URBAN VISTA,16124,1498,465420
THE FLORIDA,8520,792,534260
REFLECTIONS AT KEPPEL BAY,18500,1719,98410
D'NEST,9729,904,518137
D'NEST,13325,1238,518136
D'NEST,9818,912,518134
URBAN VISTA,16886,1569,465421
URBAN VISTA,16608,1543,465426
D'NEST,8332,774,518178
HILLION RESIDENCES,13424,1247,677671
CITYLIFE@TAMPINES,9163,851,528598
D'NEST,13427,1247,518179
D'NEST,8641,803,518133
CITYLIFE@TAMPINES,8850,822,528598
CITYLIFE@TAMPINES,9000,836,528595
URBAN VISTA,16938,1574,465417
WATERCOLOURS,8126,755,518168
LA CASA,8465,786,737898
D'NEST,9908,920,518178
BARTLEY RIDGE,13386,1244,368057
BARTLEY RIDGE,13576,1261,368060
FOUR SEASONS PARK,30986,2879,249694
URBAN VISTA,15633,1452,465420
THE RIVERVALE,8504,790,545118
D'NEST,11921,1108,518135
D'NEST,9842,914,518133
HILLION RESIDENCES,13687,1272,677672
BARTLEY RIDGE,15516,1441,368063
URBAN VISTA,16503,1533,465426
URBAN VISTA,17106,1589,465426
SENNETT RESIDENCE,15190,1411,348232
WATERBAY,8074,750,828713
SPRINGHILL,6078,565,757616
D'NEST,13596,1263,518136
STRATFORD COURT,8012,744,489929
THE TOPIARY,8237,765,797499
D'NEST,9957,925,518131
PASIR VIEW PARK,12088,1123,118571
PINE GROVE,9693,901,599001
NATHAN RESIDENCES,14609,1357,248745
THE TOPIARY,7452,692,797502
D'NEST,10436,970,518178
OPERA ESTATE,15958,1483,459550
1 CANBERRA,6567,610,768072
LA CASA,8182,760,737899
D'NEST,9714,902,518138
URBAN VISTA,15927,1480,465424
D'NEST,10093,938,518137
HILLION RESIDENCES,14227,1322,677673
WATERBAY,7901,734,828711
D'NEST,10458,972,518133
URBAN VISTA,15200,1412,465423
D'NEST,11667,1084,518178
BARTLEY RIDGE,14304,1329,368056
ECO,14472,1345,465491
URBAN VISTA,15662,1455,465423
HILLION RESIDENCES,14120,1312,677671
SENNETT RESIDENCE,15768,1465,348228
THE TOPIARY,8091,752,797500
TREASURES @ G20,13892,1291,398751
NOVENA REGENCY,25500,2369,307690
D'NEST,10007,930,518178
BARTLEY RIDGE,12482,1160,368055
CITYLIFE@TAMPINES,8096,752,528596
THE TAMPINES TRILLIANT,8571,796,528772
BARTLEY RIDGE,15172,1410,368062
D'NEST,11517,1070,518132
THE TOPIARY,7122,662,797496
D'NEST,10441,970,518139
D'NEST,10340,961,518139
URBAN VISTA,16068,1493,465421
URBAN VISTA,16340,1518,465424
CITYLIFE@TAMPINES,9835,914,528598
BARTLEY RIDGE,13408,1246,368061
URBAN VISTA,16226,1507,465423
SENNETT RESIDENCE,17115,1590,348232
BARTLEY RIDGE,12645,1175,368058
SEASTRAND,10334,960,518183
BARTLEY RIDGE,14412,1339,368063
URBAN VISTA,16878,1568,465422
D'NEST,10382,965,518132
URBAN VISTA,15985,1485,465424
THE SEA VIEW,18440,1713,439942
HILLION RESIDENCES,14621,1358,677672
MONTEBLEU,18418,1711,308162
URBAN VISTA,17606,1636,465419
HILLION RESIDENCES,16159,1501,677671
THE BELVEDERE,18208,1692,437876
SENNETT RESIDENCE,15079,1401,348230
D'NEST,10079,936,518132
D'NEST,10168,945,518137
URBAN VISTA,15048,1398,465423
HILLTOP GROVE,8909,828,669619
D'NEST,13680,1271,518136
D'NEST,8152,757,518134
D'NEST,12582,1169,518130
BARTLEY RIDGE,13967,1298,368058
D'NEST,9716,903,518134
D'NEST,11900,1106,518178
368 THOMSON,15868,1474,298127
D'NEST,9776,908,518130
THE TOPIARY,8145,757,797495
CITYLIFE@TAMPINES,9374,871,528615
URBAN VISTA,15825,1470,465420
D'NEST,9958,925,518179
SUITES @ GUILLEMARD,17854,1659,438133
H2O RESIDENCES,9736,905,797533
THE TOPIARY,7520,699,797499
RIS GRANDEUR,11017,1023,519931
BARTLEY RIDGE,13173,1224,368058
BARTLEY RIDGE,13879,1289,368057
CITYLIFE@TAMPINES,8324,773,528598
THE TOPIARY,8515,791,797499
AALTO,24111,2240,437980
URBAN VISTA,16905,1571,465420
OXLEY EDGE,20334,1889,238349
URBAN VISTA,16249,1510,465425
ECHELON,18710,1738,158741
BARTLEY RIDGE,14432,1341,368062
D'NEST,12819,1191,518132
SENNETT RESIDENCE,15248,1417,348226
CITYLIFE@TAMPINES,9131,848,528598
LE CRESCENDO,13409,1246,409044
URBAN VISTA,16555,1538,465420
D'NEST,10024,931,518138
D'NEST,8875,825,518138
URBAN VISTA,17110,1590,465419
RIVERSAILS,10028,932,534029
D'NEST,10496,975,518131
D'NEST,12050,1119,518130
BARTLEY RIDGE,16091,1495,368062
THE ANCHORAGE,13761,1278,159953
URBAN VISTA,16071,1493,465425
BLUE HORIZON,12296,1142,128045
THE TOPIARY,7852,730,797501
D'NEST,10350,962,518131
D'NEST,10270,954,518139
THE CAPE,23851,2216,439872
CITYLIFE@TAMPINES,9147,850,528598
ORCHID PARK CONDOMINIUM,8450,785,768448
1 CANBERRA,7492,696,768069
D'NEST,10042,933,518137
SERANGOON GARDEN ESTATE,10655,990,556207
THE TRILINQ,16443,1528,128809
D'NEST,11377,1057,518136
D'NEST,8910,828,518137
PARC OLYMPIA,9542,887,506870
HERITAGE RESIDENCES,12037,1118,425537
D'NEST,9233,858,518133
D'NEST,10682,992,518179
BURGUNDY HILL,11810,1097,658811
HILLION RESIDENCES,13758,1278,677673
HILLION RESIDENCES,13657,1269,677673
HILLVIEW HEIGHTS,12360,1148,669559
D'NEST,10303,957,518139
URBAN VISTA,16667,1548,465417
URBAN VISTA,16829,1563,465424
D'NEST,9664,898,518133
D'NEST,10607,985,518135
D'NEST,10236,951,518133
URBAN VISTA,16092,1495,465424
D'NEST,9994,928,518178
LAGUNA 88,11346,1054,486356
BARTLEY RIDGE,13264,1232,368060
D'NEST,11118,1033,518130
# 1 LOFT,14538,1351,398614
D'NEST,9598,892,518138
BARTLEY RIDGE,14621,1358,368063
CITYLIFE@TAMPINES,7636,709,528596
URBAN VISTA,17545,1630,465420
THE TOPIARY,7906,735,797498
D'NEST,10662,990,518135
MY MANHATTAN,11560,1074,529904
D'NEST,12183,1132,518130
D'NEST,9852,915,518139
THE TOPIARY,7975,741,797500
BARTLEY RIDGE,15377,1429,368063
D'NEST,9825,913,518133
H2O RESIDENCES,10353,962,797530
BARTLEY RIDGE,12522,1163,368062
D'NEST,10664,991,518135
D'NEST,10368,963,518139
EIGHT RIVERSUITES,13943,1295,338519
WESTWOOD PARK,10733,997,648847
D'NEST,13100,1217,518179
D'NEST,8074,750,518130
CELADON VIEW,6060,563,507029
BARTLEY RIDGE,13656,1269,368063
URBAN VISTA,13977,1298,465422
D'NEST,10457,971,518137
HILLION RESIDENCES,14076,1308,677673
URBAN VISTA,16770,1558,465420
THE TOPIARY,7952,739,797495
URBAN VISTA,15786,1467,465425
D'LEEDON,22058,2049,266224
RIVERSAILS,9296,864,534030
THE TOPIARY,8233,765,797499
D'NEST,10104,939,518137
D'NEST,9706,902,518137
D'NEST,10984,1020,518130
PALM GREEN,11743,1091,117621
MARINA BAY SUITES,35659,3313,18965
D'NEST,10129,941,518133
D'NEST,11933,1109,518138
URBAN VISTA,15694,1458,465423
URBAN VISTA,16447,1528,465423
D'NEST,9943,924,518133
D'NEST,12363,1149,518130
D'NEST,12667,1177,518132
URBAN VISTA,17435,1620,465421
D'NEST,10489,974,518132
D'NEST,12500,1161,518138
WATERBAY,6825,634,828714
BARTLEY RIDGE,13983,1299,368062
SANTA FE MANSIONS,13889,1290,438073
1 CANBERRA,7933,737,768077
URBAN VISTA,15525,1442,465417
SEMBAWANG HILLS ESTATE,9784,909,577636
THE ABERDEEN,12462,1158,329023
THE TRILINQ,17385,1615,128809
SENNETT RESIDENCE,15174,1410,348226
URBAN VISTA,17014,1581,465424
BARTLEY RIDGE,14285,1327,368062
D'NEST,9885,918,518134
MERA EAST,12292,1142,419977
HILLION RESIDENCES,15545,1444,677673
ASTON MANSIONS,9447,878,398026
SENNETT RESIDENCE,15447,1435,348226
URBAN VISTA,15802,1468,465426
D'NEST,10554,980,518132
URBAN VISTA,16362,1520,465424
THE TRILINQ,16215,1506,128809
HILLION RESIDENCES,13576,1261,677671
URBAN VISTA,16017,1488,465427
1 CANBERRA,7942,738,768070
URBAN VISTA,15554,1445,465423
D'NEST,10489,974,518179
URBAN VISTA,16776,1559,465421
AURA 83,15178,1410,429247
D'NEST,10556,981,518179
BARTLEY RIDGE,13796,1282,368063
URBAN VISTA,14769,1372,465427
WINDSOR PARK ESTATE,15839,1472,576474
URBAN VISTA,15586,1448,465421
PRISTINE HEIGHTS,10186,946,219053
N.A.,13991,1300,799279
D'NEST,11433,1062,518135
D'NEST,10423,968,518132
URBAN VISTA,16776,1559,465426
HILLION RESIDENCES,13620,1265,677673
MING TECK PARK,26090,2424,277411
URBAN VISTA,16200,1505,465426
HILLION RESIDENCES,13731,1276,677673
URBAN VISTA,15470,1437,465425
D'NEST,9990,928,518134
SENNETT RESIDENCE,14928,1387,348226
THE MARBELLA,17518,1627,276952
MONTROSA,8879,825,669604
1 CANBERRA,7706,716,768070
BARTLEY RIDGE,13339,1239,368063
EIGHT RIVERSUITES,15875,1475,338521
Q BAY RESIDENCES,12977,1206,528583
BARTLEY RIDGE,14693,1365,368062
BARTLEY RIDGE,12522,1163,368058
D'NEST,10361,963,518137
THE TRILINQ,16455,1529,128808
D'NEST,10414,967,518135
URBAN VISTA,15662,1455,465423
HILLION RESIDENCES,15860,1473,677671
BARTLEY RIDGE,14963,1390,368062
N.A.,12018,1116,424636
BARTLEY RIDGE,14944,1388,368062
D'NEST,9924,922,518132
HILLION RESIDENCES,14470,1344,677672
D'NEST,12283,1141,518138
REFLECTIONS AT KEPPEL BAY,23881,2219,98414
D'NEST,11519,1070,518130
D'NEST,10177,945,518134
URBAN VISTA,16469,1530,465425
NORTHOAKS,7696,715,738087
URBAN VISTA,16878,1568,465420
SEMBAWANG SQUARE ESTATE,9609,893,758476
D'NEST,9842,914,518179
D'NEST,9514,884,518138
D'NEST,10163,944,518135
HILLION RESIDENCES,14076,1308,677673
D'NEST,12117,1126,518138
EIGHT RIVERSUITES,13893,1291,338520
BARTLEY RIDGE,13854,1287,368055
SEASTRAND,11022,1024,518185
URBAN VISTA,15960,1483,465417
BARTLEY RIDGE,12892,1198,368060
LE REGAL,13564,1260,389365
BARTLEY RIDGE,11252,1045,368058
SENNETT RESIDENCE,15734,1462,348232
D'NEST,10423,968,518137
D'NEST,9647,896,518133
D'NEST,12283,1141,518179
THE LINE @ TANJONG RHU,23297,2164,436883
CITYLIFE@TAMPINES,8802,818,528597
D'NEST,9819,912,518130
D'NEST,11833,1099,518135
D'LEEDON,17244,1602,266225
URBAN VISTA,17014,1581,465420
D'NEST,10172,945,518130
URBAN VISTA,14343,1332,465424
D'NEST,10157,944,518137
ECO SANCTUARY,13128,1220,679524
D'LEEDON,14346,1333,267952
PARC SOPHIA,19032,1768,229975
WESTCOVE CONDOMINIUM,10313,958,128041
R MAISON,15421,1433,357699
BARTLEY RIDGE,14412,1339,368063
WOODSVILLE 28,15061,1399,357776
URBAN VISTA,16177,1503,465421
D'NEST,9771,908,518133
1 CANBERRA,6681,621,768069
LILYDALE,8333,774,768965
D'NEST,10404,967,518139
HILLION RESIDENCES,16068,1493,677671
D'NEST,10219,949,518139
OPERA ESTATE,14956,1389,459474
URBAN VISTA,16447,1528,465427
HILLION RESIDENCES,13952,1296,677672
THE TRILINQ,16741,1555,128808
CUBE 8,15227,1415,298130
BROOKVALE PARK,10969,1019,599969
WATER PLACE,15238,1416,436932
H2O RESIDENCES,10413,967,797530
SUITES @ GUILLEMARD,16279,1512,438133
PALM GROVE CONDOMINIUM,11812,1097,547320
HILLION RESIDENCES,16744,1556,677671
D'NEST,9128,848,518133
D'NEST,12033,1118,518138
D'LEEDON,16336,1518,266225
WATERBAY,7510,698,828710
D'NEST,10705,995,518137
URBAN VISTA,16008,1487,465417
D'NEST,9776,908,518133
D'NEST,10136,942,518132
HILLION RESIDENCES,14621,1358,677671
N.A.,13250,1231,538372
THE INTERLACE,9953,925,109697
BARTLEY RIDGE,13077,1215,368055
D'NEST,9957,925,518130
1 CANBERRA,7953,739,768069
PARC CENTENNIAL,15278,1419,228867
D'NEST,12083,1123,518132
URBAN VISTA,15306,1422,465423
SENNETT RESIDENCE,15684,1457,348226
LA FIESTA,12289,1142,544831
D'NEST,10052,934,518134
SENNETT RESIDENCE,16356,1519,348232
ECHELON,21488,1996,158742
SENNETT RESIDENCE,14471,1344,348228
D'NEST,8497,789,518131
THE METROPOLITAN CONDOMINIUM,15060,1399,158746
D'NEST,10286,956,518133
D'NEST,10481,974,518134
D'NEST,10221,950,518137
BARTLEY RIDGE,14871,1382,368062
BARTLEY RIDGE,13325,1238,368056
THE TOPIARY,8591,798,797500
URBAN VISTA,16797,1560,465420
THE TRILINQ,16455,1529,128808
SELETAR SPRINGS CONDOMINIUM,9121,847,799035
BARTLEY RIDGE,11806,1097,368057
TWIN PEAKS,35377,3287,239197
H2O RESIDENCES,9843,914,797533
LIBERTE,27205,2527,258125
LIBERTE,27082,2516,258125
CENTRO RESIDENCES,20315,1887,567752
URBAN VISTA,16227,1508,465417
D'NEST,11500,1068,518178
HERON BAY,8061,749,534015
1 CANBERRA,6510,605,768077
D'NEST,9828,913,518133
D'NEST,11767,1093,518178
GUILIN VIEW,9152,850,659244
HILLION RESIDENCES,13620,1265,677671
D'NEST,9690,900,518178
D'NEST,10750,999,518131
URBAN VISTA,17216,1599,465420
SENNETT RESIDENCE,16136,1499,348228
CITYLIFE@TAMPINES,5944,552,528597
ECHELON,23975,2227,158742
URBAN VISTA,16003,1487,465425
URBAN VISTA,15640,1453,465425
H2O RESIDENCES,9578,890,797530
D'NEST,10082,937,518178
D'NEST,9744,905,518133
SEASTRAND,10650,989,518183
URBAN VISTA,16326,1517,465418
CENTRO RESIDENCES,15301,1422,567752
URBAN VISTA,16286,1513,465419
URBAN VISTA,16057,1492,465417
HEDGES PARK CONDOMINIUM,9836,914,506885
D'NEST,10448,971,518131
BUKIT REGENCY,11150,1036,588136
HERON BAY,8125,755,534015
BARTLEY RIDGE,14267,1325,368063
BARTLEY RIDGE,14718,1367,368057
WATERBAY,7822,727,828714
THE TRILINQ,15818,1470,128808
CARIBBEAN AT KEPPEL BAY,16667,1548,98656
D'NEST,11767,1093,518130
VENTANA,13559,1260,118893
WATERBAY,7898,734,828711
D'NEST,9448,878,518134
D'NEST,12950,1203,518179
TWIN REGENCY,19560,1817,169277
D'NEST,10500,975,518178
URBAN VISTA,15059,1399,465418
URBAN VISTA,16415,1525,465424
URBAN VISTA,15748,1463,465424
WATERBAY,8089,751,828711
THE PARC CONDOMINIUM,15323,1424,127159
D'NEST,11567,1075,518178
D'NEST,11683,1085,518138
URBAN VISTA,16579,1540,465424
1 CANBERRA,7290,677,768070
URBAN VISTA,17169,1595,465420
EIGHT RIVERSUITES,15508,1441,338517
D'NEST,10253,953,518139
D'NEST,10232,951,518131
URBAN VISTA,16886,1569,465421
THE TOPIARY,8283,769,797500
YISHUN EMERALD,8316,773,768431
D'NEST,10093,938,518131
IRESIDENCES,17033,1582,329550
URBAN VISTA,16178,1503,465425
URBAN VISTA,15688,1457,465425
BARTLEY RIDGE,12796,1189,368063
OXLEY EDGE,22325,2074,238349
OXLEY EDGE,22485,2089,238349
THE TRILINQ,16402,1524,128808
MERA GARDENS,12717,1181,677812
ECO SANCTUARY,12690,1179,679522
CLEMENTIWOODS CONDOMINIUM,14167,1316,126815
THE FLORIDA,9070,843,538804
SEMBAWANG HILLS ESTATE,18887,1755,579397
SENNETT RESIDENCE,15464,1437,348226
D'NEST,11467,1065,518178
D'NEST,10177,945,518134
SENNETT RESIDENCE,18245,1695,348232
THE FLORIDA,8331,774,538807
THE INTERLACE,9246,859,109691
D'NEST,10050,934,518137
D'NEST,10417,968,518130
BARTLEY RIDGE,13163,1223,368060
D'NEST,9614,893,518138
BARTLEY RIDGE,15042,1397,368062
URBAN VISTA,16076,1494,465423
KENG LEE COURT,12474,1159,219250
H2O RESIDENCES,10041,933,797534
D'NEST,9883,918,518131
NORTHOAKS,7826,727,738085
Q BAY RESIDENCES,11977,1113,528586
Q BAY RESIDENCES,11908,1106,528586
D'NEST,12600,1171,518136
D'NEST,11400,1059,518178
D'NEST,11583,1076,518132
URBAN VISTA,17384,1615,465419
D'NEST,12367,1149,518138
URBAN VISTA,16770,1558,465427
CITYLIFE@TAMPINES,8363,777,528594
URBAN VISTA,16557,1538,465417
URBAN VISTA,15909,1478,465422
URBAN VISTA,16337,1518,465426
D'NEST,8414,782,518137
URBAN VISTA,16438,1527,465425
URBAN VISTA,16140,1499,465425
D'NEST,11433,1062,518178
D'NEST,10393,966,518131
H2O RESIDENCES,10569,982,797530
D'NEST,8211,763,518139
BARTLEY RIDGE,13692,1272,368060
TREASURES @ G20,12385,1151,398751
HILLION RESIDENCES,14424,1340,677672
1 CANBERRA,8355,776,768070
D'NEST,11365,1056,518136
THE TRILINQ,17500,1626,128809
VILLA DELLE ROSE,16221,1507,257784
HILLION RESIDENCES,15470,1437,677671
TREASURES @ G20,12385,1151,398751
SENNETT RESIDENCE,15539,1444,348226
D'NEST,10330,960,518139
D'NEST,10031,932,518139
D'NEST,10360,963,518178
THE LANAI,14084,1308,669600
D'NEST,10098,938,518135
URBAN VISTA,16253,1510,465424
THE TRILINQ,15612,1450,128808
VARSITY PARK CONDOMINIUM,13333,1239,126828
SENNETT RESIDENCE,15302,1422,348232
Q BAY RESIDENCES,11253,1045,528587
D'NEST,11300,1050,518178
SENNETT RESIDENCE,14347,1333,348228
TREASURES @ G20,13892,1291,398751
THE TOPIARY,7952,739,797495
HILLION RESIDENCES,13742,1277,677671
THE FLORAVALE,8484,788,648361
16 @ AMBER,17901,1663,439866
URBAN VISTA,15586,1448,465426
D'NEST,9750,906,518137
THE TOPIARY,7675,713,797495
LIVIA,11600,1078,518217
D'NEST,12650,1175,518179
LEVILLE ISUITES,15781,1466,429621
1 CANBERRA,7840,728,768069
HILLION RESIDENCES,16651,1547,677671
H2O RESIDENCES,10646,989,797530
SENNETT RESIDENCE,16759,1557,348232
HILLION RESIDENCES,14500,1347,677673
D'NEST,10146,943,518136
BAYSHORE PARK,10920,1014,469985
BARTLEY RIDGE,13015,1209,368056
THE TRILINQ,13135,1220,128808
D'NEST,8424,783,518178
D'NEST,10554,980,518178
D'NEST,13038,1211,518132
HILLBROOKS,11011,1023,669590
D'NEST,10465,972,518132
THE TRILINQ,15763,1464,128808
SENNETT RESIDENCE,16681,1550,348230
D'NEST,10531,978,518134
D'NEST,9279,862,518135
THE HELICONIA,10927,1015,419572
ECHELON,15896,1477,158741
D'NEST,10543,979,518135
HILLION RESIDENCES,15628,1452,677673
ECO SANCTUARY,11596,1077,679524
D'NEST,10265,954,518134
D'NEST,11585,1076,518135
D'NEST,8677,806,518134
CHANGI RISE CONDOMINIUM,10667,991,528808
LA FIESTA,11749,1092,544833
THE LANAI,15318,1423,669600
HILLION RESIDENCES,14000,1301,677673
D'NEST,10724,996,518134
D'NEST,10469,973,518134
D'NEST,9807,911,518137
HILLION RESIDENCES,14182,1318,677673
CITYLIFE@TAMPINES,9338,868,528596
BARTLEY RIDGE,13527,1257,368059
D'NEST,10885,1011,518133
SENNETT RESIDENCE,16147,1500,348230
THE TOPIARY,6734,626,797502
THE TRILINQ,17380,1615,128809
D'NEST,10122,940,518139
D'NEST,13067,1214,518136
D'NEST,10369,963,518137
1 CANBERRA,7740,719,768073
THE TRILINQ,17415,1618,128809
URBAN VISTA,15691,1458,465417
SENNETT RESIDENCE,14902,1384,348226
THE TRILINQ,13466,1251,128808
D'NEST,10091,937,518139
CHILTERN PARK,10446,970,556112
BARTLEY RIDGE,15881,1475,368062
HILLION RESIDENCES,13667,1270,677671
PARC OASIS,10000,929,609778
SENNETT RESIDENCE,16429,1526,348232
D'NEST,9452,878,518133
PARC EMILY,20804,1933,228491
D'NEST,12083,1123,518138
NEPTUNE COURT,8475,787,449032
HILLION RESIDENCES,14258,1325,677673
D'NEST,12583,1169,518179
D'NEST,11900,1106,518138
BOTANNIA,15065,1400,127649
THE TOPIARY,8453,785,797498
URBAN VISTA,16798,1561,465425
BLUE HORIZON,11752,1092,128047
SENNETT RESIDENCE,15626,1452,348228
ECHELON,23763,2208,158742
THE TRILINQ,16243,1509,128809
BLUWATERS,10895,1012,509439
THE LANAI,15716,1460,669629
D'NEST,10356,962,518134
URBAN VISTA,15985,1485,465423
N.A.,6536,607,424023
D'NEST,10618,986,518178
D'NEST,10042,933,518131
JARDIN,21308,1980,589488
D'NEST,13000,1208,518179
LANDRIDGE CONDOMINIUM,12784,1188,118572
LAGUNA PARK,11074,1029,449284
D'NEST,10966,1019,518139
D'NEST,10007,930,518132
FIRST POINT SUITES,13804,1282,426068
URBAN VISTA,15694,1458,465427
HILLION RESIDENCES,14394,1337,677671
N.A.,8149,757,487851
D'NEST,12350,1147,518179
THE TRILINQ,16143,1500,128809
D'NEST,10483,974,518135
CITYLIFE@TAMPINES,8554,795,528593
ALESSANDREA,15591,1448,159967
URBAN VISTA,15479,1438,465418
HEDGES PARK CONDOMINIUM,9036,839,506881
WHITEWATER,9159,851,518770
D'NEST,10781,1002,518130
THE TRILINQ,18180,1689,128809
SENNETT RESIDENCE,15364,1427,348228
SENNETT RESIDENCE,16388,1522,348228
D'NEST,10039,933,518131
YEW MEI GREEN,8447,785,689574
D'NEST,10367,963,518139
TREASURES @ G20,12385,1151,398751
THE NCLAVE,12463,1158,425265
BARTLEY RIDGE,14623,1359,368062
THE PATERSON,23009,2138,238539
URBAN VISTA,16830,1564,465418
D'NEST,9814,912,518131
ARC AT TAMPINES,8221,764,529601
YISHUN EMERALD,7897,734,768429
N.A.,16768,1558,436698
D'NEST,10317,958,518139
D'NEST,10103,939,518178
THE TRILINQ,16788,1560,128808
BARTLEY RIDGE,14415,1339,368058
BARTLEY RIDGE,14419,1340,368057
D'LEEDON,18157,1687,267954
CITYSCAPE @FARRER PARK,15589,1448,219067
N.A.,10485,974,436989
D'NEST,9854,915,518135
RIVERSOUND RESIDENCE,9506,883,544742
HERON BAY,8200,762,534014
ECO,14011,1302,465491
SKIES MILTONIA,11073,1029,768060
HEDGES PARK CONDOMINIUM,9903,920,506885
SEASTRAND,10728,997,518185
CITYLIGHTS,19038,1769,208745
SENNETT RESIDENCE,15231,1415,348232
KIM SIA COURT,20606,1914,229017
HERON BAY,8031,746,534014
GUILIN VIEW,10000,929,659246
D'NEST,10291,956,518135
D'NEST,9092,845,518133
D'NEST,8152,757,518130
WATERCOLOURS,8629,802,518153
D'NEST,9558,888,518179
SENNETT RESIDENCE,17547,1630,348226
D'NEST,12217,1135,518138
CITYLIFE@TAMPINES,7548,701,528594
URBAN VISTA,15255,1417,465418
D'NEST,10833,1006,518133
D'NEST,9664,898,518137
SENNETT RESIDENCE,16030,1489,348228
D'NEST,8411,781,518137
D'NEST,8215,763,518137
URBAN VISTA,14745,1370,465423
D'NEST,8948,831,518178
GOLD LEAF MANSIONS,10432,969,425403
GUILIN COURT,8451,785,398485
D'NEST,12733,1183,518179
BARTLEY RIDGE,15312,1422,368062
THE SUNNY SPRING,11373,1057,398074
PALMS @ SIXTH AVENUE,13739,1276,276677
CITYLIFE@TAMPINES,8740,812,528617
CITYLIFE@TAMPINES,8849,822,528596
NATHAN RESIDENCES,20909,1943,248745
THE TOPIARY,8074,750,797497
BARTLEY RIDGE,15812,1469,368062
D'NEST,10275,955,518137
D'NEST,10114,940,518131
THE TRILINQ,13961,1297,128808
THE TRILINQ,16000,1486,128809
BARTLEY RIDGE,13438,1248,368058
EIGHT RIVERSUITES,17317,1609,338520
SENNETT RESIDENCE,15203,1412,348232
URBAN VISTA,17619,1637,465419
THE TRILINQ,16093,1495,128808
D'NEST,9931,923,518130
RIVERSAILS,9258,860,534030
ECO SANCTUARY,12582,1169,679524
URBAN VISTA,15532,1443,465425
THE TAMPINES TRILLIANT,8190,761,528612
KERRISDALE,13176,1224,207853
D'NEST,10093,938,518131
D'LEEDON,17395,1616,267953
HARBOUR VIEW TOWERS,9017,838,109258
CITY REGENCY,11522,1070,327977
SENNETT RESIDENCE,16050,1491,348228
THE TRILINQ,17477,1624,128809
TREASURES @ G20,12385,1151,398751
URBAN VISTA,16008,1487,465417
THE TRILINQ,16517,1534,128808
EIGHT RIVERSUITES,17439,1620,338520
D'NEST,10284,955,518135
SENNETT RESIDENCE,16498,1533,348228
SENNETT RESIDENCE,15504,1440,348226
D'NEST,10286,956,518137
SENNETT RESIDENCE,15355,1427,348232
D'NEST,13000,1208,518136
EASTWOOD REGENCY,16410,1525,486397
URBAN VISTA,15416,1432,465422
MAYSPRINGS,10789,1002,678267
D'NEST,9943,924,518131
THE SCALA,16082,1494,554478
THE TRILINQ,15929,1480,128808
SENNETT RESIDENCE,14832,1378,348226
D'NEST,9092,845,518133
HILLION RESIDENCES,15545,1444,677672
D'NEST,8168,759,518131
JARDIN,19917,1850,589488
URBAN VISTA,17018,1581,465423
N.A.,10875,1010,536623
D'NEST,9759,907,518130
D'LEEDON,16749,1556,266225
D'NEST,11733,1090,518132
HILLION RESIDENCES,13873,1289,677672
THE TRILINQ,16621,1544,128808
D'NEST,9989,928,518134
RIVERSAILS,9249,859,534031
THE TRILINQ,16788,1560,128808
D'NEST,9996,929,518131
D'NEST,11800,1096,518132
CITYLIFE@TAMPINES,8965,833,528594
N.A.,6991,649,416948
D'NEST,8546,794,518131
URBAN VISTA,16008,1487,465427
D'NEST,12800,1189,518179
CLOVER BY THE PARK,13707,1273,573973
SENNETT RESIDENCE,16646,1546,348232
URBAN VISTA,17071,1586,465424
D'NEST,10531,978,518130
NATURE MANSIONS,12973,1205,425780
D'NEST,12133,1127,518130
SENNETT RESIDENCE,15987,1485,348226
OPERA ESTATE,11527,1071,458435
UP@ROBERTSON QUAY,28396,2638,238260
BARTLEY RIDGE,11097,1031,368056
D'LEEDON,18440,1713,267955
ECHELON,15820,1470,158742
# 1 LOFT,14538,1351,398614
D'NEST,10168,945,518139
ROCHELLE AT NEWTON,17745,1649,308414
CASCADALE,10213,949,486860
D'LEEDON,17947,1667,266224
THE TOPIARY,7155,665,797495
THE TRILINQ,16343,1518,128809
THE VERVE,15405,1431,329138
THE TRILINQ,16247,1509,128808
URBAN VISTA,17325,1610,465420
D'NEST,10200,948,518136
COSTA DEL SOL,12919,1200,469988
THE TOPIARY,7534,700,797495
URBAN VISTA,16307,1515,465424
D'NEST,10211,949,518131
SENNETT RESIDENCE,16275,1512,348228
D'NEST,9675,899,518179
LA FIESTA,12809,1190,544702
D'NEST,11967,1112,518135
AURA 83,15397,1430,429247
URBAN VISTA,16177,1503,465420
D'NEST,10771,1001,518133
OXLEY EDGE,20690,1922,238349
D'NEST,10788,1002,518134
THE EDEN AT TAMPINES,10085,937,529233
THE TRILINQ,17424,1619,128808
THE TRILINQ,19840,1843,128809
THE TOPIARY,7488,696,797497
D'EVELYN,17227,1600,309307
D'NEST,10800,1003,518179
URBAN VISTA,14700,1366,465423
ASTORIA PARK,12658,1176,416828
D'NEST,9871,917,518130
D'NEST,10404,967,518135
SENNETT RESIDENCE,16532,1536,348232
D'NEST,9759,907,518134
THE TRILINQ,15923,1479,128809
BARTLEY RIDGE,14793,1374,368057
URBAN VISTA,16112,1497,465420
THE MARQUE @ IRRAWADDY,14970,1391,328108
D'NEST,13342,1240,518179
URBAN VISTA,15748,1463,465425
VISTA PARK,12464,1158,118175
BARTLEY RIDGE,13204,1227,368060
URBAN VISTA,18204,1691,465422
BEACON HEIGHTS,14419,1340,328689
KEMBANGAN PLAZA,11339,1053,418944
FINLAND GARDENS,13690,1272,458949
D'NEST,11533,1071,518135
URBAN VISTA,16340,1518,465427
ECO,14491,1346,465491
CITYLIFE@TAMPINES,8602,799,528596
D'NEST,10844,1007,518130
THE TRILINQ,17706,1645,128808
A TREASURE TROVE,10015,930,828782
D'NEST,10635,988,518131
URBAN VISTA,14364,1334,465422
SUMMERDALE,8438,784,649929
D'NEST,11683,1085,518135
LE CRESCENDO,12773,1187,409044
D'NEST,9756,906,518137
THE TRILINQ,15929,1480,128808
THE TRILINQ,13243,1230,128808
THE TRILINQ,16621,1544,128808
URBAN VISTA,16340,1518,465418
SENNETT RESIDENCE,17000,1579,348228
SENNETT RESIDENCE,15395,1430,348226
DAKOTA RESIDENCES,15417,1432,399939
SERANGOON GARDEN ESTATE,13475,1252,557672
URBAN VISTA,16503,1533,465424
D'NEST,11267,1047,518178
SENNETT RESIDENCE,16561,1539,348228
SENNETT RESIDENCE,18362,1706,348232
CHANGI COURT,10926,1015,486834
N.A.,14077,1308,439040
CASTLE GREEN,9626,894,787057
D'NEST,11967,1112,518138
HILLVIEW HEIGHTS,11736,1090,669559
SENNETT RESIDENCE,17255,1603,348230
THE TRILINQ,15608,1450,128808
BEVERLY HILL,20798,1932,249570
URBAN VISTA,14962,1390,465418
URBAN VISTA,15742,1462,465419
THE TOPIARY,7783,723,797501
D'NEST,10354,962,518137
PALMWOODS,9321,866,487040
LA FIESTA,12419,1154,544833
# 1 LOFT,14538,1351,398614
Q BAY RESIDENCES,12402,1152,528584
THE TRILINQ,17680,1643,128809
D'NEST,9733,904,518139
HILLION RESIDENCES,15000,1394,677671
MAYSPRINGS,8833,821,678267
HILLION RESIDENCES,15712,1460,677671
URBAN VISTA,15810,1469,465425
THE TOPIARY,7402,688,797502
D'NEST,10393,966,518133
D'NEST,9889,919,518133
D'NEST,10366,963,518134
THE ASTON,17742,1648,248973
D'NEST,9367,870,518137
SUNHAVEN,11538,1072,486069
THE TRILINQ,13050,1212,128808
CITYLIFE@TAMPINES,9192,854,528598
LEEDON RESIDENCE,22734,2112,266215
EDENZ LOFT,14086,1309,398623
SENNETT RESIDENCE,15551,1445,348228
SENNETT RESIDENCE,16068,1493,348228
CASABLANCA,9136,849,737918
SERANGOON GARDEN ESTATE,11103,1031,554986
# 1 LOFT,14154,1315,398614
SENNETT RESIDENCE,15405,1431,348226
SENNETT RESIDENCE,15149,1407,348232
THE TRILINQ,16906,1571,128808
D'NEST,9759,907,518133
D'LEEDON,17236,1601,267951
SOLEIL @ SINARAN,20920,1943,307467
D'NEST,10382,965,518178
THE TOPIARY,7861,730,797495
D'LEEDON,20724,1925,266224
NV RESIDENCES,11571,1075,518211
SENNETT RESIDENCE,15574,1447,348232
D'NEST,9560,888,518133
N.A.,17257,1603,438980
URBAN VISTA,15091,1402,465423
LA FIESTA,12481,1159,544700
SENNETT RESIDENCE,13888,1290,348228
SPRING @ LANGSAT,15568,1446,426691
N.A.,15740,1462,348710
Q BAY RESIDENCES,11785,1095,528590
SENNETT RESIDENCE,15278,1419,348232
D'NEST,10307,958,518178
SENNETT RESIDENCE,17113,1590,348226
PARC ELEGANCE,17159,1594,423762
D'NEST,10061,935,518131
MARTIN PLACE RESIDENCES,21212,1971,237988
BARTLEY RIDGE,14230,1322,368056
HERON BAY,8615,800,534015
D'NEST,10210,949,518139
D'NEST,9379,871,518133
THE TRILINQ,15278,1419,128808
COSTA DEL SOL,14783,1373,469992
LUXE VILLE,13238,1230,118669
SELETAR HILLS ESTATE,14730,1368,808382
RIVERSOUND RESIDENCE,9218,856,544740
GOLDEN HILL ESTATE,16551,1538,568409
SKIES MILTONIA,11220,1042,768062
D'NEST,10112,939,518130
D'NEST,8066,749,518179
CITYLIFE@TAMPINES,8698,808,528593
WEST BAY CONDOMINIUM,12025,1117,128038
SENNETT RESIDENCE,14847,1379,348226
D'NEST,10521,977,518133
URBAN VISTA,14962,1390,465427
URBAN VISTA,15909,1478,465426
D'NEST,10531,978,518135
THOMSON RIDGE ESTATE,14439,1341,574694
WHITEWATER,9775,908,518764
HILLION RESIDENCES,15864,1474,677671
D'NEST,10191,947,518134
MARINA COLLECTION,31759,2950,98327
THE CLEMENTVALE,11063,1028,126868
D'NEST,11983,1113,518130
EAST MEADOWS,11416,1061,465560
WATERCOLOURS,7331,681,518152
D'NEST,12850,1194,518136
HILLION RESIDENCES,18279,1698,677671
D'NEST,10294,956,518139
VIZ AT HOLLAND,18421,1711,276750
1 CANBERRA,7668,712,768072
CHUAN PARK,12197,1133,556744
N.A.,14559,1353,287910
SEAHILL,18871,1753,126777
THE TRILINQ,15447,1435,128808
Q BAY RESIDENCES,11831,1099,528585
LEEDON RESIDENCE,22279,2070,266228
THE TRILINQ,17300,1607,128809
THE INTERLACE,13923,1293,109687
NV RESIDENCES,11310,1051,518192
THE TRILINQ,16629,1545,128809
HILLION RESIDENCES,16581,1540,677673
DE ROYALE,14454,1343,329112
D'NEST,10603,985,518135
LE REGAL,14125,1312,389365
HILLION RESIDENCES,13657,1269,677672
OLA RESIDENCES,15033,1397,437832
HILLION RESIDENCES,15106,1403,677672
NUOVO,11346,1054,569788
URBAN VISTA,16017,1488,465424
THE SOUND,17590,1634,429070
SENNETT RESIDENCE,14757,1371,348226
CITYLIFE@TAMPINES,8928,829,528616
N.A.,19454,1807,266750
HILLION RESIDENCES,13894,1291,677672
BARTLEY RIDGE,14035,1304,368063
LA FIESTA,12714,1181,544700
HILLION RESIDENCES,16500,1533,677672
THE TOPIARY,7990,742,797499
RIVERSAILS,9764,907,534030
HEDGES PARK CONDOMINIUM,8487,789,506887
SENNETT RESIDENCE,15341,1425,348232
CLIFTEN,17576,1633,259342
SENNETT RESIDENCE,15794,1467,348228
UE SQUARE,17120,1590,238274
EUNOS GREEN,11090,1030,416558
THE MONTAGE,13483,1253,425342
THE INTERLACE,9790,909,109700
URBAN VISTA,16232,1508,465422
SENNETT RESIDENCE,15618,1451,348226
D'NEST,9857,916,518136
BARTLEY RIDGE,13447,1249,368057
URBAN VISTA,17047,1584,465419
SENNETT RESIDENCE,15886,1476,348232
D'NEST,10396,966,518133
SENNETT RESIDENCE,15611,1450,348226
LA FIESTA,11720,1089,544701
YEW MEI GREEN,8468,787,689574
FORESQUE RESIDENCES,16140,1499,678272
THE TRILINQ,13825,1284,128808
WATERCOLOURS,8142,756,518154
CLEMENTIWOODS CONDOMINIUM,14615,1358,126815
LA CASA,8660,805,737899
SENNETT RESIDENCE,16566,1539,348226
D'NEST,10151,943,518139
CITYLIFE@TAMPINES,9205,855,528594
8@WOODLEIGH,15337,1425,357900
URBAN VISTA,15802,1468,465427
D'NEST,10948,1017,518133
LIGHTHOUSE,6154,572,509410
THE TOPIARY,8484,788,797495
D'LEEDON,16123,1498,267954
D'NEST,10167,945,518178
Q BAY RESIDENCES,11980,1113,528590
D'NEST,10339,961,518137
SENNETT RESIDENCE,18396,1709,348232
OCEAN FRONT SUITES,16777,1559,509428
# 1 LOFT,14538,1351,398614
THE INTERLACE,9587,891,109696
SENNETT RESIDENCE,15684,1457,348226
URBAN VISTA,16415,1525,465423
SENNETT RESIDENCE,15737,1462,348226
ORCHID PARK CONDOMINIUM,8604,799,768447
EIGHT RIVERSUITES,17317,1609,338520
PINE GROVE,8957,832,590001
HILLION RESIDENCES,14303,1329,677671
PARC OLYMPIA,9239,858,506869
THE TRILINQ,16412,1525,128808
URBAN VISTA,15633,1452,465417
BARTLEY RIDGE,14274,1326,368062
URBAN VISTA,16612,1543,465419
RIVERSAILS,8920,829,534033
FORESQUE RESIDENCES,15070,1400,678276
THE TOPIARY,8051,748,797495
HUNDRED TREES,14015,1302,128016
COSTA DEL SOL,14783,1373,469993
DUNMAN VIEW,12212,1135,438798
MERA SPRINGS,14020,1303,219648
1 CANBERRA,7803,725,768073
CITY REGENCY,15761,1464,327977
HILLION RESIDENCES,14712,1367,677672
BARTLEY RIDGE,15181,1410,368062
SENNETT RESIDENCE,16091,1495,348228
D'LEEDON,16501,1533,267954
CITYLIFE@TAMPINES,8594,798,528617
SENNETT RESIDENCE,16906,1571,348232
ONE-NORTH RESIDENCES,15604,1450,138642
URBAN VISTA,16177,1503,465417
D'NEST,9673,899,518139
D'NEST,10052,934,518130
D'NEST,10329,960,518137
D'NEST,8264,768,518139
DUCHESS CREST,15432,1434,269200
D'NEST,11617,1079,518135
SENNETT RESIDENCE,15643,1453,348226
SENNETT RESIDENCE,15253,1417,348232
CITYLIFE@TAMPINES,6584,612,528597
THE TRILINQ,16188,1504,128809
D'NEST,10116,940,518178
SENNETT RESIDENCE,15456,1436,348232
Q BAY RESIDENCES,11417,1061,528583
CITYLIFE@TAMPINES,7641,710,528597
URBAN VISTA,16340,1518,465422
SENNETT RESIDENCE,16378,1522,348230
KENTISH COURT,11692,1086,218816
SIMEI GREEN CONDOMINIUM,7779,723,529868
JARDIN,20380,1893,589488
SENNETT RESIDENCE,14671,1363,348230
PINE GROVE,9744,905,591401
THE TAMPINES TRILLIANT,8617,801,528769
RIVERSAILS,8690,807,534032
PAVILION PARK,17500,1626,658631
PARC OLYMPIA,10078,936,506870
THE CENTRIS,13371,1242,648342
RIVIERA 38,12988,1207,328712
SELETAR HILLS ESTATE,13956,1297,807743
THE TOPIARY,7550,701,797497
THE NEXUS,16518,1535,589653
D'NEST,12430,1155,518132
LEVILLE ISUITES,14216,1321,429621
SENNETT RESIDENCE,16253,1510,348232
URBAN VISTA,15263,1418,465422
CITYLIFE@TAMPINES,9066,842,528617
TAI KENG GARDENS,8525,792,535401
BELLE VUE RESIDENCES,17463,1622,238593
URBAN VISTA,15909,1478,465423
THE TRILINQ,15612,1450,128808
D'NEST,12500,1161,518179
D'NEST,10493,975,518133
D'NEST,9857,916,518138
THE TRILINQ,16031,1489,128809
SENNETT RESIDENCE,16833,1564,348232
URBAN VISTA,16232,1508,465418
HILLION RESIDENCES,14500,1347,677672
D'NEST,10418,968,518134
THE TOPIARY,8350,776,797499
THE TRILINQ,12844,1193,128808
D'LEEDON,16990,1578,266225
D'NEST,9733,904,518179
CITYSCAPE @FARRER PARK,15845,1472,219067
H2O RESIDENCES,10166,944,797534
ROBIN SUITES,26811,2491,258203
THE TAMPINES TRILLIANT,8152,757,528612
URBAN VISTA,16307,1515,465424
THE RIVERINA,11000,1022,518292
WATERBAY,7684,714,828714
SENNETT RESIDENCE,17255,1603,348230
WATERBAY,7880,732,828710
RESIDENCES AT EMERALD HILL,30768,2858,229401
D'LEEDON,18096,1681,267954
D'LEEDON,15382,1429,267952
FRANKEL ESTATE,14722,1368,456022
CLEMENTI PARK,11875,1103,597153
D'NEST,10554,980,518178
HERON BAY,8034,746,534017
PALM GALLERIA,16630,1545,425701
CITY SQUARE RESIDENCES,18230,1694,207227
HOLLAND PEAK,15527,1443,278740
HERON BAY,8227,764,534018
D'NEST,9764,907,518138
SENNETT RESIDENCE,16455,1529,348228
D'NEST,10211,949,518137
SIMEI GREEN CONDOMINIUM,9203,855,529864
URBAN VISTA,15677,1456,465425
D'NEST,10271,954,518139
SENNETT RESIDENCE,15455,1436,348228
D'NEST,12150,1129,518132
JERVOIS LODGE,16121,1498,249018
REGENT HEIGHTS,9789,909,659801
D'NEST,9782,909,518137
HERON BAY,8336,774,534018
SENNETT RESIDENCE,15924,1479,348228
N.A.,9320,866,489264
THE TOPIARY,7681,714,797502
HEDGES PARK CONDOMINIUM,9637,895,506887
ECO SANCTUARY,11597,1077,679522
SENNETT RESIDENCE,15191,1411,348230
SENNETT RESIDENCE,14352,1333,348226
SENNETT RESIDENCE,15463,1437,348226
URBAN VISTA,15851,1473,465417
URBAN VISTA,16232,1508,465423
CASHEW HEIGHTS CONDOMINIUM,11667,1084,679672
HILLION RESIDENCES,14500,1347,677673
ECHELON,24468,2273,158742
D'NEST,11042,1026,518135
1 CANBERRA,8265,768,768072
SENNETT RESIDENCE,15136,1406,348226
SENNETT RESIDENCE,15422,1433,348230
LA FIESTA,15500,1440,544702
LA FIESTA,11894,1105,544702
URBAN VISTA,16953,1575,465424
RIVERSAILS,9403,874,534030
D'NEST,10267,954,518139
THE METROPOLITAN CONDOMINIUM,14773,1372,158746
SENNETT RESIDENCE,18287,1699,348232
URBAN VISTA,15586,1448,465422
CONCOURSE SKYLINE,18571,1725,199599
ISUITES @ PALM,14681,1364,549340
SUITES @ PAYA LEBAR,12925,1201,534996
SENNETT RESIDENCE,15389,1430,348226
THE TRILINQ,14312,1330,128808
D'NEST,12067,1121,518130
SENNETT RESIDENCE,15297,1421,348226
SENNETT RESIDENCE,16389,1523,348232
SENNETT RESIDENCE,17264,1604,348226
URBANA,22340,2075,238427
BARTLEY RIDGE,15447,1435,368063
D'NEST,10792,1003,518134
HILLION RESIDENCES,18279,1698,677671
D'NEST,10330,960,518178
URBAN VISTA,15255,1417,465418
CHANGI RISE CONDOMINIUM,8701,808,528802
THE TOPIARY,8386,779,797498
1 CANBERRA,6567,610,768073
RIVERSAILS,9524,885,534033
SENNETT RESIDENCE,16043,1490,348228
SENNETT RESIDENCE,15457,1436,348232
SUITES @ GUILLEMARD,20625,1916,438133
D'NEST,10115,940,518134
SENNETT RESIDENCE,17000,1579,348230
SENNETT RESIDENCE,15670,1456,348228
WOODSVILLE 28,12613,1172,357776
H2O RESIDENCES,10654,990,797533
D'NEST,9655,897,518133
D'NEST,9985,928,518135
Q BAY RESIDENCES,9915,921,528585
RIVERSAILS,9802,911,534030
SENNETT RESIDENCE,15985,1485,348228
SENNETT RESIDENCE,15868,1474,348226
SENNETT RESIDENCE,16550,1538,348228
BARTLEY RIDGE,14623,1359,368062
SENNETT RESIDENCE,16513,1534,348230
HILLSTA,12577,1168,668202
THE TRILINQ,15282,1420,128808
SENNETT RESIDENCE,16758,1557,348228
SENNETT RESIDENCE,15627,1452,348232
CHUAN GREEN,14088,1309,554560
CITYLIFE@TAMPINES,8152,757,528616
SENNETT RESIDENCE,15162,1409,348226
VARSITY PARK CONDOMINIUM,13223,1228,126838
IVORY HEIGHTS,8468,787,600124
BLEU @ EAST COAST,12979,1206,466581
CITYLIFE@TAMPINES,9331,867,528598
HILLION RESIDENCES,15621,1451,677672
PRIVE,8381,779,828809
ECHELON,19331,1796,158742
WOODHAVEN,8588,798,737831
TREE HOUSE,11897,1105,679518
SENNETT RESIDENCE,16792,1560,348226
SIN MING PLAZA,10857,1009,575585
AURA 83,15068,1400,429247
SENNETT RESIDENCE,15409,1432,348228
D'NEST,9603,892,518130
HILLION RESIDENCES,15470,1437,677672
THE INTERLACE,13439,1248,109703
ASCENTIA SKY,18523,1721,158749
D'NEST,10136,942,518178
D'NEST,8423,783,518132
CASHEW PARK CONDOMINIUM,10828,1006,679637
D'NEST,11867,1102,518132
SENNETT RESIDENCE,15447,1435,348226
BARTLEY RIDGE,12644,1175,368056
D'NEST,9724,903,518130
D'NEST,10229,950,518134
HILLION RESIDENCES,16159,1501,677671
LA FIESTA,12941,1202,544702
D'NEST,12150,1129,518138
SENNETT RESIDENCE,15318,1423,348228
SENNETT RESIDENCE,16333,1517,348232
ECO SANCTUARY,12854,1194,679524
D'NEST,10017,931,518130
THE TRILINQ,15657,1455,128809
ECHELON,16424,1526,158742
FORTUNE VIEW,8270,768,358213
D'NEST,9899,920,518137
URBAN VISTA,14355,1334,465419
CITYLIFE@TAMPINES,8888,826,528594
THE TOPIARY,7784,723,797500
WATERBAY,7646,710,828711
HERON BAY,8361,777,534019
SENNETT RESIDENCE,16681,1550,348230
SENNETT RESIDENCE,16405,1524,348228
CITYLIFE@TAMPINES,7463,693,528617
D'NEST,9793,910,518139
SENNETT RESIDENCE,16167,1502,348232
D'NEST,10345,961,518135
THE TRILINQ,15970,1484,128808
HILLCREST VILLA,10976,1020,286727
HILLION RESIDENCES,14818,1377,677672
SENNETT RESIDENCE,13990,1300,348228
THE TRILINQ,17092,1588,128809
TRIBECA,21341,1983,239497
N.A.,14405,1338,455152
D'NEST,11533,1071,518178
ESTELLA GARDENS,8915,828,509741
HILLION RESIDENCES,14652,1361,677673
RIVERSAILS,10075,936,534029
THE TRILINQ,16412,1525,128808
RIVERSAILS,9673,899,534029
D'NEST,10733,997,518135
D'NEST,10368,963,518134
EASTWOOD CENTRE,9767,907,486442
SENNETT RESIDENCE,16506,1533,348228
D'NEST,10446,970,518131
SENNETT RESIDENCE,14759,1371,348226
CITYLIFE@TAMPINES,9251,859,528615
ECHELON,20313,1887,158741
N.A.,10526,978,545593
D'NEST,9718,903,518133
URBAN VISTA,15920,1479,465425
CITYLIFE@TAMPINES,8609,800,528593
D'NEST,10043,933,518178
THE TOPIARY,7692,715,797497
SENNETT RESIDENCE,15614,1451,348228
D'NEST,10201,948,518131
D'NEST,9836,914,518137
THE INTERLACE,9316,865,109694
D'NEST,10271,954,518131
D'LEEDON,14943,1388,266225
D'NEST,10688,993,518131
CITYLIFE@TAMPINES,8681,807,528597
CITYLIFE@TAMPINES,8583,797,528598
HERON BAY,7760,721,534020
THE ANCHORAGE,13310,1237,159957
SENNETT RESIDENCE,16553,1538,348230
D'NEST,12734,1183,518132
WATTEN HILL,14344,1333,287541
CASABLANCA,9590,891,737922
SENNETT RESIDENCE,14815,1376,348226
THE QUINTET,8904,827,689104
WATERBANK AT DAKOTA,18820,1748,399948
SENNETT RESIDENCE,15566,1446,348226
SENNETT RESIDENCE,15988,1485,348228
LAGUNA PARK,9587,891,449285
D'NEST,13427,1247,518136
EIGHT RIVERSUITES,13820,1284,338520
SENNETT RESIDENCE,15535,1443,348232
D'NEST,9912,921,518139
CITYLIFE@TAMPINES,8777,815,528615
D'NEST,10988,1021,518130
H2O RESIDENCES,10363,963,797533
WATERBANK AT DAKOTA,15718,1460,399948
HERON BAY,7095,659,534020
WATERBAY,7764,721,828711
CITYLIFE@TAMPINES,9056,841,528617
URBAN RESORT CONDOMINIUM,28213,2621,229657
THE TOPIARY,7543,701,797497
SENNETT RESIDENCE,15273,1419,348232
THE CRISTALLO,14867,1381,425687
D'NEST,9343,868,518133
CITYLIFE@TAMPINES,8711,809,528596
SENNETT RESIDENCE,16521,1535,348228
D'NEST,10736,997,518178
D'NEST,12017,1116,518132
D'NEST,10164,944,518178
SENNETT RESIDENCE,16922,1572,348228
SENNETT RESIDENCE,16011,1487,348228
EIGHT RIVERSUITES,15215,1414,338517
SENNETT RESIDENCE,16316,1516,348232
SENNETT RESIDENCE,16424,1526,348228
D'NEST,10656,990,518130
D'NEST,9600,892,518133
D'NEST,12160,1130,518130
D'NEST,8005,744,518136
D'NEST,11750,1092,518135
THE BAYSHORE,10231,950,469973
CITYLIFE@TAMPINES,8731,811,528617
HILLION RESIDENCES,15744,1463,677673
ISLAND VIEW,12538,1165,119519
H2O RESIDENCES,10390,965,797530
WATER PLACE,14790,1374,436607
HILLSTA,12053,1120,668201
SENNETT RESIDENCE,16926,1572,348232
RIVERSOUND RESIDENCE,9576,890,544743
D'NEST,11900,1106,518135
THE CASCADIA,18622,1730,589624
THE QUARTZ,11919,1107,544986
AVALON,18707,1738,259986
THE ATRIA AT MEYER,15040,1397,437885
PARK GREEN,8889,826,545042
KOVAN MELODY,11184,1039,545019
SAVANNAH CONDOPARK,10000,929,528783
SENNETT RESIDENCE,15727,1461,348228
MARTIN PLACE RESIDENCES,25133,2335,237988
LEVILLE ISUITES,13894,1291,429621
THE TOPIARY,7788,724,797497
D'NEST,9621,894,518136
D'NEST,10331,960,518139
SENNETT RESIDENCE,16621,1544,348228
SENNETT RESIDENCE,16702,1552,348230
D'NEST,9938,923,518134
LE WOOD,9434,876,589320
M21,15360,1427,308208
SENNETT RESIDENCE,15418,1432,348232
THE TOPIARY,7510,698,797498
THE TOPIARY,8176,760,797496
SENNETT RESIDENCE,16623,1544,348228
THE INTERLACE,13177,1224,109702
DOUBLE BAY RESIDENCES,13425,1247,529883
SHERWOOD CONDOMINIUM,11628,1080,598669
BUCKLEY CLASSIQUE,24761,2300,309767
MIRO,22358,2077,308365
D'NEST,11650,1082,518132
WATERCOLOURS,8148,757,518168
D'NEST,9889,919,518131
CITYLIFE@TAMPINES,9030,839,528597
HILLION RESIDENCES,17140,1592,677671
LEVILLE ISUITES,15996,1486,429621
D'LEEDON,14351,1333,266225
D'NEST,9648,896,518134
THE INTERLACE,9860,916,109699
PALM ISLES,10036,932,506893
VISTA RESIDENCES,15971,1484,329425
THE TRILINQ,15371,1428,128809
N.A.,15152,1408,597085
FLORIDIAN,18153,1686,589664
D'NEST,10136,942,518132
SENNETT RESIDENCE,17240,1602,348228
THE TOPIARY,7683,714,797500
SKYSUITES@ANSON,27938,2596,79718
THE TRILINQ,16043,1490,128809
THE TAMPINES TRILLIANT,8476,787,528772
RIVERSAILS,9480,881,534031
HEDGES PARK CONDOMINIUM,8579,797,506883
URBAN VISTA,15963,1483,465425
N.A.,13998,1300,757194
THE TRILINQ,15957,1482,128809
THE GALE,11825,1099,506917
D'NEST,10864,1009,518178
D'NEST,11281,1048,518139
SENNETT RESIDENCE,17830,1656,348226
Q BAY RESIDENCES,12456,1157,528590
THE MINTON,11319,1052,534082
D'NEST,9878,918,518134
SENNETT RESIDENCE,15217,1414,348232
RIVERSAILS,9384,872,534024
D'NEST,11151,1036,518179
SENNETT RESIDENCE,15371,1428,348226
SIMS RESIDENCES,9273,861,387882
THE ESTA,15717,1460,439968
THE TRILINQ,18360,1706,128809
PASIR RIS BEACH PARK,6815,633,518723
LIBERTE,28556,2653,258125
D'NEST,10307,958,518178
LA FIESTA,11951,1110,544701
SUNVILLE,11667,1084,327981
D'NEST,10922,1015,518135
AQUARIUS BY THE PARK,11285,1048,478931
THE TOPIARY,8097,752,797498
RIVERSOUND RESIDENCE,9943,924,544741
HILLION RESIDENCES,13682,1271,677673
THE ABODE AT DEVONSHIRE,20443,1899,239895
DOVER PARKVIEW,12644,1175,138685
OASIS @ MULBERRY,18951,1761,348446
Q BAY RESIDENCES,10849,1008,528585
CITYLIFE@TAMPINES,8965,833,528598
URBAN VISTA,16579,1540,465420
HILLION RESIDENCES,15795,1467,677672
1 CANBERRA,7754,720,768072
LA FIESTA,12983,1206,544703
D'NEST,9945,924,518131
D'LEEDON,15875,1475,267954
RIVERSAILS,8506,790,534033
URBAN RESORT CONDOMINIUM,29958,2783,229720
EDENZ LOFT,14192,1318,398623
RAJAH TOWERS,9328,867,329141
EIGHT RIVERSUITES,14203,1320,338519
THE TRILINQ,17900,1663,128809
TWIN WATERFALLS,7154,665,828768
D'NEST,10554,980,518179
HERON BAY,8392,780,534020
SENNETT RESIDENCE,14704,1366,348226
THE TOPIARY,7739,719,797497
PALM GARDENS,8750,813,689051
HILLION RESIDENCES,14788,1374,677671
D'NEST,10316,958,518134
D'NEST,10708,995,518130
CITYLIFE@TAMPINES,8747,813,528597
EASTVALE,9820,912,519491
SPOTTISWOODE RESIDENCES,25520,2371,88660
D'NEST,10254,953,518178
ZENITH,20580,1912,247785
D'NEST,10575,982,518132
RIVERSAILS,9889,919,534029
D'NEST,10180,946,518139
CITYLIFE@TAMPINES,8630,802,528597
KOVAN REGENCY,9638,895,544724
GROVE RESIDENCE,26499,2462,279120
SEASTRAND,11355,1055,518185
D'LEEDON,19191,1783,266224
JARDIN,19620,1823,589488
LA FIESTA,12468,1158,544700
ICON @ PASIR PANJANG,18833,1750,118579
LA FIESTA,12353,1148,544700
D'NEST,11617,1079,518138
CABANA,8617,801,805315
SENNETT RESIDENCE,15739,1462,348228
Q BAY RESIDENCES,12762,1186,528584
THE TRILINQ,16136,1499,128808
H2O RESIDENCES,10804,1004,797530
REFLECTIONS AT KEPPEL BAY,16639,1546,98416
SENNETT RESIDENCE,15750,1463,348226
HEDGES PARK CONDOMINIUM,8754,813,506881
D'NEST,9897,919,518130
HILLVIEW HEIGHTS,10847,1008,669562
HILLION RESIDENCES,15091,1402,677671
PALM ISLES,9234,858,506892
THE TIER,16667,1548,328373
URBAN VISTA,16227,1508,465417
H2O RESIDENCES,10333,960,797533
SENNETT RESIDENCE,14987,1392,348230
TERRENE AT BUKIT TIMAH,18367,1706,598677
LA FIESTA,12667,1177,544706
URBAN VISTA,15960,1483,465417
HILLION RESIDENCES,13667,1270,677672
D'NEST,10275,955,518131
CITYLIFE@TAMPINES,8609,800,528596
THE INTERLACE,9790,909,109699
RIVERSAILS,8866,824,534033
SENNETT RESIDENCE,17081,1587,348230
D'NEST,12433,1155,518179
RIO GARDENS,11682,1085,329001
THE LUXURIE,13236,1230,544752
D'NEST,12883,1197,518179
ONE TREE HILL RESIDENCE,22667,2106,248669
ESTELLA GARDENS,11557,1074,509741
CALARASI,11930,1108,328882
MEADOWS @ PEIRCE,14324,1331,787133
THE TOPIARY,8020,745,797495
LAGOON VIEW,8693,808,449291
THE TOPIARY,8032,746,797496
NORTHVALE,8949,831,689669
ALEXIS,13922,1293,159949
RIDGEWOOD,14063,1306,277107
CITYLIFE@TAMPINES,9350,869,528595
EASTPOINT GREEN,9908,920,529892
KOVAN MELODY,11983,1113,545023
LA CASA,8378,778,737901
THE BAYCOURT,11688,1086,466507
BULLION PARK,11565,1074,789096
KOVAN MELODY,11504,1069,548190
CITYSCAPE @FARRER PARK,15375,1428,219067
THE TOPIARY,7739,719,797496
SENNETT RESIDENCE,16740,1555,348228
D'NEST,12533,1164,518136
GRANDEUR 8,11034,1025,567746
RIVERSOUND RESIDENCE,9694,901,544742
THE TRILINQ,17786,1652,128809
SKIES MILTONIA,11147,1036,768060
SEMBAWANG HILLS ESTATE,9214,856,578251
D'NEST,10208,948,518131
D'NEST,11200,1041,518178
THE TOPIARY,7437,691,797498
H2O RESIDENCES,9772,908,797534
WATERBAY,7176,667,828710
THE SHORE RESIDENCES,16455,1529,439893
CITYLIFE@TAMPINES,7920,736,528596
THE QUINTET,9583,890,689102
TERRENE AT BUKIT TIMAH,14242,1323,598676
THE CITRINE,12358,1148,329415
THE SEAWIND,16727,1554,425414
1 CANBERRA,8069,750,768073
THE TRILINQ,17886,1662,128809
SENNETT RESIDENCE,16378,1522,348230
H2O RESIDENCES,10598,985,797531
SENNETT RESIDENCE,16697,1551,348228
D'LEEDON,17500,1626,266224
THE TRILINQ,15369,1428,128809
LA FIESTA,12794,1189,544704
BEDOK RESIDENCES,14586,1355,465497
OPTIMA @ TANAH MERAH,9770,908,465517
D'LEEDON,13777,1280,267952
PARC IMPERIAL,19744,1834,117423
ALEXIS,13333,1239,159949
RIVERSAILS,10131,941,534029
D'NEST,9814,912,518138
SEASUITES,16333,1517,118617
D'NEST,10404,967,518137
HEDGES PARK CONDOMINIUM,9100,845,506881
WATERBAY,8038,747,828713
HEDGES PARK CONDOMINIUM,8918,828,506890
EIGHT RIVERSUITES,12514,1163,338519
URBAN VISTA,15769,1465,465424
ICON,20889,1941,78878
THE TRILINQ,15757,1464,128809
HILLION RESIDENCES,13909,1292,677673
16 @ AMBER,18029,1675,439866
D'NEST,9845,915,518133
