Project Name,Unit Price ($ psm),Unit Price ($ psf),Postal Code
FORESTVILLE,8315,773,737768
WATERBANK AT DAKOTA,16822,1563,399942
VUE 8 RESIDENCE,10703,994,519287
J GATEWAY,17146,1593,608535
SKIES MILTONIA,10850,1008,768058
ECO SANCTUARY,12616,1172,679522
THE RIVERVALE,9016,838,545119
SUMMERLEA GREEN,13365,1242,596262
VUE 8 RESIDENCE,10295,956,519290
VUE 8 RESIDENCE,9903,920,519284
N.A.,12672,1177,417071
WILKIE STUDIO,13895,1291,228096
THE BLOSSOMVALE,14041,1304,589473
RIVERSIDE MELODIES,13740,1276,327995
Q BAY RESIDENCES,11603,1078,528590
URBAN RESORT CONDOMINIUM,30176,2803,229657
STRATUM,9608,893,519952
LA FIESTA,11548,1073,544832
WINDERMERE,7309,679,689099
A TREASURE TROVE,9854,915,828786
ORCHID PARK CONDOMINIUM,7407,688,768452
KATONG PARK TOWERS,10758,999,439826
JEWEL @ BUANGKOK,12906,1199,544687
VUE 8 RESIDENCE,9850,915,519288
8 NAPIER,37133,3450,258502
CITYLIFE@TAMPINES,8868,824,528598
KAP RESIDENCES,20978,1949,598292
CITYLIFE@TAMPINES,9619,894,528598
WATERCOLOURS,8033,746,518169
8 RAJA,15925,1479,329217
TWIN FOUNTAINS,7588,705,738997
PALM GARDENS,8584,797,689048
1 CANBERRA,7870,731,768074
J GATEWAY,18236,1694,608535
RIVERSAILS,10540,979,534025
BARTLEY RIDGE,15136,1406,368057
TWIN FOUNTAINS,8158,758,738997
KING'S MANSION,14094,1309,437147
WATERCOLOURS,7795,724,518151
TANAMERA CREST,12100,1124,486062
VUE 8 RESIDENCE,12564,1167,519283
CENTRAL GROVE,11364,1056,389778
1 CANBERRA,8067,749,768078
CITYLIFE@TAMPINES,8575,797,528593
ORANGE GROVE RESIDENCES,19178,1782,258361
WATERCOLOURS,7718,717,518154
8 RAJA,14384,1336,329217
N.A.,16346,1519,548341
ROBERTSON 100,20976,1949,238250
CITYLIFE@TAMPINES,8900,827,528593
JEWEL @ BUANGKOK,12007,1115,544687
MABELLE,14310,1329,425303
MAYFAIR GARDENS,9300,864,588378
SHEBA LODGE,9746,905,429777
RIVERSAILS,10490,975,534025
WATERCOLOURS,8083,751,518169
URBAN VISTA,15837,1471,465426
THE TOPIARY,8841,821,797495
TREVISTA,15638,1453,319581
URBAN RESIDENCES,13449,1249,534051
MUN WAH GARDEN,11628,1080,787182
NEWEST,11183,1039,128021
VUE 8 RESIDENCE,11832,1099,519287
CAMELLIA LODGE,9889,919,388030
KINGSFORD . HILLVIEW PEAK,15879,1475,667982
VUE 8 RESIDENCE,10749,999,519285
N.A.,14788,1374,545785
THE TANAMERA,10081,937,466663
HILLVIEW APARTMENTS,9504,883,669570
1 CANBERRA,6103,567,768071
SENNETT ESTATE,13214,1228,349914
SENNETT RESIDENCE,17585,1634,348226
J GATEWAY,18595,1728,608533
D'NEST,10545,980,518133
VILLA MARINA,7754,720,457404
RAFFLESIA CONDOMINIUM,12683,1178,579800
TWIN FOUNTAINS,8076,750,738995
OASIS GARDEN,13596,1263,538420
N.A.,26644,2475,218311
TWIN HEIGHTS,12500,1161,329779
J GATEWAY,17874,1661,608533
N.A.,14575,1354,538485
FORESTVILLE,8433,783,737774
J GATEWAY,15804,1468,608533
Q BAY RESIDENCES,10709,995,528587
PARKVIEW APARTMENTS,8654,804,658880
JEWEL @ BUANGKOK,14368,1335,544687
PAVILION SQUARE,16162,1502,389366
THE SERENNO,15567,1446,438750
J GATEWAY,15637,1453,608533
THE TOPIARY,8448,785,797496
TRILIGHT,21171,1967,307945
CITYLIFE@TAMPINES,8737,812,528594
CITYLIFE@TAMPINES,9055,841,528595
TWIN FOUNTAINS,7806,725,738999
J GATEWAY,17000,1579,608535
J GATEWAY,18943,1760,608535
TWIN FOUNTAINS,7894,733,738900
BARTLEY RIDGE,13306,1236,368061
SENNETT ESTATE,12826,1192,348175
J GATEWAY,14683,1364,608533
CITYLIFE@TAMPINES,9282,862,528615
D'NEST,10444,970,518131
MIDTOWN RESIDENCES,13390,1244,534785
THE CLIFT,24286,2256,69047
TWIN FOUNTAINS,8567,796,738996
AQUARIUS BY THE PARK,11482,1067,478931
WATERCOLOURS,7961,740,518151
N.A.,17975,1670,459159
BARTLEY RIDGE,13090,1216,368059
CITYLIFE@TAMPINES,8739,812,528615
CASSIA EDGE,15869,1474,399764
NOVENA REGENCY,24503,2276,307689
THE RAINTREE,12149,1129,587843
J GATEWAY,18323,1702,608533
RIVER PLACE,15813,1469,169658
TWIN FOUNTAINS,8206,762,738900
VUE 8 RESIDENCE,10486,974,519283
SENNETT RESIDENCE,16841,1565,348228
RIVERSAILS,9950,924,534026
TWIN FOUNTAINS,8238,765,738995
D'NEST,10473,973,518134
NV RESIDENCES,12754,1185,518192
THE LINCOLN RESIDENCES,18608,1729,307762
FORESTVILLE,7766,721,737879
THE INTERLACE,14234,1322,109707
TEXTILE CENTRE,10366,963,199018
ODEON SEASIDE PARK,22265,2068,428708
J GATEWAY,15632,1452,608535
THE INFINITI,11466,1065,127719
THE CASCADIA,18478,1717,589640
BARTLEY RIDGE,13600,1263,368060
J GATEWAY,16326,1517,608535
LAUREL TREE,13372,1242,669267
EIGHT RIVERSUITES,13736,1276,338517
J GATEWAY,18216,1692,608533
TWIN FOUNTAINS,7826,727,738995
VUE 8 RESIDENCE,12935,1202,519287
WESTVILLE,10458,972,648386
THE FLORAVALE,6992,650,648353
SIMEI GREEN CONDOMINIUM,9550,887,529865
SKYLINE 360 @ ST THOMAS WALK,22602,2100,238142
FORESQUE RESIDENCES,13703,1273,678275
THE ESTA,15405,1431,439966
J GATEWAY,15083,1401,608535
J GATEWAY,14639,1360,608533
J GATEWAY,14542,1351,608533
J GATEWAY,15704,1459,608533
J GATEWAY,16731,1554,608535
TWIN FOUNTAINS,8134,756,738999
J GATEWAY,15850,1473,608535
THE SCALA,15060,1399,554478
VOLARI,26187,2433,259820
J GATEWAY,16798,1561,608535
J GATEWAY,16622,1544,608535
SKYLINE RESIDENCES,23889,2219,109026
REGENTVILLE,8692,807,538685
THE FLORAVALE,7500,697,648356
PARC ELEGANCE,16974,1577,423762
CITYLIFE@TAMPINES,8650,804,528616
J GATEWAY,14178,1317,608533
SELETAR HILLS ESTATE,9852,915,808869
N.A.,14197,1319,596566
RIVERSAILS,10320,959,534025
J GATEWAY,15461,1436,608533
STRATUM,8547,794,519951
J GATEWAY,16472,1530,608535
THE OCTET,14385,1336,398628
SELETAR HILLS ESTATE,15423,1433,808373
J GATEWAY,14056,1306,608533
RIVERSIDE MELODIES,13793,1281,327995
CARIBBEAN AT KEPPEL BAY,17069,1586,98655
D'GALLERY,15204,1412,418936
PARK NATURA,12963,1204,659765
FORESTVILLE,8345,775,737763
DORMER PARK,16452,1528,249046
Q BAY RESIDENCES,11528,1071,528590
KINGSFORD . HILLVIEW PEAK,15065,1400,667981
J GATEWAY,15853,1473,608533
PRESTIGE HEIGHTS,21613,2008,329778
SEASONS PARK,9107,846,787078
MIDTOWN RESIDENCES,15890,1476,534785
TWIN FOUNTAINS,7782,723,738996
HILLSTA,13935,1295,668202
HILLSTA,13802,1282,668202
J GATEWAY,18202,1691,608533
J GATEWAY,16427,1526,608533
TWIN FOUNTAINS,8054,748,738995
J GATEWAY,15231,1415,608533
J GATEWAY,14330,1331,608533
J GATEWAY,14829,1378,608533
TWIN FOUNTAINS,8312,772,738997
J GATEWAY,15294,1421,608533
J GATEWAY,16443,1528,608535
J GATEWAY,14939,1388,608533
CORALS AT KEPPEL BAY,26907,2500,98022
ECO SANCTUARY,13310,1237,679522
VILLA MARINA,11379,1057,457398
1 CANBERRA,7584,705,768071
LA FIESTA,13013,1209,544706
ADRIA,23125,2148,309466
1 CANBERRA,6758,628,768077
N.A.,13692,1272,437254
SEMBAWANG SPRINGS ESTATE,5950,553,769657
SELETAR HILLS ESTATE,11454,1064,808070
SUNVILLE,11239,1044,327981
ECHELON,17332,1610,158742
SENNETT RESIDENCE,12143,1128,348228
CHUAN PARK,10211,949,556748
RIVERSAILS,10570,982,534025
ECHELON,16866,1567,158741
TWIN FOUNTAINS,7588,705,738998
J GATEWAY,17596,1635,608535
MIDTOWN RESIDENCES,13935,1295,534785
J GATEWAY,16391,1523,608533
VUE 8 RESIDENCE,11400,1059,519285
COSTA RHU,13891,1291,437433
BARTLEY RIDGE,15360,1427,368057
1 CANBERRA,7527,699,768076
FORESTVILLE,7068,657,737880
D'NEST,10362,963,518139
TWIN FOUNTAINS,8344,775,738900
A TREASURE TROVE,9854,915,828788
J GATEWAY,17135,1592,608535
THE ESTUARY,10385,965,769134
J GATEWAY,14420,1340,608533
VUE 8 RESIDENCE,9959,925,519284
WATERBANK AT DAKOTA,17667,1641,399941
THE OCTET,14385,1336,398628
CITYLIFE@TAMPINES,8948,831,528616
PALMS @ SIXTH AVENUE,13133,1220,275770
J GATEWAY,16631,1545,608535
ONE-NORTH RESIDENCES,18364,1706,138642
1 CANBERRA,8124,755,768077
1 CANBERRA,7864,731,768069
J GATEWAY,15143,1407,608533
SUITES @ NEWTON,23750,2206,307740
J GATEWAY,13986,1299,608533
WATERCOLOURS,8135,756,518151
SELETAR HILLS ESTATE,11340,1054,809116
J GATEWAY,15766,1465,608533
MERIDIAN 38,15415,1432,425317
PALM MANSIONS,11573,1075,118684
BELMONDO VIEW,11765,1093,328369
RIVERSAILS,10431,969,534030
TWIN FOUNTAINS,8048,748,738995
DAKOTA RESIDENCES,13005,1208,399939
BARTLEY RIDGE,12535,1165,368061
SANCTUARY GREEN,13016,1209,436922
J GATEWAY,15434,1434,608533
THE RIVERVALE,8197,761,545118
J GATEWAY,16179,1503,608535
J GATEWAY,13933,1294,608533
TIARA,19040,1769,239403
PALM ISLES,9198,855,506892
J GATEWAY,16250,1510,608533
J GATEWAY,15001,1394,608533
J GATEWAY,14127,1312,608533
KINGSFORD . HILLVIEW PEAK,14630,1359,667981
J GATEWAY,16957,1575,608535
NEWEST,15767,1465,128021
THE TOPIARY,7646,710,797501
J GATEWAY,15598,1449,608533
J GATEWAY,16734,1555,608533
1 CANBERRA,8000,743,768070
J GATEWAY,14939,1388,608533
N.A.,17605,1636,118677
LIVIA,11235,1044,518209
J GATEWAY,16576,1540,608535
J GATEWAY,16489,1532,608535
CORALS AT KEPPEL BAY,20954,1947,98012
J GATEWAY,17240,1602,608535
J GATEWAY,14276,1326,608533
THE INTERLACE,10312,958,109701
VILLA MARTIA,13857,1287,424808
J GATEWAY,17704,1645,608533
J GATEWAY,18939,1759,608533
CARISSA PARK CONDOMINIUM,10174,945,507025
J GATEWAY,16002,1487,608533
NV RESIDENCES,12254,1138,518211
ROSEWOOD SUITES,10085,937,737875
J GATEWAY,17993,1672,608535
THE QUARTZ,11351,1055,544984
KAP RESIDENCES,15055,1399,598292
D'OASIA,14000,1301,416908
SEASTRAND,11420,1061,518183
J GATEWAY,13747,1277,608533
KERRISDALE,10890,1012,207855
J GATEWAY,16190,1504,608535
8 @ MOUNT SOPHIA,16643,1546,228462
J GATEWAY,14091,1309,608533
J GATEWAY,16248,1509,608535
THREE 11,15990,1486,574409
J GATEWAY,15108,1404,608533
PINEVALE,8208,763,528827
J GATEWAY,17240,1602,608535
J GATEWAY,16470,1530,608535
PINE GROVE,8896,826,592001
J GATEWAY,15169,1409,608533
J GATEWAY,13786,1281,608533
J GATEWAY,17320,1609,608533
TWIN FOUNTAINS,7350,683,738992
BARTLEY RIDGE,13814,1283,368062
CARIBBEAN AT KEPPEL BAY,18349,1705,98657
J GATEWAY,17272,1605,608533
J GATEWAY,16470,1530,608535
COSTA DEL SOL,12609,1171,469992
PAVILION SQUARE,15541,1444,389366
VUE 8 RESIDENCE,9959,925,519285
J GATEWAY,15486,1439,608535
TWIN FOUNTAINS,7618,708,738900
KINGSFORD . HILLVIEW PEAK,14455,1343,667981
ARTHUR 118,16304,1515,439827
NEWEST,10966,1019,128021
THREE 11,17316,1609,574409
WATERBAY,5994,557,828710
CASSIA EDGE,14491,1346,399764
KATONG VILLE,11045,1026,437155
J GATEWAY,15652,1454,608533
J GATEWAY,16217,1507,608535
CORALS AT KEPPEL BAY,31175,2896,98014
J GATEWAY,17594,1634,608533
J GATEWAY,15775,1466,608533
TWIN FOUNTAINS,7773,722,738900
STRATA,14342,1332,309329
D'LEEDON,16286,1513,267952
THOMSON GARDEN ESTATE,24356,2263,577341
J GATEWAY,18238,1694,608535
J GATEWAY,16681,1550,608535
J GATEWAY,17596,1635,608535
JEWEL @ BUANGKOK,12901,1199,544688
SKY HABITAT,16249,1510,573909
ICON,20755,1928,78878
J GATEWAY,16783,1559,608535
LIVIA,9790,910,518217
J GATEWAY,15662,1455,608535
J GATEWAY,15372,1428,608533
J GATEWAY,16248,1509,608535
J GATEWAY,15035,1397,608533
TREE HOUSE,12067,1121,679517
J GATEWAY,17993,1672,608535
THE QUARTZ,11500,1068,544984
1 CANBERRA,7938,737,768071
J GATEWAY,18107,1682,608533
J GATEWAY,16192,1504,608535
J GATEWAY,14259,1325,608533
FIRST POINT SUITES,13552,1259,426068
VIVACE,25541,2373,238011
MELVILLE PARK,8438,784,529943
J GATEWAY,17420,1618,608533
SENNETT RESIDENCE,14937,1388,348226
GUILIN VIEW,9582,890,659244
J GATEWAY,18104,1682,608535
N.A.,11466,1065,549742
CRYSTAL LODGE,8962,833,398870
AMBER RESIDENCES,15444,1435,439888
SANT RITZ,15286,1420,348196
CHARLTON 27,7764,721,533961
LA FIESTA,12856,1194,544699
SANT RITZ,15165,1409,348196
J GATEWAY,15827,1470,608535
VUE 8 RESIDENCE,10496,975,519285
J GATEWAY,16559,1538,608535
D'LEEDON,17808,1654,267955
INTERO,14362,1334,358841
N.A.,24814,2305,258484
8 NAPIER,32379,3008,258502
PARC IMPERIAL,18462,1715,117423
J GATEWAY,16597,1542,608533
J GATEWAY,14444,1342,608533
J GATEWAY,15523,1442,608533
SANT RITZ,17322,1609,348196
J GATEWAY,15452,1436,608533
THE URBANITE,17368,1614,219384
J GATEWAY,16613,1543,608533
THE BAYSHORE,10474,973,469972
THE METROPOLITAN CONDOMINIUM,17172,1595,158746
THE INFINITI,11737,1090,127713
J GATEWAY,15716,1460,608533
J GATEWAY,13660,1269,608533
THE COAST AT SENTOSA COVE,15625,1452,98449
ICON,21852,2030,78878
J GATEWAY,16179,1503,608535
1 CANBERRA,6691,622,768073
J GATEWAY,16318,1516,608533
J GATEWAY,15617,1451,608533
J GATEWAY,14878,1382,608533
EIGHT RIVERSUITES,14559,1353,338519
ECHELON,16616,1544,158742
J GATEWAY,14571,1354,608533
J GATEWAY,14646,1361,608533
J GATEWAY,15985,1485,608535
THE TOPIARY,8170,759,797502
J GATEWAY,16067,1493,608535
J GATEWAY,13986,1299,608533
TWIN FOUNTAINS,8231,765,738992
J GATEWAY,14241,1323,608533
J GATEWAY,17770,1651,608533
J GATEWAY,16813,1562,608535
J GATEWAY,15940,1481,608535
J GATEWAY,13923,1294,608533
REGENT HEIGHTS,9368,870,659804
OCEAN FRONT SUITES,16263,1511,509428
J GATEWAY,16053,1491,608535
J GATEWAY,17240,1602,608535
ILLOURA,11990,1114,278684
KAP RESIDENCES,20460,1901,598292
J GATEWAY,17930,1666,608535
J GATEWAY,18939,1759,608533
TWIN FOUNTAINS,7721,717,738993
SANCTUARY GREEN,12385,1151,436922
J GATEWAY,14023,1303,608533
J GATEWAY,16900,1570,608533
THE RED HOUSE,17636,1638,428776
J GATEWAY,15806,1468,608533
THE TOPIARY,8280,769,797498
THE VIRIDIAN,17020,1581,329507
J GATEWAY,17491,1625,608535
J GATEWAY,17160,1594,608535
J GATEWAY,15990,1486,608535
J GATEWAY,14005,1301,608533
MARTIN NO 38,31782,2953,239059
THE RED HOUSE,17683,1643,428776
BEDOK RESIDENCES,14057,1306,465497
J GATEWAY,15852,1473,608535
TWIN FOUNTAINS,7848,729,738999
WATERCOLOURS,8326,774,518152
STRATUM,13390,1244,519958
CORALS AT KEPPEL BAY,19213,1785,98020
CITYLIFE@TAMPINES,7472,694,528616
J GATEWAY,16319,1516,608535
J GATEWAY,14056,1306,608533
J GATEWAY,17764,1650,608533
J GATEWAY,15792,1467,608533
J GATEWAY,16884,1569,608533
J GATEWAY,15074,1400,608533
J GATEWAY,17127,1591,608535
J GATEWAY,14465,1344,608533
J GATEWAY,15775,1466,608533
J GATEWAY,15751,1463,608533
J GATEWAY,16883,1568,608533
J GATEWAY,17491,1625,608535
WATERBAY,8253,767,828715
CHENG SOON GARDEN,14469,1344,599845
THE LINCOLN RESIDENCES,18609,1729,307762
WHITEHAVEN,16489,1532,117382
TWIN FOUNTAINS,7739,719,738996
TWIN FOUNTAINS,7976,741,738996
LAUREL TREE,14535,1350,669267
WATERCOLOURS,8367,777,518152
J GATEWAY,13959,1297,608533
J GATEWAY,17994,1672,608533
J GATEWAY,15417,1432,608533
THREE THREE ROBIN,22013,2045,258208
THE TRILLIUM,22611,2101,239434
J GATEWAY,16118,1497,608533
J GATEWAY,15613,1450,608535
J GATEWAY,14520,1349,608533
J GATEWAY,15234,1415,608533
J GATEWAY,13660,1269,608533
J GATEWAY,15845,1472,608535
CITYLIFE@TAMPINES,8175,759,528594
CASSIA EDGE,13412,1246,399764
J GATEWAY,14383,1336,608533
J GATEWAY,16419,1525,608535
J GATEWAY,16250,1510,608533
COSTA RHU,13464,1251,437433
J GATEWAY,15370,1428,608533
TWIN FOUNTAINS,7838,728,738998
J GATEWAY,18217,1692,608533
J GATEWAY,16087,1495,608533
J GATEWAY,15848,1472,608533
THE OCEANFRONT @ SENTOSA COVE,17107,1589,98535
CHARLTON 27,6872,638,535613
J GATEWAY,14409,1339,608533
J GATEWAY,15334,1425,608533
J GATEWAY,16661,1548,608533
LAUREL TREE,13442,1249,669267
EIGHT RIVERSUITES,10664,991,338539
TANGLIN VIEW,13362,1241,159012
J GATEWAY,15638,1453,608533
AQUARIUS BY THE PARK,7692,715,478928
J GATEWAY,15054,1399,608533
VUE 8 RESIDENCE,10149,943,519285
J GATEWAY,17983,1671,608533
J GATEWAY,17993,1672,608535
ROSEWOOD,9362,870,737936
J GATEWAY,15046,1398,608533
J GATEWAY,15335,1425,608535
J GATEWAY,16722,1554,608535
SPRINGDALE CONDOMINIUM,12710,1181,587975
J GATEWAY,18871,1753,608533
CITYLIFE@TAMPINES,6366,591,528595
J GATEWAY,16109,1497,608533
1 CANBERRA,7795,724,768101
J GATEWAY,15700,1459,608535
THE SHORE RESIDENCES,15741,1462,439897
J GATEWAY,17873,1660,608533
J GATEWAY,15242,1416,608533
SPRINGDALE CONDOMINIUM,12381,1150,587975
J GATEWAY,18107,1682,608533
J GATEWAY,14217,1321,608533
HILLSTA,13360,1241,668202
FERRARIA PARK CONDOMINIUM,7925,736,506946
J GATEWAY,17874,1661,608533
J GATEWAY,16534,1536,608533
J GATEWAY,17764,1650,608533
J GATEWAY,15411,1432,608533
J GATEWAY,15193,1411,608533
J GATEWAY,16075,1493,608535
J GATEWAY,15150,1407,608533
J GATEWAY,17874,1661,608533
THE BEVERLY,8466,787,596722
ONE AMBER,19245,1788,439958
THE INTERLACE,16400,1524,109698
J GATEWAY,17320,1609,608535
J GATEWAY,15662,1455,608533
THE TOPIARY,8306,772,797496
MARINA BAY SUITES,29686,2758,18965
J GATEWAY,15940,1481,608535
J GATEWAY,14178,1317,608533
J GATEWAY,16057,1492,608533
J GATEWAY,16684,1550,608535
THE WHARF RESIDENCE,17137,1592,238002
LA FIESTA,12602,1171,544830
J GATEWAY,17424,1619,608533
EIGHT RIVERSUITES,17046,1584,338519
SANCTUARY GREEN,14405,1338,436925
J GATEWAY,15574,1447,608533
EIGHT RIVERSUITES,13659,1269,338519
J GATEWAY,15970,1484,608533
J GATEWAY,18720,1739,608533
J GATEWAY,18546,1723,608533
THE CAPE,23501,2183,439872
SIGNATURE PARK,10417,968,596738
J GATEWAY,15685,1457,608533
J GATEWAY,14887,1383,608533
J GATEWAY,17526,1628,608533
J GATEWAY,15940,1481,608535
NOVENA REGENCY,25117,2333,307690
J GATEWAY,14283,1327,608533
BEAUTY GARDEN,9719,903,546661
THE LEVELZ,12885,1197,268836
OASIS @ ELIAS,10357,962,519938
J GATEWAY,16951,1575,608535
J GATEWAY,14829,1378,608533
ORANGE GROVE RESIDENCES,20323,1888,258360
J GATEWAY,14370,1335,608533
BARTLEY RIDGE,13085,1216,368061
LAUREL TREE,13605,1264,669267
SUITES @ PAYA LEBAR,17162,1594,534996
URBAN VISTA,18222,1693,465423
J GATEWAY,15675,1456,608535
J GATEWAY,16105,1496,608535
STRATUM,10241,951,519949
J GATEWAY,14958,1390,608533
J GATEWAY,15531,1443,608533
J GATEWAY,14994,1393,608535
J GATEWAY,18323,1702,608533
J GATEWAY,17608,1636,608535
NORTHOAKS,7914,735,738087
OPAL SUITES,14095,1309,328396
J GATEWAY,13338,1239,608535
J GATEWAY,13338,1239,608535
SELETAR HILLS ESTATE,14561,1353,799399
J GATEWAY,17294,1607,608535
J GATEWAY,17835,1657,608533
J GATEWAY,17752,1649,608533
LA CASA,8636,802,737896
JADE RESIDENCES,16802,1561,537016
J GATEWAY,14457,1343,608533
J GATEWAY,15212,1413,608533
J GATEWAY,13338,1239,608535
J GATEWAY,15643,1453,608533
J GATEWAY,15562,1446,608535
SKIES MILTONIA,14378,1336,768061
J GATEWAY,14334,1332,608533
THE VISION,12273,1140,126794
J GATEWAY,15749,1463,608533
CORALS AT KEPPEL BAY,23245,2160,98016
J GATEWAY,16431,1527,608535
J GATEWAY,15659,1455,608535
J GATEWAY,16118,1497,608533
J GATEWAY,17278,1605,608533
J GATEWAY,17636,1638,608533
CITYLIFE@TAMPINES,5514,512,528595
J GATEWAY,16975,1577,608535
ECHELON,16020,1488,158742
J GATEWAY,17854,1659,608533
EIGHT RIVERSUITES,12910,1199,338519
THE INTERLACE,9878,918,109696
J GATEWAY,15545,1444,608535
THE TREVOSE,14915,1386,298089
J GATEWAY,17240,1602,608535
J GATEWAY,13969,1298,608533
LAUREL TREE,14372,1335,669267
J GATEWAY,16571,1540,608535
J GATEWAY,18086,1680,608535
J GATEWAY,18720,1739,608533
J GATEWAY,16319,1516,608533
J GATEWAY,15212,1413,608533
J GATEWAY,15868,1474,608533
J GATEWAY,16344,1518,608535
J GATEWAY,16223,1507,608533
J GATEWAY,15706,1459,608535
NV RESIDENCES,11845,1100,518191
BARTLEY RIDGE,13369,1242,368060
J GATEWAY,13987,1299,608533
BRADDELL VIEW,10633,988,579725
J GATEWAY,16017,1488,608535
J GATEWAY,15834,1471,608533
J GATEWAY,15067,1400,608533
J GATEWAY,16021,1488,608533
J GATEWAY,14217,1321,608533
J GATEWAY,14887,1383,608533
J GATEWAY,16398,1523,608533
J GATEWAY,18595,1728,608533
BUTTERWORTH VIEW,12920,1200,439431
TWIN PEAKS,27906,2593,239197
J GATEWAY,16437,1527,608533
THREE 11,16648,1547,574409
J GATEWAY,16079,1494,608535
J GATEWAY,17240,1602,608535
LEEDON RESIDENCE,18538,1722,267935
J GATEWAY,16607,1543,608533
J GATEWAY,16045,1491,608533
J GATEWAY,19100,1774,608533
J GATEWAY,14882,1383,608533
J GATEWAY,16248,1509,608533
J GATEWAY,16748,1556,608535
J GATEWAY,17606,1636,608535
BARTLEY RIDGE,13479,1252,368059
J GATEWAY,15277,1419,608533
J GATEWAY,15344,1425,608533
J GATEWAY,15914,1478,608535
J GATEWAY,15077,1401,608533
J GATEWAY,16357,1520,608533
J GATEWAY,15269,1419,608533
J GATEWAY,13814,1283,608533
THREE 11,19491,1811,574409
HILLION RESIDENCES,15628,1452,677673
THE GRANDHILL,14291,1328,118860
J GATEWAY,18595,1728,608533
TWIN FOUNTAINS,8491,789,738997
J GATEWAY,18115,1683,608535
SHAN COURT,20225,1879,328105
J GATEWAY,14551,1352,608533
J GATEWAY,17135,1592,608535
J GATEWAY,17628,1638,608535
SANT RITZ,14215,1321,348196
J GATEWAY,16805,1561,608533
J GATEWAY,14945,1388,608533
THREE 11,18362,1706,574409
J GATEWAY,14590,1355,608533
J GATEWAY,14480,1345,608533
CASSIA VIEW,11628,1080,399746
J GATEWAY,15185,1411,608533
J GATEWAY,15083,1401,608533
J GATEWAY,14692,1365,608533
HILLVIEW GREEN,11385,1058,598747
J GATEWAY,16344,1518,608535
J GATEWAY,16946,1574,608535
BARTLEY RIDGE,12603,1171,368055
SENNETT RESIDENCE,17074,1586,348232
J GATEWAY,14647,1361,608533
J GATEWAY,14542,1351,608533
J GATEWAY,14902,1384,608533
J GATEWAY,17735,1648,608535
BARTLEY RIDGE,13345,1240,368055
J GATEWAY,18216,1692,608533
MIDTOWN RESIDENCES,14833,1378,534785
J GATEWAY,17908,1664,608533
CHESTERVALE,7386,686,679978
#1 SUITES,13589,1262,398721
J GATEWAY,17530,1629,608533
HAZEL PARK TERRACE,12381,1150,678881
J GATEWAY,13987,1299,608533
J GATEWAY,15486,1439,608533
ECO,15010,1394,465491
TWIN FOUNTAINS,7932,737,738997
J GATEWAY,15234,1415,608533
J GATEWAY,15328,1424,608533
J GATEWAY,13631,1266,608533
J GATEWAY,13607,1264,608533
J GATEWAY,15545,1444,608535
J GATEWAY,17153,1594,608535
J GATEWAY,18531,1722,608535
BARTLEY RIDGE,13100,1217,368062
PALM ISLES,9198,855,506892
J GATEWAY,16734,1555,608533
J GATEWAY,17564,1632,608533
J GATEWAY,17110,1590,608535
LE REGAL,14000,1301,389365
1 CANBERRA,8095,752,768072
J GATEWAY,18595,1728,608533
THREE 11,16648,1547,574409
CITYLIFE@TAMPINES,8063,749,528596
J GATEWAY,15032,1396,608535
J GATEWAY,16190,1504,608535
J GATEWAY,17256,1603,608533
J GATEWAY,15295,1421,608533
J GATEWAY,14241,1323,608533
J GATEWAY,15589,1448,608533
J GATEWAY,16121,1498,608535
J GATEWAY,14916,1386,608533
J GATEWAY,16178,1503,608535
J GATEWAY,14447,1342,608533
THREE 11,17225,1600,574409
J GATEWAY,16318,1516,608533
J GATEWAY,16629,1545,608535
AMARYLLIS VILLE,17582,1633,307953
THREE 11,17662,1641,574409
J GATEWAY,15799,1468,608535
J GATEWAY,17096,1588,608533
J GATEWAY,16283,1513,608535
THE BOUTIQ,22561,2096,239565
WATERSCAPE AT CAVENAGH,23727,2204,229631
J GATEWAY,14507,1348,608533
J GATEWAY,15927,1480,608533
J GATEWAY,17297,1607,608535
J GATEWAY,15499,1440,608535
J GATEWAY,15952,1482,608533
CITYLIFE@TAMPINES,9398,873,528595
KERRISDALE,11966,1112,207852
THREE 11,19614,1822,574409
J GATEWAY,15824,1470,608533
J GATEWAY,18127,1684,608533
J GATEWAY,16105,1496,608535
J GATEWAY,15033,1397,608533
J GATEWAY,18323,1702,608533
J GATEWAY,16900,1570,608533
J GATEWAY,17198,1598,608533
D'NEST,10188,946,518133
J GATEWAY,15888,1476,608533
J GATEWAY,17420,1618,608533
LE REGAL,14302,1329,389365
J GATEWAY,18443,1713,608533
J GATEWAY,14063,1306,608533
J GATEWAY,16507,1533,608533
J GATEWAY,15587,1448,608535
J GATEWAY,15834,1471,608533
J GATEWAY,17420,1618,608533
SIGNATURE PARK,11008,1023,596741
EUHABITAT,15363,1427,415872
J GATEWAY,14068,1307,608533
TWIN FOUNTAINS,7936,737,738999
J GATEWAY,16973,1577,608535
D'NEST,10930,1015,518134
SOMMERVILLE PARK,18508,1719,259280
J GATEWAY,14647,1361,608533
LIV ON SOPHIA,26700,2480,229977
D'LEEDON,18956,1761,266224
FONTAINE PARRY,11168,1037,546785
J GATEWAY,15491,1439,608533
J GATEWAY,17420,1618,608533
EDENZ SUITES,10260,953,398425
J GATEWAY,16951,1575,608535
NEWEST,17667,1641,128021
WHITEHAVEN,14568,1353,117382
J GATEWAY,14931,1387,608533
J GATEWAY,16732,1554,608535
J GATEWAY,15613,1450,608535
VALLEY PARK,16472,1530,248360
THE INTERLACE,9523,885,109690
TWIN FOUNTAINS,7957,739,738999
THREE 11,15795,1467,574409
J GATEWAY,15586,1448,608533
J GATEWAY,16877,1568,608533
J GATEWAY,14878,1382,608533
J GATEWAY,15380,1429,608533
J GATEWAY,16957,1575,608535
NORMANTON PARK,9746,905,119002
THREE 11,16561,1539,574409
J GATEWAY,15505,1440,608533
RIVERVALE CREST,9540,886,545086
J GATEWAY,14021,1303,608533
J GATEWAY,17108,1589,608533
KENG LEE VIEW,11637,1081,219268
J GATEWAY,15017,1395,608533
J GATEWAY,16607,1543,608533
J GATEWAY,15504,1440,608533
THREE 11,17606,1636,574409
J GATEWAY,16486,1532,608533
J GATEWAY,16318,1516,608533
THREE 11,17690,1643,574409
CASSIA EDGE,14746,1370,399764
J GATEWAY,16344,1518,608535
CITYLIFE@TAMPINES,8278,769,528598
HAZEL PARK CONDOMINIUM,10726,996,678946
J GATEWAY,15146,1407,608533
CITYLIFE@TAMPINES,8571,796,528593
KAP RESIDENCES,19436,1806,598292
J GATEWAY,15857,1473,608533
J GATEWAY,16573,1540,608533
ROSEWOOD,7600,706,737935
THE LINE @ TANJONG RHU,22460,2087,436883
J GATEWAY,16576,1540,608533
LAKESIDE GROVE,11920,1107,618351
J GATEWAY,17379,1615,608533
J GATEWAY,17135,1592,608535
J GATEWAY,18216,1692,608533
J GATEWAY,15770,1465,608535
D'NEST,9801,911,518139
J GATEWAY,15902,1477,608533
WATERFORD RESIDENCE,17154,1594,239333
J GATEWAY,16118,1497,608533
SERANGOON GARDEN ESTATE,11547,1073,559548
TEXTILE CENTRE,9570,889,199018
J GATEWAY,15415,1432,608533
J GATEWAY,15081,1401,608533
THREE 11,16743,1555,574409
SPOTTISWOODE SUITES,26854,2495,88661
J GATEWAY,15641,1453,608533
HILLSTA,13140,1221,668202
HUA XIN COURT,11749,1091,456644
J GATEWAY,14101,1310,608535
THE LANAI,16155,1501,669600
J GATEWAY,13493,1254,608533
VETRO,13070,1214,328703
HILLION RESIDENCES,15106,1403,677673
THREE 11,18034,1675,574409
OCEAN PARK,13868,1288,458966
J GATEWAY,15803,1468,608533
ECHELON,16157,1501,158742
THE LAKESHORE,11089,1030,649412
VISTA RESIDENCES,16639,1546,329426
THE FLORIDA,8109,753,538805
HAIG COURT,13704,1273,438793
THE TOPIARY,7279,676,797495
ROSEWOOD,9450,878,737934
EVERGREEN PARK,9109,846,538800
J GATEWAY,15455,1436,608533
J GATEWAY,16629,1545,608535
J GATEWAY,17730,1647,608535
J GATEWAY,14647,1361,608533
J GATEWAY,14674,1363,608533
J GATEWAY,14736,1369,608533
JEWEL @ BUANGKOK,11139,1035,544686
J GATEWAY,16962,1576,608533
CAMBIO SUITES,15395,1430,547791
J GATEWAY,14781,1373,608533
J GATEWAY,15246,1416,608535
J GATEWAY,16014,1488,608535
J GATEWAY,15719,1460,608533
J GATEWAY,15337,1425,608533
J GATEWAY,16469,1530,608535
THE TANAMERA,10315,958,466665
J GATEWAY,13776,1280,608533
J GATEWAY,15798,1468,608535
DEVONSHIRE 12,23681,2200,239847
THREE 11,16552,1538,574409
TWIN FOUNTAINS,8069,750,738900
THE TAMPINES TRILLIANT,8305,772,528771
J GATEWAY,16957,1575,608535
J GATEWAY,14254,1324,608533
HOLT RESIDENCES,16545,1537,249444
J GATEWAY,15136,1406,608533
J GATEWAY,16064,1492,608535
J GATEWAY,17993,1672,608535
J GATEWAY,15987,1485,608535
KENSINGTON PARK CONDOMINIUM,12468,1158,557325
J GATEWAY,16217,1507,608535
J GATEWAY,17306,1608,608535
J GATEWAY,16217,1507,608535
TWIN FOUNTAINS,7896,734,738997
J GATEWAY,16805,1561,608533
J GATEWAY,16406,1524,608533
J GATEWAY,17606,1636,608535
J GATEWAY,14167,1316,608533
THREE 11,16444,1528,574409
CITYLIFE@TAMPINES,9414,875,528595
PALMWOODS,10333,960,487041
CASSIA EDGE,13647,1268,399764
J GATEWAY,16783,1559,608535
THREE 11,17132,1592,574409
AQUARIUS BY THE PARK,10526,978,478933
CENTRAL GROVE,10465,972,389778
CITYLIFE@TAMPINES,8523,792,528593
J GATEWAY,19100,1774,608533
ECHELON,18757,1743,158742
CONCOURSE SKYLINE,24529,2279,199599
THE MERASAGA,15476,1438,278102
JEWEL @ BUANGKOK,12769,1186,544684
STRATUM,9063,842,519952
THE LINEAR,8084,751,678186
CITYLIFE@TAMPINES,8953,832,528597
URBAN VISTA,16188,1504,465421
J GATEWAY,14366,1335,608533
THREE 11,19652,1826,574409
J GATEWAY,17358,1613,608533
J GATEWAY,17795,1653,608535
J GATEWAY,16877,1568,608533
SIMEI GREEN CONDOMINIUM,8649,803,529863
J GATEWAY,14203,1320,608533
J GATEWAY,15848,1472,608533
J GATEWAY,16461,1529,608533
J GATEWAY,15328,1424,608533
J GATEWAY,17240,1602,608535
J GATEWAY,16798,1561,608533
REFLECTIONS AT KEPPEL BAY,18922,1758,98410
LA FIESTA,12923,1201,544706
ECHELON,16555,1538,158742
VIZ AT HOLLAND,20435,1898,276750
J GATEWAY,15435,1434,608535
J GATEWAY,17119,1590,608535
J GATEWAY,17051,1584,608533
THREE 11,17828,1656,574409
J GATEWAY,14705,1366,608533
J GATEWAY,16513,1534,608535
WEST BAY CONDOMINIUM,11687,1086,128036
SANCTUARY GREEN,12538,1165,436927
YEW MEI GREEN,8167,759,689575
J GATEWAY,18830,1749,608533
DORMER PARK,15254,1417,249046
N.A.,10943,1017,347770
J GATEWAY,14480,1345,608533
CORALS AT KEPPEL BAY,20019,1860,98017
J GATEWAY,16597,1542,608535
SHAN COURT,21348,1983,328105
J GATEWAY,17393,1616,608533
JADE RESIDENCES,13990,1300,537016
ASCENTIA SKY,18652,1733,158748
HERON BAY,8008,744,534015
THOMSON V TWO,20000,1858,575629
J GATEWAY,18104,1682,608535
MILFORD VILLAS,9091,845,358753
J GATEWAY,17730,1647,608533
J GATEWAY,17457,1622,608535
SAGE,38632,3589,258379
J GATEWAY,15589,1448,608533
DUCHESS RESIDENCES,20333,1889,266310
N.A.,14294,1328,429648
J GATEWAY,16045,1491,608533
GUILIN VIEW,9829,913,659247
WATERBAY,7725,718,828711
THE ESTUARY,14118,1312,769133
GRANGE HEIGHTS,17514,1627,238143
ICON,19778,1837,78878
V ON SHENTON,24643,2289,68814
LAKEHOLMZ,11354,1055,649822
J GATEWAY,14143,1314,608533
J GATEWAY,16318,1516,608533
CITYLIFE@TAMPINES,8680,806,528617
J GATEWAY,16461,1529,608533
PARRY PARK,15655,1454,547102
HILLSTA,14280,1327,668202
J GATEWAY,14592,1356,608533
TWIN FOUNTAINS,8279,769,738995
THE SERENNO,15391,1430,438750
THE TROPICA,9478,881,529778
TWIN FOUNTAINS,8473,787,738997
THE ANCHORAGE,13894,1291,159960
PAVILION SQUARE,15135,1406,389366
J GATEWAY,16045,1491,608533
CASSIA EDGE,13455,1250,399764
N.A.,20659,1919,259855
ONE BALMORAL,28018,2603,259821
KAP RESIDENCES,16944,1574,598292
J GATEWAY,15798,1468,608535
EMERALD GARDEN,17857,1659,69415
J GATEWAY,15614,1451,608535
LA CASA,8472,787,737900
J GATEWAY,15072,1400,608533
SENNETT RESIDENCE,17019,1581,348226
J GATEWAY,15510,1441,608533
THE ROCHESTER,17407,1617,138638
LAUREL TREE,13401,1245,669267
1 CANBERRA,7841,728,768069
J GATEWAY,15697,1458,608535
SIGNATURE PARK,10853,1008,596743
J GATEWAY,14818,1377,608533
TWIN FOUNTAINS,8255,767,738998
FABER CREST,9939,923,129196
CARIBBEAN AT KEPPEL BAY,13426,1247,98640
WATERFRONT KEY,13991,1300,479253
J GATEWAY,14628,1359,608533
VERSILIA ON HAIG,14385,1336,438641
BAYSHORE PARK,11500,1068,469984
SIGNATURE PARK,12526,1164,596746
THE SAIL @ MARINA BAY,22295,2071,18987
J GATEWAY,16317,1516,608535
N.A.,24365,2264,436509
DOMAIN 21,18269,1697,169814
THE CASCADIA,19864,1845,589646
V ON SHENTON,30894,2870,68814
GOODWOOD RESIDENCE,24201,2248,259703
J GATEWAY,16133,1499,608535
J GATEWAY,15632,1452,608535
CITYLIFE@TAMPINES,8787,816,528593
J GATEWAY,15775,1466,608533
J GATEWAY,16143,1500,608535
1 CANBERRA,7926,736,768070
J GATEWAY,16722,1554,608535
J GATEWAY,17025,1582,608535
J GATEWAY,16400,1524,608533
J GATEWAY,14072,1307,608533
J GATEWAY,15967,1483,608535
THE BALE,12202,1134,425993
VILLA MARINA,9219,856,457398
MANDARIN GARDEN CONDOMINIUM,14935,1388,448908
THE CENTRIS,13046,1212,648340
MEYER RESIDENCE,16768,1558,437991
J GATEWAY,16661,1548,608533
J GATEWAY,16696,1551,608533
SHAN COURT,21348,1983,328105
SHAN COURT,21348,1983,328105
J GATEWAY,16968,1576,608533
J GATEWAY,15945,1481,608533
J GATEWAY,16877,1568,608533
J GATEWAY,16661,1548,608533
J GATEWAY,16325,1517,608533
J GATEWAY,15662,1455,608535
SHAN COURT,22099,2053,328105
SKY@ELEVEN,16970,1577,297727
N.A.,15178,1410,549653
J GATEWAY,15146,1407,608533
J GATEWAY,14362,1334,608533
J GATEWAY,16546,1537,608533
TWIN FOUNTAINS,7954,739,738996
THE TRIZON,16143,1500,276697
J GATEWAY,16276,1512,608535
WATERBANK AT DAKOTA,13695,1272,399945
J GATEWAY,17052,1584,608533
J GATEWAY,17306,1608,608533
J GATEWAY,14764,1372,608533
J GATEWAY,16508,1534,608533
RESIDENCES @ SOMME,18974,1763,208108
COSTA RHU,13351,1240,437431
THREE 11,17515,1627,574409
THREE 11,17324,1609,574409
SHAN COURT,21348,1983,328105
SHAN COURT,21348,1983,328105
CHANCERY COURT,15349,1426,309433
GRANDEUR 8,11841,1100,567746
J GATEWAY,15643,1453,608533
LA FIESTA,12290,1142,544833
J GATEWAY,15643,1453,608533
J GATEWAY,16397,1523,608535
EIGHT RIVERSUITES,15764,1465,338521
THE MILTONIA RESIDENCES,12917,1200,768117
JARDIN,21287,1978,589488
J GATEWAY,18115,1683,608535
TWIN FOUNTAINS,7773,722,738998
THREE 11,19032,1768,574409
D'HIRO@HILLSIDE,9422,875,549010
THE FLORAVALE,8261,767,648362
PARC OLYMPIA,8167,759,506869
ORCHID PARK CONDOMINIUM,9451,878,768451
KENG LEE VIEW,9735,904,219268
LA FIESTA,12500,1161,544705
J GATEWAY,15270,1419,608533
PAVILION SQUARE,15622,1451,389366
J GATEWAY,15989,1485,608533
J GATEWAY,15865,1474,608535
THREE 11,16273,1512,574409
J GATEWAY,15763,1464,608533
SHELFORD VIEW,15323,1424,288420
THE LAKEFRONT RESIDENCES,12826,1192,648324
J GATEWAY,15661,1455,608535
J GATEWAY,16809,1562,608533
N.A.,7879,732,537526
THREE 11,17200,1598,574409
BLISS LOFT,14286,1327,328933
SIN MING PLAZA,12000,1115,575585
THREE 11,17105,1589,574409
KENSINGTON PARK CONDOMINIUM,13312,1237,557325
J GATEWAY,16143,1500,608535
THREE 11,16825,1563,574409
STRATUM,10724,996,519955
J GATEWAY,18830,1749,608533
BOTANNIA,13814,1283,127722
J GATEWAY,17025,1582,608535
SYMPHONY HEIGHTS,12321,1145,598734
WHITEWATER,9103,846,518770
J GATEWAY,14767,1372,608533
FORESTVILLE,7723,718,737879
KOVAN MELODY,14000,1301,545018
CASHEW PARK CONDOMINIUM,11215,1042,679644
J GATEWAY,14111,1311,608533
J GATEWAY,15276,1419,608533
J GATEWAY,15920,1479,608533
HUNDRED TREES,14146,1314,127997
J GATEWAY,17409,1617,608533
THREE 11,19182,1782,574409
J GATEWAY,14024,1303,608533
SERENITY PARK,8439,784,806107
FABER CREST,11379,1057,129202
THREE 11,17869,1660,574409
THE TOPIARY,8081,751,797501
MAYFAIR RESIDENCES,15069,1400,429065
STUDIOS@TEMBELING,15753,1464,423718
STRATUM,12795,1189,519957
J GATEWAY,14983,1392,608533
THE RED HOUSE,15714,1460,428776
CABANA,8511,791,805314
THREE 11,19298,1793,574409
J GATEWAY,16105,1496,608535
J GATEWAY,16317,1516,608533
J GATEWAY,17096,1588,608533
J GATEWAY,19050,1770,608535
N.A.,12630,1173,555815
TWIN FOUNTAINS,7435,691,738900
THE TOPIARY,8002,743,797495
EMERALD PARK,11628,1080,169586
PARC OASIS,10214,949,609776
FABER CREST,10750,999,129206
J GATEWAY,14523,1349,608533
PARC VISTA,10000,929,649813
J GATEWAY,13814,1283,608533
J GATEWAY,16868,1567,608533
LE REGAL,13458,1250,389365
TWIN FOUNTAINS,8710,809,738998
THREE 11,17213,1599,574409
J GATEWAY,16283,1513,608535
THE LAKEFRONT RESIDENCES,10256,953,648324
H2O RESIDENCES,10905,1013,797531
J GATEWAY,14612,1358,608533
J GATEWAY,14945,1388,608533
J GATEWAY,15146,1407,608533
NOVELIS,18507,1719,308322
J GATEWAY,15510,1441,608533
THE INTERLACE,13002,1208,109704
J GATEWAY,16052,1491,608535
J GATEWAY,14105,1310,608533
REFLECTIONS AT KEPPEL BAY,22327,2074,98415
J GATEWAY,15567,1446,608533
HELIOS RESIDENCES,40812,3792,229816
J GATEWAY,14556,1352,608533
CASSIA EDGE,12105,1125,399764
J GATEWAY,16684,1550,608535
EURO-ASIA APARTMENTS,10586,983,328170
NOVENA REGENCY,18276,1698,307689
WATERBANK AT DAKOTA,16792,1560,399946
THE SCOTTS TOWER,40009,3717,228240
THE MAYLEA,11625,1080,117489
J GATEWAY,17762,1650,608533
J GATEWAY,16534,1536,608533
VISTA RESIDENCES,15676,1456,329425
CITYSCAPE @FARRER PARK,16100,1496,219067
BARTLEY RIDGE,11148,1036,368057
J GATEWAY,15452,1436,608533
J GATEWAY,16457,1529,608533
J GATEWAY,16805,1561,608533
J GATEWAY,16391,1523,608533
JEWEL @ BUANGKOK,12373,1149,544684
J GATEWAY,17762,1650,608533
THREE 11,20020,1860,574409
N.A.,10962,1018,488814
J GATEWAY,15652,1454,608533
ESPARINA RESIDENCES,9299,864,544998
TWIN FOUNTAINS,8094,752,738999
J GATEWAY,17764,1650,608533
TWIN FOUNTAINS,8046,747,738998
J GATEWAY,14864,1381,608533
J GATEWAY,16318,1516,608533
TWIN FOUNTAINS,8048,748,738997
BELLERIVE,18495,1718,258711
THE GLYNDEBOURNE,20704,1923,297722
TWIN FOUNTAINS,8132,755,738993
CASABELLA,16803,1561,269187
J GATEWAY,13848,1287,608533
JADE RESIDENCES,16682,1550,537016
J GATEWAY,16117,1497,608535
JEWEL @ BUANGKOK,12906,1199,544686
TWIN FOUNTAINS,7829,727,738997
TWIN FOUNTAINS,7896,734,738999
Q BAY RESIDENCES,11789,1095,528584
J GATEWAY,17204,1598,608533
J GATEWAY,15725,1461,608535
EIGHT RIVERSUITES,15982,1485,338517
LA FIESTA,13333,1239,544706
J GATEWAY,15902,1477,608533
THE TOPIARY,7890,733,797501
N.A.,11694,1086,424066
THREE 11,17471,1623,574409
J GATEWAY,15613,1450,608535
N.A.,10725,996,424889
THE MINTON,12637,1174,534076
J GATEWAY,16849,1565,608535
SOMMERVILLE PARK,17521,1628,259281
J GATEWAY,15940,1481,608535
NEWEST,15463,1437,128021
J GATEWAY,16664,1548,608535
THE SCOTTS TOWER,38862,3610,228240
J GATEWAY,16597,1542,608535
RIO VISTA,9310,865,534199
THE FLORAVALE,8015,745,648356
1 CANBERRA,7868,731,768071
JEWEL @ BUANGKOK,12792,1188,544685
COSTA RHU,13829,1285,437431
URBAN VISTA,16960,1576,465423
REGENT PARK,11035,1025,128805
CORALS AT KEPPEL BAY,22381,2079,98019
ATRIUM RESIDENCES,10377,964,398406
J GATEWAY,14639,1360,608533
J GATEWAY,16167,1502,608535
EVERGREEN PARK,8670,805,538802
NATHAN RESIDENCES,22364,2078,248745
TWIN FOUNTAINS,7772,722,738999
N.A.,13994,1300,426974
H2O RESIDENCES,10825,1006,797534
TWIN FOUNTAINS,7598,706,738993
J GATEWAY,17320,1609,608535
CITYLIFE@TAMPINES,7460,693,528616
OEI TIONG HAM PARK,19233,1787,268292
J GATEWAY,16370,1521,608533
J GATEWAY,13747,1277,608533
THE ARIZON,8636,802,389493
THREE 11,19217,1785,574409
CITYLIFE@TAMPINES,9103,846,528593
LA FIESTA,12079,1122,544705
STRATUM,9574,889,519952
BARTLEY RIDGE,12130,1127,368055
JEWEL @ BUANGKOK,13271,1233,544687
LA FIESTA,12118,1126,544701
D'NEST,10993,1021,518179
THE SERENNO,17689,1643,438750
SKY HABITAT,16627,1545,573909
JEWEL @ BUANGKOK,12783,1188,544685
D'LEEDON,17489,1625,266225
J GATEWAY,14091,1309,608533
AMBER RESIDENCES,15278,1419,439888
TWIN FOUNTAINS,8156,758,738999
J GATEWAY,15869,1474,608535
1 CANBERRA,7890,733,768071
ECO,15356,1427,465491
THE WHITLEY RESIDENCES,9698,901,297674
RIVERBAY,13827,1285,328704
NORTHOAKS,7039,654,738081
1 CANBERRA,8030,746,768073
THE TOPIARY,8662,805,797496
WOODGROVE CONDOMINIUM,8290,770,738212
J GATEWAY,17527,1628,608533
N.A.,14947,1389,347989
CENTENNIA SUITES,26304,2444,239427
TWIN FOUNTAINS,8116,754,738993
THE SCALA,16667,1548,554476
SUITES 123,15185,1411,218401
THE GARDENS AT BISHAN,11652,1082,575574
RIPPLE BAY,10176,945,518163
J GATEWAY,15021,1396,608533
TWIN FOUNTAINS,7731,718,738999
TWIN FOUNTAINS,7785,723,738993
TWIN FOUNTAINS,8198,762,738996
KINGSFORD . HILLVIEW PEAK,15268,1418,667982
J GATEWAY,15993,1486,608533
1 CANBERRA,7745,720,768071
JEWEL @ BUANGKOK,12755,1185,544687
STRATUM,10304,957,519953
THE CAPE,23226,2158,439872
KEMBANGAN SUITES,16538,1536,418941
URBAN VISTA,18449,1714,465423
WATERBAY,7765,721,828715
1 CANBERRA,8207,762,768101
J GATEWAY,13786,1281,608533
HILLSTA,13114,1218,668202
KINGSFORD . HILLVIEW PEAK,14736,1369,667981
KINGSFORD . HILLVIEW PEAK,14789,1374,667981
CITYLIFE@TAMPINES,8429,783,528597
J GATEWAY,17420,1618,608533
MIDTOWN RESIDENCES,15262,1418,534785
THREE 11,17235,1601,574409
J GATEWAY,14520,1349,608533
TWIN FOUNTAINS,7725,718,738992
ELIZABETH HEIGHT,20711,1924,229668
CHANGI GARDEN,8754,813,509316
Q BAY RESIDENCES,11804,1097,528590
THE WHARF RESIDENCE,22057,2049,238026
ESPARINA RESIDENCES,9596,891,544819
THE TOPIARY,8306,772,797495
J GATEWAY,14493,1346,608533
NEWEST,16267,1511,128021
N.A.,13424,1247,437279
CITYLIFE@TAMPINES,5720,531,528617
J GATEWAY,18304,1701,608533
J GATEWAY,17636,1638,608533
J GATEWAY,16651,1547,608533
TWIN FOUNTAINS,7936,737,738999
J GATEWAY,16230,1508,608535
J GATEWAY,16985,1578,608533
SOLEIL @ SINARAN,23981,2228,307468
CITYLIGHTS,16358,1520,208747
BAYOU RESIDENCE,14167,1316,534957
J GATEWAY,18086,1680,608535
J GATEWAY,15732,1462,608533
J GATEWAY,17983,1671,608533
SCENIC HEIGHTS,11719,1089,329929
HILLION RESIDENCES,18047,1677,677671
Q BAY RESIDENCES,11601,1078,528590
J GATEWAY,14646,1361,608533
TWIN FOUNTAINS,7936,737,738999
J GATEWAY,15920,1479,608533
1 CANBERRA,8100,753,768077
N.A.,14474,1345,128764
TWIN FOUNTAINS,7683,714,738995
Q BAY RESIDENCES,11536,1072,528583
CORALS AT KEPPEL BAY,22206,2063,98021
PRESTIGE LOFT,16800,1561,423911
BAYSHORE PARK,12126,1127,469977
PARC PALAIS,11695,1086,598753
VIVACE,23710,2203,238011
RAFFLESIA CONDOMINIUM,10881,1011,579801
BARTLEY RIDGE,12420,1154,368061
Q BAY RESIDENCES,12279,1141,528584
SENNETT ESTATE,18267,1697,348426
ILLUMINAIRE ON DEVONSHIRE,25763,2393,239900
HIGHGATE,12288,1142,596724
CABANA,8672,806,806405
J GATEWAY,14447,1342,608533
EIGHT RIVERSUITES,14827,1377,338520
CITYLIFE@TAMPINES,8063,749,528596
SANDALWOOD,11420,1061,423656
SEAHILL,19281,1791,126778
BARTLEY RIDGE,13591,1263,368057
RV EDGE,22308,2072,248209
CASHEW HEIGHTS CONDOMINIUM,11842,1100,679660
RIVIERA RESIDENCES,11348,1054,467203
LA CASA,8827,820,737897
THE RED HOUSE,17829,1656,428776
WATERBAY,6079,565,828712
CENTRAL GREEN CONDOMINIUM,14167,1316,169480
LUMA,23036,2140,238403
N.A.,22520,2092,249030
THREE 11,18116,1683,574409
TWIN FOUNTAINS,7874,732,738997
REFLECTIONS AT KEPPEL BAY,19620,1823,98418
BARTLEY RIDGE,13312,1237,368059
ECHELON,16088,1495,158742
CAMBIO SUITES,17398,1616,547791
R MAISON,13879,1289,357699
TWIN FOUNTAINS,7865,731,738998
ECO SANCTUARY,13060,1213,679522
ECO SANCTUARY,12227,1136,679522
BARTLEY RIDGE,13476,1252,368056
J GATEWAY,15662,1455,608535
THREE 11,18230,1694,574409
ROBIN SUITES,27760,2579,258203
THE DEW,9672,899,659636
J GATEWAY,15479,1438,608533
TWIN FOUNTAINS,7879,732,738995
J GATEWAY,15411,1432,608533
D'LEEDON,17677,1642,266224
J GATEWAY,16734,1555,608533
ARDMORE PARK,35448,3293,259955
JEWEL @ BUANGKOK,11993,1114,544686
J GATEWAY,16849,1565,608535
E MAISON,15472,1437,359966
J GATEWAY,14665,1362,608533
TWIN FOUNTAINS,7871,731,738999
BARTLEY RIDGE,13490,1253,368062
PEACE CENTRE/MANSIONS,7294,678,228149
J GATEWAY,15948,1482,608535
TWIN FOUNTAINS,8138,756,738900
LA CASA,8436,784,737899
ROSALIA PARK,8759,814,536407
URBAN VISTA,18001,1672,465426
JEWEL @ BUANGKOK,12517,1163,544687
J GATEWAY,18483,1717,608535
COSTA DEL SOL,13440,1249,469987
J GATEWAY,17331,1610,608533
RIVERBAY,13952,1296,328704
J GATEWAY,14032,1304,608533
1 CANBERRA,7801,725,768078
J GATEWAY,16607,1543,608533
THREE 11,17279,1605,574409
TWIN FOUNTAINS,7950,739,738997
J GATEWAY,16827,1563,608535
URBAN VISTA,17544,1630,465427
THREE 11,17655,1640,574409
KAP RESIDENCES,19859,1845,598292
THE ROCHESTER,16804,1561,138638
BARTLEY RIDGE,13103,1217,368061
D'NEST,10225,950,518137
TWIN FOUNTAINS,7896,734,738996
BARTLEY RIDGE,14872,1382,368056
ROCHELLE AT NEWTON,19085,1773,308414
LILYDALE,7913,735,768965
LA FIESTA,12700,1180,544705
J GATEWAY,14105,1310,608533
MARINA COLLECTION,31214,2900,98327
N.A.,15224,1414,536313
THE INTERLACE,13758,1278,109703
JEWEL @ BUANGKOK,13792,1281,544684
THOMSON GARDEN ESTATE,13368,1242,577370
ECHELON,18083,1680,158742
EIGHT RIVERSUITES,14933,1387,338520
NEWEST,15057,1399,128021
THE MINTON,13793,1281,534077
KAP RESIDENCES,20137,1871,598292
J GATEWAY,17108,1589,608533
STRATUM,8600,799,519953
UNITED MANSION,9606,892,458997
J GATEWAY,16684,1550,608535
J GATEWAY,17865,1660,608533
THE MINTON,12308,1143,538752
CAMBIO SUITES,15391,1430,547791
J GATEWAY,18595,1728,608533
J GATEWAY,14902,1384,608533
LA FIESTA,11802,1096,544701
J GATEWAY,15729,1461,608535
J GATEWAY,19049,1770,608535
J GATEWAY,16171,1502,608533
J GATEWAY,17628,1638,608533
WATERCOLOURS,8035,746,518150
J GATEWAY,14153,1315,608533
N.A.,16072,1493,547333
ARDISIA GARDEN,12385,1151,535768
THE MADEIRA,11020,1024,659445
J GATEWAY,17527,1628,608533
SERANGOON GARDEN ESTATE,12748,1184,556255
PARKVIEW APARTMENTS,8173,759,658880
MERAPRIME,15596,1449,169568
LA FIESTA,13235,1230,544704
MIDTOWN RESIDENCES,15669,1456,534785
FOUR SEASONS PARK,32676,3036,249693
THE TATE RESIDENCES,24917,2315,229546
JEWEL @ BUANGKOK,12381,1150,544685
RIPPLE BAY,10066,935,518166
J GATEWAY,14795,1374,608533
J GATEWAY,15547,1444,608533
WATERCOLOURS,7789,724,518153
TRELLIS TOWERS,12375,1150,319773
WATERCOLOURS,6842,636,518154
WATERBANK AT DAKOTA,17073,1586,399941
J GATEWAY,14492,1346,608535
H2O RESIDENCES,10629,987,797531
KENTVIEW PARK,11704,1087,118892
JEWEL @ BUANGKOK,13387,1244,544688
JEWEL @ BUANGKOK,12649,1175,544685
FERRARIA PARK CONDOMINIUM,11126,1034,506946
MIDTOWN RESIDENCES,15615,1451,534785
BARTLEY RIDGE,12728,1182,368061
JEWEL @ BUANGKOK,11935,1109,544685
LA CASA,8077,750,737897
SERANGOON GARDEN ESTATE,13167,1223,558816
NEPTUNE COURT,9079,843,449025
THE INTERLACE,9797,910,109694
WATERBAY,7640,710,828711
JEWEL @ BUANGKOK,13027,1210,544823
LA FIESTA,12603,1171,544699
LINCOLN SUITES,23067,2143,308381
J GATEWAY,15441,1435,608533
J GATEWAY,15269,1419,608533
J GATEWAY,16975,1577,608535
WOODSVALE,7778,723,738094
SENNETT RESIDENCE,15111,1404,348226
THE MINTON,9257,860,538756
TWIN FOUNTAINS,8266,768,738900
1 CANBERRA,8370,778,768070
THE CASCADIA,18796,1746,589639
DOUBLE BAY RESIDENCES,12906,1199,528716
CITYVISTA RESIDENCES,23869,2218,228314
TWIN FOUNTAINS,8126,755,738997
KAP RESIDENCES,16378,1522,598292
CITYLIFE@TAMPINES,8835,821,528615
COSTA DEL SOL,14649,1361,469992
EUHABITAT,15334,1425,415872
STRATUM,9455,878,519953
MEADOWS @ PEIRCE,9572,889,787131
WATERBAY,7709,716,828712
J GATEWAY,15689,1458,608533
ECO,16778,1559,465491
J GATEWAY,15865,1474,608535
WESTCOVE CONDOMINIUM,10345,961,128042
BARTLEY RIDGE,12693,1179,368056
BARTLEY RIDGE,13387,1244,368056
BARTLEY RIDGE,12849,1194,368060
N.A.,15198,1412,757120
J GATEWAY,18086,1680,608535
R MAISON,13879,1289,357699
THE RAINTREE,10763,1000,587846
THE WATERINA,13373,1242,398084
J GATEWAY,14032,1304,608533
J GATEWAY,15441,1435,608533
WATERCOLOURS,7789,724,518152
JEWEL @ BUANGKOK,12425,1154,544685
Q BAY RESIDENCES,11860,1102,528590
J GATEWAY,14063,1306,608533
RIVERSAILS,8690,807,534032
WEST BAY CONDOMINIUM,10109,939,128036
STRATUM,12500,1161,519953
THE QUINTET,9068,842,689106
EIGHT RIVERSUITES,13736,1276,338519
THREE 11,17423,1619,574409
HILLION RESIDENCES,14894,1384,677673
ROSEWOOD,9450,878,737936
PUBLIC MANSION,8956,832,329813
1 CANBERRA,7930,737,768103
THE SPRINGSIDE,12721,1182,786635
BARTLEY RIDGE,12482,1160,368061
HOLLANDIA,13115,1218,278537
THE COUNTRYSIDE,14069,1307,789819
PARVIS,19755,1835,278746
ESPADA,28636,2660,238126
J GATEWAY,15711,1460,608533
THE DEW,9672,899,659636
BARTLEY RIDGE,13159,1223,368056
BLISS REGALIA,14833,1378,217920
JEWEL @ BUANGKOK,14583,1355,544685
THE CENTRIS,13636,1267,648339
MAYFAIR RESIDENCES,15901,1477,429065
PRESTIGE HEIGHTS,20625,1916,329778
LA FIESTA,13162,1223,544704
BISHAN PARK CONDOMINIUM,9153,850,575570
QUEENS,15135,1406,148954
GAMBIR GARDENS,15835,1471,536637
J GATEWAY,14710,1367,608533
1 CANBERRA,7752,720,768078
HILLVIEW HEIGHTS,11538,1072,669559
THE MAKENA,13721,1275,437932
SUNRISE VILLA,12132,1127,806507
ASCENTIA SKY,20449,1900,158749
WATERFRONT GOLD,12840,1193,479257
GARDEN PARK RESIDENCES,12591,1170,425310
URBAN VISTA,13125,1219,465424
GRAND DUCHESS AT ST PATRICK'S,16095,1495,424212
N.A.,22300,2072,425003
THE MARBELLA,18102,1682,276952
JEWEL @ BUANGKOK,13967,1298,544685
CAMBIO SUITES,14236,1323,547791
THE LINCOLN RESIDENCES,18417,1711,307762
LOFT @ RANGOON,18571,1725,218392
WHITEHAVEN,14811,1376,117382
ECO SANCTUARY,13005,1208,679524
THE OCTET,14675,1363,398628
THE VISION,13770,1279,126794
THE RIVERVALE,7533,700,545118
J GATEWAY,16470,1530,608535
LIV ON SOPHIA,26320,2445,229977
Q BAY RESIDENCES,11332,1053,528588
THREE 11,17441,1620,574409
WILKIE 80,20625,1916,228079
THE BERTH BY THE COVE,18191,1690,98626
MIDTOWN RESIDENCES,14727,1368,534785
1 CANBERRA,8105,753,768070
JEWEL @ BUANGKOK,12263,1139,544687
THE MAYFAIR,12712,1181,609479
N.A.,18223,1693,429361
J GATEWAY,13708,1274,608533
JEWEL @ BUANGKOK,12520,1163,544687
SERANGOON GARDEN ESTATE,10818,1005,556519
LA CASA,9286,863,737894
TWIN FOUNTAINS,7246,673,738992
REGENT PARK,11905,1106,128803
LA CASA,9231,858,737894
LOWLAND TERRACE,16041,1490,547410
MANDALE HEIGHTS,13760,1278,308225
THOMSON 800,14462,1344,298189
SIMS DORADO,11778,1094,387869
1 CANBERRA,7941,738,768077
THE PEARL @ MOUNT FABER,13023,1210,99208
YEW MEI GREEN,8321,773,689575
NEWEST,15170,1409,128021
LAUREL TREE,14837,1378,669267
VACANZA @ EAST,13496,1254,417394
CHANCERY COURT,13175,1224,309432
J GATEWAY,14556,1352,608533
J GATEWAY,17279,1605,608533
SUNSET LODGE,11263,1046,597537
JEWEL @ BUANGKOK,11704,1087,544687
J GATEWAY,17636,1638,608533
SPOTTISWOODE PARK,9746,905,80107
EASTERN LAGOON,12088,1123,466402
N.A.,19975,1856,424688
J GATEWAY,16426,1526,608535
BARTLEY RIDGE,13024,1210,368061
TREVISTA,13782,1280,319583
SERENITY PARK,10294,956,806110
LA FIESTA,11560,1074,544704
JEWEL @ BUANGKOK,12904,1199,544687
J GATEWAY,16986,1578,608535
N.A.,19926,1851,266668
J GATEWAY,14852,1380,608533
CITYLIFE@TAMPINES,8723,810,528617
THE TOPIARY,8521,792,797495
WINDERMERE,7244,673,689099
NEWEST,17260,1604,128021
JEWEL @ BUANGKOK,12346,1147,544688
THE INTERLACE,14040,1304,109697
N.A.,19545,1816,439316
ONE-NORTH RESIDENCES,17708,1645,138642
VINA LODGE,9508,883,545779
TWIN FOUNTAINS,8150,757,738992
OCEAN FRONT SUITES,11261,1046,509424
J GATEWAY,14823,1377,608533
REGENT PARK,12000,1115,128805
TWIN FOUNTAINS,8184,760,738998
LEONIE STUDIO,21016,1952,239223
ASCENTIA SKY,18394,1709,158749
HERON BAY,7410,688,534017
1 CANBERRA,6881,639,768103
J GATEWAY,16986,1578,608535
CORALS AT KEPPEL BAY,26235,2437,98021
KENTISH GREEN,10588,984,218815
JADE RESIDENCES,17518,1627,537020
KINGSFORD . HILLVIEW PEAK,15010,1394,667968
RIVERSAILS,7838,728,534033
BURGUNDY HILL,12690,1179,658823
TWIN FOUNTAINS,8048,748,738996
THE BAYSHORE,10000,929,469974
TWIN FOUNTAINS,7877,732,738999
SEMBAWANG COTTAGE,10229,950,758382
THE INTERLACE,7798,724,109693
THE GRANGE,27126,2520,249631
THREE 11,16000,1486,574409
J GATEWAY,14917,1386,608533
76 SHENTON,21345,1983,79119
1 CANBERRA,7655,711,768076
THE SUMMIT,11897,1105,466506
WATERCOLOURS,8078,750,518152
WATERCOLOURS,7903,734,518150
PARC OASIS,8811,819,609780
THE ARIEL,13529,1257,426536
JEWEL @ BUANGKOK,12596,1170,544687
HILLSTA,11090,1030,668200
FERRARIA PARK CONDOMINIUM,11081,1029,506947
EAST MEADOWS,10957,1018,465558
CARIBBEAN AT KEPPEL BAY,17619,1637,98657
YEW MEI GREEN,7500,697,689575
FERRARIA PARK CONDOMINIUM,10442,970,506942
CARABELLE,12061,1120,127017
WATERCOLOURS,8182,760,518151
WHITEWATER,9470,880,518770
BOONVIEW,14167,1316,574036
EWE BOON REGENT,15464,1437,259332
JEWEL @ BUANGKOK,12731,1183,544684
J GATEWAY,14141,1314,608533
TWIN FOUNTAINS,7858,730,738996
TWIN FOUNTAINS,8035,746,738993
COSTA DEL SOL,14000,1301,469987
SUITES @ NEWTON,26483,2460,307740
GRANGE INFINITE,25831,2400,239700
LAUREL TREE,14302,1329,669267
N.A.,13330,1238,538182
CAMBIO SUITES,13977,1299,547791
JADE RESIDENCES,16163,1502,537020
THE TOPIARY,7059,656,797502
J GATEWAY,14419,1340,608533
SEASTRAND,11678,1085,518188
SPOTTISWOODE RESIDENCES,24700,2295,88660
LEONIE TOWERS,18148,1686,239222
THE LEVELZ,18219,1693,268836
WATERCOLOURS,8659,804,518151
ST PATRICK'S RESIDENCES,14286,1327,423467
JEWEL @ BUANGKOK,12333,1146,544685
WATERBAY,8294,770,828713
J GATEWAY,13631,1266,608533
J GATEWAY,16178,1503,608533
OASIS GARDEN,12500,1161,538421
THE SPRINGBLOOM,11810,1097,556121
JEWEL @ BUANGKOK,12222,1135,544823
YUNNAN GARDENS,9927,922,638297
1 CANBERRA,7514,698,768071
SANDY PALM,7531,700,509413
ARTHUR 118,12215,1135,439827
WATERCOLOURS,7756,721,518168
STRATUM,9549,887,519948
1 CANBERRA,6380,593,768102
JEWEL @ BUANGKOK,12938,1202,544687
BARTLEY RIDGE,12913,1200,368057
BELLE VUE RESIDENCES,22275,2069,238599
TWIN FOUNTAINS,8574,797,738999
BARTLEY RIDGE,12950,1203,368061
TWIN FOUNTAINS,8226,764,738993
RIVERBAY,13829,1285,328704
J GATEWAY,16755,1557,608535
EIGHT RIVERSUITES,14154,1315,338519
PAVILION SQUARE,16757,1557,389366
KAP RESIDENCES,20342,1890,598292
TREE HOUSE,12917,1200,679517
Q BAY RESIDENCES,11493,1068,528584
CRYSTAL MANSIONS,8120,754,399165
CITYLIFE@TAMPINES,9026,839,528596
J GATEWAY,14577,1354,608533
J GATEWAY,14523,1349,608533
PALM GARDENS,9474,880,689048
THE INFINITI,10023,931,127718
JEWEL @ BUANGKOK,11125,1034,544685
J GATEWAY,14366,1335,608533
IMPERIAL HEIGHTS,14979,1392,438620
1 CANBERRA,7841,728,768078
KEMAMAN POINT,7500,697,329325
Q BAY RESIDENCES,11807,1097,528585
J GATEWAY,14476,1345,608533
J GATEWAY,15420,1433,608533
LA CASA,8481,788,737899
J GATEWAY,15704,1459,608533
THE LUSH,17256,1603,429190
CORALS AT KEPPEL BAY,21731,2019,98012
ECO SANCTUARY,12338,1146,679522
J GATEWAY,13814,1283,608533
LIV ON SOPHIA,26440,2456,229977
PARC PALAIS,11739,1091,598752
THE INTERLACE,7936,737,109688
Q BAY RESIDENCES,11513,1070,528590
PARC VISTA,10102,939,649810
THE MINTON,12590,1170,534080
SUNRISE GARDENS,8824,820,806748
THE RIVERVALE,9397,873,545118
JEWEL @ BUANGKOK,12567,1167,544684
KAP RESIDENCES,14919,1386,598292
JEWEL @ BUANGKOK,12105,1125,544823
THE MADEIRA,9917,921,659445
KAP RESIDENCES,16387,1522,598292
OXLEY EDGE,19348,1797,238349
JEWEL @ BUANGKOK,12740,1184,544688
J GATEWAY,18107,1682,608533
THE IMPERIAL,21739,2020,239617
THE GLYNDEBOURNE,21583,2005,297722
THE MERASAGA,17719,1646,278102
J GATEWAY,15252,1417,608533
ESPADA,27982,2600,238126
J GATEWAY,15207,1413,608533
CITYLIFE@TAMPINES,8890,826,528617
THREE 11,16723,1554,574409
J GATEWAY,16622,1544,608535
BARTLEY RIDGE,14432,1341,368062
NOVENA REGENCY,24246,2253,307690
DERBYSHIRE HEIGHTS,13415,1246,309459
THE TOPIARY,7743,719,797501
WATERBAY,8188,761,828713
J GATEWAY,14245,1323,608533
THE RIVERVALE,8512,791,545119
JEWEL @ BUANGKOK,12046,1119,544823
TWIN FOUNTAINS,7548,701,738996
WATERCOLOURS,8396,780,518168
J GATEWAY,16629,1545,608535
TAI HWAN GARDEN,14577,1354,555413
WATERBANK AT DAKOTA,15364,1427,399942
CALLIDORA VILLE,14568,1353,425145
JADE RESIDENCES,17843,1658,537016
THE TRILLIUM,23204,2156,239432
WATERBAY,8549,794,828714
THE TRIZON,18830,1749,276698
J GATEWAY,15384,1429,608535
SIMS GREEN,7474,694,388134
TWIN FOUNTAINS,7682,714,738900
JEWEL @ BUANGKOK,12451,1157,544684
BARTLEY RIDGE,12905,1199,368059
Q BAY RESIDENCES,10997,1022,528586
1 CANBERRA,8376,778,768078
J GATEWAY,16210,1506,608535
FREESIA WOODS,13150,1222,597092
THREE 11,17547,1630,574409
1 CANBERRA,6502,604,768076
HILLION RESIDENCES,17250,1603,677672
N.A.,12103,1124,423743
N.A.,16418,1525,269896
LA FIESTA,12140,1128,544833
LA FIESTA,12877,1196,544830
WATERCOLOURS,7848,729,518151
Q BAY RESIDENCES,11789,1095,528584
TWIN FOUNTAINS,8211,763,738995
HILLTOPS,32544,3023,229809
THE TOPIARY,7843,729,797498
THE ESPARIS,8917,828,519459
111 EMERALD HILL,24225,2251,229391
FERRARIA PARK CONDOMINIUM,10776,1001,506945
NEWEST,15391,1430,128021
VA RESIDENCES,16150,1500,329583
LA FIESTA,12714,1181,544699
CITYLIFE@TAMPINES,9256,860,528596
VERDURE,21010,1952,258887
EIGHT RIVERSUITES,15892,1476,338521
LIV ON SOPHIA,26776,2488,229977
CAVENAGH GARDENS,13918,1293,229622
CHARLTON 27,8266,768,535603
WATERFRONT KEY,13191,1226,479251
LIV ON SOPHIA,26320,2445,229977
LIV ON SOPHIA,27020,2510,229977
MIDTOWN RESIDENCES,15000,1394,534785
CHESTERVALE,7863,731,679974
OASIS @ ELIAS,10466,972,519938
BARTLEY RIDGE,13390,1244,368061
KAP RESIDENCES,16095,1495,598292
THE SAIL @ MARINA BAY,24561,2282,18985
THE LEVELZ,18219,1693,268836
J GATEWAY,15290,1420,608533
TANGERINE GROVE,12093,1123,534239
THE LANAI,15173,1410,669600
LA FIESTA,12923,1201,544706
LE HILL CONDOMINIUM,12231,1136,118896
LA FIESTA,13358,1241,544707
CORALS AT KEPPEL BAY,26190,2433,98022
STRATFORD COURT,10000,929,489929
JEWEL @ BUANGKOK,12065,1121,544686
FLO RESIDENCE,10000,929,828745
SUITES @ GUILLEMARD,19900,1849,438133
PARC ELEGANCE,15638,1453,423912
TRILIGHT,16144,1500,307997
TRELLIS TOWERS,14815,1376,319773
MIDTOWN RESIDENCES,16431,1526,534785
THREE 11,17484,1624,574409
LUMA,19862,1845,238403
CASTLE GREEN,10092,938,787057
JEWEL @ BUANGKOK,13341,1239,544688
WATERCOLOURS,7656,711,518152
ECHELON,16831,1564,158742
THE ROCHESTER,15789,1467,138638
VILLAGE @ PASIR PANJANG,14466,1344,118797
WINDSOR PARK ESTATE,10082,937,574306
CORALS AT KEPPEL BAY,23994,2229,98012
TWIN FOUNTAINS,7911,735,738999
NV RESIDENCES,11682,1085,518192
TWIN FOUNTAINS,7852,729,738992
N.A.,7870,731,757161
Q BAY RESIDENCES,10234,951,528585
MACPHERSON GARDEN ESTATE,16983,1578,368970
JEWEL @ BUANGKOK,11750,1092,544688
LUMIERE,23511,2184,79624
LEEDON RESIDENCE,19490,1811,267935
BARTLEY RIDGE,13619,1265,368062
BARTLEY RIDGE,12372,1149,368058
CAMBIO SUITES,17570,1632,547791
THE AMBIENCE,6891,640,829752
JEWEL @ BUANGKOK,12606,1171,544688
THE INTERLACE,7362,684,109704
RIPPLE BAY,10110,939,518166
URBAN RESORT CONDOMINIUM,29082,2702,229657
AMARYLLIS VILLE,17978,1670,307990
EDENZ LOFT,13498,1254,398623
COSTA DEL SOL,13431,1248,469991
THREE 11,17368,1614,574409
LIV ON SOPHIA,26440,2456,229977
COSTA DEL SOL,15337,1425,469988
SHEARES VILLE,15387,1430,249446
1 CANBERRA,7900,734,768075
TRESALVEO,11747,1091,573963
YEW MEI GREEN,8180,760,689577
OCEAN FRONT SUITES,16162,1502,509424
THE CENTRIS,14141,1314,648339
COSTA RHU,13482,1252,437431
GARDENVISTA,14500,1347,589487
SERANGOON GARDEN ESTATE,13682,1271,558064
MIDTOWN RESIDENCES,16774,1558,534785
THREE 11,19684,1829,574409
KINGSFORD . HILLVIEW PEAK,13874,1289,667981
LIV ON SOPHIA,26700,2480,229977
EDELWEISS PARK CONDOMINIUM,9796,910,507002
N.A.,20926,1944,436568
LA FIESTA,12487,1160,544832
JEWEL @ BUANGKOK,10656,990,544823
D'LOTUS,15755,1464,328784
SUNSET LODGE,11188,1039,597533
SANCTUARY @ 813,12414,1153,534085
CASA MEYFORT,15205,1413,437906
Q BAY RESIDENCES,11625,1080,528583
SEASONS PARK,7836,728,787082
THE BERTH BY THE COVE,16680,1550,98624
THE TOPIARY,8735,811,797495
MACKENZIE 88,18960,1761,228697
N.A.,15389,1430,546764
THE GRANDHILL,13966,1297,118860
EIGHT RIVERSUITES,13655,1269,338519
J GATEWAY,16057,1492,608533
THE MINTON,14706,1366,534077
THREE 11,17393,1616,574409
GRAND CHATEAU,11379,1057,598435
THE SUNNIDORA,12625,1173,426223
N.A.,18581,1726,679133
HAIG 162,19697,1830,438773
THE INSPIRA,21935,2038,239949
FRANKEL ESTATE,10446,970,459642
MURANO,13636,1267,118693
SEMBAWANG HILLS ESTATE,12851,1194,577417
TRESALVEO,15604,1450,573964
1 CANBERRA,7480,695,768071
J GATEWAY,14140,1314,608533
TWIN FOUNTAINS,8231,765,738900
ECHELON,17362,1613,158742
LE SOMME,10889,1012,207876
CITYLIFE@TAMPINES,8523,792,528598
KAP RESIDENCES,18462,1715,598292
JEWEL @ BUANGKOK,12305,1143,544685
BARTLEY RIDGE,12851,1194,368058
BISHAN POINT,11182,1039,579653
CORALS AT KEPPEL BAY,19375,1800,98020
SIMEI GREEN CONDOMINIUM,9778,908,529866
STRATUM,9245,859,519946
TWIN FOUNTAINS,7510,698,738900
JEWEL @ BUANGKOK,12949,1203,544823
CHANGI COURT,13086,1216,486832
LAUREL TREE,14070,1307,669267
SPOTTISWOODE RESIDENCES,25767,2394,88660
PARC PALAIS,11739,1091,598749
LA FIESTA,12647,1175,544699
BARTLEY RIDGE,13227,1229,368057
DAHLIA PARK CONDOMINIUM,9153,850,507010
LA CASA,8391,780,737895
THREE 11,16267,1511,574409
CORALS AT KEPPEL BAY,21560,2003,98019
LA CASA,9494,882,737894
THE ROCHESTER,17037,1583,138638
JEWEL @ BUANGKOK,13328,1238,544684
CITYLIFE@TAMPINES,7454,692,528596
HOLT RESIDENCES,16545,1537,249444
SOMMERVILLE PARK,17017,1581,259283
CITYLIGHTS,17460,1622,208766
FRAGRANT GARDENS,10536,979,534960
COMPASS HEIGHTS,11224,1043,545075
PARC OASIS,11500,1068,609783
BARTLEY RIDGE,13035,1211,368062
JEWEL @ BUANGKOK,10966,1019,544687
THE DEW,10853,1008,659636
SEASONS PARK,8280,769,787082
JEWEL @ BUANGKOK,11456,1064,544687
J GATEWAY,13987,1299,608533
URBAN VISTA,14580,1354,465422
KINGSFORD . HILLVIEW PEAK,14595,1356,667981
CITYLIFE@TAMPINES,9466,879,528615
JEWEL @ BUANGKOK,13054,1213,544684
JEWEL @ BUANGKOK,11021,1024,544687
PARC SOPHIA,22273,2069,229976
TWIN FOUNTAINS,7857,730,738996
VA RESIDENCES,17791,1653,329583
MIDTOWN RESIDENCES,14425,1340,534785
DOUBLE BAY RESIDENCES,12047,1119,528717
GLOUCESTER MANSIONS,17744,1648,307947
J GATEWAY,15927,1480,608533
SUNVILLE,11364,1056,327979
SELETAR GARDEN,10176,945,809612
TWIN FOUNTAINS,8174,759,738999
THE ARTE,14231,1322,329215
MELVILLE PARK,9124,848,529943
CAMBIO SUITES,14864,1381,547791
HAZEL PARK CONDOMINIUM,11774,1094,678948
KAP RESIDENCES,19436,1806,598292
N.A.,23606,2193,269430
VA RESIDENCES,16466,1530,329583
THE TOPIARY,8627,801,797496
BARTLEY RIDGE,13415,1246,368063
MI CASA,11538,1072,689862
THE PARC CONDOMINIUM,12374,1150,127162
CITYLIFE@TAMPINES,8994,836,528593
JEWEL @ BUANGKOK,12138,1128,544685
TWIN FOUNTAINS,7609,707,738993
ASPEN HEIGHTS,17226,1600,238307
THE PARC CONDOMINIUM,12252,1138,127160
EVERGREEN PARK,8165,759,538803
THE SPRINGBLOOM,11736,1090,556119
SOLEIL @ SINARAN,23148,2151,307467
D'LEEDON,16713,1553,267952
PAVILION SQUARE,13824,1284,389366
THREE 11,17176,1596,574409
N.A.,14006,1301,457154
WATERBANK AT DAKOTA,18556,1724,399948
PALM ISLES,9941,924,506866
JEWEL @ BUANGKOK,14547,1351,544686
THE LEGEND,16029,1489,259725
MIDTOWN RESIDENCES,14855,1380,534785
ECHELON,15900,1477,158742
BARTLEY RIDGE,13225,1229,368063
JEWEL @ BUANGKOK,14337,1332,544686
ECHELON,18953,1761,158742
N.A.,15366,1428,428057
JADE RESIDENCES,16571,1540,537016
TWIN FOUNTAINS,7590,705,738997
WATERBANK AT DAKOTA,17453,1621,399945
CORALS AT KEPPEL BAY,22461,2087,98021
STRATUM,9275,862,519945
HUME PARK I,9932,923,598723
CHEN FANG MANSIONS,9943,924,387986
THE CALROSE,13111,1218,787084
DE PARADISO,14619,1358,328644
WATERBAY,7937,737,828712
TWIN FOUNTAINS,7744,719,738999
TWIN WATERFALLS,8047,748,828793
8 RODYK,20952,1947,238216
THE SIENA,24723,2297,266630
TWIN FOUNTAINS,8468,787,738998
LA CASA,8811,819,737893
THE TRIZON,17245,1602,276697
HILLVIEW REGENCY,10225,950,659921
TWIN FOUNTAINS,7814,726,738995
SHAN COURT,20225,1879,328105
TWIN FOUNTAINS,8109,753,738900
ELEVEN @ HOLLAND,12500,1161,275764
1 CANBERRA,7900,734,768074
THREE 11,17615,1636,574409
JEWEL @ BUANGKOK,12365,1149,544687
THREE 11,17653,1640,574409
HILLTOPS,32991,3065,229809
THE SIENA,24271,2255,266630
N.A.,23347,2169,439762
BARTLEY RIDGE,13289,1235,368063
ASTORIA PARK,10541,979,416826
PARVIS,21065,1957,278746
SUITES @ SIMS,19091,1774,387544
THE ESTUARY,12295,1142,769136
ST PATRICK'S LOFT,13636,1267,424164
CHARLESTON,15000,1394,248184
QUEENS,14091,1309,148954
ECO SANCTUARY,12838,1193,679522
TWIN FOUNTAINS,8148,757,738900
ALTEZ,25237,2345,79717
SANT RITZ,16368,1521,348196
KAP RESIDENCES,18914,1757,598292
SOMMERVILLE PARK,17942,1667,259281
MON JERVOIS,26180,2432,249094
THE INTERLACE,14127,1312,109702
STRATUM,8963,833,519952
JEWEL @ BUANGKOK,12470,1159,544685
FABER HILLS,12624,1173,128947
THE BLOSSOMVALE,14016,1302,589473
VISTA PARK,9780,909,118174
JEWEL @ BUANGKOK,12762,1186,544823
BARTLEY RIDGE,15210,1413,368057
THE LAURELS,28992,2693,229660
LA CASA,9738,905,737894
THE BAYSHORE,10698,994,469972
LIV ON SOPHIA,23688,2201,229977
THE TOPIARY,8013,744,797497
NEPTUNE COURT,7895,733,449027
JEWEL @ BUANGKOK,13109,1218,544684
WATERVIEW,10857,1009,528688
SUITES @ GUILLEMARD,18333,1703,438133
BARTLEY RIDGE,13413,1246,368055
KAP RESIDENCES,19966,1855,598292
TWIN FOUNTAINS,8110,753,738992
VA RESIDENCES,16983,1578,329583
THREE 11,19386,1801,574409
CITYLIFE@TAMPINES,8105,753,528595
JEWEL @ BUANGKOK,12296,1142,544685
PARKVIEW APARTMENTS,8606,799,658881
RIPPLE BAY,10148,943,518163
LIV ON SOPHIA,26560,2467,229977
N.A.,19308,1794,426098
STRATUM,8658,804,519950
THE LINCOLN RESIDENCES,18013,1673,307762
LA FIESTA,10752,999,544833
CITYLIFE@TAMPINES,8650,804,528615
TWIN FOUNTAINS,8174,759,738998
Q BAY RESIDENCES,11701,1087,528583
KOVAN REGENCY,10814,1005,544717
THE MORNING GLORY,10729,997,545782
D'NEST,10789,1002,518179
VA RESIDENCES,16977,1577,329583
PALM GARDENS,8274,769,689048
ASTRID MEADOWS,19444,1806,269258
LA FIESTA,12651,1175,544831
TWIN FOUNTAINS,7688,714,738900
HIGHGATE,12105,1125,596730
TWIN FOUNTAINS,7976,741,738993
DOUBLE BAY RESIDENCES,12625,1173,528720
BALESTIER TOWERS,12134,1127,329683
AALTO,19313,1794,437980
CASA SARINA,11583,1076,416729
THE BOUTIQ,24634,2289,239565
THE TOPIARY,7202,669,797496
SEASTRAND,11488,1067,518183
JEWEL @ BUANGKOK,13061,1213,544684
SKY HABITAT,16320,1516,573909
PARC SOPHIA,18952,1761,229979
ECO SANCTUARY,12560,1167,679522
JEWEL @ BUANGKOK,12496,1161,544684
NEWEST,15892,1476,128021
JEWEL @ BUANGKOK,11874,1103,544684
URBAN VISTA,16912,1571,465425
AMANINDA,15440,1434,307687
CAMBIO SUITES,14261,1325,547791
KAP RESIDENCES,19436,1806,598292
MOONSTONE RESIDENCES,10968,1019,328465
JEWEL @ BUANGKOK,14476,1345,544684
JEWEL @ BUANGKOK,12138,1128,544685
1 CANBERRA,7467,694,768076
SANT RITZ,17261,1604,348196
LA FIESTA,10769,1000,544705
THE LAKESHORE,13398,1245,649412
UBER 388,15136,1406,466477
LIV ON SOPHIA,26527,2464,229977
CITYLIFE@TAMPINES,8577,797,528598
NEWTON EURO-ASIA,17544,1630,307954
LIV ON SOPHIA,24381,2265,229977
THE TOPIARY,7701,715,797500
STRATUM,9134,849,519953
SPRINGLEAF VILLAS,6948,645,788364
TREE HOUSE,12819,1191,679517
EDENZ LOFT,13861,1288,398623
URBAN SUITES,31548,2931,229158
VISIONCREST,24471,2273,238712
FERRARIA PARK CONDOMINIUM,12500,1161,506951
MELROSE PARK,19620,1823,248904
CAMBIO SUITES,13450,1250,547791
THE TOPIARY,7660,712,797499
SUITES AT ORCHARD,20513,1906,229239
URBAN VISTA,14394,1337,465424
KAP RESIDENCES,19860,1845,598292
D'LEEDON,16094,1495,267954
URBAN VISTA,16712,1553,465424
SKYSUITES17,25455,2365,329137
THE SIENA,23795,2211,266636
KAP RESIDENCES,16610,1543,598292
TWIN FOUNTAINS,7714,717,738998
TRILIGHT,23611,2194,307945
D'NEST,9524,885,518137
HILLTOPS,32419,3012,229809
EDELWEISS PARK CONDOMINIUM,10323,959,507006
THE LAKESHORE,12727,1182,649412
CITYLIFE@TAMPINES,9293,863,528594
D'LEEDON,18788,1745,267953
LA FIESTA,12638,1174,544705
URBAN RESORT CONDOMINIUM,28851,2680,229720
WATERCOLOURS,7973,741,518151
OASIS @ MULBERRY,19760,1836,348447
D'NEST,9755,906,518137
SIGNATURE PARK,13376,1243,596748
WATERCOLOURS,7287,677,518169
LE CRESCENDO,12111,1125,409044
GALLERY 8,12832,1192,424376
URBAN SUITES,31548,2931,229158
EIGHT RIVERSUITES,14573,1354,338520
LIV ON SOPHIA,26440,2456,229977
TWIN FOUNTAINS,7523,699,738996
JEWEL @ BUANGKOK,13458,1250,544687
CITYLIFE@TAMPINES,8849,822,528617
URBAN VISTA,16250,1510,465422
WATERCOLOURS,7044,654,518168
THE LANAI,15500,1440,669600
MIDTOWN RESIDENCES,16479,1531,534785
CITYLIFE@TAMPINES,10015,930,528598
N.A.,12917,1200,299325
1 CANBERRA,7870,731,768078
TWIN FOUNTAINS,7970,740,738997
CHANTILLY RISE,10268,954,669581
THE CLEARWATER,10400,966,479237
GARDEN PARK RESIDENCES,15076,1401,425310
TWIN FOUNTAINS,8285,770,738999
JEWEL @ BUANGKOK,12543,1165,544684
LA FIESTA,13178,1224,544702
NORTHVALE,8968,833,689674
WATERCOLOURS,8242,766,518153
KAP RESIDENCES,19798,1839,598292
BARTLEY RIDGE,14570,1354,368055
LA SUISSE,12987,1207,288061
TWIN FOUNTAINS,8477,788,738995
NOVENA REGENCY,24114,2240,307689
WATERBANK AT DAKOTA,17091,1588,399944
WATERBAY,8028,746,828711
SKIES MILTONIA,14589,1355,768061
NEWTON IMPERIAL,21749,2021,307956
1 CANBERRA,6824,634,768069
GOLD COAST CONDOMINIUM,12086,1123,118699
THE SCOTTS TOWER,39853,3702,228240
ECHELON,18675,1735,158742
HILLTOPS,35709,3317,229809
HILLTOP GROVE,9043,840,669619
TWIN FOUNTAINS,8118,754,738998
CITYLIFE@TAMPINES,9171,852,528595
HALLMARK RESIDENCES,23375,2172,259327
JEWEL @ BUANGKOK,12176,1131,544823
SERANGOON GARDEN ESTATE,12935,1202,558045
H2O RESIDENCES,9802,911,797533
THE MEYERISE,20173,1874,437918
STRATUM,12614,1172,519958
ASPEN HEIGHTS,17188,1597,238309
THE SPRINGSIDE,16987,1578,786480
THE TOPIARY,7579,704,797499
URBAN VISTA,15504,1440,465427
ESTIQUE,13469,1251,437361
THE MAKENA,15698,1458,437932
JEWEL @ BUANGKOK,12179,1131,544685
BARTLEY RIDGE,12293,1142,368057
Q BAY RESIDENCES,12686,1179,528584
STRATUM,8592,798,519955
STRATUM,13068,1214,519957
THE PEARL @ MOUNT FABER,13028,1210,99197
SOLEIL @ SINARAN,21034,1954,307468
CAMBIO SUITES,14206,1320,547791
KAP RESIDENCES,21397,1988,598292
THE PATERSON EDGE,28148,2615,238518
BAYWATER,9847,915,479242
BUKIT REGENCY,11154,1036,588135
1 CANBERRA,7930,737,768103
PARC VISTA,10593,984,649813
MAYFAIR RESIDENCES,15072,1400,429065
TWIN FOUNTAINS,7831,728,738998
N.A.,9835,914,805980
KAP RESIDENCES,18459,1715,598292
TWIN FOUNTAINS,7373,685,738997
JEWEL @ BUANGKOK,12414,1153,544685
BARTLEY RIDGE,13284,1234,368055
TWIN FOUNTAINS,7824,727,738992
BARTLEY RIDGE,14218,1321,368058
HERON BAY,8129,755,534019
MIDTOWN RESIDENCES,15264,1418,534785
THE TOPIARY,7988,742,797497
JEWEL @ BUANGKOK,13004,1208,544684
EIGHT RIVERSUITES,16262,1511,338519
BARTLEY RIDGE,13654,1268,368057
JEWEL @ BUANGKOK,12938,1202,544823
ECO SANCTUARY,12727,1182,679522
1 CANBERRA,7990,742,768078
KAP RESIDENCES,19936,1852,598292
LA CASA,8660,805,737901
MERA SPRINGS,15500,1440,219647
ECHELON,19187,1783,158741
TWIN FOUNTAINS,8091,752,738995
SEASONS PARK,9596,891,787078
LA FIESTA,12926,1201,544707
THE OCTET,14111,1311,398628
BARTLEY RIDGE,13482,1253,368057
THE COSMOPOLITAN,22195,2062,239471
CORALS AT KEPPEL BAY,22566,2096,98019
THE INTERLACE,9187,854,109692
KAP RESIDENCES,18876,1754,598292
1 CANBERRA,7944,738,768077
REGENT PARK,12413,1153,128805
JEWEL @ BUANGKOK,12331,1146,544687
KAP RESIDENCES,21159,1966,598292
N.A.,11441,1063,546729
KAP RESIDENCES,20063,1864,598292
CORALS AT KEPPEL BAY,21562,2003,98012
TWIN FOUNTAINS,8378,778,738998
TWIN FOUNTAINS,7989,742,738997
ECO,15410,1432,465491
KAP RESIDENCES,17741,1648,598292
ESTELLA GARDENS,9231,858,509739
ILLUMINAIRE ON DEVONSHIRE,28049,2606,239900
TWIN FOUNTAINS,8394,780,738997
TWIN REGENCY,18860,1752,169278
KAP RESIDENCES,19307,1794,598292
LIV ON SOPHIA,26960,2505,229977
NEWEST,9449,878,128021
STRATUM,10667,991,519947
VISTA PARK,10476,973,118174
SCOTTS SQUARE,39655,3684,228238
KINGSFORD . HILLVIEW PEAK,14768,1372,667981
RESIDENCES @ KILLINEY,24082,2237,239566
D'LEEDON,16961,1576,267952
JEWEL @ BUANGKOK,12827,1192,544687
JEWEL @ BUANGKOK,12359,1148,544688
JEWEL @ BUANGKOK,13038,1211,544684
Q BAY RESIDENCES,11419,1061,528590
LA FIESTA,10537,979,544702
HILLSTA,13363,1241,668202
MELVILLE PARK,8370,778,529948
LIBERTE,27301,2536,258125
CITYLIFE@TAMPINES,8753,813,528615
LA FIESTA,12759,1185,544830
SERANGOON GARDEN ESTATE,11703,1087,558640
JEWEL @ BUANGKOK,12680,1178,544823
AQUENE,12019,1117,426341
D'NEST,10721,996,518179
CAMBIO SUITES,14206,1320,547791
EAST MEADOWS,10000,929,465560
THE INTERLACE,12654,1176,109705
CARIBBEAN AT KEPPEL BAY,18675,1735,98635
LIV ON SOPHIA,26898,2499,229977
THE SIENA,24059,2235,266637
JEWEL @ BUANGKOK,12529,1164,544685
KAP RESIDENCES,19064,1771,598292
WATERCOLOURS,7537,700,518169
MON JERVOIS,23144,2150,249093
N.A.,16843,1565,427160
BIRMINGHAM MANSIONS,14873,1382,307682
JEWEL @ BUANGKOK,11802,1096,544688
BARTLEY RIDGE,12878,1196,368058
NV RESIDENCES,15217,1414,518190
LA FIESTA,12941,1202,544707
LA FIESTA,13308,1236,544707
SENNETT RESIDENCE,15120,1405,348226
WOODGROVE CONDOMINIUM,8278,769,738211
LA CASA,8776,815,737894
TWIN FOUNTAINS,8288,770,738998
THE GARDENS AT BISHAN,11232,1043,575577
KAP RESIDENCES,19755,1835,598292
LAUREL TREE,13791,1281,669267
WATERFRONT GOLD,12117,1126,479257
SIGNATURE PARK,11742,1091,596741
STRATUM,11250,1045,519949
OXFORD SUITES,14819,1377,218817
JEWEL @ BUANGKOK,14210,1320,544687
SPRINGDALE CONDOMINIUM,12788,1188,587975
GRANDE VISTA,9213,856,809688
WATERBAY,8302,771,828712
CITYLIFE@TAMPINES,8279,769,528594
WATERCOLOURS,7866,731,518168
D'LEEDON,16835,1564,267952
