Project Name,Unit Price ($ psm),Unit Price ($ psf),Postal Code
H2O RESIDENCES,10502,976,797534
CASHEW HEIGHTS CONDOMINIUM,10526,978,679662
EIGHT RIVERSUITES,13871,1289,338519
THE SPRINGSIDE,16880,1568,786160
CHUAN PARK,9908,920,556748
MENDON SPRING,9796,910,117526
MELROSE PARK,18400,1709,248904
CAIRNHILL PLAZA,18310,1701,229664
MAYSPRINGS,9973,927,678265
RIVER PLACE,14328,1331,169659
THE RAINFOREST,8330,774,689872
MEDGE,14600,1356,308186
KOVAN RESIDENCES,10063,935,544917
N.A.,2374,221,389033
MELVILLE PARK,7317,680,529943
D'CHATEAU @ SHELFORD,13880,1290,288415
COTSWOLD VILLAS,8274,769,357705
COUNTRY PARK CONDOMINIUM,9898,920,469568
THE ESTIVA,11209,1041,117482
SIMSVILLE,10308,958,389757
N.A.,14635,1360,437632
THE SPRINGSIDE,15083,1401,786393
LINCOLN SUITES,23061,2142,308381
THE PROMENADE@PELIKAT,10225,950,537643
SKYLINE RESIDENCES,22442,2085,109025
THE VERMONT ON CAIRNHILL,26917,2501,229746
THE PALETTE,12739,1183,518172
WATERFRONT WAVES,10902,1013,479248
THE QUINTET,8138,756,689103
NANYANG PARK,12343,1147,548691
CHATELET,14966,1390,258542
YISHUN EMERALD,7577,704,768429
VISTA RESIDENCES,15000,1394,329425
ARDMORE PARK,30970,2877,259955
TWIN WATERFALLS,8079,751,828791
SERANGOON GARDEN ESTATE,14074,1307,557941
BALLOTA PARK CONDOMINIUM,6743,626,507086
REGENT GROVE,7778,723,689528
BAYVILLE CONDOMINIUM,9890,919,118166
OPTIMA @ TANAH MERAH,13182,1225,465517
TWIN WATERFALLS,7936,737,828766
MONTVIEW,16643,1546,277116
THE SHELFORD,17388,1615,286891
SIGNATURE PARK,12083,1123,596742
THE TAMPINES TRILLIANT,8778,815,528610
THE PATERSON,22576,2097,238539
N.A.,18419,1711,398061
SKY@ELEVEN,19742,1834,297725
GARDENVISTA,13280,1234,589484
N.A.,2522,234,389058
SAVANNAH CONDOPARK,9325,866,528791
TWENTYONE ANGULLIA PARK,46854,4353,239974
N.A.,13624,1266,399218
THE ORANGE GROVE,25490,2368,258364
REGENT HEIGHTS,8526,792,659801
WASHINGTONIA VILLA,10164,944,806069
SARACA VILLAS,9275,862,805507
TWIN WATERFALLS,7713,717,828793
N.A.,11377,1057,588049
ONE-NORTH RESIDENCES,15161,1409,138642
MERA SPRINGS,14042,1305,219647
THOMSON HILLS ESTATE,9565,889,575933
MERALODGE,9270,861,669583
SIMEI GREEN CONDOMINIUM,9167,852,529863
MELVILLE PARK,7407,688,529945
SERANGOON GARDEN ESTATE,9087,844,556439
THOMSON GARDEN ESTATE,13706,1273,577161
THE ORANGE GROVE,24915,2315,258364
PARC PALAIS,9919,922,598751
N.A.,9494,882,487449
FLO RESIDENCE,10428,969,828745
ZEDGE,19556,1817,309973
NATURA@HILLVIEW,13433,1248,669231
FLO RESIDENCE,9321,866,828741
EIGHT RIVERSUITES,14586,1355,338519
THE LEVELZ,15811,1469,268836
EVERGREEN PARK,8041,747,538800
PARK INFINIA AT WEE NAM,19880,1847,308366
PASIR VIEW PARK,11290,1049,118571
SEAHILL,14643,1360,126777
TWIN WATERFALLS,8100,752,828771
EASTERN LAGOON,12813,1190,466402
WOODGROVE CONDOMINIUM,6984,649,738212
MARINA COLLECTION,30678,2850,98329
THE ESTUARY,10824,1006,769133
EMERALD HILL CONSERVATION AREA,18624,1730,229422
EAST MEADOWS,9603,892,465560
SERANGOON GARDEN ESTATE,13263,1232,555085
OEI TIONG HAM PARK,17611,1636,268296
OASIS @ MULBERRY,17514,1627,349689
WESTCOVE CONDOMINIUM,8714,810,128042
THE RAINFOREST,8225,764,689876
N.A.,14736,1369,417278
SOMMERVILLE PARK,16795,1560,259288
TWIN WATERFALLS,7037,654,828768
EAST COAST PARK,16437,1527,458262
THE IMPERIAL,18452,1714,239616
FLO RESIDENCE,8983,835,828744
THE QUINTET,7778,723,689104
THE VERMONT ON CAIRNHILL,29412,2732,229747
THE REGENCY AT TIONG BAHRU,15613,1451,169907
RIPPLE BAY,9956,925,518166
REGENT RESIDENCES,15666,1455,328190
EIGHT RIVERSUITES,14285,1327,338517
FLO RESIDENCE,9656,897,828745
THE QUINTET,7607,707,689103
THE HILLIER,17132,1592,667978
THE PALETTE,9391,872,518176
ASTON MANSIONS,8649,803,398028
THE RAINFOREST,7422,689,689871
REGENTVILLE,8800,818,538687
MELVILLE PARK,7835,728,529948
SUN PLAZA,7516,698,757713
TERRASSE,11776,1094,544776
RITZ MANSIONS,10744,998,329776
SILAHIS APARTMENT,8824,820,425762
AQUARIUS BY THE PARK,9302,864,478933
MY MANHATTAN,12719,1182,529900
JARDIN,19741,1834,589488
8@WOODLEIGH,13500,1254,357903
HAWAII TOWER,13885,1290,437898
THE RAINFOREST,7179,667,689876
THE CASCADIA,18585,1727,589624
ARCHIPELAGO,11891,1105,479280
ARDMORE II,27128,2520,259962
THE METZ,28704,2667,239864
CUSCADEN RESIDENCES,28402,2639,249723
THE TROPICA,8913,828,529771
THOMSON V TWO,17094,1588,575629
COTE D'AZUR,13786,1281,449298
HERITAGE EAST,14765,1372,429026
SIMEI GREEN CONDOMINIUM,9556,888,529864
THE TAMPINES TRILLIANT,8785,816,528609
AUSTVILLE RESIDENCES,7229,672,544806
THE METROPOLITAN CONDOMINIUM,13692,1272,158747
BREEZE BY THE EAST,11952,1110,465520
EASTVALE,8706,809,519494
THE PALETTE,10025,931,518172
N.A.,15774,1465,328321
RIPPLE BAY,10182,946,518164
SKYLINE RESIDENCES,22065,2050,109025
THE PALETTE,10047,933,518172
PRESTIGE HEIGHTS,17593,1634,329778
ORCHID PARK CONDOMINIUM,7414,689,768453
HEDGES PARK CONDOMINIUM,9118,847,506886
N.A.,11828,1099,348976
VACANZA @ EAST,12413,1153,417398
TRELLIS TOWERS,9222,857,319773
CLAREMONT,16141,1500,239569
THE VIEW @ MEYER,16667,1548,437871
FLO RESIDENCE,9383,872,828741
NATURA@HILLVIEW,14000,1301,669231
THE NAUTICAL,9451,878,769474
THE NAUTICAL,8671,806,769473
THE MINTON,10690,993,534077
AMARANDA GARDENS,13603,1264,554775
SELETAR PARK RESIDENCE,9128,848,807021
THE MINTON,9977,927,534077
THE VIRIDIAN,15857,1473,329507
SIN MING PLAZA,10870,1010,575585
PARKVIEW APARTMENTS,7885,732,658882
N.A.,13582,1262,467297
WOODSVALE,6942,645,738092
RIPPLE BAY,8150,757,518164
ZEDGE,17143,1593,309973
THE ESTUARY,9910,921,769136
SCOTTS SQUARE,49153,4566,228238
ARCHIPELAGO,10306,957,479276
TWIN WATERFALLS,7950,739,828766
NORTHWOOD,9677,899,759158
CARIBBEAN AT KEPPEL BAY,16379,1522,98651
PARC SOPHIA,17548,1630,229976
PALM ISLES,10977,1020,506866
HILLSTA,12676,1178,668202
EIGHT RIVERSUITES,13403,1245,338521
THE RAINFOREST,8390,779,689871
RIVIERA 38,12231,1136,328712
HILLBROOKS,10435,969,669592
NORTHOAKS,7217,671,738087
THE RAINFOREST,6869,638,689875
TWIN WATERFALLS,7532,700,828793
CITYSCAPE @FARRER PARK,14263,1325,219067
EIGHT RIVERSUITES,13861,1288,338520
THE TAMPINES TRILLIANT,8380,779,528614
THE MINTON,10273,954,534081
LUCIDA,17845,1658,307780
MAYSPRINGS,9840,914,678265
LIVIA,10081,937,518210
THE TRIZON,19778,1837,276693
THE MINTON,10293,956,534076
CANBERRA RESIDENCES,8708,809,768130
LAKEHOLMZ,8691,807,649820
THE SEAFRONT ON MEYER,17667,1641,437880
ONE LEICESTER,12500,1161,358828
REGENT PARK,11082,1030,128805
DUCHESS CREST,13594,1263,269203
THE TROPIC GARDENS,9741,905,466456
VILLA VERDE,7877,732,688354
WATERBANK AT DAKOTA,14291,1328,399944
EVERGREEN PARK,8416,782,538800
WOODSVILLE 28,14024,1303,357776
LEICESTER SUITES,15952,1482,358844
HOLLAND COURT,13536,1258,278576
CASTLE GREEN,7162,665,787059
EASTPOINT GREEN,8257,767,529892
RIO VISTA,8383,779,534202
FLO RESIDENCE,9870,917,828745
DOMUS,19520,1813,329564
TWIN WATERFALLS,8000,743,828766
N.A.,13723,1275,278535
HILLBROOKS,10427,969,669610
FLO RESIDENCE,9509,883,828745
MELVILLE PARK,7120,661,529943
TRELLIS TOWERS,12594,1170,319773
PEBBLE BAY,15118,1405,436919
TRIBECA,22264,2068,239497
YISHUN EMERALD,8316,773,768427
RIPPLE BAY,9094,845,518162
CASA FORTUNA,16809,1562,329980
N.A.,24212,2249,426671
REFLECTIONS AT KEPPEL BAY,18049,1677,98414
MEADOWS @ PEIRCE,12305,1143,787130
THE TESSARINA,14479,1345,276309
CLEMENTI PARK,10519,977,597159
THE QUINTET,7564,703,689104
TWIN WATERFALLS,7905,734,828771
FABER CREST,9429,876,129202
N.A.,13974,1298,428116
KINGSVILLE,14207,1320,266469
BRADDELL VIEW,7923,736,579722
AZALEA PARK CONDOMINIUM,7857,730,509727
N.A.,7634,709,209301
SEMBAWANG HILLS ESTATE,12052,1120,579396
THE WARREN,8467,787,689682
RIDGEWOOD,12903,1199,276692
MAYSPRINGS,9960,925,678265
LOYANG VILLAS,10167,945,507225
SEAHILL,15442,1435,126778
CHARLTON VILLAS,7842,729,539663
UE SQUARE,20213,1878,238275
REGENT PARK,10092,938,128805
RACE COURSE RD/OWEN RD CON AREA,13795,1282,217663
GILLENIA,10561,981,546195
FERRARIA PARK CONDOMINIUM,10610,986,506941
BLOSSOM RESIDENCES,7767,722,677722
LA VIDA @ 130,13886,1290,425769
THE ANCHORAGE,11130,1034,159953
SHAMROCK PARK,19007,1766,267094
TWIN WATERFALLS,8700,808,828766
DOVER PARKVIEW,10575,982,138686
BALLOTA PARK CONDOMINIUM,7803,725,507082
RIPPLE BAY,10275,955,518163
WATERFRONT KEY,11325,1052,479254
MAYSPRINGS,7778,723,678265
N.A.,9818,912,759925
THE SPRINGSIDE,16816,1562,786151
UBER 388,15237,1416,466477
8 @ MOUNT SOPHIA,16652,1547,228459
MONTVIEW,16543,1537,277116
CHANGI RISE CONDOMINIUM,9245,859,528808
THE RAINFOREST,8064,749,689874
THE TESSARINA,15164,1409,276305
SOLEIL @ SINARAN,20920,1943,307467
THE RAINTREE,10930,1015,587847
MANDALE HEIGHTS,14197,1319,308225
THE SAIL @ MARINA BAY,19841,1843,18985
KOVAN PRIMERA,10593,984,548177
PASIR VIEW PARK,11290,1049,118571
REFLECTIONS AT KEPPEL BAY,16479,1531,98414
REFLECTIONS AT KEPPEL BAY,16312,1515,98414
REFLECTIONS AT KEPPEL BAY,17391,1616,98414
BRADDELL VIEW,8859,823,579724
CAVENDISH PARK,11667,1084,597594
MI CASA,9145,850,689864
GLOUCESTER MANSIONS,16627,1545,307947
SANDALWOOD,12717,1181,423480
OASIS @ MULBERRY,17050,1584,349668
ASTON MANSIONS,8829,820,398028
SPRINGDALE CONDOMINIUM,11680,1085,587978
THE SPRINGBLOOM,10915,1014,556121
HAZEL PARK TERRACE,7112,661,678863
REGENT HEIGHTS,8028,746,659801
ARCHIPELAGO,12816,1191,479274
D'ZIRE,10786,1002,546290
PALM ISLES,9388,872,506893
TWIN WATERFALLS,8124,755,828769
REGENT GROVE,7615,707,689527
THE PEARL @ MOUNT FABER,13028,1210,99206
THE MINTON,9646,896,534081
CASTLE GREEN,8137,756,787056
LIVIA,10560,981,518217
ADAM PARK CONDOMINIUM,15076,1401,289895
WATERBANK AT DAKOTA,14743,1370,399944
BALMORAL HILLS,20388,1894,259844
N.A.,7859,730,538008
MELVILLE PARK,8206,762,529945
TANGLIN REGENCY,15063,1399,247966
RIVERSOUND RESIDENCE,9303,864,544813
TWIN WATERFALLS,7813,726,828771
PARC SOPHIA,18355,1705,229976
PARKVIEW APARTMENTS,8190,761,658882
WATERFRONT WAVES,11360,1055,479245
PANDAN VALLEY,10222,950,597630
SERAYA VILLE,9829,913,437280
EAST GALLERIA,8696,808,424268
HIGHGATE,15088,1402,598756
ESTELLA GARDENS,10902,1013,509740
PASIR PANJANG COURT,9738,905,118977
THE ANCHORAGE,12803,1189,159961
BOTANNIA,11711,1088,127724
SPRINGDALE CONDOMINIUM,10280,955,587975
CENTRO RESIDENCES,17948,1667,567752
PALM ISLES,9386,872,506893
FRANKEL ESTATE,18861,1752,459826
BALLOTA PARK CONDOMINIUM,7880,732,507085
VILLA INDAH,9505,883,425537
THE NAUTICAL,9576,890,769474
N.A.,30001,2787,98051
WATERBANK AT DAKOTA,15778,1466,399941
TANAH MERAH MANSION,9580,890,466671
ALLSWORTH PARK,15154,1408,278640
NORMANTON PARK,11102,1031,119002
REFLECTIONS AT KEPPEL BAY,16879,1568,98414
THE SUMMIT,11214,1042,466506
TWIN WATERFALLS,7929,737,828764
RIO VISTA,8122,755,534199
QUBE SUITES,13810,1283,418804
WEST BAY CONDOMINIUM,8400,780,128040
THE CLEARWATER,11095,1031,479233
SIGNATURE PARK,10990,1021,596746
PARC VERA,9562,888,534037
WESTVILLE,8728,811,648460
SHERWOOD TOWER,7305,679,588998
N.A.,10075,936,457593
CARABELLE,12263,1139,127015
PALM GROVE TERRACE,15261,1418,545465
FLAMINGO VALLEY,13568,1261,454852
EIGHT RIVERSUITES,15215,1414,338519
FLO RESIDENCE,9604,892,828744
EIGHT RIVERSUITES,14895,1384,338517
DOUBLE BAY RESIDENCES,13846,1286,529885
SHAMROCK PARK,21411,1989,267313
SEA AVENUE RESIDENCES,12883,1197,424228
EASTPOINT GREEN,9064,842,529891
ATRIUM RESIDENCES,9772,908,398412
RIVER PLACE,14938,1388,169658
PARC MONDRIAN,13218,1228,357916
EIGHT RIVERSUITES,14388,1337,338520
BARKER VILLE,10729,997,307486
YEW MEI GREEN,7867,731,689574
LOYANG VILLAS,8667,805,507199
RIPPLE BAY,8949,831,518161
PARK EAST,10645,989,457268
THE RAINFOREST,8247,766,689876
CENTRA RESIDENCE,9899,920,388792
THE MINTON,10189,947,534081
THE SPRINGSIDE,10856,1009,786666
SURIN VILLAS,7203,669,534064
PALM GROVE CONDOMINIUM,10698,994,547315
BELLE VUE RESIDENCES,28012,2602,238592
OPERA ESTATE,17199,1598,459554
PALM ISLES,9095,845,506893
SPOTTISWOODE 18,19376,1800,88642
HILLVIEW HEIGHTS,10254,953,669561
AUSTVILLE RESIDENCES,7260,675,544804
LEGENDA AT JOO CHIAT,8823,820,428127
PINE GROVE,10049,934,592001
CASA ROSA,8624,801,536443
N.A.,15817,1469,309778
THE BAYSHORE,10739,998,469970
PARC VERA,9890,919,534041
PALM ISLES,9181,853,506892
BOATHOUSE RESIDENCES,9354,869,534046
THE TAMPINES TRILLIANT,8581,797,528608
BAYSHORE PARK,10417,968,469985
HUNDRED TREES,13767,1279,128002
COSTA DEL SOL,12652,1175,469992
MY MANHATTAN,14686,1364,529903
WHITEWATER,8619,801,518770
LA DOLCE VITA,11837,1100,534955
EIGHT RIVERSUITES,14227,1322,338521
EIGHT RIVERSUITES,13568,1260,338520
PARC VERA,9726,904,534039
CENTRA SUITES,16190,1504,388242
N.A.,15667,1455,469842
SEASONS VIEW,10377,964,576149
BISHAN LOFT,10692,993,579820
RIPPLE BAY,8868,824,518184
BLOSSOM RESIDENCES,7541,701,677722
THE SEA VIEW,14532,1350,439942
PRISTINE HEIGHTS,12900,1198,219053
RIVERSOUND RESIDENCE,9396,873,544743
GRANGE INFINITE,26597,2471,239700
GRANGE INFINITE,26574,2469,239700
LAKEPOINT CONDOMINIUM,5971,555,648927
NATURA@HILLVIEW,14217,1321,669233
THE QUINTET,7521,699,689106
THE GARDENS AT BISHAN,10463,972,575574
MACPHERSON GARDEN ESTATE,13126,1219,368975
HELIOS RESIDENCES,40663,3778,229816
SERANGOON GARDEN ESTATE,10744,998,559476
REFLECTIONS AT KEPPEL BAY,16827,1563,98404
D'LEEDON,18995,1765,266224
THE PALETTE,9787,909,518172
THE ASTON,14854,1380,248973
PALM ISLES,9312,865,506893
THE WOODS,5339,496,648230
PALM ISLES,8544,794,506893
RESIDENCES @ EVELYN,18357,1705,309311
SAVANNAH CONDOPARK,7764,721,528782
MINT RESIDENCES @ JANSEN,12424,1154,548411
NUOVO,8636,802,569788
EUHABITAT,15054,1399,415872
TEMBELING MANSIONS,11294,1049,423742
THE VERMONT ON CAIRNHILL,27293,2536,229746
EMERALD GARDEN,16087,1495,69415
RIPPLE BAY,9646,896,518166
TWIN WATERFALLS,7650,711,828764
TWIN WATERFALLS,7606,707,828791
N.A.,9035,839,426233
EON SHENTON,16690,1551,79118
MARINA BAY SUITES,29260,2718,18965
RIPPLE BAY,9654,897,518163
THE RAINFOREST,8539,793,689874
REGENTVILLE,8307,772,538686
THE CALLISTA,9917,921,328702
RIPPLE BAY,9694,901,518161
LA DOLCE VITA,11619,1079,534955
PARK NATURA,12346,1147,659765
THE PETALS,9009,837,669627
HELIOS RESIDENCES,39809,3698,229816
SUITES @ EASTCOAST,14800,1375,455273
ONE DEVONSHIRE,24831,2307,239896
EON SHENTON,23394,2173,79118
PRIMEDGE,13159,1223,398236
THE TRIZON,17280,1605,276697
THE WATERINA,14068,1307,398075
SELETAR HILLS ESTATE,12091,1123,808377
TANJONG RIA CONDOMINIUM,11587,1076,436914
FLAMINGO VALLEY,14596,1356,454946
TWIN WATERFALLS,7780,723,828765
CENTRO RESIDENCES,16963,1576,567752
WATERBANK AT DAKOTA,13533,1257,399942
ALESSANDREA,13441,1249,159967
HAIG ELEVEN,11585,1076,438866
EAST COAST RESIDENCES,12742,1184,466488
PARK EAST,10583,983,457268
THE MINTON,10581,983,534077
EVERGREEN PARK,7505,697,538803
NORTHOAKS,7328,681,738087
NORTHVALE,7101,660,689673
THE RAINFOREST,8124,755,689871
SIGNATURE PARK,11020,1024,596742
THE SAIL @ MARINA BAY,20453,1900,18985
EON SHENTON,16330,1517,79118
HILLSTA,12399,1152,668202
THE PROMENADE@PELIKAT,12056,1120,537643
REFLECTIONS AT KEPPEL BAY,16794,1560,98414
DUNSFOLD 18,7664,712,359396
RIPPLE BAY,9150,850,518163
SUNRISE GARDENS,8180,760,806745
ARCHIPELAGO,12209,1134,479269
HARBOURLIGHTS,12195,1133,98830
CARISSA PARK CONDOMINIUM,8223,764,507025
THE BEVERLY,9459,879,596722
KATONG REGENCY,19487,1810,436950
EON SHENTON,23583,2191,79118
TREASURES@G19,14444,1342,388502
PARC BLEU,14372,1335,427946
TWIN WATERFALLS,7797,724,828790
THE SOUND,17619,1637,429069
CASPIAN,10435,969,648318
THE PROMENADE@PELIKAT,13024,1210,537643
BLISS VILLE,11743,1091,417030
THE COSMOPOLITAN,21346,1983,239471
SUMMERDALE,7373,685,649927
TWIN WATERFALLS,8116,754,828770
AQUARIUS BY THE PARK,10181,946,478930
CARIBBEAN AT KEPPEL BAY,15726,1461,98651
SELETAR PARK RESIDENCE,9396,873,807020
RIPPLE BAY,9646,896,518166
THE CLIFT,23686,2201,69047
LE CRESCENDO,12110,1125,409044
PAVILION PARK,14992,1393,658220
AQUARIUS BY THE PARK,9919,921,478932
ASTORIA PARK,10674,992,416827
PARK GREEN,8085,751,545040
THE MINTON,10253,953,534077
PALM ISLES,10831,1006,506866
NORTHOAKS,7050,655,738086
N.A.,14945,1388,278535
REFLECTIONS AT KEPPEL BAY,24554,2281,98419
THE PROMENADE@PELIKAT,13016,1209,537643
N.A.,9811,911,436990
TEXTILE CENTRE,9548,887,199018
RIPPLE BAY,9367,870,518184
CLOVER BY THE PARK,13793,1281,573973
THE WHARF RESIDENCE,19157,1780,238008
EVERGREEN PARK,8535,793,538800
TANGLIN PARK,21548,2002,248477
N.A.,9688,900,466889
CENTRO RESIDENCES,18319,1702,567752
EON SHENTON,28928,2687,79118
SIMSVILLE,9505,883,389757
BUONA VISTA GARDENS,8941,831,117687
CHESTERVALE,6679,621,679975
TWIN WATERFALLS,7194,668,828769
8 BASSEIN,20143,1871,309838
MY MANHATTAN,12651,1175,529901
THE SPRINGSIDE,16787,1560,786163
FLAMINGO VALLEY,14619,1358,455943
ILLUMINAIRE ON DEVONSHIRE,24576,2283,239900
BARTLEY RESIDENCES,15628,1452,436565
KATONG REGENCY,17368,1613,437158
ARCHIPELAGO,10604,985,479283
REGENT HEIGHTS,8189,761,659802
THE RAINFOREST,7500,697,689872
ILLUMINAIRE ON DEVONSHIRE,25373,2357,239900
KATONG REGENCY,20935,1945,436950
N.A.,14857,1380,436638
N.A.,16208,1506,278865
THE PARC CONDOMINIUM,11570,1075,127140
N.A.,5797,539,738223
ASPEN HEIGHTS,15865,1474,238309
NATURA@HILLVIEW,15204,1413,669233
COSTA RHU,11249,1045,437431
NATURA@HILLVIEW,14273,1326,669233
AUSTVILLE RESIDENCES,7229,672,544804
8 BASSEIN,20444,1899,309838
PRESTO@UPPER SERANGOON,14649,1361,534543
EIGHT RIVERSUITES,14143,1314,338521
PRESTO@UPPER SERANGOON,14425,1340,534543
PRESTO@UPPER SERANGOON,14425,1340,534543
N.A.,13690,1272,757140
ARCHIPELAGO,12392,1151,479277
THE GARDENS AT BISHAN,10951,1017,575577
MI CASA,9487,881,689864
THE WARREN,8376,778,689685
NANYANG PARK,9484,881,545636
RIVIERA 38,13143,1221,328712
YEW MEI GREEN,7208,670,689577
NATURA@HILLVIEW,14751,1370,669229
M21,15152,1408,308208
ONE-NORTH RESIDENCES,15714,1460,138642
D'LEEDON,18680,1735,266224
PARC ROSEWOOD,10494,975,737791
PAVILION PARK,16466,1530,658238
TWIN WATERFALLS,7822,727,828768
OASIS @ ELIAS,10172,945,519944
THE PROMENADE@PELIKAT,12056,1120,537643
ADRIA,21664,2013,309466
THE HILLIER,16558,1538,667978
KATONG REGENCY,19275,1791,437158
EVERGREEN PARK,7478,695,538803
PRIMEDGE,13671,1270,398236
THE QUINTET,7627,709,689101
CASA MERAH,11474,1066,465533
8 BASSEIN,21381,1986,309838
SUNNY PALMS,10204,948,426323
THE ARTE,12462,1158,329216
SOUTHAVEN I,8730,811,587972
YISHUN EMERALD,6917,643,768430
CASABLANCA,9080,844,737918
LIVIA,10647,989,518209
SEMBAWANG SPRINGS ESTATE,14002,1301,769535
BEACON HEIGHTS,12816,1191,328689
THE GALE,8974,834,506918
CASHEW HEIGHTS CONDOMINIUM,9673,899,679668
BAN GUAN PARK,20395,1895,278649
FLAMINGO VALLEY,11901,1106,454852
AMARYLLIS VILLE,16529,1536,307953
GRANDEUR 8,11053,1027,567741
MANDARIN GARDEN CONDOMINIUM,9589,891,448909
THE LUXURIE,11188,1039,544753
PRESTO@UPPER SERANGOON,13477,1252,534543
SUITES @ SHREWSBURY,19000,1765,307842
THOMSON GRAND,13472,1252,573918
MY MANHATTAN,12252,1138,529899
CHANGI COURT,10000,929,486828
CANBERRA RESIDENCES,8592,798,768125
TWIN WATERFALLS,7689,714,828792
N.A.,11556,1074,486927
OPTIMA @ TANAH MERAH,11591,1077,465517
ARCHIPELAGO,10556,981,479270
THE QUARTZ,7786,723,544984
8 BASSEIN,21600,2007,309838
INTERNATIONAL PLAZA,11367,1056,79903
WESTVILLE,9188,854,648602
KATONG REGENCY,21627,2009,437159
THE PROMENADE@PELIKAT,12313,1144,537643
MEADOWS @ PEIRCE,12558,1167,787132
BLISS@KOVAN,15383,1429,546019
18 WOODSVILLE,20492,1904,357799
KATONG REGENCY,16889,1569,437159
THE FLORAVALE,7261,675,648357
PARBURY HILL CONDOMINIUM,9464,879,467303
THE MEYER PLACE,13613,1265,437995
MELVILLE PARK,7419,689,529942
ROBERTSON 100,17927,1665,238250
ROSEWOOD,8632,802,737934
FORTUNE JADE,11386,1058,439193
FOREST HILLS CONDOMINIUM,8268,768,778893
YEW MEI GREEN,7417,689,689577
HORIZON GARDENS,6072,564,569952
SIN CHUAN GARDEN,8566,796,416295
CHANGI RISE CONDOMINIUM,8777,815,528808
TREASURES@G19,14825,1377,388502
DUNEARN GARDENS,19828,1842,309420
HARBOURLIGHTS,16429,1526,98830
LIRIA TERRACE,8966,833,507162
PALM GARDENS,8539,793,689050
N.A.,14210,1320,277299
MONTEBLEU,17733,1647,308162
HILLVIEW REGENCY,9320,866,659921
N.A.,13473,1252,534196
AUSTVILLE RESIDENCES,8202,762,544808
SMART SUITES,15809,1469,387516
THE PROMENADE@PELIKAT,12056,1120,537643
THE PROMENADE@PELIKAT,13016,1209,537643
N.A.,16143,1500,278909
EAST VIEW,12831,1192,429986
RESIDENCES @ EVELYN,19507,1812,309311
TWIN WATERFALLS,8083,751,828790
MELVILLE PARK,7522,699,529948
THE MINTON,10377,964,534070
UBER 388,15497,1440,466477
RIVERSOUND RESIDENCE,9727,904,544743
ONE-NORTH RESIDENCES,17193,1597,138642
WELLINGTON PARK,13559,1260,568979
SUITES @ PAYA LEBAR,15405,1431,534049
THE CALROSE,11489,1067,787066
BLOSSOM RESIDENCES,7603,706,677723
TERRASSE,11101,1031,544779
RIPPLE BAY,9289,863,518163
THE CHANCERY RESIDENCE,8924,829,309555
CHUAN SEVEN,6615,615,554871
ARC AT TAMPINES,8063,749,529599
THE MINTON,9664,898,534077
BAYSHORE PARK,10250,952,469983
N.A.,10534,979,399750
SOUTHAVEN II,10219,949,587968
OPTIMA @ TANAH MERAH,12099,1124,465517
THE PALETTE,13181,1225,518172
HOUGANG GREEN,7264,675,539748
ARCHIPELAGO,8650,804,479293
PARC VERA,9479,881,534039
THE COSMOPOLITAN,22174,2060,239496
CRADELS,16045,1491,328754
SHERWOOD TOWER,7210,670,588998
FLORISSA PARK,11740,1091,789617
SEAHILL,12683,1178,126777
NATURA@HILLVIEW,11572,1075,669233
MACPHERSON GARDEN ESTATE,10343,961,369165
TWIN WATERFALLS,8007,744,828792
PALM ISLES,9245,859,506893
ARCHIPELAGO,12462,1158,479282
PALM ISLES,9450,878,506893
TWIN WATERFALLS,8157,758,828791
18 WOODSVILLE,16854,1566,357799
BOATHOUSE RESIDENCES,11797,1096,534042
MY MANHATTAN,11845,1100,529903
WATERVIEW,9509,883,528692
THE RAINFOREST,8250,766,689876
THE ANSLEY,14118,1312,308214
DOVER PARKVIEW,9914,921,138684
TREVISTA,14118,1312,319583
THOMSON GRAND,14392,1337,575579
LA DOLCE VITA,11242,1044,534956
ALEXIS,15059,1399,159949
SANCTUARY GREEN,13596,1263,436923
KATONG REGENCY,20963,1947,437159
THE EDEN AT TAMPINES,6878,639,529234
KATONG REGENCY,15531,1443,437159
CHUAN PARK,9438,877,556745
YEW MEI GREEN,7290,677,689575
VIDA,24583,2284,228307
MI CASA,9217,856,689864
NESS,12062,1121,398298
N.A.,12573,1168,439190
THE SAIL @ MARINA BAY,30156,2802,18987
THE OCEANFRONT @ SENTOSA COVE,21053,1956,98531
RIPPLE BAY,9011,837,518163
THE MARQUE @ IRRAWADDY,12621,1173,328108
SIMS GREEN,8913,828,388134
CAMELIA PARK,10734,997,806115
KOVAN MELODY,12679,1178,545022
SMART SUITES,15091,1402,387516
FAIRLODGE,13361,1241,278553
REGENCY PARK,19764,1836,248732
KATONG REGENCY,21623,2009,437158
MEYA LODGE,10536,979,358463
HILLINGTON GREEN,10761,1000,669566
VIDA,24359,2263,228307
THE YARDLEY,11515,1070,534798
COUNTRY PARK CONDOMINIUM,11492,1068,469565
KATONG REGENCY,13474,1252,437158
KATONG REGENCY,16527,1535,437159
TWIN WATERFALLS,7920,736,828769
THE RAINFOREST,8189,761,689874
THE FOLIAGE,10191,947,118707
SELETAR GARDEN,11170,1038,809660
MI CASA,10315,958,689863
PALM ISLES,9388,872,506893
KATONG REGENCY,20183,1875,437159
THE GARDENS AT BISHAN,8929,829,575574
THE TAMPINES TRILLIANT,9312,865,528609
THE MEYERISE,17897,1663,437986
EAST MEADOWS,11188,1039,465559
HIGHGATE,16251,1510,598804
D'LOTUS,12121,1126,328784
THE CASCADIA,18929,1759,589658
PALM ISLES,9125,848,506895
FABER CREST,8493,789,129201
FOREST HILLS CONDOMINIUM,7851,729,778905
THE TAMPINES TRILLIANT,9215,856,528770
NESS,13674,1270,398298
CASABLANCA,8483,788,737919
CLEMENTI PARK,11579,1076,597158
PARC VERA,9137,849,534037
PALM ISLES,8839,821,506893
KATONG REGENCY,18092,1681,437158
KATONG REGENCY,20370,1892,437159
KATONG REGENCY,20370,1892,437159
8@WOODLEIGH,13529,1257,357903
CRADELS,16474,1530,328754
N.A.,7246,673,598175
KATONG REGENCY,20553,1909,437158
WHITESCAPE,14286,1327,425239
FLAMINGO VALLEY,13572,1261,454943
PARC VERA,9356,869,534037
NORTHOAKS,6947,645,738084
EASTERN LAGOON,13429,1248,455287
SANDILANDS RESIDENCES,12739,1183,546104
SERANGOON GARDEN ESTATE,12288,1142,558619
THE PROMINENCE,8087,751,438749
GRANDEUR 8,10766,1000,567741
N.A.,13160,1223,359027
INGGU 6,14472,1344,757188
NINETEEN SHELFORD ROAD,16000,1486,288408
CENTRA RESIDENCE,9798,910,388792
ROSALIA PARK,8790,817,536407
HAIG COURT,12361,1148,438791
IDYLLIC EAST,10396,966,466588
THE SEA VIEW,17320,1609,439942
THE CANOPY,7045,655,768861
OLEANDER TOWERS,11750,1092,319772
THE REGENCY AT TIONG BAHRU,15930,1480,169905
N.A.,21363,1985,249773
TREASURE PLACE,11905,1106,119174
NORTHOAKS,6942,645,738081
PASIR RIS BEACH PARK,9083,844,518701
THE CLEMENTVALE,11200,1040,126846
THE CALLISTA,9709,902,328702
8@WOODLEIGH,13500,1254,357902
OLA RESIDENCES,14748,1370,437831
THE TAMPINES TRILLIANT,9000,836,528771
TWIN WATERFALLS,7410,688,828791
THE SERENADE @ HOLLAND,12028,1117,278698
N.A.,8179,760,539608
EIGHT COURTYARDS,8553,795,768138
TWIN WATERFALLS,7810,726,828764
ATRIUM RESIDENCES,10682,992,398416
MY MANHATTAN,12412,1153,529902
GOLDENHILL PARK CONDOMINIUM,13655,1269,568427
PASADENA,14122,1312,309470
N.A.,15069,1400,288924
THE QUINTET,7735,719,689103
LEGENDA AT JOO CHIAT,9391,872,428122
THE QUINTET,7483,695,689102
PALM ISLES,8643,803,506892
N.A.,3635,338,389015
VARSITY PARK CONDOMINIUM,9879,918,126832
CLEMENTIWOODS CONDOMINIUM,13011,1209,126815
THE TESSARINA,15649,1454,276310
TRELLIS TOWERS,16667,1548,319773
HARBOUR VIEW TOWERS,15135,1406,109258
COTSWOLD VILLAS,7961,740,357704
PRESTO@UPPER SERANGOON,11695,1086,534543
HILLINGTON GREEN,8548,794,669565
WESTVILLE,8344,775,648534
HUME PARK I,8800,818,598723
KATONG REGENCY,17859,1659,437159
TEXTILE CENTRE,9695,901,199018
THE RAINFOREST,6931,644,689874
ADAM PARK CONDOMINIUM,13252,1231,289902
SYCAMORE TREE,14917,1386,428505
THE LUXURIE,11132,1034,544753
18 WOODSVILLE,17980,1670,357799
SELETAR PARK RESIDENCE,12772,1187,807021
KATONG REGENCY,19487,1810,436950
RIPPLE BAY,9962,926,518184
CASPIAN,10753,999,648318
THE SUNSHINE,10526,978,535689
SUITES @ NEWTON,22075,2051,307740
FLORISSA PARK,9237,858,789658
POSHGROVE EAST,14376,1336,429099
THE RAINFOREST,8279,769,689875
PALISADES,12140,1128,118635
8 BASSEIN,21000,1951,309838
SEMBAWANG PARK,12238,1137,759252
CHARLTON PARK,11702,1087,537602
TELOK INDAH,7500,697,426278
KERRISDALE,11573,1075,207853
THE MINTON,10492,975,534081
PINE GROVE,9202,855,595001
PINE GROVE,9568,889,591401
MARINA BAY SUITES,29517,2742,18965
AUSTVILLE RESIDENCES,7991,742,544808
SEAHILL,15611,1450,126777
RIPPLE BAY,8803,818,518160
QUEENS,12918,1200,148955
CRADELS,16796,1560,328754
PRESTO@UPPER SERANGOON,13676,1271,534543
THOMSON GRAND,15338,1425,575580
LA DOLCE VITA,11414,1060,534955
LAGUNA PARK,10133,941,449285
KATONG REGENCY,13819,1284,436950
KATONG REGENCY,20755,1928,436950
KATONG REGENCY,19573,1818,437158
THE RAINFOREST,7589,705,689874
DLV.,16493,1532,259469
THE MINTON,10596,984,534081
SOPHIA RESIDENCE,18075,1679,228194
N.A.,9970,926,417674
GOLDEN RISE ESTATE,11416,1061,598093
LA VIDA @ 130,13523,1256,425769
ARCHIPELAGO,9315,865,479267
KATONG REGENCY,20846,1937,436950
KATONG REGENCY,13605,1264,436950
SPOTTISWOODE RESIDENCES,22541,2094,88660
THE BAYSHORE,10529,978,469971
VACANZA @ EAST,11813,1097,417393
NOUVELLE PARK,9954,925,546684
KATONG REGENCY,18577,1726,437158
KATONG REGENCY,17931,1666,437159
TWIN WATERFALLS,7196,668,828765
N.A.,12446,1156,419179
PRESTO@UPPER SERANGOON,14425,1340,534543
THE NAUTICAL,9328,867,769474
ASCENTIA SKY,16521,1535,158749
DUCHESS MANOR,17750,1649,269033
LIVIA,10480,974,518217
VALLEY PARK,15046,1398,248368
RIVERGATE,21368,1985,238258
WOODSVALE,7174,666,738093
THE TESSARINA,15041,1397,276308
KATONG REGENCY,16144,1500,436950
THE RAINFOREST,7116,661,689874
SMART SUITES,15532,1443,387516
RIPPLE BAY,7358,684,518160
PALM ISLES,8990,835,506893
COTE D'AZUR,13659,1269,449300
KATONG REGENCY,16062,1492,437159
SMART SUITES,15373,1428,387516
KATONG REGENCY,16119,1498,436950
THOMSON GRAND,14056,1306,573914
THE ATRIA AT MEYER,14400,1338,437885
THE SPRINGBLOOM,10296,957,556119
EXCELSIOR GARDENS,16067,1493,467389
ONE-NORTH RESIDENCES,17321,1609,138643
THE ESTUARY,9907,920,769138
THE BELLEFORTE,13158,1222,329974
KATONG REGENCY,14471,1344,437159
FLORIDIAN,17011,1580,589662
RIDGEVALE GARDENS,13825,1284,588152
SAVANNAH CONDOPARK,7640,710,528783
RACE COURSE 138,10540,979,218591
RACE COURSE 138,10548,980,218591
FERRARIA PARK CONDOMINIUM,10488,974,506944
THE QUINTET,7390,687,689103
KENTVIEW PARK,12273,1140,118892
KATONG REGENCY,16473,1530,437159
THE ARCADIA,12104,1124,289843
COSTA DEL SOL,13525,1256,469987
HILLCREST VILLA,10488,974,286713
CARIBBEAN AT KEPPEL BAY,16150,1500,98652
HILLBROOKS,10870,1010,669610
SMART SUITES,15396,1430,387516
PALM ISLES,9033,839,506893
THE PALETTE,9925,922,518172
MY MANHATTAN,12075,1122,529903
TEXTILE CENTRE,9695,901,199018
MELVILLE PARK,7377,685,529948
TWIN WATERFALLS,7406,688,828790
HAWAII TOWER,13750,1277,437901
KATONG REGENCY,13953,1296,436950
THE MINTON,9813,912,538755
MEADOWS @ PEIRCE,11316,1051,787131
THE CLIFT,23446,2178,69047
EON SHENTON,18810,1747,79118
SELETAR HILLS ESTATE,13894,1291,808582
DE CASALLE,10182,946,425236
THE RAINFOREST,7589,705,689874
THE LANAI,14713,1367,669600
HILLVIEW REGENCY,10119,940,659920
TREVISTA,13445,1249,319582
WATERMARK ROBERTSON QUAY,19388,1801,238214
YEW MEI GREEN,6329,588,689574
THE QUINTET,7808,725,689104
KATONG REGENCY,14503,1347,436950
ROSEWOOD,7810,726,737937
KEW GATE,7037,654,466066
PARC VERA,9019,838,534041
THE MINTON,9813,912,534076
SKYSUITES@ANSON,22456,2086,79718
CANBERRA RESIDENCES,8577,797,768124
KATONG REGENCY,16949,1575,437159
QUBE SUITES,9641,896,418804
PRESTO@UPPER SERANGOON,14633,1359,534543
SMART SUITES,15091,1402,387516
STRATA,17980,1670,309329
SEASONS PARK,8948,831,787080
WINDERMERE,7000,650,689093
CABANA,7869,731,805339
RIPPLE BAY,9188,854,518164
SELETAR PARK RESIDENCE,9068,842,807021
THE TAMPINES TRILLIANT,8777,815,528769
THE VERTE,10630,988,426146
N.A.,15734,1462,426108
KATONG REGENCY,20846,1937,437158
THE RAINFOREST,8288,770,689876
N.A.,17213,1599,278093
N.A.,5857,544,738306
KATONG REGENCY,15690,1458,437159
THE FOLIAGE,11792,1096,118709
THE INTERLACE,12596,1170,109702
THE INTERLACE,12520,1163,109702
TWIN WATERFALLS,7487,696,828771
THE MAKENA,12533,1164,437936
EUPHONY GARDENS,6029,560,759155
TREVISTA,13775,1280,319581
DOMAIN 21,14202,1319,169814
PACIFIC MANSION,15317,1423,238433
KATONG REGENCY,19569,1818,437158
KATONG REGENCY,17558,1631,437159
CHESTERVALE,6346,590,679978
KEMBANGAN SUITES,17308,1608,418941
STARVILLE,9130,848,417456
BLU CORAL,11728,1090,425562
THE MINTON,9806,911,534077
TWIN WATERFALLS,7936,737,828765
NATURA@HILLVIEW,14136,1313,669233
THE PALETTE,9195,854,518199
PARC VERA,9781,909,534041
ARCHIPELAGO,12714,1181,479268
ROSEWOOD,7628,709,737938
KATONG REGENCY,20935,1945,436950
KATONG REGENCY,18468,1716,436950
TWIN WATERFALLS,7649,711,828790
TWIN WATERFALLS,7137,663,828790
RIDGEWOOD,12366,1149,276692
THE LAKESHORE,11818,1098,649411
SERANGOON GARDEN ESTATE,13164,1223,557706
TWIN WATERFALLS,7637,709,828771
FORESQUE RESIDENCES,12697,1180,678272
TWENTYONE ANGULLIA PARK,42604,3958,239974
THE QUINTET,7669,713,689105
NORTHVALE,6587,612,689673
FORESQUE RESIDENCES,12147,1128,678275
TWIN WATERFALLS,8276,769,828766
ARCHIPELAGO,10669,991,479274
CHANTILLY RISE,10339,961,669581
PALM GARDENS,7841,728,689049
TWIN REGENCY,16045,1491,169277
ONE LEICESTER,12946,1203,358828
THE GARDENS AT BISHAN,10159,944,575578
SPRINGDALE CONDOMINIUM,10952,1018,587977
KATONG REGENCY,19192,1783,437159
MAPLEWOODS,13984,1299,589630
TWIN WATERFALLS,7564,703,828768
WATERMARK ROBERTSON QUAY,17904,1663,238213
THE ESPARIS,7178,667,519459
MIRAGE TOWER,18180,1689,239426
THE TAMPINES TRILLIANT,8505,790,528769
NEWTON EDGE,17333,1610,228598
VISTA PARK,9722,903,118175
SUNFLOWER GRANDEUR,10215,949,387878
EASTPOINT GREEN,8989,835,529890
THE INFINITI,9800,910,127716
RIVERVALE CREST,8286,770,545086
KENTISH COURT,10082,937,218816
PARC PALAIS,11111,1032,598752
ARCHIPELAGO,13363,1241,479274
THE SCOTTS TOWER,41027,3811,228240
TWIN WATERFALLS,7241,673,828769
ARCHIPELAGO,11958,1111,479281
TAI HWAN GARDEN,10798,1003,555268
THE NAUTICAL,9760,907,769475
MEIER SUITES,16244,1509,438051
HUNDRED TREES,9896,919,128001
PARC SOPHIA,17903,1663,229976
SERANGOON GARDEN ESTATE,14303,1329,556427
PAYA LEBAR GARDENS,14888,1383,537183
26 NEWTON,25616,2380,307957
PRESTO@UPPER SERANGOON,13571,1261,534543
THE RAINFOREST,7781,723,689875
MONARCHY APARTMENTS,10185,946,308231
N.A.,5766,536,328993
TUDOR TEN,6541,608,297974
N.A.,13480,1252,535107
NATURA@HILLVIEW,14392,1337,669231
KATONG REGENCY,17873,1660,437158
KATONG REGENCY,17728,1647,436950
HILLSTA,10953,1018,667973
KATONG REGENCY,19000,1765,436950
KATONG REGENCY,16438,1527,437158
THE TAMPINES TRILLIANT,8938,830,528770
PINNACLE 16,15000,1394,328107
NORTHVALE,8034,746,689668
THE PALETTE,10008,930,518197
SELETAR PARK RESIDENCE,9397,873,807020
REGENT PARK,12133,1127,128803
WATERFRONT KEY,11491,1068,479251
CARISSA PARK CONDOMINIUM,10261,953,507025
D' HILLSIDE LOFT,11947,1110,118853
N.A.,13345,1240,429830
THE LINEAR,9741,905,678182
BAYSHORE PARK,9708,902,469985
THE INSPIRA,15034,1397,239949
CENTRA RESIDENCE,9848,915,388792
KATONG REGENCY,18673,1735,436950
KATONG REGENCY,18680,1735,436950
COSTA DEL SOL,14474,1345,469992
THE ABERDEEN,9512,884,329023
HILLSTA,12552,1166,668202
PARC ROSEWOOD,10234,951,737791
LATITUDE,23881,2219,249208
ARCHIPELAGO,12000,1115,479277
SELETAR PARK RESIDENCE,13676,1271,807019
KATONG REGENCY,16517,1534,437158
QUBE SUITES,14125,1312,418804
KATONG REGENCY,18772,1744,436950
KEMBANGAN SUITES,15833,1471,418941
18 WOODSVILLE,20193,1876,357799
SEAHILL,13721,1275,126778
HILLSTA,11335,1053,668201
SEMBAWANG SPRINGS ESTATE,10220,949,769534
KATONG REGENCY,15494,1439,436950
TERRASSE,7759,721,544775
CASA MERAH,11644,1082,465529
PRESTO@UPPER SERANGOON,14530,1350,534543
TRIBECA,18898,1756,239497
N.A.,14682,1364,456111
AUSTVILLE RESIDENCES,7547,701,544805
THE PALETTE,9711,902,518197
THE PROMENADE@PELIKAT,10552,980,537643
NOTTINGHILL SUITES,17568,1632,596195
NOTTINGHILL SUITES,17568,1632,596195
TREVISTA,14000,1301,319581
ONE-NORTH RESIDENCES,13888,1290,138642
MI CASA,8922,829,689864
SOUTHBANK,17623,1637,198784
KATONG REGENCY,15773,1465,436950
VILLA DE WEST,9280,862,118719
THE VANDERLINT,14768,1372,429665
ARCHIPELAGO,13363,1241,479274
PALM GROVE TERRACE,14442,1342,545468
PANDAN VALLEY,11457,1064,597628
SIMSVILLE,9310,865,389757
THE SEAFRONT ON MEYER,16533,1536,437978
BOTANNIA,11184,1039,127723
RIVERVALE CREST,8889,826,545084
N.A.,13773,1280,457128
BLU CORAL,13830,1285,425603
THE GARDENS AT BISHAN,10878,1011,575574
RIVIERA 38,13182,1225,328712
HERITAGE EAST,12311,1144,429026
RIPPLE BAY,9253,860,518164
TWIN WATERFALLS,8009,744,828767
THE ESTUARY,9917,921,769136
ICON,21429,1991,78878
MY MANHATTAN,13218,1228,529900
VACANZA @ EAST,11557,1074,417392
REFLECTIONS AT KEPPEL BAY,19705,1831,98417
LAKEPOINT CONDOMINIUM,5545,515,648923
ARCHIPELAGO,12026,1117,479276
NOTTINGHILL SUITES,17000,1579,596195
TWIN WATERFALLS,7598,706,828768
SANCTUARY GREEN,12222,1135,436924
SENTOSA COVE,19004,1766,98338
SIGNATURE PARK,12083,1123,596745
WATERFALL GARDENS,14216,1321,268820
THE LUXURIE,10538,979,544759
REFLECTIONS AT KEPPEL BAY,16939,1574,98410
THE CASCADIA,17636,1638,589639
N.A.,15604,1450,266600
18 WOODSVILLE,20425,1897,357799
THE PROMENADE@PELIKAT,11513,1070,537643
KATONG REGENCY,15464,1437,436950
KATONG REGENCY,15926,1480,437159
THE SUNSHINE,10696,994,535689
BLISS@KOVAN,13888,1290,546053
KATONG REGENCY,21028,1954,437158
KATONG REGENCY,20571,1911,436950
OPERA ESTATE,14963,1390,455602
THE FLORIDA,7561,702,538804
N.A.,11232,1043,368903
CARIBBEAN AT KEPPEL BAY,14718,1367,98635
THE TESSARINA,14549,1352,276308
EUPHONY GARDENS,7311,679,759150
SELETARIS,7813,726,757709
OPERA ESTATE,14727,1368,459710
NORTHOAKS,6983,649,738084
TWIN WATERFALLS,8258,767,828768
THE QUINTET,7683,714,689106
THE LUSH,15439,1434,429266
EAST MEADOWS,10205,948,465559
NATURA@HILLVIEW,13782,1280,669233
THE HELICONIA,10246,952,419572
LIRIA TERRACE,13413,1246,507132
COMFORT GARDEN,8957,832,689464
TWIN WATERFALLS,7616,708,828768
WATERTOWN,13701,1273,828841
ROCHELLE AT NEWTON,15438,1434,308414
THE RAINFOREST,8151,757,689875
THE CASCADIA,18121,1683,589639
PINNACLE 16,15556,1445,328107
THE MINTON,9197,854,534081
PARC VERA,8972,833,534041
THE COUNTRYSIDE,12917,1200,789861
RITZ REGENCY,12288,1142,438611
TWIN WATERFALLS,7491,696,828791
THE MINTON,10293,956,534081
BISHAN PARK CONDOMINIUM,8093,752,575571
8 BASSEIN,20840,1936,309838
FLAMINGO VALLEY,12837,1193,454855
THE SERENADE @ HOLLAND,12107,1125,278698
THE NEXUS,14830,1378,589650
HUNDRED TREES,12471,1159,127999
THE ARIEL,10338,960,426536
EON SHENTON,28536,2651,79118
KATONG REGENCY,21028,1954,437158
TWIN WATERFALLS,7156,665,828770
SHANGHAI ONE,16154,1501,248180
KATONG REGENCY,16402,1524,437158
URBAN LOFTS,18974,1763,218375
EUHABITAT,14670,1363,415872
KATONG REGENCY,15537,1443,436950
HAZEL PARK CONDOMINIUM,9677,899,678948
RIVERSOUND RESIDENCE,9197,854,544811
KATONG REGENCY,15767,1465,437159
CARDIFF RESIDENCE,13649,1268,558962
HILLSIDE GARDENS,9976,927,549025
RV SUITES,19180,1782,248289
TWIN WATERFALLS,8343,775,828768
THE ESPARIS,7684,714,519463
THE QUINTET,8538,793,689103
ESCADA VIEW,10400,966,417657
N.A.,13777,1280,278777
MANDALE HEIGHTS,14528,1350,308225
KATONG REGENCY,17562,1632,437158
INGGU 6,14825,1377,757190
EON SHENTON,23576,2190,79118
THE CASCADIA,18098,1681,589640
PAVILION PARK,16278,1512,658240
THE MINTON,9970,926,534077
VILLA MARINA,9654,897,457401
N.A.,18450,1714,248111
POSHGROVE EAST,12683,1178,428960
SUMMERDALE,7611,707,649928
THE WOODS,5188,482,648275
PALM GROVE TERRACE,14560,1353,545467
N.A.,4223,392,397650
SKY HABITAT,16158,1501,573908
THE PROMENADE@PELIKAT,10552,980,537643
TANJONG RIA CONDOMINIUM,12154,1129,436914
ONE JERVOIS,17544,1630,249107
ARCHIPELAGO,11357,1055,479276
THE RAINFOREST,8599,799,689874
KATONG REGENCY,13406,1245,437159
TWIN WATERFALLS,7673,713,828767
VIVA,21124,1962,307464
THE TANAMERA,9106,846,466664
NATURA@HILLVIEW,13998,1300,669233
UNI BUILDING,7024,653,423836
BEACON HEIGHTS,11623,1080,328689
THE RIVERVALE,7795,724,545119
KATONG REGENCY,16946,1574,436950
EAST VILLAGE,16780,1559,487049
N.A.,22606,2100,423651
EAST GROVE,11317,1051,429003
HILLVISTA,14118,1312,669743
8 BASSEIN,20429,1898,309838
LAGUNA PARK,10400,966,449288
WATERVIEW,10288,956,528685
RIVIERA 38,12810,1190,328712
TANGLIN PARK,20323,1888,248480
THE LUXURIE,10743,998,544754
THE MILTONIA RESIDENCES,8403,781,768115
TWIN WATERFALLS,6995,650,828769
TWIN WATERFALLS,7065,656,828790
PARC SOPHIA,20455,1900,229979
AUSTVILLE RESIDENCES,7200,669,544805
KATONG REGENCY,19885,1847,437159
TWIN WATERFALLS,7709,716,828765
SKYLINE RESIDENCES,21792,2024,109026
NORTHOAKS,7069,657,738086
THE CASCADIA,18060,1678,589639
ARCHIPELAGO,12573,1168,479274
N.A.,16411,1525,436643
TERESA VILLE,12088,1123,99308
PALM ISLES,9567,889,506893
TWIN WATERFALLS,8373,778,828766
KATONG REGENCY,16704,1552,437159
THE URBANITE,17213,1599,219384
WATERTOWN,11658,1083,828842
THE GARDENS AT BISHAN,10132,941,575578
PARC VISTA,8878,825,649811
THE SOUND,18563,1725,429075
PAVILION PARK,16109,1497,658232
TERRASSE,7759,721,544775
FORESQUE RESIDENCES,11665,1084,678275
SELETAR PARK RESIDENCE,13881,1290,807019
ELLIOT AT THE EAST COAST,14615,1358,458703
ONE AMBER,14286,1327,439974
THE TAMPINES TRILLIANT,8215,763,528612
THE RIVERVALE,7851,729,545119
THE RAINFOREST,5976,555,689872
PARC PALAIS,10439,970,598752
THE TRUMPS,13068,1214,419154
HUNDRED TREES,9375,871,128001
ZEDGE,19111,1775,309973
THE PALETTE,9484,881,518175
RIVERSOUND RESIDENCE,9037,840,544742
STADIA,13462,1251,545542
MELVILLE PARK,8082,751,529944
THE RAINFOREST,7449,692,689875
THE PROMENADE@PELIKAT,12375,1150,537643
RIVER PLACE,15411,1432,169659
THE CASCADIA,17935,1666,589640
THE QUINTET,7750,720,689106
TWIN WATERFALLS,8175,759,828765
EASTWOOD REGENCY,15333,1425,486398
THE RAINFOREST,8144,757,689873
COSTA RHU,12418,1154,437433
WATERFRONT WAVES,11074,1029,479249
KATONG REGENCY,20269,1883,437158
MEADOWS @ PEIRCE,11840,1100,787130
TWIN WATERFALLS,7101,660,828790
ARC AT TAMPINES,8117,754,529599
THE PROMENADE@PELIKAT,10552,980,537643
NATURA@HILLVIEW,14270,1326,669229
CASABELLA,15029,1396,269187
HILLSTA,10603,985,667973
TRILIGHT,19012,1766,307997
TWIN WATERFALLS,8453,785,828769
AUSTVILLE RESIDENCES,7542,701,544804
BOON TECK APARTMENTS,10348,961,329609
RIO VISTA,8190,761,534198
BRADDELL HEIGHTS ESTATE,10642,989,358135
PETAIN COURT,8830,820,208085
BEDOKVILLE,11470,1066,468235
THE INFINITI,9915,921,127712
FERNWOOD TOWERS,11892,1105,458555
THE SEAWIND,16911,1571,425387
THE VISION,13667,1270,126793
ARCHIPELAGO,10968,1019,479268
AUSTVILLE RESIDENCES,8027,746,544805
YONG AN PARK,19139,1778,238365
TWIN WATERFALLS,8324,773,828791
PARC VERA,8538,793,534037
BLOSSOM RESIDENCES,7656,711,677721
ROCHELLE AT NEWTON,15722,1461,308414
DUCHESS CREST,13600,1263,269200
CRADELS,16798,1561,328754
KATONG REGENCY,19216,1785,436950
RIPPLE BAY,9574,889,518166
TWIN WATERFALLS,7576,704,828768
SOMMERVILLE PARK,16410,1525,259287
ROCHELLE AT NEWTON,14850,1380,308414
GLENDALE PARK,10571,982,669558
THE OCEANFRONT @ SENTOSA COVE,19247,1788,98533
LE REVE,12667,1177,417786
THE LAKEFRONT RESIDENCES,14130,1313,648305
ONE DEVONSHIRE,25625,2381,239896
THE ESTUARY,9556,888,769139
THE ESTUARY,10174,945,769137
NATURA@HILLVIEW,14203,1320,669233
FLAMINGO VALLEY,13017,1209,455943
LILYDALE,7432,690,768962
KATONG REGENCY,15694,1458,436950
HILLVIEW HEIGHTS,10326,959,669562
SIN MING PLAZA,10142,942,575585
VIVA,21622,2009,307464
SUMMERDALE,6951,646,649928
KATONG REGENCY,20755,1928,437158
FULCRUM,17705,1645,439092
A TREASURE TROVE,10330,960,828786
PAVILION PARK,17467,1623,658344
KATONG REGENCY,17972,1670,436950
THE MARBELLA,16700,1551,276952
RIS GRANDEUR,9583,890,519934
TWIN WATERFALLS,7778,723,828764
PARC VERA,6272,583,534037
TWIN WATERFALLS,7897,734,828767
KING'S MANSION,13423,1247,437147
THE NAUTICAL,9457,879,769473
THE LAKESHORE,10841,1007,649412
RIS GRANDEUR,9667,898,519929
THE NAUTICAL,9404,874,769474
WATERFRONT WAVES,10714,995,479248
ARC AT TAMPINES,7567,703,529604
N.A.,9135,849,455238
TWIN WATERFALLS,7903,734,828767
THE INTERLACE,12926,1201,109702
MANDARIN GARDEN CONDOMINIUM,12688,1179,448909
KATONG REGENCY,20462,1901,437158
THE LANAI,15266,1418,669600
WOODGROVE CONDOMINIUM,7533,700,738211
VISIONCREST,21364,1985,238712
HILLVIEW RESIDENCE,10345,961,669599
BRISTOL LODGE,10722,996,219856
TWIN WATERFALLS,7267,675,828769
KATONG REGENCY,17368,1613,437158
TWIN WATERFALLS,8057,748,828790
LINCOLN SUITES,22573,2097,308381
THE CASCADIA,17561,1631,589624
TEACHER'S HOUSING ESTATE,13142,1221,787231
TWIN WATERFALLS,8029,746,828768
GARDENVISTA,13580,1262,589482
RESIDENCES BOTANIQUE,11957,1111,545550
VARSITY PARK CONDOMINIUM,11654,1083,127335
THE MINTON,10483,974,534077
MARYMOUNT VIEW,11538,1072,576148
PANDAN VALLEY,10000,929,597628
MANDALE HEIGHTS,12500,1161,308225
THE INTERLACE,12485,1160,109691
THE LUSH,15068,1400,429266
EON SHENTON,23394,2173,79118
ARCHIPELAGO,12157,1129,479276
MARINA COLLECTION,30678,2850,98329
D'SAVILLE,6849,636,428268
MARINA COLLECTION,30678,2850,98329
RIVERSOUND RESIDENCE,9192,854,544813
TREVISTA,13346,1240,319582
THE BAYSHORE,9560,888,469976
THE MEZZO,15417,1432,329682
MELVILLE PARK,7200,669,529942
THE LUXURIE,11152,1036,544754
THE WARREN,8274,769,689676
HAWAII TOWER,14231,1322,437898
THE BEACON EDGE,13222,1228,423728
TELOK INDAH,7264,675,426282
TELOK INDAH,7190,668,426278
WATER PLACE,10294,956,436607
AQUARIUS BY THE PARK,8839,821,478928
BELLE VUE RESIDENCES,29061,2700,238598
COSTA DEL SOL,11314,1051,469990
VIZ AT HOLLAND,16364,1520,276750
THE PROMENADE@PELIKAT,10552,980,537643
N.A.,12719,1182,436774
FAR HORIZON GARDENS,7523,699,569764
SOUTHAVEN II,9432,876,587968
CARIBBEAN AT KEPPEL BAY,16066,1493,98640
THE TREVOSE,9295,864,298090
DUCHESS CREST,12075,1122,269201
CITYLIGHTS,16747,1556,208745
WATERVIEW,8264,768,528692
THE SIXTH AVENUE RESIDENCES,16270,1512,276543
DUCHESS CREST,12688,1179,269200
SKY HABITAT,17426,1619,573908
CALLIDORA VILLE,12857,1194,425145
THE TAMPINES TRILLIANT,7514,698,528614
QUEENS,12727,1182,148955
HILLSTA,11898,1105,668201
FOREST HILLS CONDOMINIUM,7852,729,778904
THE BAYSHORE,10920,1014,469971
KATONG REGENCY,18397,1709,437158
THE VIRIDIAN,14959,1390,329507
PARC VERA,8575,797,534041
THE NAUTICAL,8698,808,769472
KATONG REGENCY,15802,1468,437158
KATONG REGENCY,15651,1454,436950
COSMO,18243,1695,399914
CAIRNHILL CREST,19801,1840,229813
N.A.,12015,1116,268398
THE ROCHESTER,13992,1300,138638
N.A.,9263,861,209308
AUSTVILLE RESIDENCES,7490,696,544806
TWIN WATERFALLS,7692,715,828765
KATONG REGENCY,19172,1781,437158
PICARDY GARDENS,10718,996,488704
ALESSANDREA,11552,1073,159967
WATERFORD RESIDENCE,15909,1478,239332
MAYFAIR GARDENS,9880,918,588376
CALDECOTT HILL ESTATE,8291,770,298261
THE SPECTRUM,11416,1061,117504
BENG TONG MANSION,18415,1711,437033
PARC VERA,9603,892,534037
TWIN WATERFALLS,7894,733,828770
MARINA BAY SUITES,26791,2489,18965
BLISS@KOVAN,14930,1387,546056
PINE GROVE,9202,855,592001
THE MINTON,10387,965,538755
MIRAGE TOWER,16930,1573,239426
THE WATER EDGE,10000,929,398106
THE PIER AT ROBERTSON,19048,1770,239013
MODENA,9712,902,529871
MAYSPRINGS,9600,892,678265
VERSILIA ON HAIG,13333,1239,438639
THE ESPARIS,7890,733,519459
NOVA 88,12308,1143,329640
VACANZA @ EAST,13103,1217,417398
SEMBAWANG HILLS ESTATE,13831,1285,579437
PASIR VIEW PARK,10484,974,118571
ONE AMBER,17416,1618,439958
CHELSEA GROVE,11758,1092,328626
THE EDGE ON CAIRNHILL,19095,1774,229717
KATONG PARK TOWERS,9819,912,439826
TWIN WATERFALLS,8001,743,828769
RIPPLE BAY,9761,907,518163
CASPIAN,10575,982,648315
THE GREENWOOD,24694,2294,289301
RAFFLESIA CONDOMINIUM,12118,1126,579800
NORTHOAKS,7125,662,738084
18 WOODSVILLE,19765,1836,357799
CASTLE GREEN,8142,756,787058
SPRING PARK ESTATE,17109,1589,467240
WATERVIEW,8879,825,528686
ST MICHAEL REGENCY,9691,900,328008
CITY SQUARE RESIDENCES,17538,1629,207224
CRADELS,14106,1310,328754
SERANGOON GARDEN ESTATE,14335,1332,557648
MIMOSA TERRACE,15267,1418,805716
MEADOWS @ PEIRCE,11349,1054,787130
SHERWOOD CONDOMINIUM,9402,873,598669
ONE ROBIN,18427,1712,258176
LA VIDA @ 130,13078,1215,425769
THE LUXURIE,11411,1060,544758
THE TAMPINES TRILLIANT,8667,805,528614
N.A.,13183,1225,597320
RIS GRANDEUR,9899,920,519934
MELVILLE PARK,8391,780,529942
INGGU 6,12802,1189,757191
THE TAMPINES TRILLIANT,8988,835,528770
SYCAMORE TREE,15359,1427,428505
EDELWEISS PARK CONDOMINIUM,10390,965,507002
N.A.,12642,1174,589844
SERANGOON GARDEN ESTATE,9919,922,559847
ISUITES @ TANI,14238,1323,548540
ARCHIPELAGO,11487,1067,479271
KATONG REGENCY,20943,1946,437158
EASTERN LAGOON,10934,1016,466402
THE LAKESHORE,10280,955,649412
RIVIERA 38,12642,1174,328712
FAR HORIZON GARDENS,7897,734,569761
THE CORNWALL,18033,1675,269678
MIRAGE TOWER,17717,1646,239426
THE FLORAVALE,6935,644,648366
CASABLANCA,8462,786,737922
MY MANHATTAN,13218,1228,529901
PARC VERA,8120,754,534037
N.A.,8960,832,757401
SILVERSCAPE,13079,1215,398299
TWIN WATERFALLS,7287,677,828768
FLORIDIAN,20092,1867,589649
REGENCY SUITES,15985,1485,169279
KATONG REGENCY,15846,1472,437159
VILLA MARINA,8490,789,457398
SMART SUITES,13269,1233,387516
REGENT HEIGHTS,8842,821,659802
THE ALCOVE,8203,762,388199
FUYONG ESTATE,3169,294,678384
ROCHELLE AT NEWTON,14439,1341,308414
MY MANHATTAN,12268,1140,529899
THE QUINTET,5988,556,689106
PALM ISLES,10686,993,506866
THE WOODS,5108,475,648249
PEAKVIEW ESTATE,7556,702,488583
THE BELVEDERE,15385,1429,437876
THE MINTON,9698,901,534076
FLAMINGO VALLEY,13515,1256,454943
TEACHER'S HOUSING ESTATE,11933,1109,787660
BARTLEY RESIDENCES,13333,1239,536563
KATONG REGENCY,15832,1471,437158
KATONG REGENCY,20577,1912,437158
EON SHENTON,23394,2173,79118
THOMSON GARDEN ESTATE,20073,1865,578489
HILLSTA,12097,1124,668201
THE WATERINA,11817,1098,398089
N.A.,14712,1367,425986
SUNGLADE,11574,1075,556134
SUNHAVEN,9462,879,486069
CALARASI,10566,982,328882
N.A.,14838,1378,217587
THE INTERLACE,11556,1074,109698
NESS,12581,1169,398298
MILL CREEK,10740,998,417052
ORCHARD VIEW,31404,2918,239977
BELLE VUE RESIDENCES,27331,2539,238596
CABANA,8365,777,805337
THE TROPICA,8246,766,529777
SCOTTS HIGHPARK,21698,2016,228239
LEONIE GARDENS,16025,1489,239224
COMPASS HEIGHTS,9583,890,545075
ISLAND VIEW,11806,1097,119521
VACANZA @ EAST,12474,1159,417397
THE TRIZON,19842,1843,276693
THE TAMPINES TRILLIANT,6061,563,528608
SIMSVILLE,9582,890,389756
THE TAMPINES TRILLIANT,6061,563,528608
LEONIE STUDIO,18953,1761,239223
RIPPLE BAY,9431,876,518166
BLOSSOM RESIDENCES,7663,712,677722
THE HILLIER,16568,1539,667978
TIVOLI GRANDE,12595,1170,427060
SERANGOON GARDEN ESTATE,9419,875,559745
PATERSON SUITES,30348,2819,238550
CARIBBEAN AT KEPPEL BAY,17391,1616,98655
THE TRIZON,18657,1733,276697
TWIN WATERFALLS,5343,496,828769
THE PROMENADE@PELIKAT,10552,980,537643
N.A.,8696,808,455200
THE INTERLACE,12485,1160,109690
SAVANNAH CONDOPARK,9152,850,528794
COTE D'AZUR,13228,1229,449302
PINE GROVE,8589,798,590001
WATERTOWN,13401,1245,828755
RIVERSOUND RESIDENCE,10527,978,544740
THE LUXURIE,10231,951,544752
PRESTO@UPPER SERANGOON,13372,1242,534543
CARISSA PARK CONDOMINIUM,8862,823,507026
THE SOUND,17552,1631,429072
PARK GREEN,7636,709,545044
BARTLEY RESIDENCES,13851,1287,536561
ARCHIPELAGO,10783,1002,479276
MERA TERRACE,14533,1350,486718
PALM ISLES,8403,781,506895
SYCAMORE TREE,14860,1381,428505
BALMORAL HEIGHTS,17296,1607,259928
SYCAMORE TREE,15049,1398,428505
HILLSTA,11904,1106,668202
SMART SUITES,13258,1232,387516
THE PROMENADE@PELIKAT,11622,1080,537643
SUNGLADE,10941,1016,556134
HILLSTA,10549,980,667973
PARC ELEGANCE,18049,1677,423763
THE ESTUARY,10000,929,769135
QUBE SUITES,13949,1296,418804
N.A.,12589,1170,757224
BOATHOUSE RESIDENCES,9538,886,534046
THE PROMENADE@PELIKAT,13553,1259,537643
SKY HABITAT,19761,1836,573909
TWIN WATERFALLS,7599,706,828771
TREVISTA,11679,1085,319583
BAYSHORE PARK,10483,974,469977
THE RAINFOREST,8751,813,689872
SKY HABITAT,15899,1477,573909
THOMSON GRAND,14396,1337,575580
RIPPLE BAY,9075,843,518166
NOVENA COURT,13500,1254,308605
ICON,20548,1909,78878
RESIDENCES @ EVELYN,18660,1734,309311
THE PROMENADE@PELIKAT,10868,1010,537643
THOMSON GRAND,14169,1316,575580
THE MEZZO,14215,1321,329682
TREVISTA,12804,1189,319581
THE NAUTICAL,9309,865,769473
KATONG REGENCY,14227,1322,437158
ADAM PARK CONDOMINIUM,13481,1252,289900
TWIN WATERFALLS,8276,769,828766
PRESTO@UPPER SERANGOON,14530,1350,534543
SERENITY PARK,9016,838,806106
THE GERANIUM,9081,844,424968
DOVER PARKVIEW,11014,1023,138685
THE AMERY,12937,1202,425781
COSMO,14355,1334,399914
PALM ISLES,9710,902,506866
THOMSON GRAND,15565,1446,575580
THOMSON GRAND,14079,1308,575580
ALEXIS,14815,1376,159949
VACANZA @ EAST,12170,1131,417391
LOYANG VILLAS,8933,830,507543
KATONG REGENCY,20765,1929,437159
RIPPLE BAY,11237,1044,518164
TWIN WATERFALLS,7691,714,828768
RIPPLE BAY,8042,747,518163
TERRASSE,7759,721,544776
CASABLANCA,8727,811,737918
CARDIFF RESIDENCE,14231,1322,558962
TWIN WATERFALLS,7810,726,828792
HILLSTA,11796,1096,668202
RIVIERA 38,11884,1104,328712
CUBIK,12981,1206,425711
LENTOR VIEW,7881,732,789135
BOTANNIA,11710,1088,127720
HILLSTA,12410,1153,668202
THE VERVE,18049,1677,329138
SKY HABITAT,17036,1583,573908
PARC PALAIS,10226,950,598748
MEADOWS @ PEIRCE,12131,1127,787132
THOMSON GRAND,14660,1362,575580
VARSITY PARK CONDOMINIUM,11972,1112,126830
PARK WEST,8889,826,128801
WATERBANK AT DAKOTA,15828,1470,399946
PALM ISLES,11296,1049,506895
TWIN WATERFALLS,7805,725,828765
THE INTERLACE,13730,1276,109698
SKY HABITAT,16767,1558,573909
EUNOS GREEN,9383,872,416558
TREVISTA,14308,1329,319582
THE CAPE,22005,2044,439872
ESTA RUBY,14899,1384,399839
N.A.,14091,1309,428395
EAST COAST RESIDENCES,11579,1076,466488
N.A.,12326,1145,348819
PARC VERA,8670,805,534038
SYCAMORE TREE,14030,1303,428505
THE GARDENS AT BISHAN,10607,985,575578
SEASIDE PARK,11965,1112,458926
LITTLE INDIA CONSERVATION AREA,7813,726,207412
SKY HABITAT,17180,1596,573908
FLAMINGO VALLEY,15323,1424,455943
CYAN,25415,2361,258710
VILLA DE WEST,10957,1018,118719
KATONG REGENCY,20176,1874,436950
PALM ISLES,10362,963,506895
TWIN WATERFALLS,5930,551,828793
TWIN WATERFALLS,7702,716,828770
FULCRUM,24095,2239,439092
MELVILLE PARK,8483,788,529942
SOUTHBANK,17143,1593,198784
MONTVIEW,16358,1520,277116
KELULUT HILL,11854,1101,805876
TWIN WATERFALLS,7815,726,828766
THE TROPICA,8947,831,529777
TWIN WATERFALLS,7908,735,828764
THE RAINFOREST,8125,755,689875
OXFORD SUITES,13968,1298,218817
SUNHAVEN,9326,866,486069
REFLECTIONS AT KEPPEL BAY,18915,1757,98419
GRAND CHATEAU,9915,921,598435
HILLTOP GROVE,8243,766,669619
MANDARIN GARDEN CONDOMINIUM,12151,1129,448909
SKY HABITAT,17361,1613,573908
SKY HABITAT,17270,1604,573908
SUNGLADE,11263,1046,556135
ARC AT TAMPINES,7612,707,529595
VACANZA @ EAST,12005,1115,417391
THE RAINFOREST,8489,789,689874
BLOSSOM RESIDENCES,7663,712,677722
N.A.,15241,1416,437185
THE MINTON,11923,1108,534077
THOMSON GRAND,15379,1429,575580
LAGUNA PARK,9000,836,449289
SHERWOOD TOWER,7413,689,588998
CITYLIGHTS,15922,1479,208745
SERANGOON GARDEN ESTATE,15012,1395,559576
SKY HABITAT,17035,1583,573909
PARK GREEN,7465,694,545040
TRESALVEO,14121,1312,573964
VACANZA @ EAST,12590,1170,417398
SKY HABITAT,17225,1600,573908
SKY HABITAT,16502,1533,573908
EMPRADO SUITES,12963,1204,425244
WILKIE STUDIO,14257,1325,228096
DUNEARN GARDENS,18103,1682,309420
MEADOWS @ PEIRCE,12212,1135,787130
N.A.,11289,1049,548308
EON SHENTON,28298,2629,79118
MERA SPRINGS,14124,1312,219647
THE PROMENADE@PELIKAT,11834,1099,537643
ONE SHENTON,22000,2044,68803
RIPPLE BAY,10292,956,518184
RIPPLE BAY,9037,840,518163
NATURA@HILLVIEW,13861,1288,669231
TWIN WATERFALLS,7869,731,828793
KATONG REGENCY,20173,1874,437158
TWIN WATERFALLS,7139,663,828770
HILLCREST ARCADIA,11078,1029,289850
COTE D'AZUR,12587,1169,449300
SKY HABITAT,17826,1656,573909
BLISS@KOVAN,15006,1394,546056
IVORY HEIGHTS,7742,719,600122
THE SPRINGSIDE,16787,1560,786164
THOMSON GRAND,13213,1228,573914
BLOSSOM RESIDENCES,7541,701,677722
RIPPLE BAY,10642,989,518162
TWIN WATERFALLS,7184,667,828771
WHITESCAPE,14750,1370,425239
WINDY HEIGHTS,9209,856,419591
CASA FORTUNA,12797,1189,329981
BLOSSOM RESIDENCES,7602,706,677722
LIVIA,10588,984,518206
COMPASS HEIGHTS,6364,591,545076
NORTHVALE,8025,746,689669
91 MARSHALL,16139,1499,424887
SKY HABITAT,17621,1637,573909
TWIN WATERFALLS,7694,715,828765
TWIN WATERFALLS,8308,772,828791
KATONG REGENCY,19176,1782,437158
CAIRNHILL RESIDENCES,25774,2394,229774
TWIN WATERFALLS,7652,711,828770
FERRARIA PARK CONDOMINIUM,9897,919,506945
PALM ISLES,9322,866,506892
18 WOODSVILLE,19273,1791,357799
TWIN WATERFALLS,7653,711,828791
THE RAINFOREST,8014,745,689874
KOVAN MELODY,11009,1023,548192
SKT MANSIONS,8835,821,388307
PARC OASIS,7891,733,609777
SUFFOLK PREMIER,14639,1360,307781
LA MAISON,13750,1277,308125
RESIDENCES BOTANIQUE,13313,1237,545551
NATURA@HILLVIEW,13578,1261,669231
SOVEREIGN @ SIMON,8599,799,545992
PALM ISLES,9237,858,506895
N.A.,17917,1664,298921
SKY HABITAT,20375,1893,573908
TWIN WATERFALLS,7512,698,828771
SKY HABITAT,17442,1620,573908
HILLSTA,12798,1189,668202
FORESQUE RESIDENCES,11462,1065,678275
NATURA@HILLVIEW,14100,1310,669233
RIPPLE BAY,9515,884,518163
THE PROMENADE@PELIKAT,13553,1259,537643
THE CENTRIS,12051,1120,648337
SPRING GROVE,17674,1642,249566
SKY HABITAT,16186,1504,573909
KOVAN MELODY,11786,1095,545021
CASA FORTUNA,13140,1221,329981
REBECCA PARK,16944,1574,266695
N.A.,9056,841,547015
SKY HABITAT,16779,1559,573908
THE NAUTICAL,9596,892,769473
MI CASA,9487,881,689864
TERRASSE,10466,972,544778
N.A.,11024,1024,669906
NATURA@HILLVIEW,11677,1085,669233
NEWTON 18,18605,1728,307989
QUBE SUITES,9761,907,418804
MOUNT SINAI,5215,484,276790
FOH PIN GARDEN,11723,1089,539645
FERRARIA PARK CONDOMINIUM,10063,935,506950
TWIN WATERFALLS,7944,738,828767
BUTTERWORTH 8,12689,1179,439423
MEADOWS @ PEIRCE,10373,964,787130
PRESTO@UPPER SERANGOON,14633,1359,534543
THE SEA VIEW,17778,1652,439945
THE TESSARINA,15000,1394,276309
THE MEZZO,14487,1346,329682
BLOSSOM RESIDENCES,7367,684,677721
THE MINTON,9924,922,534075
ASCENTIA SKY,15912,1478,158748
SKY HABITAT,17090,1588,573909
MEADOWS @ PEIRCE,14407,1338,787133
SKY HABITAT,20025,1860,573909
PRESTO@UPPER SERANGOON,11682,1085,534543
TWIN WATERFALLS,7872,731,828770
TWIN WATERFALLS,7598,706,828770
CHANGI RISE CONDOMINIUM,7949,738,528800
SKYLINE RESIDENCES,20936,1945,109026
ROCHELLE AT NEWTON,16040,1490,308414
THE NAUTICAL,8866,824,769473
THE MINTON,9270,861,534081
SAVOY PARK,9128,848,599383
VALLEY PARK,15221,1414,248358
GUILLEMARD EDGE,8662,805,398371
TWIN WATERFALLS,8001,743,828790
91 MARSHALL,16291,1513,424887
ARCHIPELAGO,12714,1181,479269
THE MINTON,10293,956,534070
PARC SEABREEZE,15250,1417,427711
THE TAMPINES TRILLIANT,8545,794,528609
SKY HABITAT,17135,1592,573908
THE PROMENADE@PELIKAT,12313,1144,537643
LIGHTHOUSE,5175,481,509408
SKY HABITAT,16509,1534,573908
MEIER SUITES,16815,1562,438051
TWIN WATERFALLS,7364,684,828790
BOATHOUSE RESIDENCES,10449,971,534042
WATER PLACE,13397,1245,436606
PALM ISLES,9099,845,506892
SUMMER VIEW,7017,652,398986
GUILIN VIEW,8783,816,659246
THE PALETTE,9760,907,518198
LOYANG VILLAS,9920,922,507505
COSTA RHU,11538,1072,437431
RIPPLE BAY,9624,894,518161
THE LUCENT,13846,1286,425251
NATURA@HILLVIEW,14773,1372,669229
THE BEVERLY,9325,866,596720
PEOPLE'S PARK COMPLEX,8750,813,59108
SKY HABITAT,17548,1630,573909
INGGU 6,13888,1290,757201
RIPPLE BAY,9601,892,518163
TWIN WATERFALLS,6821,634,828765
THOMSON GRAND,15151,1408,575580
TWENTYONE ANGULLIA PARK,45973,4271,239974
PALM SPRING,16906,1571,259326
STARLIGHT SUITES,25767,2394,238437
GOLDEN HILL ESTATE,16015,1488,556940
N.A.,24138,2242,268647
ISLAND VIEW,11169,1038,119519
ISLAND GARDENS,15918,1479,578737
KATONG REGENCY,20586,1912,437159
ROCHELLE AT NEWTON,15294,1421,308414
WATERVIEW,9826,913,529780
NEWTON EDGE,13333,1239,228598
CANBERRA RESIDENCES,8577,797,768124
38 I SUITES,15794,1467,438646
FORESQUE RESIDENCES,11431,1062,678275
SMART SUITES,15809,1469,387516
WATERFRONT KEY,11293,1049,479253
THE MARQUE @ IRRAWADDY,14198,1319,328108
SKY HABITAT,16773,1558,573908
HILLSTA,11578,1076,668202
THE QUARTZ,9444,877,544990
SKY HABITAT,16615,1544,573908
SKY HABITAT,17812,1655,573908
N.A.,11156,1036,757276
RIVERGATE,21522,1999,238255
SIMEI GREEN CONDOMINIUM,8829,820,529863
ESPA,8750,813,679692
SKY HABITAT,16411,1525,573908
N.A.,13953,1296,799664
DOUBLE BAY RESIDENCES,10169,945,528717
SYCAMORE TREE,15385,1429,428505
THE TRIZON,17872,1660,276698
THE PALETTE,12863,1195,518172
THE PROMENADE@PELIKAT,13553,1259,537643
SKY HABITAT,19870,1846,573909
FULCRUM,21003,1951,439092
MY MANHATTAN,13095,1217,529901
LAGUNA PARK,9333,867,449285
ASCENTIA SKY,16539,1537,158748
THE REGENCY AT TIONG BAHRU,14286,1327,169907
18 WOODSVILLE,21075,1958,357799
TWIN WATERFALLS,7657,711,828768
THE MINTON,9876,917,534081
INGGU 6,14630,1359,757187
TRELLIS TOWERS,12999,1208,319773
RIVERWALK APARTMENT,16908,1571,58416
N.A.,9848,915,416855
KEW GREEN,7003,651,466203
SERANGOON GARDEN ESTATE,14917,1386,559655
N.A.,11233,1044,535339
WEST BAY CONDOMINIUM,10759,1000,128035
N.A.,13806,1283,596558
MEADOWS @ PEIRCE,12450,1157,787132
WATERVIEW,9532,886,528685
NATURA@HILLVIEW,13658,1269,669231
SKYLINE RESIDENCES,22208,2063,109025
SKYLINE RESIDENCES,21182,1968,109025
THE HILLIER,16200,1505,667978
SKY HABITAT,17879,1661,573909
RHAPSODY ON MOUNT ELIZABETH,23093,2145,228513
RIDGEVALE GARDENS,11338,1053,588157
CASHEW PARK CONDOMINIUM,9291,863,679645
TWIN WATERFALLS,7600,706,828793
WATERFALL GARDENS,18137,1685,268822
FULCRUM,17848,1658,439092
THE MINTON,10387,965,534081
CENTRAL GREEN CONDOMINIUM,12733,1183,169479
SKY HABITAT,16421,1526,573908
REZI 26,12040,1119,398504
N.A.,13457,1250,307660
NATURA@HILLVIEW,14824,1377,669231
ONE AMBER,15248,1417,439958
EON SHENTON,23210,2156,79118
CITYLIGHTS,15581,1448,208749
TWIN WATERFALLS,8043,747,828766
ARC AT TAMPINES,8171,759,529599
BOTANNIA,11778,1094,127724
CRESCENDO PARK,9371,871,457269
EURO-ASIA PARK,11556,1074,357920
TANGLIN REGENCY,13833,1285,247965
TWIN WATERFALLS,7574,704,828793
IDYLLIC SUITES,12683,1178,398353
CAIRNHILL PLAZA,17915,1664,229664
THE PALETTE,10039,933,518170
SKY HABITAT,17624,1637,573909
SUITES @ SIMS,15313,1423,387544
SKY HABITAT,16622,1544,573909
TWIN WATERFALLS,8042,747,828769
SELETAR PARK RESIDENCE,13615,1265,807019
TANAH MERAH PARK,11949,1110,498938
SELETAR HILLS ESTATE,13158,1222,808580
BLUE HORIZON,10230,950,128046
PALM ISLES,9239,858,506895
RIVERSOUND RESIDENCE,9567,889,544811
TREVISTA,14699,1366,319583
MERA SPRINGS,13777,1280,219647
PALM ISLES,9376,871,506893
QUEENS,10596,984,148954
BLOSSOM RESIDENCES,7684,714,677722
HAZEL PARK CONDOMINIUM,10284,955,678946
CLOVER BY THE PARK,12212,1135,573973
RIVERSOUND RESIDENCE,9358,869,544742
VISIONCREST,20755,1928,238710
KATONG REGENCY,20586,1912,437159
PASIR RIS BEACH PARK,6580,611,519250
SUNGLADE,11441,1063,556132
RIPPLE BAY,8942,831,518163
TWIN WATERFALLS,7476,695,828769
SKY@ELEVEN,16364,1520,297725
YISHUN EMERALD,6769,629,768428
BIRMINGHAM MANSIONS,13924,1294,307682
YISHUN SAPPHIRE,7158,665,768434
ALLSWORTH PARK,14167,1316,278639
GOODMAN CREST,8511,791,436548
THOMSON GRAND,13047,1212,573916
BEAVERTON COURT,13833,1285,276958
RIPPLE BAY,9736,905,518164
THE PROMENADE@PELIKAT,13044,1212,537643
SKY HABITAT,17462,1622,573909
MARTIN PLACE RESIDENCES,24545,2280,237988
SKY HABITAT,15694,1458,573908
SKY HABITAT,19047,1770,573908
THE RAINFOREST,8367,777,689874
EIGHT COURTYARDS,8698,808,768142
RIPPLE BAY,10190,947,518184
THE AXIS,14151,1315,308227
WOODSVALE,7000,650,738090
RIVER PLACE,13219,1228,169658
MEYER RESIDENCE,16449,1528,437991
PARC VERA,9247,859,534037
THE CASCADIA,17354,1612,589624
SKYLINE RESIDENCES,20504,1905,109030
SEASONS VIEW,10889,1012,576150
SANCTUARY GREEN,12987,1207,436927
ARC AT TAMPINES,7619,708,529604
TWIN WATERFALLS,7646,710,828769
TWIN WATERFALLS,8064,749,828769
N.A.,10075,936,427526
GARDENVISTA,12621,1173,589474
THE BELVEDERE,15610,1450,437876
TWIN WATERFALLS,7947,738,828790
SELETAR PARK RESIDENCE,12316,1144,807021
TWIN WATERFALLS,8083,751,828765
DE ROYALE,12605,1171,329111
VILLA MARINA,9412,874,457398
PALM ISLES,8993,835,506895
PALM ISLES,9921,922,506895
SKY HABITAT,19007,1766,573908
ASCENTIA SKY,16645,1546,158749
CASA ROSA,8716,810,536445
N.A.,19892,1848,258563
8@WOODLEIGH,12597,1170,357902
ARCHIPELAGO,11509,1069,479268
8@WOODLEIGH,10484,974,357903
TWIN WATERFALLS,8251,767,828764
PAVILION PARK,14787,1374,658230
RIS GRANDEUR,9899,920,519929
RIPPLE BAY,9217,856,518166
PALM ISLES,9337,867,506892
TWIN WATERFALLS,7129,662,828769
MELROSE PARK,10588,984,248904
SIMEI GREEN CONDOMINIUM,8604,799,529864
HAZEL PARK CONDOMINIUM,10000,929,678948
THE TAMPINES TRILLIANT,6061,563,528611
38 I SUITES,15682,1457,438646
SELETAR PARK RESIDENCE,12597,1170,807019
REGENTVILLE,8429,783,538683
HENLEY GARDENS,5452,506,545116
SPRINGDALE CONDOMINIUM,8915,828,587976
VILLA AZURA,13492,1253,279872
SEASONS VIEW,10556,981,576149
PARC OASIS,8728,811,609783
THE QUINTET,7479,695,689102
HILLVISTA,13084,1216,669743
THE VIRIDIAN,15367,1428,329507
RIPPLE BAY,9507,883,518160
SHAMROCK PARK,21126,1963,267260
D'MIRA,13667,1270,329602
YEW MEI GREEN,7567,703,689575
THE GARDENS AT BISHAN,10088,937,575574
LAKESIDE APARTMENTS,6028,560,618647
PATERSON SUITES,26917,2501,238550
ROCHELLE AT NEWTON,15710,1459,308414
THE HORIZON,15172,1410,249441
SERANGOON GARDEN ESTATE,10381,964,559439
THE INTERLACE,12818,1191,109688
PARC VERA,9704,901,534041
THE SHAUGHNESSY,4852,451,768362
SKY HABITAT,16245,1509,573909
N.A.,13222,1228,329319
PATERSON SUITES,26909,2500,238550
PATERSON SUITES,26915,2501,238550
PATERSON SUITES,26908,2500,238550
CENTRA SUITES,14000,1301,388242
VACANZA @ EAST,12411,1153,417397
PINEWOOD GARDENS,15464,1437,259854
ARCHIPELAGO,10492,975,479278
ARCHIPELAGO,9783,909,479269
WATERFRONT KEY,10127,941,479251
THE MEZZO,13462,1251,329682
CENTURY MANSIONS,9195,854,668671
FRANKEL ESTATE,12057,1120,456287
SIMS RESIDENCES,7372,685,387882
MAPLEWOODS,14557,1352,589627
HILLSTA,10226,950,668201
N.A.,18849,1751,437221
THE PROMENADE@PELIKAT,13024,1210,537643
THE RAINFOREST,8134,756,689876
CHEOW KENG GARDEN,15161,1408,429468
PALM ISLES,9545,887,506893
THE MINTON,9537,886,534075
MERAPRIME,13934,1295,169568
COSTA RHU,15385,1429,437436
ASTOR GREEN,10563,981,597591
CENTRO RESIDENCES,17373,1614,567752
PARC VERA,9066,842,534037
THE PARC CONDOMINIUM,11758,1092,127160
SMART SUITES,15373,1428,387516
TWIN WATERFALLS,7156,665,828771
TWIN WATERFALLS,7731,718,828767
TWIN WATERFALLS,7394,687,828770
PALM ISLES,10281,955,506895
THOMSON GRAND,13843,1286,573918
THE TAMPINES TRILLIANT,9037,840,528770
GARDENVISTA,13028,1210,589486
LEONIE TOWERS,16099,1496,239222
THOMSON GRAND,14156,1315,575580
SUITES @ KOVAN,15441,1435,534729
SKY HABITAT,16457,1529,573908
KATONG REGENCY,21623,2009,436950
PATERSON SUITES,26906,2500,238550
PATERSON SUITES,26909,2500,238550
PATERSON SUITES,26909,2500,238550
PATERSON SUITES,26907,2500,238550
PATERSON SUITES,26909,2500,238550
HILLSTA,10647,989,667973
PARK INFINIA AT WEE NAM,19338,1797,308364
THE PROMENADE@PELIKAT,10013,930,537643
D' PALMA,11290,1049,416817
THE LAKESHORE,11165,1037,649411
CENTRO RESIDENCES,16469,1530,567752
SKY HABITAT,18036,1676,573909
PARC VERA,9852,915,534039
SEMBAWANG HILLS ESTATE,13269,1233,578311
BEDOK RIA,13948,1296,489792
SELETAR PARK RESIDENCE,12316,1144,807021
MAPLEWOODS,13984,1299,589628
CHANGI RISE CONDOMINIUM,8849,822,528800
D'MANOR,6561,610,465671
ARCHIPELAGO,11397,1059,479275
PATERSON SUITES,26905,2500,238550
PATERSON SUITES,26910,2500,238550
PATERSON SUITES,26915,2501,238550
THE ORANGE GROVE,24778,2302,258364
THE BOUTIQ,26000,2415,239565
NUOVO,8915,828,569788
SERANGOON GARDEN ESTATE,10568,982,554940
VACANZA @ EAST,12756,1185,417398
THE MINTON,9688,900,538755
TROPICAL SPRING,10000,929,529877
THE BAYSHORE,10789,1002,469970
CITY SQUARE RESIDENCES,18302,1700,207223
THE SOLITAIRE,19801,1840,259829
TWIN WATERFALLS,7658,711,828792
THE PROMENADE@PELIKAT,13024,1210,537643
N.A.,4688,435,419892
TANGLIN VIEW,13491,1253,159012
JADE VINE GARDENS,11654,1083,548240
N.A.,11451,1064,425841
N.A.,13799,1282,574230
IDYLLIC SUITES,11577,1076,398353
THE MINTON,9933,923,534074
THE TAMPINES TRILLIANT,9011,837,528611
SOLEIL @ SINARAN,19382,1801,307468
TWIN WATERFALLS,7923,736,828790
WOODGROVE CONDOMINIUM,6858,637,738212
PARBURY HILL CONDOMINIUM,10963,1018,467299
BRADDELL HEIGHTS ESTATE,11266,1047,358555
8 NAPIER,34492,3204,258502
RIVERPARC RESIDENCE,7312,679,828800
TWIN WATERFALLS,7518,698,828770
MANDARIN GARDEN CONDOMINIUM,10269,954,448909
CLOVER BY THE PARK,12805,1190,573973
MEDGE,13750,1277,308186
SIGNATURE PARK,10214,949,596744
HILLSTA,10790,1002,667973
HILLVIEW GREEN,10336,960,598741
TWIN WATERFALLS,6980,648,828771
GUILLEMARD EDGE,13171,1224,398371
HILLSTA,10537,979,667973
N.A.,9769,908,578851
THE ESTUARY,9826,913,769136
MILL POINT,20061,1864,247813
THE PROMENADE@PELIKAT,12313,1144,537643
TWIN WATERFALLS,7510,698,828791
KOVAN RESIDENCES,15244,1416,544918
SYCAMORE TREE,14938,1388,428505
91 MARSHALL,15851,1473,424887
PALM ISLES,8924,829,506893
ONE @ PULASAN,14222,1321,424366
BLOSSOM RESIDENCES,7830,727,677722
IDYLLIC SUITES,12919,1200,398353
THE PROMENADE@PELIKAT,10868,1010,537643
MUGLISTON HILL,9287,863,798502
THE PROMENADE@PELIKAT,10552,980,537643
THE PROMENADE@PELIKAT,12313,1144,537643
THE CENTRIS,10897,1012,648343
MIMOSA PARK,8500,790,808012
RIPPLE BAY,11092,1030,518163
KERRISDALE,11957,1111,207855
REGENT HEIGHTS,8474,787,659804
WOODSVALE,6787,631,738096
HILLSTA,10527,978,668201
TWIN WATERFALLS,8357,776,828790
TRELLIS TOWERS,12418,1154,319773
SIMS DORADO,10556,981,387869
1 MOULMEIN RISE,13296,1235,308143
38 I SUITES,15645,1453,438646
SYCAMORE TREE,15073,1400,428505
TWIN WATERFALLS,7202,669,828770
ORCHID PARK CONDOMINIUM,7586,705,768451
THE PROMENADE@PELIKAT,12798,1189,537643
TWIN WATERFALLS,7484,695,828791
RIVERSOUND RESIDENCE,9631,895,544740
TWIN WATERFALLS,7583,704,828769
TERRASSE,9653,897,544777
HILLSTA,9930,923,668201
PATERSON SUITES,30449,2829,238550
THE SCOTTS TOWER,39111,3633,228240
91 MARSHALL,14645,1361,424887
CASABLANCA,8966,833,737919
RIVERSOUND RESIDENCE,9000,836,544741
SELETARIS,7851,729,757708
THE PALETTE,9557,888,518171
EASTERN RESIDENCE,9633,895,427966
NOTTINGHILL SUITES,17322,1609,596195
RIPPLE BAY,9019,838,518160
THOMSON GRAND,13798,1282,573914
NATURA@HILLVIEW,14714,1367,669233
BIRMINGHAM MANSIONS,14949,1389,307682
BLOSSOM RESIDENCES,7582,704,677722
N.A.,9231,858,329878
THOMSON GRAND,14748,1370,575580
HELIOS RESIDENCES,35275,3277,229815
THE HILLIER,15559,1445,667978
COSTA RHU,13648,1268,437436
MEADOWS @ PEIRCE,14627,1359,787133
HILLSTA,10150,943,668201
PINEVALE,10375,964,528825
PATERSON SUITES,26909,2500,238550
THE ARISTO @ AMBER,15965,1483,439871
LILAC PARK,11398,1059,808231
BLOSSOM RESIDENCES,7622,708,677722
TANAMERA CREST,7517,698,486061
NOTTINGHILL SUITES,17659,1641,596195
CARIBBEAN AT KEPPEL BAY,18012,1673,98657
RIPPLE BAY,8122,755,518166
SILVERSCAPE,12788,1188,398299
91 MARSHALL,15958,1483,424887
THE WOODGROVE,7448,692,738230
THE ROCHESTER,16786,1559,138638
MERA GARDENS,7818,726,677863
CASPIAN,14579,1354,648318
COSTA DEL SOL,13525,1256,469987
THE RAINFOREST,8367,777,689876
RIPPLE BAY,9237,858,518163
HILLSTA,11514,1070,668201
CENTRO RESIDENCES,18002,1672,567752
MARINA BAY SUITES,23245,2160,18965
NATURA@HILLVIEW,14736,1369,669231
THE RAINFOREST,7785,723,689875
N.A.,11091,1030,537493
CACTUS GREEN,9818,912,809743
HILLSTA,12588,1169,668201
MARINA BAY SUITES,28132,2614,18965
MARINA BAY SUITES,28329,2632,18965
THE MINTON,9159,851,534075
HERITAGE VIEW,11667,1084,138679
SKY HABITAT,16536,1536,573908
VACANZA @ EAST,12874,1196,417397
PALM ISLES,9118,847,506892
HILLTOPS,38548,3581,229809
IVORY HEIGHTS,7646,710,600117
SANCTUARY GREEN,13924,1294,436925
DALVEY COURT,16158,1501,259548
THE WHARF RESIDENCE,17221,1600,238008
COSTA RHU,12042,1119,437436
N.A.,13479,1252,276867
PATERSON SUITES,26917,2501,238550
PALM ISLES,9620,894,506893
VISIONCREST,21136,1964,238712
EASTWOOD PARK,8271,768,486560
MARINA BAY SUITES,23018,2138,18965
THE MINTON,9876,917,534081
THE MINTON,9604,892,534076
EIGHT COURTYARDS,9092,845,768142
THE PROMENADE@PELIKAT,12375,1150,537643
HEETON CLASSIC,8120,754,787406
91 MARSHALL,12250,1138,424887
KATONG REGENCY,18772,1744,436950
ONE LEICESTER,12583,1169,358828
SELETAR PARK RESIDENCE,12316,1144,807021
REGENT VILLAS,8613,800,268423
RIPPLE BAY,9620,894,518163
TWIN WATERFALLS,7968,740,828770
CAIRNHILL CREST,20186,1875,229813
KOVAN RESIDENCES,15610,1450,544918
FLAMINGO VALLEY,12242,1137,454852
THE PROMENADE@PELIKAT,12060,1120,537643
N.A.,21705,2016,266315
THE SUNNY SPRING,8818,819,398074
THE RAINFOREST,7229,672,689874
PALM ISLES,9708,902,506895
THE MINTON,9531,885,538755
THE RAINFOREST,7319,680,689873
PALM ISLES,9972,926,506866
THE TROPICA,8957,832,529772
ARCHIPELAGO,12264,1139,479272
WOODSVALE,7193,668,738094
OXFORD SUITES,14458,1343,218817
THE NAUTICAL,9961,925,769475
SINGA COURT,8374,778,418112
MI CASA,9402,873,689864
ROCHELLE AT NEWTON,15446,1435,308414
FLAMINGO VALLEY,12219,1135,454855
FRANKEL ESTATE,11302,1050,456077
THE PROMENADE@PELIKAT,12375,1150,537643
HOCK SWEE HILL,10288,956,809923
THE MINTON,9085,844,534075
HILLSTA,10844,1007,668201
RIVERSOUND RESIDENCE,9173,852,544811
SANCTUARY GREEN,12154,1129,436922
THOMSON GRAND,13760,1278,575579
THE LINCOLN RESIDENCES,18299,1700,307762
THE BENCOOLEN,13402,1245,189647
HEDGES PARK CONDOMINIUM,10096,938,506885
N.A.,9802,911,559174
HILLSTA,11788,1095,668201
THE TROPICA,9217,856,529771
THE PROMENADE@PELIKAT,10118,940,537643
91 MARSHALL,15656,1454,424887
THE FLORIDA,8083,751,538807
SPRINGDALE CONDOMINIUM,10280,955,587978
HILLSTA,12969,1205,668202
PARC VERA,8670,805,534041
ROSEWOOD,8211,763,737939
MILLAGE,13786,1281,419709
BEDOKVILLE,10705,995,468255
91 MARSHALL,15743,1463,424887
THE FLORENTINE,10714,995,549555
THE RAINFOREST,7911,735,689870
PEACE CENTRE/MANSIONS,7147,664,228149
SENNETT ESTATE,14190,1318,349645
SKY HABITAT,17242,1602,573909
ROCHELLE AT NEWTON,15792,1467,308414
YEW MEI GREEN,7177,667,689577
TESSA LODGE,11228,1043,437824
SKY HABITAT,19948,1853,573909
CITY SQUARE RESIDENCES,16625,1545,207223
SYMPHONY HEIGHTS,11256,1046,598738
THE CASCADIA,18060,1678,589639
THE LAKEFRONT RESIDENCES,12105,1125,648305
GRAND DUCHESS AT ST PATRICK'S,15258,1418,424212
HILLVIEW GREEN,9643,896,598742
RICHMOND PARK,25641,2382,229920
FERRARIA PARK CONDOMINIUM,9789,909,506949
THE TAMPINES TRILLIANT,6017,559,528771
PALM ISLES,10054,934,506895
PARC VERA,8925,829,534037
HILLSTA,12642,1174,668202
HILLSTA,11569,1075,668201
THE PROMENADE@PELIKAT,12313,1144,537643
PARK NATURA,11852,1101,659765
HILLSTA,12467,1158,668201
TWIN WATERFALLS,7460,693,828791
SERANGOON GARDEN ESTATE,12171,1131,558876
OASIS GARDEN,10973,1019,538422
COTE D'AZUR,14545,1351,449298
WATERVIEW,9616,893,528686
THE SPRINGBLOOM,10413,967,556119
PARC VISTA,8259,767,649815
THE PALETTE,9507,883,518170
IDYLLIC SUITES,13698,1273,398353
PALM ISLES,10079,936,506866
THE PROMENADE@PELIKAT,10338,960,537643
THE PROMENADE@PELIKAT,10444,970,537643
ROCHELLE AT NEWTON,15040,1397,308414
THE GARDENS AT BISHAN,9813,912,575575
THE FORD @ HOLLAND,19151,1779,268685
TRILIGHT,18967,1762,307997
ONE CHATSWORTH,19937,1852,249745
STARVILLE,9722,903,417456
THOMSON GRAND,13021,1210,573914
BLOSSOM RESIDENCES,7478,695,677721
EON SHENTON,27814,2584,79118
BARTLEY RESIDENCES,14054,1306,536559
PAVILION PARK,14796,1375,658212
TRELLIS TOWERS,12174,1131,319773
SUMMERHILL,10537,979,596231
WATER PLACE,15845,1472,436607
THE MARBELLA,17178,1596,276954
THE VANDERLINT,16279,1512,429665
TWIN WATERFALLS,7894,733,828765
N.A.,7004,651,466102
HILLCREST VILLA,10662,991,286691
SMART SUITES,13332,1239,387516
THE RAINFOREST,8489,789,689871
EIGHT COURTYARDS,9323,866,768100
RIO GARDENS,9640,896,329001
THE PROMENADE@PELIKAT,9905,920,537643
NATURA@HILLVIEW,14500,1347,669233
THE TAMPINES TRILLIANT,8533,793,528614
SUMMERHILL,11341,1054,596230
THE MINTON,9546,887,534075
18 WOODSVILLE,19172,1781,357799
EON SHENTON,24138,2242,79118
DRAGON VIEW PARK,17938,1666,249207
PARC VERA,8924,829,534041
PALM ISLES,9650,897,506895
VILLA MARTIA,11452,1064,424808
TWIN WATERFALLS,7730,718,828765
SUITES @ NEWTON,23214,2157,307740
ESTA RUBY,15152,1408,399839
18 WOODSVILLE,18546,1723,357799
TWIN WATERFALLS,7294,678,828768
WATERFRONT KEY,11078,1029,479255
CASTLE GREEN,8920,829,787058
STARVILLE,9391,872,417456
BLISS@KOVAN,14823,1377,546018
SKY HABITAT,16547,1537,573908
AUSTVILLE RESIDENCES,8027,746,544805
AUSTVILLE RESIDENCES,7589,705,544805
91 MARSHALL,16111,1497,424887
REGENTVILLE,8150,757,538685
LUCKY PLAZA,22104,2054,238863
OLEANAS RESIDENCE,13596,1263,239347
ZEDGE,19348,1797,309973
RIPPLE BAY,9215,856,518184
BLOSSOM RESIDENCES,7459,693,677722
KOVAN MELODY,11123,1033,548191
HARBOUR VIEW TOWERS,11711,1088,109258
SKY HABITAT,16902,1570,573908
SELETAR PARK RESIDENCE,13692,1272,807019
CASHEW HEIGHTS CONDOMINIUM,9598,892,679668
THE NAUTICAL,9902,920,769475
THE AMSTON,8139,756,669596
THE CASCADIA,19472,1809,589624
N.A.,16197,1505,426763
EIGHT COURTYARDS,8926,829,768097
ESTELLA GARDENS,8083,751,509739
TEACHER'S HOUSING ESTATE,11118,1033,789418
EON SHENTON,24139,2243,79118
UBER 388,16918,1572,466477
PARC VERA,9123,848,534037
RIPPLE BAY,7346,682,518166
RIPPLE BAY,9985,928,518184
JARDIN,20691,1922,589488
91 MARSHALL,15166,1409,424887
PALM ISLES,8023,745,506892
THE RAINFOREST,7507,697,689871
RIVER PLACE,13151,1222,169658
BLUE HORIZON,10814,1005,128049
FLAMINGO VALLEY,12289,1142,455943
CALARASI,9720,903,328882
N.A.,21238,1973,267775
ST ANNE'S WOOD,13067,1214,545232
LYNNSVILLE 331,7454,692,117449
ARCHIPELAGO,9930,923,479271
PALM ISLES,9769,908,506893
EON SHENTON,26752,2485,79118
NEWTON EURO-ASIA,17071,1586,307954
THE WOODS,5081,472,648210
SHELFORD SUITES,17695,1644,288383
RIVERSOUND RESIDENCE,9657,897,544740
THE CRISTALLO,13946,1296,425687
MELVILLE PARK,7574,704,529943
FONTAINE PARRY,11364,1056,546777
THE RAINFOREST,8467,787,689873
THE SUNNY SPRING,9709,902,398074
FERRARIA PARK CONDOMINIUM,10000,929,506951
TWIN WATERFALLS,7732,718,828768
WOODSVALE,6983,649,738093
TWIN WATERFALLS,7920,736,828790
HOLLANDSWOOD COURT,9747,906,249473
SELETAR PARK RESIDENCE,13411,1246,807019
THE GLACIER,7990,742,427941
PALM ISLES,9653,897,506867
PARC IMPERIAL,18478,1717,117423
THE RIVERVALE,7819,726,545118
PARC VERA,6059,563,534037
HILLSTA,10333,960,668201
HILLSTA,9268,861,667973
26 NEWTON,25000,2323,307957
THE RAINFOREST,8336,774,689875
BAYSHORE PARK,10275,955,469985
THOMSON GRAND,15589,1448,575580
HILLSTA,10549,980,668201
TWIN WATERFALLS,7558,702,828793
N.A.,21571,2004,259421
N.A.,9260,860,427590
91 MARSHALL,15763,1464,424887
RIPPLE BAY,9665,898,518164
IDYLLIC SUITES,12500,1161,398353
ELLIOT AT THE EAST COAST,14590,1355,458709
GARDENVISTA,13029,1210,589485
MY MANHATTAN,13149,1222,529900
RIVERSOUND RESIDENCE,8389,779,544811
N.A.,21786,2024,259421
HIGH OAK CONDOMINIUM,10385,965,596290
HILLINGTON GREEN,11043,1026,669565
FERRARIA PARK CONDOMINIUM,10202,948,506944
NESS,13771,1279,398298
SELETAR PARK RESIDENCE,8847,822,807019
THE QUINTET,7590,705,689104
HILLSTA,11716,1088,668201
PALM ISLES,7736,719,506894
RIVER PLACE,13265,1232,169661
RIPPLE BAY,9195,854,518166
LATITUDE,23304,2165,249206
LEVENUE,13816,1284,417642
SMART SUITES,13403,1245,387516
THE PROMONT,22995,2136,229790
TWIN WATERFALLS,7768,722,828764
THOMSON GRAND,14303,1329,573914
NORTHOAKS,6443,599,738087
SIMSVILLE,9670,898,389757
MONT TIMAH,8780,816,587778
