Project Name,Unit Price ($ psm),Unit Price ($ psf),Postal Code
THE SANTORINI,12975,1205,528592
SKYPARK RESIDENCES,8620,801,757093
PAVILION 11,17246,1602,309979
THE GLADES,15796,1467,465407
COCO PALMS,10011,930,518072
COCO PALMS,10870,1010,518070
COMMONWEALTH TOWERS,14839,1379,149739
28 RC SUITES,17561,1631,218746
SUNRISE GARDENS,8167,759,806748
ONZE @ TANJONG PAGAR,23588,2191,89218
WATERWOODS,9036,839,828746
RIVERBANK @ FERNVALE,10435,969,797476
ECOPOLITAN,8674,806,828776
DUNMAN VIEW,11081,1029,438797
WOODSVALE,6885,640,738098
SANCTUARY GREEN,12579,1169,436925
SKY HABITAT,15119,1405,573909
WATERWOODS,8516,791,828746
RIPPLE BAY,10444,970,518162
EIGHT RIVERSUITES,14440,1342,338520
COCO PALMS,11228,1043,518144
WATERFRONT @ FABER,13626,1266,128993
THE RIVERINA,10479,974,518293
MERGUI MANSIONS,9474,880,219057
ECO,16773,1558,465490
JEWEL @ BUANGKOK,12345,1147,544685
CITY SQUARE RESIDENCES,17170,1595,207224
THE WOODGROVE,8735,811,738230
RANGOON 88,15298,1421,218374
LAGUNA PARK,8867,824,449286
# 1 SUITES,11945,1110,398721
COCO PALMS,11808,1097,518071
HILLCREST VILLA,10819,1005,286738
K-LODGE,8538,793,425641
WINDSOR PARK ESTATE,14457,1343,576195
THE SKYWOODS,13298,1235,677667
SPOTTISWOODE SUITES,22797,2118,88661
COCO PALMS,10746,998,518076
COCO PALMS,10457,971,518072
NOVENA LODGE,16270,1511,308729
SUNFLOWER VIEW,10106,939,398162
GARDENVILLE,18920,1758,257654
H2O RESIDENCES,10029,932,797531
BOTANIC GARDENS VIEW,20611,1915,257724
THE CALROSE,9354,869,787083
THE BAYSHORE,10055,934,469973
COMMONWEALTH TOWERS,18066,1678,149740
ESTELLA GARDENS,11148,1036,509739
TWIN FOUNTAINS,8189,761,738995
YUNNAN GARDENS,11819,1098,637933
THE WARREN,9735,904,689676
CASAFINA,7947,738,469338
SPOTTISWOODE SUITES,23603,2193,88661
COCO PALMS,12209,1134,518140
NINE RESIDENCES,10884,1011,768895
FORTUNE JADE,11881,1104,439193
COCO PALMS,10848,1008,518070
COCO PALMS,10875,1010,518140
GOODWOOD RESIDENCE,24894,2313,259703
THE MINTON,13097,1217,538756
THE GLYNDEBOURNE,18053,1677,297722
SOUTHBANK,17818,1655,198784
COCO PALMS,10717,996,518143
CUBE 8,15023,1396,298130
LE CRESCENDO,11882,1104,409044
NEPTUNE COURT,9605,892,449026
SKY HABITAT,13637,1267,573909
PALM GARDENS,9474,880,689048
MELVILLE PARK,8763,814,529948
N.A.,9087,844,399736
DOUBLE BAY RESIDENCES,10763,1000,528714
CORALS AT KEPPEL BAY,26432,2456,98016
PALM GARDENS,9124,848,689050
EASTVALE,8468,787,519493
ROSEWOOD SUITES,8947,831,737876
VISTA PARK,9535,886,118174
LAKEVILLE,13739,1276,648155
AALTO,16223,1507,437981
WATERFRONT @ FABER,13964,1297,128991
N.A.,12916,1200,538366
SANT RITZ,16327,1517,348196
COCO PALMS,10804,1004,518143
N.A.,12596,1170,276658
ALTEZ,21020,1953,79717
RESIDENCES AT 338A,17130,1591,238381
EASTWOOD CENTRE,8268,768,486442
COCO PALMS,11490,1067,518071
THE SANTORINI,12429,1155,528592
THE BAYRON,18704,1738,238140
ECOPOLITAN,8727,811,828774
THE LINEAR,10569,982,678210
28 RC SUITES,18105,1682,218746
SUNGLADE,12250,1138,556135
N.A.,11062,1028,486573
KINGSFORD . HILLVIEW PEAK,14175,1317,667982
MANDALE HEIGHTS,13592,1263,308225
D'LEEDON,17625,1637,267951
COCO PALMS,10661,990,518073
PEBBLE BAY,12911,1199,436919
URBAN VISTA,13101,1217,465421
SKY HABITAT,13715,1274,573909
ASPEN HEIGHTS,16463,1529,238307
SEA HORIZON,8535,793,518083
SEMBAWANG HILLS ESTATE,17934,1666,576245
THE CREEK @ BUKIT,15944,1481,596199
VUE 8 RESIDENCE,9436,877,519290
VIVACE,22973,2134,238011
COMMONWEALTH TOWERS,16438,1527,149739
COMMONWEALTH TOWERS,17511,1627,149740
COCO PALMS,11804,1097,518072
COMMONWEALTH TOWERS,16955,1575,149739
LA FIESTA,13024,1210,544830
COMMONWEALTH TOWERS,18244,1695,149739
KOVAN RESIDENCES,14024,1303,544916
COMMONWEALTH TOWERS,17929,1666,149739
THOMSON THREE,16015,1488,573894
SKY HABITAT,13779,1280,573908
COMMONWEALTH TOWERS,16161,1501,149739
MARINA BAY RESIDENCES,25000,2323,18980
N.A.,14377,1336,347987
COMMONWEALTH TOWERS,15022,1396,149739
THOMSON THREE,14856,1380,573895
SIGNATURE PARK,11077,1029,596741
PEBBLE BAY,16918,1572,436918
CHELSEA LODGE,10360,963,437083
CAIRNHILL PLAZA,17840,1657,229666
THE PETALS,8209,763,669587
CARDIFF RESIDENCE,16625,1545,558961
CITYLIGHTS,17063,1585,208747
COMMONWEALTH TOWERS,17586,1634,149739
WATERFRONT @ FABER,13245,1231,128989
FORESTVILLE,7854,730,737881
COMMONWEALTH TOWERS,18816,1748,149740
WATERFRONT @ FABER,13854,1287,128989
COMMONWEALTH TOWERS,18575,1726,149739
NINE RESIDENCES,13455,1250,768895
PARVIS,19810,1840,278746
COCO PALMS,12070,1121,518141
SKY HABITAT,15527,1442,573908
RIVERSAILS,10370,963,534025
SERANGOON PARK,15309,1422,358990
COMMONWEALTH TOWERS,14900,1384,149739
RIVERBANK @ FERNVALE,11295,1049,797477
BLUE HORIZON,11455,1064,128047
CASABELLA,17647,1639,269187
FRANKEL ESTATE,12947,1203,459290
PARK VIEW MANSION,6613,614,618643
MOUNT FABER LODGE,16239,1509,99200
N.A.,13271,1233,348400
LA FIESTA,12234,1137,544702
COCO PALMS,8709,809,518073
THE HERMITAGE,18297,1700,258117
CARIBBEAN AT KEPPEL BAY,18015,1674,98651
COMMONWEALTH TOWERS,18933,1759,149740
SKY HABITAT,16544,1537,573908
FORESTVILLE,9009,837,737775
COMMONWEALTH TOWERS,18084,1680,149740
VUE 8 RESIDENCE,9802,911,519284
Q BAY RESIDENCES,10391,965,528586
COMMONWEALTH TOWERS,16869,1567,149740
COCO PALMS,10832,1006,518073
COMMONWEALTH TOWERS,19846,1844,149740
THE SCALA,16048,1491,554479
COMMONWEALTH TOWERS,18223,1693,149740
FORESTVILLE,8829,820,737881
JADE RESIDENCES,13818,1284,537019
LA FIESTA,13143,1221,544707
WILKIE 87,13445,1249,228084
THE ARTE,15496,1440,329215
LAKESIDE TOWER,5355,498,618649
THE GLADES,13240,1230,465411
EASTPOINT GREEN,10437,970,529891
WINDSOR PARK ESTATE,12929,1201,574127
SKY HABITAT,14368,1335,573909
COMMONWEALTH TOWERS,14777,1373,149739
COMMONWEALTH TOWERS,16620,1544,149739
COMMONWEALTH TOWERS,18523,1721,149740
COMMONWEALTH TOWERS,18456,1715,149740
COMMONWEALTH TOWERS,19274,1791,149740
HILLVIEW PARK,9619,894,669555
HELIOS RESIDENCES,33721,3133,229815
COMMONWEALTH TOWERS,16007,1487,149739
COMMONWEALTH TOWERS,16531,1536,149740
COMMONWEALTH TOWERS,15548,1444,149739
WATERWOODS,8957,832,828746
COMMONWEALTH TOWERS,15328,1424,149739
COMMONWEALTH TOWERS,18646,1732,149739
COMMONWEALTH TOWERS,18217,1692,149739
COMMONWEALTH TOWERS,15596,1449,149740
COMMONWEALTH TOWERS,17981,1670,149740
BEDOK RIA,8909,828,489790
COMMONWEALTH TOWERS,17723,1647,149739
N.A.,7742,719,550128
JEWEL @ BUANGKOK,15016,1395,544687
COMMONWEALTH TOWERS,17306,1608,149740
EAST VIEW GARDEN,10672,991,487919
LE REGAL,11234,1044,389365
COMMONWEALTH TOWERS,18146,1686,149739
COMMONWEALTH TOWERS,17395,1616,149740
RIVERBANK @ FERNVALE,9734,904,797476
COMMONWEALTH TOWERS,18795,1746,149739
COMMONWEALTH TOWERS,19678,1828,149740
COMMONWEALTH TOWERS,16267,1511,149739
GRANDVIEW SUITES,11118,1033,398664
GARDENVISTA,14306,1329,589474
CHUAN PARK,11742,1091,556743
TREE HOUSE,11215,1042,679520
NEPTUNE COURT,8136,756,449030
COMMONWEALTH TOWERS,18423,1712,149740
COMMONWEALTH TOWERS,17766,1651,149740
N.A.,12946,1203,429313
THE SCALA,14000,1301,554476
COMMONWEALTH TOWERS,17305,1608,149739
COCO PALMS,12872,1196,518076
COMMONWEALTH TOWERS,15366,1428,149739
LAKEVILLE,13047,1212,648161
COMMONWEALTH TOWERS,15328,1424,149739
PATERSON LODGE,21266,1976,238509
PANDAN VALLEY,8489,789,597629
PASIR RIS BEACH PARK,6267,582,519712
LAGUNA PARK,9467,879,449288
THE CALLISTA,11226,1043,328702
SKY HABITAT,16417,1525,573909
ASCENT @ 456,15978,1484,329832
COMMONWEALTH TOWERS,19293,1792,149739
LILYDALE,7203,669,768964
ALEX RESIDENCES,17302,1607,158744
COMMONWEALTH TOWERS,18309,1701,149740
COMMONWEALTH TOWERS,15488,1439,149739
PARC EMILY,17154,1594,228490
COMMONWEALTH TOWERS,15941,1481,149739
COMMONWEALTH TOWERS,20156,1873,149740
COMMONWEALTH TOWERS,17909,1664,149739
CUBE 8,14919,1386,298130
COMMONWEALTH TOWERS,17742,1648,149740
N.A.,10288,956,546207
THE SUNNY SPRING,10467,972,398074
ILLUMINAIRE ON DEVONSHIRE,27907,2593,239900
LA CASA,8113,754,737895
MERLOT VILLE,10278,955,423847
COMMONWEALTH TOWERS,16989,1578,149739
SERANGOON GARDEN ESTATE,11909,1106,559079
COMMONWEALTH TOWERS,17931,1666,149739
HELIOS RESIDENCES,29412,2732,229816
THE CHUAN,15294,1421,556820
COMMONWEALTH TOWERS,18934,1759,149739
COMMONWEALTH TOWERS,18817,1748,149740
RV RESIDENCES,22949,2132,248350
COCO PALMS,11250,1045,518071
COMMONWEALTH TOWERS,18746,1742,149740
SKY HABITAT,14651,1361,573908
COMMONWEALTH TOWERS,16995,1579,149740
COMMONWEALTH TOWERS,15794,1467,149739
COMMONWEALTH TOWERS,15573,1447,149739
COMMONWEALTH TOWERS,19105,1775,149740
EIGHT RIVERSUITES,15165,1409,338519
COMMONWEALTH TOWERS,17503,1626,149739
WATERVIEW,12740,1184,528687
COCO PALMS,13116,1219,518144
HILLVIEW GREEN,10992,1021,598741
PARC OASIS,10263,953,609783
BISHAN 8,12477,1159,574045
BELMOND GREEN,19560,1817,259816
THE TESSARINA,12000,1115,276305
COMMONWEALTH TOWERS,18152,1686,149739
SKY VUE,17631,1638,573911
GUILLEMARD SUITES,13805,1283,399733
COMMONWEALTH TOWERS,17629,1638,149739
COMMONWEALTH TOWERS,16391,1523,149740
COMMONWEALTH TOWERS,17344,1611,149740
COMMONWEALTH TOWERS,16795,1560,149740
COMMONWEALTH TOWERS,15242,1416,149739
THE CREEK @ BUKIT,16095,1495,596199
COMMONWEALTH TOWERS,18505,1719,149739
COMMONWEALTH TOWERS,16064,1492,149739
ONE EIGHTIES RESIDENCES,17058,1585,427334
COCO PALMS,8709,809,518071
COMMONWEALTH TOWERS,18145,1686,149739
COMMONWEALTH TOWERS,18581,1726,149739
COMMONWEALTH TOWERS,14998,1393,149739
COMMONWEALTH TOWERS,17919,1665,149740
THE CREEK @ BUKIT,15814,1469,596683
COMMONWEALTH TOWERS,17886,1662,149740
COMMONWEALTH TOWERS,15855,1473,149739
COMMONWEALTH TOWERS,15206,1413,149739
COMMONWEALTH TOWERS,16684,1550,149739
THE LANAI,15086,1402,669600
COMMONWEALTH TOWERS,16841,1565,149739
COMMONWEALTH TOWERS,18073,1679,149739
THE TENERIFFE,8966,833,275955
DOUBLE BAY RESIDENCES,11969,1112,528715
COMMONWEALTH TOWERS,18720,1739,149739
LA FIESTA,11443,1063,544706
THE VENUE RESIDENCES,15369,1428,347840
COMMONWEALTH TOWERS,15880,1475,149739
COMMONWEALTH TOWERS,17164,1595,149739
CAIRNHILL CREST,20015,1859,229811
COMMONWEALTH TOWERS,18315,1701,149740
LANDRIDGE CONDOMINIUM,12206,1134,118572
COMMONWEALTH TOWERS,18014,1674,149740
Q BAY RESIDENCES,11824,1098,528587
THE GLADES,14924,1387,469600
COCO PALMS,12314,1144,518074
TREVISTA,14557,1352,319582
COMMONWEALTH TOWERS,17063,1585,149740
COMMONWEALTH TOWERS,16664,1548,149739
COMMONWEALTH TOWERS,16196,1505,149740
COMMONWEALTH TOWERS,18244,1695,149740
SKY HABITAT,13662,1269,573909
COCO PALMS,11130,1034,518074
COMMONWEALTH TOWERS,15059,1399,149739
COMMONWEALTH TOWERS,17491,1625,149740
FERRARIA PARK CONDOMINIUM,10471,973,506946
COMMONWEALTH TOWERS,17655,1640,149739
COMMONWEALTH TOWERS,16584,1541,149739
GUILLEMARD SUITES,15865,1474,399733
COMMONWEALTH TOWERS,16071,1493,149739
COCO PALMS,11791,1095,518140
COMMONWEALTH TOWERS,20037,1861,149740
COMMONWEALTH TOWERS,16400,1524,149739
COMMONWEALTH TOWERS,19078,1772,149739
N.A.,17278,1605,429712
ASCENT @ 456,16198,1505,329832
SKY HABITAT,14892,1384,573909
SEA ESTA,8678,806,518145
COMMONWEALTH TOWERS,17284,1606,149739
BRADDELL VIEW,8263,768,579728
YISHUN EMERALD,8411,781,768425
PALM OASIS,13768,1279,426154
THE ANCHORAGE,13824,1284,159960
L'VIV,23441,2178,307955
COMMONWEALTH TOWERS,16542,1537,149739
8 FARRER SUITES,17227,1600,217820
THE SIENA,21518,1999,266636
ASTOR GREEN,11094,1031,597590
ROBIN SUITES,24419,2269,258203
COMMONWEALTH TOWERS,17826,1656,149740
COMMONWEALTH TOWERS,15819,1470,149739
COMMONWEALTH TOWERS,16002,1487,149739
COMMONWEALTH TOWERS,19032,1768,149740
JEWEL @ BUANGKOK,13059,1213,544685
PALM GARDENS,9474,880,689049
THE SORRENTO,14343,1332,127365
BLUWATERS,11026,1024,506961
ALEX RESIDENCES,16392,1523,158744
COMMONWEALTH TOWERS,19320,1795,149740
COMMONWEALTH TOWERS,16811,1562,149740
COMMONWEALTH TOWERS,16886,1569,149739
THE CREEK @ BUKIT,17912,1664,596197
COMMONWEALTH TOWERS,15672,1456,149739
COMMONWEALTH TOWERS,16492,1532,149739
COMMONWEALTH TOWERS,17796,1653,149739
COMMONWEALTH TOWERS,16927,1573,149740
THE SANTORINI,12245,1138,528592
COMMONWEALTH TOWERS,16251,1510,149740
COMMONWEALTH TOWERS,18863,1752,149739
COMMONWEALTH TOWERS,18474,1716,149740
COMMONWEALTH TOWERS,18673,1735,149740
COMMONWEALTH TOWERS,16476,1531,149740
THE SANTORINI,12082,1122,528592
COMMONWEALTH TOWERS,16309,1515,149740
RIVERSAILS,10220,949,534026
COMMONWEALTH TOWERS,17245,1602,149740
COMMONWEALTH TOWERS,19222,1786,149739
COMMONWEALTH TOWERS,17319,1609,149739
THE VENUE RESIDENCES,14084,1308,347846
WATERWOODS,8633,802,828747
VILLA VERDE,10533,979,688508
WATERWOODS,8289,770,828746
THE SCALA,15455,1436,554477
THE QUINN,14207,1320,539789
COMMONWEALTH TOWERS,17242,1602,149740
BLISS@KOVAN,10046,933,546053
THE QUINN,14210,1320,539789
LAKEVILLE,14831,1378,648155
REFLECTIONS AT KEPPEL BAY,18025,1675,98417
COMMONWEALTH TOWERS,17596,1635,149740
COMMONWEALTH TOWERS,17613,1636,149740
COMMONWEALTH TOWERS,16661,1548,149740
STRATUM,9118,847,519948
LILYDALE,7739,719,768965
HUME PARK I,9600,892,598725
E MAISON,14743,1370,359966
COMMONWEALTH TOWERS,20276,1884,149740
COMMONWEALTH TOWERS,18361,1706,149739
COMMONWEALTH TOWERS,16808,1562,149739
ALEXIS,19732,1833,159949
CARISSA PARK CONDOMINIUM,9984,928,507025
CAVENDISH PARK,12869,1196,597594
MAR THOMA MANSIONS,8451,785,328708
THE EDEN AT TAMPINES,8730,811,529240
COMMONWEALTH TOWERS,15452,1435,149739
COMMONWEALTH TOWERS,15267,1418,149739
SERANGOON GARDEN ESTATE,12582,1169,557812
COMMONWEALTH TOWERS,17507,1626,149739
COMMONWEALTH TOWERS,16223,1507,149739
CITY SQUARE RESIDENCES,15315,1423,207226
THE SCENIC @ BRADDELL,11538,1072,359944
THE SCALA,16949,1575,554475
THE SERENADE @ HOLLAND,13253,1231,278698
THE TENERIFFE,9397,873,275946
PEIRCE VIEW,11144,1035,574418
MELVILLE PARK,8146,757,529946
SANT RITZ,16509,1534,348196
COMMONWEALTH TOWERS,17675,1642,149740
COMMONWEALTH TOWERS,17095,1588,149739
COMMONWEALTH TOWERS,17464,1622,149740
COMMONWEALTH TOWERS,15917,1479,149739
COMMONWEALTH TOWERS,19176,1781,149740
SKY HABITAT,14229,1322,573908
BAYVILLE CONDOMINIUM,9009,837,118166
COMMONWEALTH TOWERS,21052,1956,149740
LA FIESTA,13235,1230,544704
COMMONWEALTH TOWERS,17356,1612,149739
RV RESIDENCES,22497,2090,248350
THE SORRENTO,13505,1255,127365
LAKEVILLE,13370,1242,648162
THE SORRENTO,13371,1242,127365
THE MINTON,11978,1113,538755
BAYWATER,11500,1068,479243
COMMONWEALTH TOWERS,17195,1597,149740
THE LANAI,16571,1539,669600
THE SANTORINI,12612,1172,528592
COMMONWEALTH TOWERS,15305,1422,149739
COMMONWEALTH TOWERS,15513,1441,149739
PARKVIEW APARTMENTS,8798,817,658881
COMMONWEALTH TOWERS,17061,1585,149740
SUNNYVALE RESIDENCES,16006,1487,425790
THE SORRENTO,14999,1393,127365
GRANDVIEW SUITES,11715,1088,398664
PARC OASIS,9649,896,609775
COMMONWEALTH TOWERS,16420,1525,149740
THE RAINTREE,10680,992,587844
DUNMAN VIEW,10887,1011,438798
ORCHID PARK CONDOMINIUM,7804,725,768451
COMMONWEALTH TOWERS,19798,1839,149740
THE SORRENTO,15593,1449,127365
MAYSPRINGS,7833,728,678267
THE PEAK@BALMEG,15486,1439,119919
SERANGOON GARDEN ESTATE,10010,930,556570
REGENT HEIGHTS,9158,851,659801
GUILIN VIEW,9754,906,659248
COMMONWEALTH TOWERS,18164,1687,149740
THE SORRENTO,16166,1502,127365
THE SORRENTO,12026,1117,127365
LIVIA,10499,975,518206
REGENTVILLE,8571,796,538685
CHARLTON VILLAS,7603,706,534154
CITYSCAPE @FARRER PARK,16870,1567,219067
PAVILION 11,17191,1597,309979
COMMONWEALTH TOWERS,17036,1583,149740
COMMONWEALTH TOWERS,17730,1647,149740
VILLAS @ GILSTEAD,7580,704,309122
JEWEL @ BUANGKOK,12585,1169,544685
COMMONWEALTH TOWERS,17539,1629,149739
RIVERTREES RESIDENCES,11063,1028,797460
COMMONWEALTH TOWERS,16308,1515,149739
COMMONWEALTH TOWERS,17130,1591,149740
NV RESIDENCES,12535,1165,518214
COMMONWEALTH TOWERS,19390,1801,149740
COMMONWEALTH TOWERS,16136,1499,149739
COMMONWEALTH TOWERS,17946,1667,149740
COMMONWEALTH TOWERS,16284,1513,149739
COMMONWEALTH TOWERS,19605,1821,149740
COMMONWEALTH TOWERS,16126,1498,149740
THE TROPICA,9645,896,529774
RIS GRANDEUR,7767,722,519933
GLOUCESTER MANSIONS,16525,1535,307947
CHANGI RISE CONDOMINIUM,10000,929,528805
RIVERSAILS,10700,994,534025
PARC SOMME,15294,1421,207877
N.A.,13630,1266,369818
MAPLEWOODS,12143,1128,589631
RIVERTREES RESIDENCES,13109,1218,797463
N.A.,12571,1168,358055
THE ESPARIS,9153,850,519462
AMARYLLIS VILLE,15983,1485,307990
THE RIVERVALE,7953,739,545125
EUPHONY GARDENS,7290,677,759151
OPERA ESTATE,9315,865,457523
ALESSANDREA,14510,1348,159967
SKY HABITAT,16417,1525,573908
N.A.,14286,1327,239802
COMMONWEALTH TOWERS,16727,1554,149740
WATERFRONT KEY,11861,1102,479251
THE JADE,11679,1085,658074
EAST MEWS,9192,854,437838
FORESTVILLE,8104,753,737770
THE SORRENTO,15821,1470,127365
BINJAI CREST,6510,605,587902
THE SANTORINI,12041,1119,528592
BALMORAL HILLS,15504,1440,259844
THE SORRENTO,12003,1115,127365
THE PARC CONDOMINIUM,13956,1297,127161
GARDENVILLE,20446,1900,257654
SUN PLAZA,8160,758,757713
TANGLIN VIEW,12690,1179,159012
WATERVIEW,11709,1088,528691
LA SUISSE,12711,1181,288042
THE CREEK @ BUKIT,17074,1586,596196
VILLE ROYALE,15417,1432,238351
WATERVIEW,12329,1145,528684
THE CHUAN,14173,1317,556820
VISTA RESIDENCES,16216,1507,329425
COMMONWEALTH TOWERS,18288,1699,149739
SKY HABITAT,16485,1531,573909
ALEX RESIDENCES,17477,1624,158744
COMMONWEALTH TOWERS,18529,1721,149740
SPANISH VILLAGE,15734,1462,268845
TAMPINES COURT,5769,536,521130
SANCTUARY @ 813,11446,1063,534085
THE SORRENTO,14747,1370,127365
COMMONWEALTH TOWERS,18348,1705,149740
SKY HABITAT,13955,1296,573908
N.A.,10009,930,427590
COMMONWEALTH TOWERS,19602,1821,149739
REZI 3TWO,16705,1552,398308
COMMONWEALTH TOWERS,17236,1601,149739
SKY HABITAT,15115,1404,573909
THE SKYWOODS,14465,1344,677668
THE SORRENTO,14764,1372,127365
ISUITES @ TANI,17128,1591,548540
STILL MANSIONS,9856,916,423950
EIGHT RIVERSUITES,14615,1358,338519
THE VENUE RESIDENCES,15505,1440,347846
THE SORRENTO,15687,1457,127365
PALM ISLES,12292,1142,506866
SKY HABITAT,15800,1468,573909
SKY HABITAT,13676,1271,573909
NORTHVALE,8188,761,689670
COMMONWEALTH TOWERS,16482,1531,149739
SKYPARK RESIDENCES,8578,797,757058
COMMONWEALTH TOWERS,19207,1784,149740
THE SORRENTO,14968,1391,127365
CALARASI,12182,1132,328882
GRANDVIEW SUITES,11271,1047,398664
COMMONWEALTH TOWERS,17172,1595,149739
COMMONWEALTH TOWERS,16952,1575,149739
MERA WOODS,9889,919,669606
Q BAY RESIDENCES,11871,1103,528583
N.A.,12038,1118,757117
THE SORRENTO,13016,1209,127365
GOODWOOD RESIDENCE,25132,2335,259704
BELMOND GREEN,18878,1754,259801
N.A.,13807,1283,437148
NINE RESIDENCES,11188,1039,768894
THE TEMBUSU,16583,1541,534008
ALEX RESIDENCES,17811,1655,158744
LAKEVILLE,13881,1290,648160
SKY HABITAT,13740,1276,573908
SKY HABITAT,16212,1506,573909
REGENTVILLE,8523,792,538688
COMMONWEALTH TOWERS,17842,1658,149740
HEDGES PARK CONDOMINIUM,9859,916,506887
COMMONWEALTH TOWERS,16767,1558,149739
SKY HABITAT,14978,1391,573908
DUCHESS MANOR,10547,980,268988
YEW MEI GREEN,7967,740,689574
CHILTERN PARK,9804,911,556113
COMMONWEALTH TOWERS,19696,1830,149740
THE SORRENTO,13572,1261,127365
THE SORRENTO,12390,1151,127365
COMMONWEALTH TOWERS,19344,1797,149740
COMMONWEALTH TOWERS,18459,1715,149740
VIZ AT HOLLAND,13415,1246,276750
PINEVALE,8333,774,528824
ENG KONG PARK,15774,1465,599072
SEA HORIZON,8493,789,518088
NINE RESIDENCES,12833,1192,768894
DOVER PARKVIEW,12586,1169,138686
CITYLIGHTS,16406,1524,208745
THOMSON GROVE,10145,942,787072
THE GLADES,15714,1460,469598
COMMONWEALTH TOWERS,16644,1546,149740
THE URBANITE,18667,1734,219384
SAVANNAH CONDOPARK,10211,949,528787
THE SORRENTO,15188,1411,127365
V ON SHENTON,25762,2393,68814
THE PALLADIUM,15488,1439,429984
EIGHT RIVERSUITES,11622,1080,338517
VILLAGE @ PASIR PANJANG,13026,1210,118797
COMMONWEALTH TOWERS,17149,1593,149740
HILLTOP GROVE,9431,876,669620
THE SCALA,15539,1444,554475
THE WATERSIDE,14865,1381,436882
COMMONWEALTH TOWERS,15548,1444,149739
THE BLOSSOMVALE,14714,1367,589473
CORALS AT KEPPEL BAY,26028,2418,98018
SKY HABITAT,15489,1439,573909
REFLECTIONS AT KEPPEL BAY,22481,2089,98415
THE INTERLACE,14086,1309,109696
SKY HABITAT,14854,1380,573909
TIVOLI GRANDE,11783,1095,427060
SKY HABITAT,13917,1293,573908
COMMONWEALTH TOWERS,16980,1577,149740
COMMONWEALTH TOWERS,16805,1561,149739
THE SORRENTO,16120,1498,127365
Q BAY RESIDENCES,11600,1078,528587
VIVA VISTA,20000,1858,118136
SKY HABITAT,13910,1292,573909
SKY HABITAT,13949,1296,573909
REIGNWOOD HAMILTON SCOTTS,33203,3085,228229
D'LEEDON,16943,1574,267953
SERANGOON GARDEN ESTATE,10941,1016,559589
SKY HABITAT,14772,1372,573909
COMMONWEALTH TOWERS,16756,1557,149740
SKY HABITAT,15632,1452,573909
LIV ON WILKIE,27904,2592,228025
SKY HABITAT,16142,1500,573909
DAKOTA RESIDENCES,13115,1218,399940
AZALEA PARK CONDOMINIUM,8857,823,509731
ECO SANCTUARY,13535,1257,679522
BARTLEY RIDGE,12222,1135,368055
MIMOSA TERRACE,17000,1579,805556
THE SPECTRUM,11628,1080,117504
THE CLAYMORE,28939,2688,229544
MI CASA,10407,967,689863
STRATFORD COURT,9398,873,489929
THE LAKESHORE,11215,1042,649412
SKY HABITAT,14796,1375,573909
COMMONWEALTH TOWERS,18367,1706,149739
COMMONWEALTH TOWERS,17123,1591,149740
PARC PALAIS,10556,981,598753
THE SORRENTO,16149,1500,127365
Q BAY RESIDENCES,10535,979,528586
COMMONWEALTH TOWERS,18072,1679,149740
COMMONWEALTH TOWERS,18193,1690,149739
COMMONWEALTH TOWERS,17726,1647,149739
THE CASCADIA,18298,1700,589646
THE ESTIVA,10417,968,117482
THE SCALA,14643,1360,554479
THE QUARTZ,11717,1089,544987
RIVERBAY,13397,1245,328704
MELVILLE PARK,7960,740,529942
COMMONWEALTH TOWERS,19483,1810,149739
COMMONWEALTH TOWERS,18576,1726,149739
WATERWOODS,8441,784,828751
EIGHT RIVERSUITES,14368,1335,338519
HORIZON RESIDENCES,17935,1666,118864
THE SORRENTO,15210,1413,127365
COMMONWEALTH TOWERS,16817,1562,149740
THE SORRENTO,13918,1293,127365
SKY HABITAT,14130,1313,573909
SEA HORIZON,9237,858,518089
THE GLADES,15182,1410,469600
SKY HABITAT,13757,1278,573909
ONE DEVONSHIRE,22302,2072,239896
RIDGEWOOD,13587,1262,277113
SKY HABITAT,16348,1519,573908
WATERWOODS,8261,767,828748
REFLECTIONS AT KEPPEL BAY,25309,2351,98408
SKY HABITAT,14851,1380,573908
THE SORRENTO,16195,1505,127365
THE SUNNY SPRING,10631,988,398074
PARRY PARK,14940,1388,547040
N.A.,13072,1214,359242
N.A.,11548,1073,596554
TANGLIN VIEW,13796,1282,159012
MAYSPRINGS,10133,941,678265
WATERWOODS,8719,810,828750
THE SORRENTO,12585,1169,127365
SKY HABITAT,13793,1281,573909
WATERVIEW,11321,1052,528685
COMMONWEALTH TOWERS,17552,1631,149740
COMMONWEALTH TOWERS,17136,1592,149739
COMMONWEALTH TOWERS,17797,1653,149740
COMMONWEALTH TOWERS,17736,1648,149740
LAKEPOINT CONDOMINIUM,7886,733,648923
COMMONWEALTH TOWERS,16814,1562,149739
LEICESTER LODGE,11532,1071,358843
PARVIS,17204,1598,278743
VERSILIA ON HAIG,13554,1259,438639
SKY HABITAT,14771,1372,573908
WATERWOODS,8862,823,828749
SKY HABITAT,14845,1379,573909
ELLIOT AT THE EAST COAST,14969,1391,458703
THE SHORE RESIDENCES,18072,1679,439893
GOODWOOD GRAND,27386,2544,259802
BRADDELL HEIGHTS ESTATE,11712,1088,359693
COMMONWEALTH TOWERS,17449,1621,149740
TWIN REGENCY,17537,1629,169277
THE SORRENTO,16285,1513,127365
COMMONWEALTH TOWERS,17430,1619,149740
WOODSVALE,7167,666,738090
THE PARK VALE,14655,1361,288564
THE SORRENTO,16159,1501,127365
LA FIESTA,12110,1125,544702
N.A.,16441,1527,577159
THE SORRENTO,16166,1502,127365
RIVERBANK @ FERNVALE,9907,920,797475
SERANGOON GARDEN ESTATE,14379,1336,558004
THE SORRENTO,15299,1421,127365
THE LINCOLN RESIDENCES,18343,1704,307762
PAYA LEBAR RESIDENCES,12389,1151,409042
THOMSON THREE,16848,1565,573895
AQUARIUS BY THE PARK,7672,713,478933
DEVONSHIRE 12,21333,1982,239847
EIGHT RIVERSUITES,14615,1358,338517
SKY HABITAT,14174,1317,573909
VUE 8 RESIDENCE,9436,877,519286
THE CREEK @ BUKIT,16943,1574,596198
DUO RESIDENCES,24352,2262,189350
THE SORRENTO,15252,1417,127365
NORMANTON PARK,9322,866,119001
FORESTVILLE,7583,704,737775
GUILLEMARD SUITES,13855,1287,399733
THE SORRENTO,15319,1423,127365
H2O RESIDENCES,10946,1017,797531
RIVERTREES RESIDENCES,11311,1051,797462
EIGHT RIVERSUITES,11905,1106,338521
N.A.,17460,1622,259096
GARDENVISTA,13333,1239,589482
MIMOSA VALE,10941,1016,807938
THE FLORAVALE,8086,751,648362
THE MINTON,13043,1212,538752
LA FIESTA,13299,1235,544700
EVERGREEN PARK,7982,742,538802
ONE EIGHTIES RESIDENCES,14912,1385,427332
SKY HABITAT,15041,1397,573909
VILLA MARINA,10756,999,457399
GUILLEMARD SUITES,14418,1339,399733
THE LANAI,16173,1503,669600
THE LANAI,16636,1546,669600
COMMONWEALTH TOWERS,18609,1729,149739
V ON SHENTON,20986,1950,68814
THE LANAI,16306,1515,669600
GUILLEMARD SUITES,16469,1530,399733
BERKELEY RESIDENCES,16491,1532,425141
THE SANTORINI,13395,1244,528592
THE SORRENTO,15170,1409,127365
CHILTERN PARK,12299,1143,556114
N.A.,1929,179,388962
COMMONWEALTH TOWERS,18189,1690,149739
COMMONWEALTH TOWERS,18671,1735,149740
WATERWOODS,8454,785,828747
D'NEST,10894,1012,518131
THE INTERLACE,13675,1270,109694
THE SORRENTO,15351,1426,127365
THE SORRENTO,15682,1457,127365
THE TEMBUSU,17835,1657,535129
D'NEST,10456,971,518131
GUILLEMARD SUITES,13536,1257,399733
HIJAUAN,19294,1792,229618
THOMSON EURO-ASIA,17500,1626,307605
WING FONG MANSIONS,8184,760,398924
CORALS AT KEPPEL BAY,25919,2408,98021
THE SORRENTO,15973,1484,127365
COMMONWEALTH TOWERS,15611,1450,149739
N.A.,12252,1138,787958
EDENZ LOFT,13333,1239,398623
GREEN SPRINGS,13987,1299,797758
COMMONWEALTH TOWERS,18543,1723,149739
EIGHT RIVERSUITES,14533,1350,338520
SKY HABITAT,14986,1392,573909
RIO VISTA,8793,817,534201
EUPHONY GARDENS,7387,686,759152
THE SORRENTO,12906,1199,127365
DAKOTA RESIDENCES,14205,1320,399939
REGENT HEIGHTS,9789,909,659804
THE SORRENTO,15492,1439,127365
THE ANCHORAGE,14706,1366,159961
SILVERSEA,18936,1759,449305
THE PARC CONDOMINIUM,11182,1039,127158
THE SCALA,14880,1382,554475
MELVILLE PARK,7813,726,529945
ONE AMBER,15413,1432,439972
SEA HORIZON,8632,802,518091
THE BAYSHORE,10696,994,469970
THE LAKESHORE,12056,1120,649412
BAYSHORE PARK,10805,1004,469985
THE SORRENTO,14933,1387,127365
COSTA RHU,13436,1248,437434
THE BOUTIQ,24431,2270,239565
SKY HABITAT,14398,1338,573909
ECOPOLITAN,8453,785,828776
COMMONWEALTH TOWERS,17429,1619,149740
COMMONWEALTH TOWERS,16756,1557,149740
SKY HABITAT,13974,1298,573909
THE SORRENTO,15242,1416,127365
THE SANTORINI,12143,1128,528592
THE TEMBUSU,15464,1437,535129
THE SORRENTO,15800,1468,127365
THE DAFFODIL,11290,1049,466584
THE SORRENTO,15091,1402,127365
THE HILLFORD,11375,1057,596151
EUHABITAT,14198,1319,419552
SKY HABITAT,15078,1401,573909
MEADOWS @ PEIRCE,9355,869,787132
THE SKYWOODS,14463,1344,677669
THE SORRENTO,15321,1423,127365
RIVERTREES RESIDENCES,12447,1156,797468
REZI 3TWO,16591,1541,398308
SKY HABITAT,14910,1385,573908
SKY HABITAT,14840,1379,573909
CASABLANCA,8960,832,737919
CUBE 8,16627,1545,298130
VILLA MARTIA,12658,1176,424808
THE SORRENTO,13614,1265,127365
THE SANTORINI,13030,1211,528592
SKY HABITAT,15211,1413,573908
SIMSVILLE,10784,1002,389754
V ON SHENTON,20602,1914,68814
COMMONWEALTH TOWERS,17595,1635,149740
THE GLADES,16587,1541,465407
BAYSHORE PARK,11000,1022,469982
THE SORRENTO,13391,1244,127365
SELETAR HILLS ESTATE,15311,1422,809358
TREVOSE PARK,14400,1338,298069
WESTVILLE,9790,909,648420
THE SORRENTO,16082,1494,127365
SKY HABITAT,15527,1442,573909
REZI 3TWO,16667,1548,398308
SKY HABITAT,15014,1395,573909
THE SORRENTO,16026,1489,127365
THE SANTORINI,12362,1148,528571
PARC OASIS,9375,871,609778
SKY HABITAT,14978,1391,573909
NANYANG PARK,12634,1174,548742
THE LAKEFRONT RESIDENCES,12663,1176,648305
THE TREVOSE,13975,1298,298090
COMMONWEALTH TOWERS,18076,1679,149739
THE SORRENTO,12984,1206,127365
SKY HABITAT,15038,1397,573909
THE SORRENTO,12450,1157,127365
THE CREEK @ BUKIT,17084,1587,596196
SKY HABITAT,15457,1436,573909
THE SORRENTO,15569,1446,127365
SKY HABITAT,13818,1284,573909
SKY HABITAT,13998,1300,573909
PARC OASIS,9561,888,609774
SKY HABITAT,15051,1398,573908
THE INTERLACE,13716,1274,109698
THE GLYNDEBOURNE,25510,2370,297722
SELETAR PARK RESIDENCE,13333,1239,807019
ALEX RESIDENCES,16000,1486,158744
ASCENT @ 456,15430,1433,329832
GRANDE VISTA,9370,871,809689
THE BLOSSOMVALE,14803,1375,589473
EIGHT RIVERSUITES,14400,1338,338520
THE SORRENTO,15742,1462,127365
SKY HABITAT,14958,1390,573909
SKY HABITAT,13857,1287,573909
DONG LONG MANSION,10326,959,429011
THE PEARL @ MOUNT FABER,12481,1160,99196
TANGLIN PARK,20161,1873,248468
COMMONWEALTH TOWERS,17519,1628,149740
SKY HABITAT,16280,1512,573908
LAKEVILLE,14338,1332,648163
THE SORRENTO,15082,1401,127365
ORCHID PARK CONDOMINIUM,8153,757,768448
COSTA DEL SOL,14167,1316,469992
SKY HABITAT,13838,1286,573909
THE SORRENTO,14905,1385,127365
ALEX RESIDENCES,16732,1554,158744
LAKEVILLE,15083,1401,648162
SKY HABITAT,14910,1385,573909
THE SORRENTO,12327,1145,127365
SEA HORIZON,8647,803,518080
SKY HABITAT,14614,1358,573909
CITY LOFT,16282,1513,218636
SEA HORIZON,9098,845,518084
PEBBLE BAY,12955,1204,436918
THE SORRENTO,15916,1479,127365
SKY HABITAT,13957,1297,573909
SKY HABITAT,14038,1304,573909
SKY HABITAT,15316,1423,573908
SKY HABITAT,14994,1393,573909
THE SORRENTO,15115,1404,127365
THE SORRENTO,15561,1446,127365
SKIES MILTONIA,10900,1013,768065
SKY HABITAT,14238,1323,573909
THE SKYWOODS,14286,1327,677669
LAKEVILLE,14380,1336,648155
SKY HABITAT,13798,1282,573909
SKY VUE,18478,1717,573910
THE FLORIDA,7899,734,538807
FORESTVILLE,7144,664,737880
HUME PARK I,9037,840,598723
LAKEVILLE,13853,1287,648162
LA FIESTA,13367,1242,544699
SKY HABITAT,15332,1424,573908
SKY HABITAT,15046,1398,573909
SKY HABITAT,14478,1345,573909
SKYPARK RESIDENCES,8709,809,757093
WATERFORD RESIDENCE,18182,1689,239332
THE RIVERSIDE PIAZZA,12755,1185,59608
GRANDEUR 8,11306,1050,567745
SKY HABITAT,15091,1402,573908
THE MINTON,11704,1087,538752
THE SORRENTO,14990,1393,127365
LE REGAL,11234,1044,389365
VISTA PARK,7265,675,118167
THE MAYLEA,12931,1201,117493
SUMMER GARDENS,7117,661,486213
SKY HABITAT,15251,1417,573908
HILLVIEW GREEN,11172,1038,598741
THE ARIEL,13294,1235,426536
THE GLADES,17262,1604,465407
COMMONWEALTH TOWERS,17759,1650,149739
FORESTVILLE,7820,726,737881
THE CRISTALLO,9162,851,425687
ALEX RESIDENCES,15698,1458,158744
TANGLIN REGENCY,14937,1388,247966
THE SORRENTO,15376,1428,127365
TWIN FOUNTAINS,7865,731,738995
LAKEVILLE,14017,1302,648164
SKY HABITAT,16006,1487,573909
EIGHT RIVERSUITES,13867,1288,338520
THE ESTA,14797,1375,439970
THE SORRENTO,15742,1462,127365
SKY HABITAT,14052,1305,573909
SKY HABITAT,17107,1589,573908
SKY HABITAT,14998,1393,573909
EIGHT RIVERSUITES,13678,1271,338517
REFLECTIONS AT KEPPEL BAY,23121,2148,98419
THE SORRENTO,15445,1435,127365
SKY HABITAT,13701,1273,573909
SKY HABITAT,14558,1353,573909
SKY HABITAT,13740,1276,573909
SKY HABITAT,14306,1329,573908
CARIBBEAN AT KEPPEL BAY,16810,1562,98656
THE SORRENTO,13899,1291,127365
Q BAY RESIDENCES,11198,1040,528586
SKY HABITAT,15731,1461,573909
CASA MERAH,12435,1155,465525
THE SORRENTO,14700,1366,127365
THE SORRENTO,15064,1399,127365
THE SORRENTO,14842,1379,127365
THE SORRENTO,10588,984,127365
SKY HABITAT,14105,1310,573909
BOTANNIA,13534,1257,127722
THE LEVELZ,17079,1587,268836
SELANTING GREEN,10992,1021,598368
SKY HABITAT,14416,1339,573909
EIGHT RIVERSUITES,15846,1472,338520
ECOPOLITAN,8694,808,828777
THE SORRENTO,15010,1394,127365
RIVERBANK @ FERNVALE,9765,907,797475
HELIOS RESIDENCES,29930,2781,229816
LA BRISA,15700,1459,398453
SKY HABITAT,14214,1320,573909
THE PEARL @ MOUNT FABER,11938,1109,99196
LAKEVILLE,14632,1359,648164
THOMSON THREE,13887,1290,573895
YEW MEI GREEN,7500,697,689577
THE SORRENTO,15126,1405,127365
SOUTHAVEN II,10490,974,587970
SKY HABITAT,14518,1349,573909
WATERSCAPE AT CAVENAGH,17614,1636,229631
VILLA MARINA,8776,815,457406
LA FIESTA,13117,1219,544707
SKY HABITAT,13754,1278,573909
SKY HABITAT,14385,1336,573908
THE PATERSON,21721,2018,238539
LINCOLN SUITES,22491,2089,308380
PRESTIGE POINT,14738,1369,534986
N.A.,12002,1115,548324
SKY HABITAT,14414,1339,573909
2 RVG,19767,1836,238405
FOUR SEASONS PARK,29524,2743,249693
THE TRILLIUM,21845,2029,239434
SKY HABITAT,14157,1315,573909
SUNRISE GARDENS,8824,820,806746
TREE HOUSE,12672,1177,679521
SKY HABITAT,14934,1387,573909
KATONG GARDENS,12873,1196,423721
COMMONWEALTH TOWERS,19534,1815,149740
SKYPARK RESIDENCES,8215,763,757094
THE SORRENTO,15646,1454,127365
MELVILLE PARK,9655,897,529942
THE LAKESHORE,11416,1061,649412
LA FIESTA,11935,1109,544832
THE QUARTZ,11238,1044,544990
SUITES @ EUNOS,14000,1301,417958
SKY HABITAT,14374,1335,573909
THE SORRENTO,15337,1425,127365
SKY HABITAT,16006,1487,573908
THE INTERLACE,13433,1248,109693
SIMSVILLE,10308,958,389757
PARC PALAIS,10775,1001,598753
THE JADE,12468,1158,658074
THE TROPICA,8765,814,529772
CHANGI GREEN,9912,921,486849
RIO VISTA,8793,817,534199
THE SHORE RESIDENCES,15698,1458,439893
HIGH POINT,15993,1486,228519
URBAN SUITES,29063,2700,229161
FORESTVILLE,7833,728,737881
MIRAGE TOWER,17544,1630,239426
HIJAUAN,19176,1782,229618
GOODWOOD GRAND,25877,2404,259802
ONE AMBER,12679,1178,439974
SKY HABITAT,15183,1411,573908
SKY HABITAT,14919,1386,573909
SKY HABITAT,14511,1348,573909
THE BOUTIQ,24259,2254,239565
SKY HABITAT,14438,1341,573909
SKY HABITAT,14451,1343,573908
REZI 3TWO,14783,1373,398308
SKY HABITAT,14278,1326,573909
THE SORRENTO,14940,1388,127365
SEASONS PARK,10000,929,787082
DOVER PARKVIEW,12931,1201,138687
SKY HABITAT,15663,1455,573908
THE SORRENTO,15131,1406,127365
SKY HABITAT,14345,1333,573908
THE SORRENTO,15357,1427,127365
CHESTERVALE,5654,525,679976
VARSITY PARK CONDOMINIUM,13333,1239,126827
THE SORRENTO,14483,1346,127365
VACANZA @ EAST,15556,1445,417398
THE PIER AT ROBERTSON,19130,1777,239013
WATERWOODS,9075,843,828749
THE SORRENTO,14933,1387,127365
V ON SHENTON,20781,1931,68814
CAIRNHILL RESIDENCES,21667,2013,229774
THE SORRENTO,15225,1414,127365
THE QUINTET,9414,875,689103
N.A.,27165,2524,423741
QUINTERRA,12727,1182,278636
N.A.,18375,1707,419273
PARC VISTA,10089,937,649813
SKY HABITAT,15457,1436,573908
URBAN LOFTS,15897,1477,218375
FRANKEL ESTATE,13317,1237,455749
WHITEWATER,8868,824,518769
THE SORRENTO,16031,1489,127365
SKY HABITAT,13832,1285,573909
# 1 SUITES,11692,1086,398721
WESTVILLE,8383,779,648537
THE SORRENTO,15423,1433,127365
WILKIE 80,17458,1622,228079
SKY HABITAT,14091,1309,573909
SKY HABITAT,14318,1330,573909
QUEENS,13784,1281,148957
SKY VUE,17379,1615,573910
COMMONWEALTH TOWERS,18256,1696,149740
THE ALCOVE,8594,798,388199
SKY HABITAT,14268,1325,573908
COMMONWEALTH TOWERS,17859,1659,149739
THE SORRENTO,15871,1474,127365
ECOPOLITAN,9243,859,828777
AMARYLLIS VILLE,16374,1521,307990
THE SORRENTO,16094,1495,127365
CHANGI RISE CONDOMINIUM,10084,937,528801
PHOENIX HEIGHTS,9262,861,668113
BARTLEY RIDGE,12616,1172,368055
PRESTIGE POINT,14203,1319,534986
NUOVO,10000,929,569788
SKY HABITAT,14027,1303,573909
RIVERBANK @ FERNVALE,11783,1095,797478
SKYPARK RESIDENCES,8574,797,757094
THE TEMBUSU,12881,1197,534008
LA FIESTA,13359,1241,544700
NV RESIDENCES,12338,1146,518213
THE ACACIAS,11172,1038,358246
THE SORRENTO,15782,1466,127365
RIVERBANK @ FERNVALE,11413,1060,797478
THE SANTORINI,11448,1064,528592
SERENITY PARK,10959,1018,806109
NINE RESIDENCES,12591,1170,768894
LAKEVILLE,14075,1308,648160
LE REGAL,11234,1044,389365
THE CENTRIS,11475,1066,648343
SYMPHONY HEIGHTS,11444,1063,598738
THE SORRENTO,15561,1446,127365
LAKEPOINT CONDOMINIUM,9063,842,648927
THE SORRENTO,13430,1248,127365
N.A.,11406,1060,486591
HILLVIEW PARK,9603,892,669555
TANAH MERAH GREEN,11196,1040,465587
LAKEVILLE,13706,1273,648162
THE TEMBUSU,15398,1431,534009
EIGHT RIVERSUITES,13205,1227,338521
KOVAN MELODY,12333,1146,548189
THE CASCADIA,18301,1700,589646
THE QUARTZ,10288,956,544984
EIGHT RIVERSUITES,14615,1358,338519
SKY HABITAT,14066,1307,573909
HALLMARK RESIDENCES,20579,1912,259327
MERA SPRINGS,14141,1314,219648
LA CASA,9099,845,737892
2 RVG,19735,1833,238405
LAKEVILLE,13391,1244,648163
SKY HABITAT,14718,1367,573909
THE GLADES,14682,1364,465410
SKY HABITAT,14838,1378,573909
SELETAR SPRINGS CONDOMINIUM,6711,623,798593
LAKEVILLE,14191,1318,648163
LAKEVILLE,14508,1348,648155
LAKEVILLE,14265,1325,648163
PANDAN VALLEY,11495,1068,597631
HAZEL PARK CONDOMINIUM,10681,992,678949
SERANGOON GARDEN ESTATE,15955,1482,559063
THE SORRENTO,15800,1468,127365
ECOPOLITAN,9003,836,828773
GOODWOOD RESIDENCE,26437,2456,259703
CASPIAN,15116,1404,648317
SKY HABITAT,15291,1421,573908
THE SORRENTO,15569,1446,127365
LAKEVILLE,13952,1296,648162
HILLCREST VILLA,10751,999,286664
THE ANCHORAGE,15093,1402,159960
SIMSVILLE,10198,947,389757
WATERWOODS,8752,813,828749
SEA HORIZON,8476,787,518088
THE PEARL @ MOUNT FABER,12416,1153,99208
KENTISH GREEN,10649,989,218815
N.A.,15383,1429,289060
GUILLEMARD SUITES,16396,1523,399733
THE GLADES,16385,1522,469599
THE METROPOLITAN CONDOMINIUM,16389,1523,158746
THE SORRENTO,14531,1350,127365
Q BAY RESIDENCES,9745,905,528587
LAKESIDE TOWER,6011,558,618650
N.A.,11548,1073,578783
LE REGAL,11234,1044,389365
THE QUINTET,8627,801,689105
BEDOK SHOPPING COMPLEX,3540,329,469449
THE SORRENTO,15776,1466,127365
GUILLEMARD SUITES,16413,1525,399733
BERKELEY RESIDENCES,16108,1497,425141
3@SANDILANDS,12801,1189,546066
THE PATERSON,20459,1901,238539
THE CLEARWATER,10538,979,479235
LAKEVILLE,12832,1192,648164
FORESTVILLE,7840,728,737881
OCEAN FRONT SUITES,15737,1462,509424
PEBBLE BAY,14726,1368,436920
LAKEVILLE,13223,1228,648162
THE SORRENTO,16015,1488,127365
BARTLEY RIDGE,13000,1208,368057
DEVONSHIRE 12,20896,1941,239847
THE SANTORINI,11676,1085,528573
THE SORRENTO,14445,1342,127365
THE SORRENTO,15873,1475,127365
WATERWOODS,8785,816,828746
LEEDON RESIDENCE,22706,2109,266220
LEEDON RESIDENCE,22194,2062,266220
NINE RESIDENCES,13439,1249,768895
SKY HABITAT,14254,1324,573909
RIS GRANDEUR,9776,908,519931
SKY HABITAT,14731,1369,573908
PRIMO RESIDENCES,13964,1297,537653
LUSH ACRES,8863,823,797488
LAKEVILLE,13222,1228,648155
PARK RESIDENCES KOVAN,19394,1802,534679
NINE RESIDENCES,11000,1022,768895
ECO SANCTUARY,13029,1210,679522
LAKEVILLE,13983,1299,648164
ESPADA,28083,2609,238126
NORTHOAKS,7328,681,738084
GILSTEAD TWO,21429,1991,309061
COSTA ESTE,13647,1268,425653
LAKEVILLE,14030,1303,648155
LIVIA,9301,864,518217
SKY HABITAT,13878,1289,573909
THE WARREN,9735,904,689685
THE PARC CONDOMINIUM,14286,1327,127161
GLENTREES,12461,1158,277052
THE FLORAVALE,7788,723,648366
AQUARIUS BY THE PARK,9196,854,478936
THE TRILLIUM,22156,2058,239435
THE QUINTET,9228,857,689102
LA CASA,8631,802,737900
THE CREEK @ BUKIT,16157,1501,596196
JEWEL @ BUANGKOK,13114,1218,544685
THE GARDENS AT BISHAN,10544,980,575578
MANDARIN GARDEN CONDOMINIUM,9468,880,448907
SKY HABITAT,16280,1512,573909
REGENTVILLE,9130,848,538683
RIVERTREES RESIDENCES,11141,1035,797461
LAKEVILLE,13809,1283,648163
RIVERTREES RESIDENCES,12548,1166,797464
SEMBAWANG HILLS ESTATE,11060,1027,577780
PACIFIC MANSION,14296,1328,238436
REGENT HEIGHTS,9474,880,659801
LUMIERE,17972,1670,79624
CAIRNHILL PLAZA,17136,1592,229664
NEPTUNE COURT,8983,835,449030
N.A.,12761,1185,547008
LE SOMME,16875,1568,207876
SKY HABITAT,13988,1300,573909
LAKEVILLE,13588,1262,648162
OCEAN FRONT SUITES,15921,1479,509424
CANBERRA RESIDENCES,11311,1051,768127
N.A.,15948,1482,416884
# 1 SUITES,11712,1088,398721
EIGHT RIVERSUITES,14027,1303,338520
THOMSON 800,13244,1230,298189
THE SCALA,15000,1394,554479
SKY HABITAT,14811,1376,573908
368 THOMSON,16695,1551,298127
SKY HABITAT,14691,1365,573908
ASCENTIA SKY,13869,1288,158749
BAYSHORE PARK,12046,1119,469985
BULLION PARK,10870,1010,789095
THE SORRENTO,13638,1267,127365
BERKELEY RESIDENCES,15928,1480,425141
LAKEVILLE,14412,1339,648163
THE INTERLACE,13673,1270,109685
THE QUARTZ,11400,1059,544984
ONE SHENTON,20721,1925,68803
THE GARDENS AT BISHAN,11519,1070,575578
N.A.,12034,1118,574716
SKYPARK RESIDENCES,8635,802,757052
WATERFRONT ISLE,12778,1187,479265
SERANGOON GARDEN ESTATE,14994,1393,559705
LA NOUVELLE,14737,1369,307811
SELETAR HILLS ESTATE,14019,1302,807713
SIGNATURE PARK,11181,1039,596739
SAVANNAH CONDOPARK,10316,958,528780
LLYN GARDENS,15223,1414,535932
BARTLEY RIDGE,13154,1222,368057
COMPASS HEIGHTS,7647,710,545075
BARTLEY RIDGE,11910,1106,368059
VILLA MARINA,10345,961,457402
RIVERTREES RESIDENCES,11788,1095,797461
ASCENT @ 456,16308,1515,329832
VARSITY PARK CONDOMINIUM,10787,1002,127450
THE SORRENTO,15753,1463,127365
THE CRISTALLO,14858,1380,425687
LIVIA,10163,944,518209
MERA GARDENS,10461,972,677833
THE SORRENTO,15588,1448,127365
THE WHARF RESIDENCE,20202,1877,238026
THE GARDENS AT BISHAN,11585,1076,575574
HILLSTA,12699,1180,668201
KEW GREEN,6742,626,466133
N.A.,24596,2285,427906
PEBBLE BAY,15511,1441,436918
CORALS AT KEPPEL BAY,22573,2097,98016
SEA HORIZON,8807,818,518084
N.A.,23217,2157,679850
SKY HABITAT,14574,1354,573909
TAIPAN GRAND,12000,1115,449303
PARVIS,21630,2010,278743
LAKEVILLE,14559,1353,648164
URBAN VISTA,13608,1264,465427
SKY HABITAT,15252,1417,573908
SKY HABITAT,15132,1406,573908
THE SANTORINI,13116,1219,528592
VERTIS,13846,1286,439979
SUNRISE GARDENS,7983,742,806745
THE SUNNIFLORA,12303,1143,426231
TYRWHITT 139,15824,1470,207557
MODENA,9672,899,529871
THE SORRENTO,15041,1397,127365
THE SORRENTO,14345,1333,127365
HILLVIEW GARDEN ESTATE,14868,1381,668605
N.A.,12755,1185,424633
THE SAIL @ MARINA BAY,27368,2543,18985
THE SORRENTO,14933,1387,127365
LAKEVILLE,15542,1444,648164
THE SORRENTO,16007,1487,127365
ECOPOLITAN,8696,808,828773
SKY HABITAT,15171,1409,573908
THE SANTORINI,11653,1083,528592
THE INTERLACE,13717,1274,109686
VUE 8 RESIDENCE,9343,868,519291
SKY HABITAT,14073,1307,573908
ISLAND PARK,12435,1155,576786
FORESTVILLE,7809,726,737768
THE SORRENTO,15188,1411,127365
RIVERTREES RESIDENCES,11282,1048,797460
LAKEVILLE,14059,1306,648164
HILLCREST PARK,19352,1798,288933
THE TRUMPS,13968,1298,419154
RIVERSAILS,10379,964,534032
TREE HOUSE,11607,1078,679518
THE SORRENTO,14081,1308,127365
LAKEVILLE,14390,1337,648162
THE TENERIFFE,9382,872,275942
LE REGAL,10922,1015,389365
N.A.,20447,1900,266316
THE ANCHORAGE,12286,1141,159959
LAKEVILLE,13338,1239,648162
EIGHT RIVERSUITES,14286,1327,338517
DA SILVA VILLAS,13407,1246,549804
PARK NATURA,12148,1129,659765
ARCHIPELAGO,14388,1337,479269
FORESTVILLE,7949,739,737882
LAKEVILLE,13889,1290,648164
THE WARREN,8261,767,689675
N.A.,10726,996,416374
N.A.,6527,606,739720
