Project Name,Unit Price ($ psm),Unit Price ($ psf),Postal Code
SUNFLOWER MANSIONS,8416,782,398489
N.A.,14612,1357,426520
ELLIOT AT THE EAST COAST,10537,979,458706
THE GALE,9706,902,506918
OPTIMA @ TANAH MERAH,11350,1054,465517
N.A.,9603,892,799229
TORIE MANSIONS,8866,824,428620
N.A.,15887,1476,269298
TANGLIN REGENCY,15076,1401,247966
PALM OASIS,12143,1128,426054
THE FLORIDA,7193,668,538805
LAKESIDE TOWER,4361,405,618650
ASCENTIA SKY,14517,1349,158749
HAIG COURT,11604,1078,438791
NORTHSHORE BUNGALOWS,2831,263,829702
THE ORCHARD RESIDENCES,38744,3599,237973
PRESTIGE HEIGHTS,17969,1669,329778
TREE HOUSE,10150,943,679518
WING FONG MANSIONS,7174,666,398924
EIGHT COURTYARDS,8382,779,768142
ASPEN HEIGHTS,16098,1495,238307
ASTRID MEADOWS,17006,1580,269265
CITYLIGHTS,15458,1436,208749
THE BEVERLY,11348,1054,596720
THE LAKESHORE,10085,937,649412
GUILIN VIEW,8376,778,659246
COTE D'AZUR,12736,1183,449301
WOODHAVEN,8196,761,737848
PARC VERA,9178,853,534041
CENTRAL GREEN CONDOMINIUM,11932,1108,169483
BELMOND GREEN,19444,1806,259819
TIARA,17500,1626,239403
RIVERGATE,22143,2057,238255
THE MAYFAIR,8571,796,609480
HAZEL PARK CONDOMINIUM,8871,824,678948
BRADDELL VIEW,8386,779,579727
KEW RESIDENCIA,6350,590,465945
HOLLAND RESIDENCES,21429,1991,276337
ARC AT TAMPINES,8533,793,529598
N.A.,5940,552,739714
MARTIN PLACE RESIDENCES,22726,2111,237988
EASTWOOD GREEN,8716,810,486364
8 EDEN GROVE,9980,927,539060
POH HENG COURT,10316,958,455055
UNITED MANSION,9565,889,459001
LUSH ON HOLLAND HILL,16143,1500,278737
ARC AT TAMPINES,8695,808,529598
CHERRYHILL,9746,905,536467
CHARLTON RESIDENCES,5533,514,539553
SERANGOON GARDEN ESTATE,9580,890,558232
THE LEGEND,13669,1270,259725
FOUR SEASONS PARK,30337,2818,249692
PEBBLE BAY,17899,1663,436921
WATERFRONT ISLE,12738,1183,479262
BOTANIC GARDENS MANSION,18607,1729,257718
EMILY RESIDENCE,15806,1468,228485
ASTRID MEADOWS,16319,1516,269264
D'WEAVE,12306,1143,387866
SUITES TWENTY-TWO,9332,867,426194
N.A.,14362,1334,308144
SARINA TERRACE,11480,1067,416668
SUITES @ NEWTON,23061,2142,307740
N.A.,12178,1131,576646
MIMOSA PARK,7138,663,808037
MAYSPRINGS,9733,904,678265
THE SEAWIND,15313,1423,425413
BISHAN POINT,9898,920,579653
KOVAN GRANDEUR,15494,1439,535193
THE URBANITE,13530,1257,219384
BOATHOUSE RESIDENCES,10185,946,534044
CHARLTON RESIDENCES,5553,516,539558
8@WOODLEIGH,8917,828,357900
NEPTUNE COURT,9322,866,449032
A TREASURE TROVE,10041,933,828786
ARC AT TAMPINES,7819,726,529601
THE ARISTO @ AMBER,14772,1372,439871
ALLSWORTH PARK,12637,1174,278639
N.A.,10864,1009,557371
SUITES TWENTY-TWO,9527,885,426194
N.A.,10390,965,327992
MANDALE HEIGHTS,13662,1269,308225
N.A.,7477,695,388614
SUITES @ EASTCOAST,14857,1380,455275
THOMSON GRAND,12019,1117,573913
SUITES AT BUKIT TIMAH,17203,1598,596180
LUSH ON HOLLAND HILL,18571,1725,278737
D'LEEDON,18995,1765,266224
REGIS MANSIONS,7589,705,598433
D'WEAVE,13559,1260,387866
CENTRO RESIDENCES,16412,1525,567752
BRADDELL VIEW,7485,695,579731
THE BAYSHORE,9787,909,469970
THE CHANCERY RESIDENCE,8217,763,309555
THE SAIL @ MARINA BAY,31042,2884,18987
VILLA MARINA,9109,846,457400
SIMEI GARDEN,9470,880,488120
PRESTIGE HEIGHTS,17419,1618,329778
HILLVIEW REGENCY,9318,866,659920
IVORY HEIGHTS,7532,700,600117
THE LUXURIE,12819,1191,544756
GRANDEUR 8,9302,864,567743
CHILTERN PARK,10259,953,556114
REGENTVILLE,8242,766,538686
RIO VISTA,8086,751,534201
CENTRA STUDIOS,14857,1380,388302
MELVILLE PARK,7308,679,529948
SEASONS PARK,8608,800,787080
MELVILLE PARK,7680,713,529945
GLENTREES,14025,1303,277057
SARACA VILLAS,6939,645,805502
THE ARCADIA,11230,1043,289845
SHAMROCK PARK,17699,1644,267129
WESTMERE,9169,852,609653
THE SPRINGSIDE,14465,1344,786622
GARDENVISTA,12762,1186,589483
CHARLTON PARK,10673,992,535565
THE QUINTET,6287,584,689102
SOLEIL @ SINARAN,15393,1430,307468
SERANGOON GARDEN ESTATE,14756,1371,559006
CLEMENTI PARK,10600,985,597159
THE BAYSHORE,9545,887,469972
WATERCREST,9545,887,509028
SUITES @ AMBER,16864,1567,439874
CASABLANCA,8510,791,737922
VERSAILLES,9623,894,438686
PARC VISTA,7974,741,649814
N.A.,8297,771,548819
CASCADALE,7917,735,486858
ARC AT TAMPINES,7514,698,529597
SHEARES VILLE,15704,1459,249446
CASTLE GREEN,6678,620,787058
FABER CREST,9244,859,129198
SERANGOON GARDEN ESTATE,9476,880,559898
PARC VERA,8733,811,534041
OPERA ESTATE,13910,1292,456414
PARC VERA,9802,911,534037
THE LUCENT,12903,1199,425253
BLOSSOM RESIDENCES,7586,705,677723
BLOSSOM RESIDENCES,7563,703,677723
LUXUS HILLS,14328,1331,804923
VIVA,18764,1743,307464
N.A.,10819,1005,535026
MONTEREY PARK CONDOMINIUM,10192,947,127470
GREENBANK PARK,13594,1263,589364
GARDENVISTA,12791,1188,589482
ONE-NORTH RESIDENCES,15526,1442,138642
THOMSON GARDEN ESTATE,17929,1666,577151
REFLECTIONS AT KEPPEL BAY,16681,1550,98419
ROSEWOOD,7153,665,737938
COTE D'AZUR,13398,1245,449297
KOVAN GRANDEUR,13774,1280,535193
KOVAN GRANDEUR,15278,1419,535193
MUTIARA VIEW,14009,1302,249191
SANCTUARY GREEN,13922,1293,436927
ROCCA BALESTIER,9223,857,329928
N.A.,10490,975,128970
N.A.,13761,1278,429946
N.A.,1390,129,218927
PARC VERA,8389,779,534037
CHILTERN PARK,8511,791,556112
THE PALETTE,9613,893,518176
THE SHAUGHNESSY,4083,379,768171
PARC VERA,8962,833,534041
THE PALETTE,8048,748,518172
RIVERPARC RESIDENCE,7217,671,828798
THE TREVOSE,12595,1170,298088
THE PALETTE,7646,710,518171
VILLA MARINA,10840,1007,457406
SEASTRAND,10992,1021,518180
N.A.,7589,705,548043
ROBERTSON 100,18171,1688,238250
THE SAIL @ MARINA BAY,28000,2601,18987
N.A.,9821,912,508649
THE CENTRIS,11437,1063,648333
TREVISTA,10214,949,319582
STADIA,11607,1078,545542
TAMPINES COURT,6866,638,521131
ARC AT TAMPINES,8243,766,529599
COSTA DEL SOL,11478,1066,469992
ARC AT TAMPINES,7566,703,529597
PARC VERA,9654,897,534037
THE COURTYARD,9400,873,547822
ARC AT TAMPINES,7911,735,529598
D'WEAVE,13767,1279,387866
ARC AT TAMPINES,8564,796,529602
PARC VERA,9753,906,534037
THE ABODE AT DEVONSHIRE,20213,1878,239895
ARC AT TAMPINES,8226,764,529604
ARC AT TAMPINES,7900,734,529599
ARC AT TAMPINES,8082,751,529599
NV RESIDENCES,9153,850,518190
TRELLIS TOWERS,15686,1457,319773
SIEW LIM PARK,8267,768,469471
MELVILLE PARK,8678,806,529942
DOUBLE BAY RESIDENCES,10653,990,529885
PARC VERA,8962,833,534037
THE PALETTE,9931,923,518175
ARC AT TAMPINES,7858,730,529597
CITYLIGHTS,17981,1670,208747
PARC VERA,9556,888,534041
LIVIA,8986,835,518219
SUITES TWENTY-TWO,11304,1050,426194
THE PETALS,10940,1016,669626
RIVERPARC RESIDENCE,7362,684,828794
PRESTIGE HEIGHTS,18125,1684,329778
GUILIN COURT,7798,724,398485
THE PARC CONDOMINIUM,11917,1107,127160
DOUBLE BAY RESIDENCES,11264,1046,529885
HILLINGTON GREEN,10815,1005,669613
CARIBBEAN AT KEPPEL BAY,15094,1402,98641
HAZEL PARK CONDOMINIUM,9844,915,678946
ONE AMBER,14040,1304,439972
NORMANTON PARK,10169,945,118999
GOLDEN HEIGHTS,12455,1157,556126
PARRY PARK,12056,1120,547028
LEGENDA AT JOO CHIAT,8522,792,428122
THE SEAWIND,17759,1650,425412
REGENT HEIGHTS,6639,617,659801
BRADDELL VIEW,7688,714,579728
LUXUS HILLS,14387,1337,805182
KOVAN RESIDENCES,12034,1118,544897
SERANGOON GARDEN ESTATE,9842,914,556426
THE PALETTE,10186,946,518197
BOTANIKA,21562,2003,258853
THE STERLING,13889,1290,596289
CASPIAN,9361,870,648315
EAST MEADOWS,10135,942,465559
THE PIER AT ROBERTSON,22136,2056,239013
N.A.,7249,673,738263
CASA MERAH,11239,1044,465524
EURO-ASIA LODGE,8476,787,427253
RIVER PLACE,16965,1576,169658
PARC VERA,8830,820,534039
AUSTVILLE RESIDENCES,7169,666,544805
WATERVIEW,9200,855,529781
PARC VERA,9654,897,534037
GRANGE HEIGHTS,13737,1276,239698
SUITES @ PAYA LEBAR,14566,1353,534996
SUITES AT BUKIT TIMAH,17518,1628,596180
SUITES AT BUKIT TIMAH,17670,1642,596180
ARC AT TAMPINES,8001,743,529602
BELYSA,5771,536,519531
SEASTRAND,10366,963,518188
THE CENTRIO,14000,1301,329552
KOVAN MELODY,10826,1006,545019
LUXUS HILLS,16667,1548,804929
LE REGAL,13324,1238,389365
SOUTHBANK,18737,1741,198784
WATER PLACE,15119,1405,436932
PARC VERA,9019,838,534037
SUITES AT BUKIT TIMAH,17518,1628,596180
ST FRANCIS LODGE,8609,800,328074
ARC AT TAMPINES,8908,828,529602
CORALIS,15446,1435,427710
DOMUS,15030,1396,329564
ARC AT TAMPINES,6428,597,529597
PARC VERA,8975,834,534041
NUOVO,8561,795,569788
THE FLORAVALE,7522,699,648361
TREVISTA,16512,1534,319581
VISTA PARK,8358,776,118167
STARLIGHT SUITES,25573,2376,238437
AQUARIUS BY THE PARK,10361,963,478935
MAYSPRINGS,7583,705,678265
TANAMERA CREST,7890,733,486061
SUMMERDALE,7263,675,649927
NORTHOAKS,6957,646,738085
PARK COURT,10034,932,426641
NOVA 48,12626,1173,328318
CASA MERAH,12273,1140,465536
VICTORIA PARK,16107,1496,266499
STARLIGHT SUITES,25616,2380,238437
N.A.,9100,845,428991
MACKENZIE 138,13481,1252,228719
SIMEI GREEN CONDOMINIUM,9778,908,529864
TANGLIN VIEW,13103,1217,159015
THE SUMMIT,11379,1057,466504
EASTVALE,8265,768,519492
REGENT PARK,9888,919,128803
N.A.,6458,600,507869
SERENITY PARK,8932,830,806109
SKY@ELEVEN,16573,1540,297727
RIVERVALE CREST,8679,806,545086
GRANDEUR 8,9459,879,567749
A TREASURE TROVE,9876,918,828830
REFLECTIONS AT KEPPEL BAY,35045,3256,98413
ESCADA VIEW,9972,926,417657
OLEANDER TOWERS,12975,1205,319772
OASIS GARDEN,10991,1021,538420
PEIRCE VIEW,9587,891,574418
PARC VERA,8435,784,534041
EIGHT COURTYARDS,9149,850,768094
TRESALVEO,13357,1241,573963
ARC AT TAMPINES,8093,752,529596
ONE SHENTON,23467,2180,68803
RIVERPARC RESIDENCE,7413,689,828799
A TREASURE TROVE,9781,909,828788
SELETAR HILLS ESTATE,9006,837,807743
THE TAIPAN,8030,746,468721
ARC AT TAMPINES,8345,775,529596
SELETAR HILLS ESTATE,8259,767,807106
PARC VERA,9605,892,534041
WOODHAVEN,11092,1030,737810
PARC VERA,9235,858,534041
LUXUS HILLS,16333,1517,804873
WOODSVALE,7193,668,738093
THE SEAWIND,15526,1442,425413
CENTRAL GROVE,8957,832,389779
PARC VERA,9383,872,534037
CENTRAL IMPERIAL,11076,1029,398915
VISIONCREST,21786,2024,238712
CENTRO RESIDENCES,15071,1400,567752
BLOSSOM RESIDENCES,7660,712,677722
N.A.,13210,1227,757143
REZI 26,12013,1116,398505
FLAMINGO VALLEY,13642,1267,454943
SAVANNAH CONDOPARK,9123,848,528792
OLA RESIDENCES,13978,1299,437831
SUITES TWENTY-TWO,11791,1095,426194
PARC VERA,9041,840,534037
D' CASTILIA,9643,896,428104
THE CASCADIA,11545,1073,589659
RANGOON 88,13946,1296,218374
AMARYLLIS VILLE,15605,1450,307953
JALAN BESAR PLAZA,9122,847,208511
SUITES TWENTY-TWO,11514,1070,426194
SHERWOOD TOWER,7376,685,588998
SCOTTS SQUARE,40517,3764,228238
GUILIN VIEW,8411,781,659244
PARC VERA,9000,836,534037
LIVIA,10765,1000,518205
SIGNATURE PARK,10260,953,596740
BALLOTA PARK CONDOMINIUM,7424,690,507083
MEADOWLODGE,13462,1251,599717
YEWTEE RESIDENCES,9435,877,689580
SELETAR SPRINGS CONDOMINIUM,8523,792,799035
SUMMER GARDENS,5872,546,486207
VALLEY PARK,15044,1398,248364
N.A.,12288,1142,456803
MELROSE PARK,17917,1664,248904
BLOSSOM RESIDENCES,7602,706,677723
A TREASURE TROVE,9867,917,828786
THE VERMONT ON CAIRNHILL,24144,2243,229746
RIVERPARC RESIDENCE,7208,670,828797
BISHAN PARK CONDOMINIUM,8276,769,575568
THE FLORAVALE,6694,622,648358
MELVILLE PARK,7520,699,529942
HUME PARK I,9881,918,598718
LIVIA,9492,882,518210
DOUBLE BAY RESIDENCES,10512,977,528716
GARDENVISTA,13201,1226,589483
SYMPHONY HEIGHTS,9199,855,598739
PARC VERA,8571,796,534041
REFLECTIONS AT KEPPEL BAY,18190,1690,98417
CHELSEA GROVE,8705,809,328626
HUNDRED TREES,12149,1129,128017
LUXUS HILLS,16667,1548,804871
SENTOSA COVE,22821,2120,98344
MARINA BAY SUITES,25735,2391,18965
THOMSON GRAND,13031,1211,573913
REGENT RESIDENCES,12593,1170,328190
ARC AT TAMPINES,8172,759,529604
THE FLORAVALE,7217,671,648367
LUXUS HILLS,16667,1548,804859
LUXUS HILLS,16333,1517,804867
BALESTIER POINT,9634,895,329727
AVILA GARDENS,7967,740,509734
ARC AT TAMPINES,6287,584,529595
PARC VERA,9506,883,534039
WOODHAVEN,10569,982,737811
NORTHOAKS,7130,662,738081
PEBBLE BAY,14567,1353,436918
HILLTOP GROVE,8217,763,669621
THE TROPICA,8696,808,529777
THE VUE,14505,1348,534958
THE MADEIRA,8058,749,659442
CENTURY WOODS,10200,948,738200
LUXUS HILLS,16333,1517,804854
EASTWOOD GREEN,8454,785,486364
ASTORIA PARK,10562,981,416827
RIVERPARC RESIDENCE,6483,602,828799
SEASTRAND,10035,932,518188
THE SHORE RESIDENCES,13364,1242,439893
WESTVILLE,8935,830,648471
COUNTRY GRANDEUR,11418,1061,576439
THE ESTIVA,11333,1053,117482
REGENT RESIDENCES,16705,1552,328190
TREVISTA,13995,1300,319582
HUNDRED TREES,12118,1126,128016
REZI 26,13200,1226,398504
THE LAKEFRONT RESIDENCES,12053,1120,648324
PARC VERA,8595,799,534037
TAI HWAN PARK,14659,1362,555528
ARC AT TAMPINES,7543,701,529604
SOUTHAVEN I,7891,733,587973
MANDARIN GARDEN CONDOMINIUM,9670,898,448906
THOMSON EURO-ASIA,18095,1681,307605
SELETAR HILLS ESTATE,8685,807,808653
PARBURY HILL CONDOMINIUM,10674,992,467298
HILLVIEW REGENCY,9346,868,659920
REGENT RESIDENCES,12965,1205,328190
WOODSVILLE 28,12500,1161,357776
SEASTRAND,10140,942,518188
ORCHID PARK CONDOMINIUM,8539,793,768447
NORTHOAKS,6642,617,738086
ICON,19815,1841,78878
CALARASI,8502,790,328882
PARK GREEN,8254,767,545042
DAKOTA RESIDENCES,13566,1260,399938
HAZEL PARK CONDOMINIUM,10160,944,678950
THE FLORAVALE,7049,655,648366
REGENT RESIDENCES,14605,1357,328190
HIJAUAN,24387,2266,229618
ROBERTSON 100,18072,1679,238250
THE RIVERVALE,7607,707,545118
THE SHORE RESIDENCES,15577,1447,439895
THE MARQUE @ IRRAWADDY,12766,1186,328108
HENLEY GARDENS,9394,873,545111
REGENT RESIDENCES,13823,1284,328190
THE ESTA,16452,1528,439968
PARC VERA,8646,803,534037
HILLVIEW GREEN,10086,937,598744
REGENT RESIDENCES,14239,1323,328190
THE MADEIRA,8512,791,659443
HILLBROOKS,9524,885,669590
CHANGI RISE CONDOMINIUM,8547,794,528801
N.A.,11280,1048,398625
N.A.,14065,1307,398625
RESIDENCES @ JANSEN,9818,912,548432
THOMSON GRAND,12560,1167,573913
ARC AT TAMPINES,8113,754,529603
PARC VERA,8783,816,534038
ARC AT TAMPINES,7591,705,529595
REGENT RESIDENCES,14175,1317,328190
A TREASURE TROVE,9649,896,828787
PARC VERA,7908,735,534041
THOMSON 800,10223,950,298189
N.A.,8102,753,469468
THE INFINITI,9153,850,127718
PARC VERA,9818,912,534038
REFLECTIONS AT KEPPEL BAY,23766,2208,98415
THE CALROSE,12087,1123,787067
REGENT RESIDENCES,12915,1200,328190
CARIBBEAN AT KEPPEL BAY,17692,1644,98657
PARC VISTA,8034,746,649811
GOLDENHILL PARK CONDOMINIUM,14302,1329,568429
PEOPLE'S PARK COMPLEX,9423,875,59108
ROSYTH VILLE,10475,973,546134
EUHABITAT,13213,1228,415870
BALLOTA PARK CONDOMINIUM,7655,711,507080
CHILTERN PARK,9247,859,556112
REFLECTIONS AT KEPPEL BAY,22476,2088,98414
PARC VERA,9955,925,534038
PARC VERA,9852,915,534037
MARINA BAY SUITES,27397,2545,18965
RIVERPARC RESIDENCE,7053,655,828796
ARC AT TAMPINES,7855,730,529596
THE CITRINE,11377,1057,329415
CITY LOFT,16571,1540,218636
VENTURA VIEW,14634,1360,424292
BLOSSOM VIEW,8891,826,398498
ICON,18182,1689,78878
PARC VERA,8120,754,534039
PARC VERA,9457,879,534039
THE COAST AT SENTOSA COVE,18648,1732,98449
EASTPOINT GREEN,8648,803,529890
ILLUMINAIRE ON DEVONSHIRE,27907,2593,239900
AVON PARK,12605,1171,357741
PARC VERA,9178,853,534041
WOODGROVE CONDOMINIUM,6500,604,738211
SUNVILLE,9722,903,327981
THE GARDENS AT BISHAN,10793,1003,575575
CHARLTON RESIDENCES,5473,508,539570
SUITES AT BUKIT TIMAH,17292,1606,596180
N.A.,12480,1159,597469
REGENT RESIDENCES,14304,1329,328190
THOMSON GRAND,14156,1315,573918
REGENT RESIDENCES,13407,1246,328190
GALLOP GREEN,20452,1900,257536
THE AMBRA,11215,1042,426117
YUNNAN GARDENS,10595,984,638222
N.A.,11045,1026,537458
PARC VERA,8595,799,534041
THOMSON HILLS ESTATE,14728,1368,574770
ARDMORE PARK,29851,2773,259955
SEMBAWANG HILLS ESTATE,12689,1179,579448
PARC VERA,9370,870,534039
REGENT RESIDENCES,14313,1330,328190
PARC VERA,9616,893,534039
REGENT RESIDENCES,14563,1353,328190
THE SAIL @ MARINA BAY,22085,2052,18985
MARTIN PLACE RESIDENCES,20985,1950,237990
REZI 26,11058,1027,398504
PARC VISTA,8462,786,649810
THE INTERWEAVE,15306,1422,328805
ONE LEICESTER,13059,1213,358828
FRANKEL ESTATE,15301,1421,456090
CLASSICAL TERRACE,6990,649,537513
SEASTRAND,10151,943,518183
RIVERPARC RESIDENCE,7722,717,828794
HERITAGE VIEW,11759,1092,138679
THOMSON GRAND,12215,1135,573913
WOODHAVEN,8091,752,737840
N.A.,7301,678,548724
LAKEHOLMZ,8362,777,649824
BLOSSOM RESIDENCES,7427,690,677723
THE WOODS,5076,472,648290
THE TROPICA,9565,889,529774
DOVER PARKVIEW,11000,1022,138684
CHANGI RISE CONDOMINIUM,8571,796,528804
REGENTVILLE,8271,768,538686
SPRING PARK ESTATE,6114,568,466429
KOVAN MELODY,11083,1030,545021
MARTIN PLACE RESIDENCES,19916,1850,237988
ONE AMBER,17416,1618,439958
BELLA VISTA,12405,1152,358227
THE MINTON,9396,873,534076
PARC VERA,8783,816,534037
REGENT RESIDENCES,15492,1439,328190
CELESTIA,11163,1037,427305
THE EQUATORIAL,14000,1301,257872
THE SEAWIND,15526,1442,425413
ARC AT TAMPINES,8223,764,529599
A TREASURE TROVE,10093,938,828787
RIVERPARC RESIDENCE,7626,708,828794
PARC VERA,8830,820,534037
BRADDELL VIEW,8148,757,579724
EUNOS MANSION,9417,875,419535
THE CANOPY,5939,552,768861
SELETAR HILLS ESTATE,10499,975,809185
M21,15075,1400,308208
THOMSON GRAND,13323,1238,575581
VIVACE,23737,2205,238011
A TREASURE TROVE,10210,948,828786
PARC VERA,7908,735,534039
EASTERN LAGOON,10204,948,455287
SERANGOON GARDEN ESTATE,10219,949,558031
WESTMERE,8375,778,609653
THE ARTE,13398,1245,329215
OPERA ESTATE,16824,1563,458620
THE COSMOPOLITAN,20877,1940,239471
A TREASURE TROVE,10144,942,828788
PATERSON SUITES,32310,3002,238550
N.A.,10101,938,118608
OASIS GARDEN,10398,966,538422
BRADDELL VIEW,7186,668,579731
TANAMERA CREST,8073,750,486060
GREENBANK PARK,11998,1115,589405
CENTRO RESIDENCES,16735,1555,567752
N.A.,12995,1207,548902
CHUAN PARK,9908,920,556745
PARC VERA,9457,879,534037
BUTTERWORTH 8,12421,1154,439445
PARC VERA,8527,792,534041
SHELFORD 23,16170,1502,286655
CEYLON RESIDENCE,13516,1256,429690
MURANO,12373,1149,117484
TRELLIS TOWERS,16057,1492,319773
VALLEY PARK,17250,1603,248368
CHUAN PARK,9859,916,556745
THE RAINTREE,10871,1010,587844
THE MEZZO,12756,1185,329682
THE MEZZO,12474,1159,329682
WOODSVALE,6708,623,738091
THE RIVERVALE,7600,706,545125
HERITAGE VIEW,12131,1127,138680
CHARLTON VILLAS,7080,658,534152
QUEENS,13273,1233,148957
THE GLACIER,8333,774,427941
GRANDEUR 8,10676,992,567741
THE QUINTET,7055,655,689103
ELIAS GREEN,6950,646,519961
VETRO,12596,1170,328703
ORCHARD BEL AIR,15000,1394,248648
DAHLIA PARK CONDOMINIUM,8622,801,507012
RIO VISTA,8879,825,534201
ARC AT TAMPINES,7494,696,529595
REGENT RESIDENCES,14614,1358,328190
NORTHWOOD,10081,937,759158
THE SUMMIT,11474,1066,466499
THE MARQ ON PATERSON HILL,73629,6840,238568
BELYSA,7818,726,519530
NORTHWOOD,9524,885,759159
PARC VERA,9457,879,534037
OXFORD SUITES,15714,1460,218817
CASA ROSA,7983,742,536443
THE BAYSHORE,10319,959,469974
PEBBLE BAY,15802,1468,436918
PEBBLE BAY,15354,1426,436918
YONG AN PARK,19512,1813,238363
N.A.,9958,925,468236
OPERA ESTATE,9597,892,457500
PARRY COURT,8431,783,547261
WATERFRONT ISLE,10476,973,479261
REGENT RESIDENCES,13950,1296,328190
REGENT RESIDENCES,13619,1265,328190
PARC OASIS,8596,799,609783
THE INTERLACE,13653,1268,109687
PARC BLEU,15372,1428,427946
OPTIMA @ TANAH MERAH,10909,1013,465517
ESPIRA SPRING,12912,1200,426327
IVORY HEIGHTS,7151,664,600119
MAYSPRINGS,8571,796,678265
ALLAMANDA GROVE,20857,1938,269972
PANDAN VALLEY,10526,978,597626
THE TENNERY,13414,1246,677901
ARC AT TAMPINES,7808,725,529597
BOATHOUSE RESIDENCES,10100,938,534042
RIVERPARC RESIDENCE,7317,680,828799
THE BAYSHORE,9636,895,469974
SEASTRAND,10245,952,518188
SANCTUARY @813,11842,1100,534085
SCOTTS SQUARE,39930,3710,228238
BRADDELL HEIGHTS ESTATE,12357,1148,359641
RIVERPARC RESIDENCE,7532,700,828795
A TREASURE TROVE,10546,980,828788
ARC AT TAMPINES,8354,776,529597
CHANGI COURT,10833,1006,486838
L'VIV,24948,2318,307955
ROSALIA PARK,7883,732,536408
WATERFRONT WAVES,11407,1060,479249
N.A.,8664,805,546705
8@WOODLEIGH,11923,1108,357900
GRAND DUCHESS AT ST PATRICK'S,13957,1297,424212
THE MINTON,9571,889,538751
CITYLIGHTS,18846,1751,208745
SCOTTS SQUARE,39930,3710,228238
MARINA BAY RESIDENCES,27727,2576,18980
DE ROYALE,12222,1135,329111
THE REGENCY AT TIONG BAHRU,15068,1400,169905
CASTLE GREEN,8614,800,787057
CASPIAN,10115,940,648315
ESTE VILLA,6949,646,805012
A TREASURE TROVE,10200,948,828786
REGENT RESIDENCES,15478,1438,328190
ONE JERVOIS,16792,1560,249107
WATERFRONT GOLD,12849,1194,479258
PARC VERA,9507,883,534041
AUSTVILLE RESIDENCES,7317,680,544805
CASPIAN,9058,842,648318
N.A.,9624,894,429233
PARC VERA,8972,833,534038
PARC VERA,8972,833,534038
PARC VERA,9041,840,534037
PARC VERA,9113,847,534038
REGENT GROVE,8779,816,689529
BOATHOUSE RESIDENCES,9831,913,534043
448@EAST COAST,15900,1477,429021
DOUBLE BAY RESIDENCES,10000,929,528719
NORTHOAKS,6711,623,738087
HILLVIEW GREEN,9351,869,598745
HILLTOP GROVE,8178,760,669619
RIVERPARC RESIDENCE,7646,710,828795
RIVERPARC RESIDENCE,7424,690,828794
TANGLIN VIEW,14865,1381,159012
SEASTRAND,9930,923,518188
RV EDGE,19943,1853,248209
RIVERPARC RESIDENCE,7352,683,828795
REGENT RESIDENCES,14961,1390,328190
THE LEVELZ,16849,1565,268836
LUXE VILLE,10709,995,118668
THE URBANITE,15827,1470,219384
VILLAS LA VUE,7751,720,455802
ELIAS GREEN,7008,651,519964
THE QUARTZ,8889,826,544988
GUILIN VIEW,7938,737,659248
38 I SUITES,15406,1431,438646
ARC AT TAMPINES,7976,741,529595
REGENT RESIDENCES,13518,1256,328190
THE MINTON,9396,873,538752
REGENT RESIDENCES,15003,1394,328190
BLISS@KOVAN,13810,1283,546053
N.A.,28090,2610,98435
SKYSUITES@ANSON,23886,2219,79718
LUXUS HILLS,16333,1517,804912
AUSTVILLE RESIDENCES,7767,722,544809
EAST VIEW GARDEN,11169,1038,486864
CAMWOOD PARK,16751,1556,258973
EAST VIEW GARDEN,8331,774,488310
KOVAN GRANDEUR,16333,1517,535193
N.A.,15044,1398,436575
THE MADEIRA,8417,782,659443
OPERA ESTATE,12113,1125,456712
ARTHUR 118,15161,1409,439827
SEASTRAND,9562,888,518188
PARC VERA,8972,833,534039
THE CANOPY,7947,738,768861
PARKVIEW APARTMENTS,8317,773,658880
HARBOUR VIEW TOWERS,10262,953,109258
VACANZA @ EAST,12346,1147,417397
REFLECTIONS AT KEPPEL BAY,21867,2031,98414
SEASONS VIEW,11111,1032,576150
RIVERPARC RESIDENCE,7494,696,828800
THE TRESOR,20112,1868,269029
GUILIN VIEW,8034,746,659245
THE ABERDEEN,9223,857,329023
THE CLIFT,23674,2199,69047
MELVILLE PARK,7308,679,529948
PARC VERA,8779,816,534037
SOLEIL @ SINARAN,20000,1858,307467
REGENT RESIDENCES,13515,1256,328190
CLOVER BY THE PARK,12605,1171,573973
LE CRESCENDO,11927,1108,409044
SOUTHBANK,16854,1566,198784
SUNVILLE,9480,881,327981
CASA MERAH,11735,1090,465531
VIVA,19691,1829,307462
WATER TERRACE,7188,668,534169
MARTIN PLACE RESIDENCES,19377,1800,237988
WESTWOOD PARK,9520,884,648795
ALEXIS,19167,1781,159949
RIVERPARC RESIDENCE,7526,699,828796
PARK INFINIA AT WEE NAM,19032,1768,308364
WATERFRONT WAVES,9664,898,479245
RIO VISTA,9130,848,534207
REGENT RESIDENCES,14863,1381,328190
SIGNATURE PARK,10227,950,596738
THE MEYERISE,22074,2051,437986
SEASTRAND,10403,966,518183
SIGNATURE PARK,10227,950,596746
AMBER RESIDENCES,16296,1514,439888
THE MEYERISE,18071,1679,437986
THE ESPARIS,7721,717,519464
ARC AT TAMPINES,6685,621,529596
REGENT RESIDENCES,15089,1402,328190
RIVERPARC RESIDENCE,5185,482,828797
RIO VISTA,9663,898,534205
THE LANAI,14877,1382,669600
SEASCAPE,29060,2700,98309
SEASTRAND,10721,996,518183
SKYSUITES@ANSON,25782,2395,79718
REGENT RESIDENCES,15918,1479,328190
PARC VERA,8623,801,534038
REFLECTIONS AT KEPPEL BAY,25338,2354,98415
THOMSON GRAND,13332,1239,573913
THE FORESTA @ MOUNT FABER,21255,1975,98749
THE BALMORAL SPRING,16500,1533,259888
ARC AT TAMPINES,8158,758,529603
THE MADEIRA,8696,808,659443
MARTIN PLACE RESIDENCES,20909,1943,237990
SOLEIL @ SINARAN,17753,1649,307468
RIS GRANDEUR,9603,892,519934
UE SQUARE,14286,1327,238274
38 I SUITES,15126,1405,438646
D'ZIRE,12725,1182,546290
BLOSSOM RESIDENCES,8068,750,677721
REGENT RESIDENCES,14347,1333,328190
REGENT RESIDENCES,15008,1394,328190
N.A.,6748,627,508049
BLISS@KOVAN,15144,1407,546053
VARSITY PARK CONDOMINIUM,12451,1157,126842
N.A.,7570,703,417413
REZI 26,12602,1171,398504
KERRISDALE,11304,1050,207855
BULLION PARK,10261,953,789099
GRANDEUR 8,10171,945,567741
THE WOODGROVE,8372,778,738230
ARC AT TAMPINES,7888,733,529601
ARC AT TAMPINES,8279,769,529595
REZI 26,12909,1199,398505
EIGHT COURTYARDS,9124,848,768100
PARC VERA,8670,805,534039
N.A.,14992,1393,546373
THE MEYERISE,18790,1746,437918
REGENTVILLE,8580,797,538688
ARC AT TAMPINES,7667,712,529602
THE LAKEFRONT RESIDENCES,12489,1160,648305
A TREASURE TROVE,9429,876,828782
SUMMERHILL,10496,975,596231
HOOVER PARK,18960,1761,597836
RIVIERA 38,12480,1159,328712
ARC AT TAMPINES,8179,760,529603
REGENT RESIDENCES,12700,1180,328190
ATELIER VILLAS,6472,601,786311
HILLVIEW PARK,9344,868,669555
ROSEWOOD,7989,742,737936
CAIRNHILL RESIDENCES,16080,1494,229775
EUNOSVILLE,7244,673,400834
SUMMERHILL,10502,976,596230
ARC AT TAMPINES,8064,749,529604
ARC AT TAMPINES,7846,729,529603
THE VERMONT ON CAIRNHILL,23613,2194,229746
SPOTTISWOODE PARK,10000,929,80102
WATER PLACE,11947,1110,436606
FERNWOOD TOWERS,11892,1105,458554
GOLDENHILL PARK CONDOMINIUM,12937,1202,568430
NINETEEN SHELFORD ROAD,15061,1399,288408
HUNDRED TREES,11918,1107,128018
EIGHT @ EAST COAST,8152,757,454960
RIVER PLACE,13219,1228,169658
ARC AT TAMPINES,8297,771,529599
THE SUNNY SPRING,9234,858,398074
HERITAGE VIEW,11607,1078,138680
REGENT RESIDENCES,14125,1312,328190
ORCHARD SCOTTS,20985,1950,229953
WOODHAVEN,11174,1038,737809
BLISS@KOVAN,10634,988,546018
N.A.,12974,1205,757133
THE INSPIRA,19163,1780,239949
REGENT RESIDENCES,14347,1333,328190
REGENT RESIDENCES,15789,1467,328190
BELYSA,7171,666,519531
THE INTERLACE,12748,1184,109705
THE CENTRIS,12941,1202,648332
FOUR SEASONS PARK,31011,2881,249692
RESIDENCES AT 338A,17774,1651,238381
TERRASSE,11672,1084,544776
THOMSON GRAND,12622,1173,573913
RIVIERA 38,12805,1190,328712
REGENT HEIGHTS,7752,720,659802
PARC BLEU,14593,1356,427944
THE MINTON,9725,904,538751
NOVA 88,11844,1100,329640
IVORY,11803,1097,423468
3@PHILLIPS,10188,946,546920
ARC AT TAMPINES,7686,714,529597
SUNSHINE PLAZA,13976,1298,187948
ARC AT TAMPINES,7903,734,529604
BOATHOUSE RESIDENCES,10589,984,534042
REFLECTIONS AT KEPPEL BAY,16102,1496,98415
REGENT RESIDENCES,13727,1275,328190
REGENT RESIDENCES,13950,1296,328190
WOODHAVEN,11937,1109,737809
THE MINTON,9824,913,538751
PARC VERA,9605,892,534039
WATERFRONT ISLE,10973,1019,479264
REGENT HEIGHTS,8105,753,659801
BALLOTA PARK CONDOMINIUM,7030,653,507085
CHANGI GREEN,9292,863,486850
PARK GREEN,7624,708,545043
PARC VERA,9284,863,534037
ARC AT TAMPINES,7438,691,529604
N.A.,11800,1096,546269
RIVERVALE CREST,7578,704,545085
REGENT RESIDENCES,14821,1377,328190
BAYSHORE PARK,10000,929,469977
ARC AT TAMPINES,7762,721,529597
THE MEYERISE,27882,2590,437986
CASA FORTUNA,12300,1143,329980
EASTWOOD CENTRE,5516,512,486442
BLOSSOM RESIDENCES,7579,704,677722
THE ESPIRA,7841,728,425566
ORION,24286,2256,258333
WATERVIEW,9244,859,529780
WATERVIEW,9616,893,528684
BOATHOUSE RESIDENCES,10653,990,534042
A TREASURE TROVE,9363,870,828831
RIVIERA 38,12697,1180,328712
ARC AT TAMPINES,8341,775,529603
LE REGAL,13682,1271,389365
N.A.,10510,976,806823
BUCKLEY CLASSIQUE,22940,2131,309767
BLOSSOM RESIDENCES,7839,728,677721
THE CANOPY,6847,636,768865
PEOPLE'S PARK COMPLEX,8654,804,59108
REFLECTIONS AT KEPPEL BAY,16667,1548,98415
THE MADEIRA,10435,969,659443
THE SAIL @ MARINA BAY,30345,2819,18987
CAPITOL PARK,22700,2109,299394
ARC AT TAMPINES,8246,766,529597
THE LUXURIE,10417,968,544751
CASPIAN,9304,864,648317
THE QUINTET,7718,717,689103
THOMSON GRAND,12810,1190,573913
THE URBANITE,16045,1491,219384
THE URBANITE,15317,1423,219384
THE MINTON,10230,950,534083
YONG AN PARK,19377,1800,238361
THE SUNNY SPRING,9368,870,398074
REGENT RESIDENCES,14218,1321,328190
ST NICHOLAS VIEW,11067,1028,567999
ARC AT TAMPINES,7620,708,529603
WOODSVALE,6925,643,738094
N.A.,12463,1158,588798
SEASTRAND,9709,902,518188
LYNNSVILLE 331,7168,666,117477
HIGH OAK CONDOMINIUM,9375,871,596290
THOMSON GRAND,13281,1234,573913
RANGOON 88,16667,1548,218374
SUNGLADE,10370,963,556130
SANCTUARY GREEN,12203,1134,436922
THE MINTON,9993,928,534079
PAVILION PARK,12825,1191,658492
EUPHONY GARDENS,7265,675,759150
REGENT RESIDENCES,13619,1265,328190
CASPIAN,9565,889,648316
N.A.,6780,630,368229
SYMPHONY HEIGHTS,9924,922,598734
SERANGOON GARDEN ESTATE,9148,850,558834
SELETAR HILLS ESTATE,9339,868,808286
MEADOWS @ PEIRCE,12281,1141,787132
RANGOON 88,17153,1594,218374
THE SPRINGBLOOM,10093,938,556122
THE PALETTE,10232,951,518171
SOLEIL @ SINARAN,18838,1750,307468
CABANA,8204,762,805329
PARC VERA,7908,735,534037
BOATHOUSE RESIDENCES,10169,945,534046
SKYSUITES@ANSON,22065,2050,79718
MARTIN PLACE RESIDENCES,23167,2152,237988
SARACA VILLAS,9193,854,805513
DUNMAN VIEW,10450,971,438797
CLYDESCOVE,7835,728,508865
REGENT RESIDENCES,12859,1195,328190
HORIZON TOWER,13665,1270,239194
THE PEAK@BALMEG,15679,1457,119918
CALDECOTT HILL ESTATE,11712,1088,298266
EUHABITAT,12520,1163,415873
ARC AT TAMPINES,7577,704,529603
D'LEEDON,17181,1596,267955
THE LUXURIE,14443,1342,544749
MAYSPRINGS,9064,842,678267
REZI 26,12700,1180,398505
RIVERPARC RESIDENCE,7536,700,828797
DOVER PARKVIEW,9867,917,138685
A TREASURE TROVE,10019,931,828788
REZI 26,12593,1170,398504
SPRINGLEAF GARDEN,8937,830,788107
THE FLORIDA,7628,709,538804
REFLECTIONS AT KEPPEL BAY,19737,1834,98418
MELVILLE PARK,7914,735,529948
REGENT HEIGHTS,8211,763,659804
LIGHTHOUSE,7333,681,509409
SIGNATURE PARK,10385,965,596743
COTE D'AZUR,13786,1281,449297
MARINA BAY SUITES,26060,2421,18965
THE CENTRIO,15220,1414,329552
PARC VERA,8925,829,534038
NORTHOAKS,6466,601,738086
CAIRNHILL RESIDENCES,25000,2323,229774
N.A.,9938,923,347983
KNOX VIEW,9636,895,425307
WATERSCAPE AT CAVENAGH,20994,1950,229633
JERVOIS JADE APARTMENTS,12719,1182,249114
FAIRMOUNT CONDOMINIUM,10000,929,486365
THE ANCHORAGE,11607,1078,159953
PARC PALAIS,10261,953,598748
SAVANNAH CONDOPARK,8772,815,528791
SPRINGDALE CONDOMINIUM,10849,1008,587978
TANAMERA CREST,10125,941,486062
WESTVILLE,8994,836,648565
SEMBAWANG SQUARE ESTATE,7687,714,758470
RIVERVALE CREST,7946,738,545084
BLOSSOM RESIDENCES,7867,731,677723
LOYANG VILLAS,6300,585,507459
GRAND CHATEAU,9655,897,598435
DOVER PARKVIEW,10805,1004,138687
EBONY MANSIONS,9471,880,425312
THE LUXURIE,11356,1055,544752
GRANDEUR 8,10307,958,567741
THE LAKEFRONT RESIDENCES,11031,1025,648324
MARTIN PLACE RESIDENCES,21455,1993,237988
TREVISTA,13030,1211,319582
THE LAKEFRONT RESIDENCES,10969,1019,648324
COSTA ESTE,9449,878,425653
EAST MEADOWS,10297,957,465558
THE ARCADIA,11017,1023,289843
CITY SQUARE RESIDENCES,14184,1318,207224
THE MINTON,10149,943,534079
PARC VERA,9852,915,534041
ARC AT TAMPINES,8055,748,529602
SERANGOON GARDEN ESTATE,13831,1285,557577
BLUWATERS,6148,571,509439
PARC VERA,9284,863,534039
THE WINDSOR,9211,856,576197
AZALEA PARK CONDOMINIUM,7286,677,509727
RIVERPARC RESIDENCE,7184,667,828796
SEMBAWANG HILLS ESTATE,15208,1413,579429
LIVIA,9441,877,518219
REGENT RESIDENCES,15918,1479,328190
A TREASURE TROVE,9742,905,828788
EUHABITAT,12993,1207,415868
BOATHOUSE RESIDENCES,9178,853,534045
SUITES AT BUKIT TIMAH,17647,1639,596180
SUITES AT BUKIT TIMAH,17500,1626,596180
CHANGI RISE CONDOMINIUM,8129,755,528809
KOVAN GRANDEUR,10843,1007,535193
HEDGES PARK CONDOMINIUM,9821,912,506882
CENTRO RESIDENCES,16682,1550,567752
SCOTTS SQUARE,46656,4334,228238
LIVIA,8389,779,518216
DAKOTA RESIDENCES,12951,1203,399936
REGENT RESIDENCES,12909,1199,328190
CALDECOTT HILL ESTATE,18414,1711,299131
N.A.,2777,258,545656
NOVA 88,13922,1293,329640
YEW MEI GREEN,6855,637,689575
THE SEAWIND,15127,1405,425413
ARC AT TAMPINES,7678,713,529598
WHITEWATER,8366,777,518764
THE MINTON,9778,908,534082
RIVERGATE,22505,2091,238258
THE HORIZON,16938,1574,249441
THE SUNNY SPRING,9072,843,398074
LINCOLN SUITES,20780,1931,308381
MENDON SPRING,9694,901,117526
VACANZA @ EAST,12090,1123,417397
REGENT RESIDENCES,13303,1236,328190
THE SHORE RESIDENCES,15039,1397,439895
THE MILTONIA RESIDENCES,9436,877,768114
WOODSVALE,6667,619,738094
FLAMINGO VALLEY,14270,1326,455939
A TREASURE TROVE,10143,942,828786
SOUTHAVEN II,11382,1057,587970
TANGLIN VIEW,12964,1204,159012
SUITES AT BUKIT TIMAH,17794,1653,596180
ARC AT TAMPINES,8059,749,529603
WOODSVALE,7149,664,738094
THE CLIFT,23194,2155,69047
THE QUINTET,7603,706,689105
BEACON HEIGHTS,11205,1041,328689
THE CENTRIS,8714,810,648337
N.A.,10746,998,428061
OXFORD SUITES,14300,1328,218817
SHERWOOD TOWER,7955,739,588998
DOUBLE BAY RESIDENCES,10236,951,528720
ONE JERVOIS,15254,1417,249101
ARC AT TAMPINES,8329,774,529602
N.A.,9395,873,789230
SCOTTS SQUARE,39225,3644,228238
SEASCAPE,30573,2840,98308
MERAWOODS,9920,922,669606
CASUARINA COVE,10078,936,436904
PEOPLE'S PARK COMPLEX,9135,849,59108
OPERA ESTATE,17002,1579,456398
KATONG PLAZA,10211,949,429979
EUPHONY GARDENS,8415,782,759155
THE FLORIDA,7326,681,538807
VILLA DE WEST,9886,918,118719
SUITES @ PAYA LEBAR,14271,1326,534049
SELETAR GARDEN,9571,889,809595
NEPTUNE COURT,9079,843,449028
THE RIVERVALE,7692,715,545118
THE COUNTRYSIDE,11611,1079,789833
THE COAST AT SENTOSA COVE,22070,2050,98450
THE WATERINA,11429,1062,398084
WATERFRONT ISLE,11271,1047,479261
UBER 388,14186,1318,466477
N.A.,10825,1006,348231
LILYDALE,7635,709,768964
LIVINGSTON MANSIONS,7566,703,425571
PAVILION PARK,14990,1393,658570
RANGOON 88,16469,1530,218374
RANGOON 88,15727,1461,218374
WEST COAST GARDENS,10913,1014,127812
REGENT RESIDENCES,13630,1266,328190
RANGOON 88,14497,1347,218374
A TREASURE TROVE,9839,914,828787
THE COTERIE @ HOLLAND,20667,1920,258870
REZI 26,12585,1169,398504
THE WARREN,7982,742,689676
LE CRESCENDO,10761,1000,409044
PARK VILLAS,8027,746,545340
PARRYVILLE,11064,1028,546795
REGENT RESIDENCES,13727,1275,328190
BAYSHORE PARK,9461,879,469983
WOODHAVEN,11295,1049,737809
SUITES @ PAYA LEBAR,15000,1394,534996
ADAM PARK CONDOMINIUM,15787,1467,289895
KENSINGTON PARK CONDOMINIUM,8301,771,557320
THE TROPICA,8125,755,529778
THE TROPICA,9391,872,529772
CHANGI RISE CONDOMINIUM,8476,787,528802
EUHABITAT,14028,1303,415870
EUHABITAT,14136,1313,415870
NORTHVALE,7415,689,689671
N.A.,14205,1320,549243
ADAM PARK CONDOMINIUM,14809,1376,289901
CENTRO RESIDENCES,15591,1448,567752
ARC AT TAMPINES,7793,724,529604
N.A.,15603,1450,309174
FLORIDA PARK,8929,829,806483
PARC EMILY,19608,1822,228492
A TREASURE TROVE,9429,876,828832
VETRO,14091,1309,328703
BLISS@KOVAN,14462,1344,546018
THE MILTONIA RESIDENCES,8324,773,768111
CLOVER BY THE PARK,11617,1079,573973
THE MINTON,10835,1007,534070
ESTE VILLA,6614,614,805032
N.A.,12507,1162,423608
WHITEWATER,7925,736,518766
AUSTVILLE RESIDENCES,8088,751,544808
38 I SUITES,15156,1408,438646
BELLE VUE RESIDENCES,29836,2772,238599
PARKVIEW APARTMENTS,8372,778,658882
THE BAYSHORE,10570,982,469970
KERRISDALE,11359,1055,207855
BAYSHORE PARK,11300,1050,469977
CENTRAL MEADOWS,9756,906,398240
OASIS @ MULBERRY,16451,1528,349687
N.A.,9058,842,549750
CAVENDISH PARK,11842,1100,597595
CASHEW HILL,18248,1695,679849
BRADDELL REGALIA,9187,854,359946
BRADDELL REGALIA,9187,854,359946
BRADDELL REGALIA,9008,837,359946
BRADDELL REGALIA,9008,837,359946
BRADDELL REGALIA,9263,861,359946
GALLOP GREEN,20449,1900,257536
THE RAINTREE,10579,983,587842
BLISS@KOVAN,15497,1440,546057
HUNDRED TREES,14444,1342,128018
JARDIN,22455,2086,589488
ICON,20538,1908,78878
THE ARISTO @ AMBER,15088,1402,439871
THE LANAI,16445,1528,669629
PEOPLE'S GARDEN,10706,995,536841
TRELLIS TOWERS,11667,1084,319773
PARK NATURA,10833,1006,659765
BRADDELL REGALIA,9008,837,359946
BRADDELL REGALIA,9263,861,359946
SUNSHINE REGENCY,11549,1073,424331
WATERFRONT ISLE,10202,948,479264
BOTANNIA,11565,1074,127649
SHELFORD SUITES,17288,1606,288383
OKIO,18577,1726,329714
WOODHAVEN,8342,775,737839
PRIVE,5957,553,828816
WOODHAVEN,11536,1072,737809
VACANZA @ EAST,11893,1105,417391
BRADDELL REGALIA,9008,837,359946
ARC AT TAMPINES,7731,718,529595
RIVERPARC RESIDENCE,7076,657,828799
RANGOON 88,14369,1335,218374
ARC AT TAMPINES,7886,733,529604
BRADDELL REGALIA,9150,850,359946
BRADDELL REGALIA,9187,854,359946
TANGLIN VIEW,14292,1328,159012
ARC AT TAMPINES,7678,713,529595
REGENT RESIDENCES,16834,1564,328190
SILVERSEA,16214,1506,449305
THOMSON 800,12583,1169,298189
TROPICAL SPRING,9677,899,529874
THE COSMOPOLITAN,22764,2115,239471
VISIONCREST,19545,1816,238712
ONE DEVONSHIRE,21991,2043,239896
AMARANDA GARDENS,13235,1230,554774
CHEOW KENG GARDEN,14007,1301,429484
ARC AT TAMPINES,7846,729,529595
THE LUXURIE,11729,1090,544751
THE SILVER FIR,14020,1303,439424
RIVIERA RESIDENCES,11852,1101,467205
FABER HILLS,14538,1351,129473
RIVERPARC RESIDENCE,7158,665,828796
SKYLINE RESIDENCES,20781,1931,109030
SUITES @ PAYA LEBAR,14271,1326,534996
VACANZA @ EAST,12168,1130,417397
THE PEARL @ MOUNT FABER,10763,1000,99208
THE LAKEFRONT RESIDENCES,11619,1079,648324
BLOSSOM RESIDENCES,7480,695,677723
THE RITZ-CARLTON RESIDENCES SINGAPORE CAIRNHILL,30798,2861,229721
REGENT RESIDENCES,13464,1251,328190
CLOVER BY THE PARK,13621,1265,573975
WOODHAVEN,11168,1038,737809
SEASTRAND,10530,978,518183
SILVERSEA,25192,2340,449306
ARC AT TAMPINES,6238,580,529604
HILLVIEW GARDEN ESTATE,12869,1196,668997
BUCKLEY 18,15682,1457,309776
EAST MEADOWS,9820,912,465558
THE QUINTET,7436,691,689106
COSTA ESTE,11667,1084,425653
PAVILION 11,14855,1380,309978
THE QUINTET,7692,715,689103
THE BEACON EDGE,13043,1212,423728
SOLEIL @ SINARAN,20500,1904,307467
REGENT RESIDENCES,14605,1357,328190
ALEXIS,19389,1801,159949
REZI 26,12177,1131,398504
EASTPOINT GREEN,9472,880,529892
KERRISDALE,10330,960,207853
VACANZA @ EAST,12417,1154,417396
ARC AT TAMPINES,7731,718,529597
VACANZA @ EAST,12188,1132,417396
LEICESTER SUITES,15952,1482,358844
THE MAYLEA,13421,1247,117492
D'LEEDON,16973,1577,267954
TREVISTA,12019,1117,319583
NORTHVALE,8625,801,689673
REGENT RESIDENCES,16434,1527,328190
ASTORIA PARK,9910,921,416826
ASCENTIA SKY,15010,1394,158748
INTERNATIONAL PLAZA,9712,902,79903
D'LEEDON,16573,1540,267954
THE MAYFAIR,8472,787,609477
N.A.,17202,1598,438019
CHANGI GREEN,10494,975,486849
LE REVE,11740,1091,417786
ARDMORE PARK,30970,2877,259955
EVELYN MANSIONS,15875,1475,309309
SEMBAWANG SPRINGS ESTATE,7474,694,769466
SEASTRAND,10488,974,518188
CLOVER BY THE PARK,13176,1224,573975
BRADDELL REGALIA,9263,861,359946
PARC OASIS,8527,792,609774
N.A.,11031,1025,425282
TIARA,19036,1769,239403
HERITAGE VIEW,11778,1094,138678
ARC AT TAMPINES,8201,762,529596
PEOPLE'S PARK COMPLEX,8365,777,59108
BOATHOUSE RESIDENCES,11239,1044,534042
WATERFRONT KEY,10443,970,479251
SEASONS PARK,8664,805,787079
ARC AT TAMPINES,7804,725,529597
SUNFLOWER MANSIONS,8795,817,398489
BISHAN 8,10000,929,574045
THE COSMOPOLITAN,23415,2175,239471
PARK INFINIA AT WEE NAM,18145,1686,308366
THE TREVOSE,9496,882,298090
THE ARC AT DRAYCOTT,27542,2559,259420
PARC BLEU,14930,1387,427946
THE SEAFRONT ON MEYER,19907,1849,437878
A TREASURE TROVE,9429,876,828787
CASHEW HILL,20444,1899,679772
RIS GRANDEUR,9689,900,519933
NORTHOAKS,6739,626,738087
N.A.,23174,2153,98294
PARC ELEGANCE,10870,1010,423912
ESTE VILLA,7013,651,805114
THE ESTUARY,10679,992,769133
WINDY HEIGHTS,8739,812,419593
THE SHAUGHNESSY,4587,426,768296
WATERFRONT WAVES,10993,1021,479248
ESTE VILLA,6588,612,804975
ORCHID PARK CONDOMINIUM,7517,698,768451
HAIG COURT,12006,1115,438795
SELETAR PARK,9709,902,807155
THE CORNWALL,13291,1235,269632
IVORY HEIGHTS,6646,617,600124
N.A.,9760,907,368904
NEWTON LODGE,14159,1315,307968
PARC OASIS,8984,835,609776
N.A.,14400,1338,437992
SERAYA VILLE,9655,897,437290
HERITAGE VIEW,11712,1088,138680
MIMOSA PARK,8344,775,808015
GARDENVISTA,12414,1153,589487
REZI 26,12192,1133,398504
TANAMERA CREST,10386,965,486062
SYCAMORE TREE,15073,1400,428505
DUCHESS CREST,13901,1291,269196
THE FLORAVALE,7154,665,648363
A TREASURE TROVE,9839,914,828788
THE CANOPY,6833,635,768859
THE MINTON,10182,946,534079
THE MINTON,10266,954,534079
ALEXIS,19028,1768,159949
THE ESTA,13454,1250,439968
REGENT RESIDENCES,13078,1215,328190
REGENT RESIDENCES,13186,1225,328190
REGENT RESIDENCES,14584,1355,328190
N.A.,11139,1035,669013
THE LUXURIE,11581,1076,544755
THE MINTON,11316,1051,534077
BALLOTA PARK CONDOMINIUM,7785,723,507084
THE GALE,8947,831,506912
TREVISTA,12212,1134,319581
THE MINTON,6500,604,538755
THE BAYSHORE,9773,908,469974
GOODVIEW APARTMENTS,6583,612,399077
ESTE VILLA,6588,612,807565
STILLZ RESIDENCE,10392,965,426411
THE COUNTRYSIDE,10803,1004,789840
EASTERN LAGOON,12892,1198,455287
ASTON MANSIONS,8628,802,398026
THE SUNSHINE,8995,836,535689
EMERY POINT,11057,1027,438622
ASPEN HEIGHTS,14240,1323,238309
SEMBAWANG HILLS ESTATE,16447,1528,577595
PARC OASIS,9375,871,609781
EDEN PARK,18425,1712,279862
A TREASURE TROVE,10009,930,828788
THE CHANCERY RESIDENCE,8305,772,309555
WHITEWATER,7250,674,518770
RIVIERA 38,11700,1087,328712
THE ESTUARY,9587,891,769135
A TREASURE TROVE,9759,907,828787
CASHEW HILL,20222,1879,679856
BOATHOUSE RESIDENCES,9991,928,534047
ARC AT TAMPINES,7890,733,529602
REZI 26,9644,896,398504
QUEENS,13333,1239,148954
AMANINDA,14661,1362,307687
THE QUINTET,6897,641,689102
THE ANCHORAGE,12109,1125,159953
D'LEEDON,16752,1556,267954
THE LUXURIE,10330,960,544751
THOMSON PARK,12970,1205,576880
REGENT RESIDENCES,14089,1309,328190
THE CANOPY,7189,668,768861
REGENT RESIDENCES,12643,1175,328190
THE GARDENS AT BISHAN,10366,963,575575
AUSTVILLE RESIDENCES,7851,729,544808
BOATHOUSE RESIDENCES,10327,959,534042
ATELIER VILLAS,5947,552,786314
REGENT RESIDENCES,14525,1349,328190
OKIO,18577,1726,329714
EASTWOOD REGENCY,15926,1480,486397
ESTE VILLA,6949,646,805076
GOLDENHILL PARK CONDOMINIUM,10656,990,568427
CHERRYHILL,9371,871,536471
SOLEIL @ SINARAN,17745,1649,307467
BUCKLEY CLASSIQUE,22211,2063,309767
REZI 26,12287,1142,398505
REGENT RESIDENCES,16176,1503,328190
A TREASURE TROVE,9918,921,828787
VACANZA @ EAST,11449,1064,417393
THE MEYERISE,20330,1889,437986
WATERFRONT ISLE,10531,978,479264
ARC AT TAMPINES,7726,718,529604
REGENT HEIGHTS,7798,724,659804
COSTA RHU,12080,1122,437436
OASIS @ ELIAS,10165,944,519942
GARDENVISTA,12558,1167,589482
N.A.,10697,994,349887
N.A.,8025,746,507806
TANGLIN PARK,19595,1820,248474
ORCHID PARK CONDOMINIUM,7448,692,768449
COSTA DEL SOL,14561,1353,469992
ARDMORE PARK,33582,3120,259957
D'LEEDON,17888,1662,267955
WOODSVALE,6667,619,738093
THE EDEN AT TAMPINES,7971,741,529237
ESTE VILLA,6588,612,804979
THE PARC CONDOMINIUM,12083,1123,127161
ESTE VILLA,6609,614,804991
SUNGLADE,11308,1051,556134
KOVAN GRANDEUR,15294,1421,535193
ELIAS GREEN,6964,647,519961
KOVAN MELODY,11026,1024,548189
PARC IMPERIAL,17385,1615,117423
RIVERPARC RESIDENCE,7487,696,828794
HILLCREST ARCADIA,13629,1266,289849
ARC AT TAMPINES,7653,711,529603
THE METROPOLITAN CONDOMINIUM,13485,1253,158746
PAVILION PARK,14447,1342,658200
EUHABITAT,10725,996,419539
RIVERPARC RESIDENCE,7330,681,828794
BOONVIEW,11833,1099,574036
REFLECTIONS AT KEPPEL BAY,16286,1513,98415
ESTE VILLA,6630,616,805071
ESTE VILLA,6399,595,805007
PARC HAVEN,16548,1537,328741
THE ANCHORAGE,11951,1110,159953
CITYLIGHTS,15422,1433,208749
H2O RESIDENCES,10441,970,797534
THE SOUND,16511,1534,429070
N.A.,7477,695,437096
SELETAR HILLS ESTATE,7452,692,808834
PARC VISTA,8673,806,649811
THE MINTON,9850,915,534083
THOMSON GRAND,14014,1302,573917
CASHEW HILL,20468,1902,679855
ESTE VILLA,6613,614,805069
SUMMER GREEN,10833,1006,329585
N.A.,15804,1468,358930
ESTE VILLA,6677,620,807559
THE LAKESHORE,11359,1055,649412
MURANO,9211,856,118691
WOODHAVEN,10466,972,737808
ESTE VILLA,6686,621,804962
THE MILTONIA RESIDENCES,9229,857,768105
FAMILIE MANSIONS,6555,609,399125
PAVILION PARK,14536,1350,658201
ALBA,31686,2944,229743
ESTE VILLA,7035,654,805113
CAMELOT BY-THE-WATER,14427,1340,436928
HILLVIEW REGENCY,9333,867,659921
WING FONG COURT,8163,758,398922
EAST SIGNATURE,11011,1023,458656
REZI 26,11684,1085,398504
SEMBAWANG HILLS ESTATE,7339,682,577743
BLOSSOM VIEW,9209,856,398498
SEASTRAND,10530,978,518183
EIGHT COURTYARDS,8844,822,768142
EUHABITAT,12852,1194,415868
THE MILTONIA RESIDENCES,9204,855,768106
COSTA DEL SOL,15036,1397,469991
RANGOON 88,17204,1598,218374
REZI 26,12902,1199,398505
THE SPRINGS,14130,1313,308144
OASIS @ ELIAS,9643,896,519939
BOATHOUSE RESIDENCES,10624,987,534047
ESTE VILLA,6971,648,805011
MIRAGE TOWER,17810,1655,239426
MARINA BAY SUITES,31687,2944,18965
RIO VISTA,9594,891,534204
BLOSSOM RESIDENCES,7633,709,677721
LIVIA,8026,746,518205
ESTE VILLA,6614,614,804967
ESTE VILLA,6614,614,804968
REZI 26,12905,1199,398505
ESTE VILLA,6861,637,805288
CASABLANCA,8571,796,737920
HILLBROOKS,9510,883,669592
ESTE VILLA,6519,606,804973
ESTE VILLA,6519,606,804971
THE INTERLACE,12519,1163,109698
HAZEL PARK CONDOMINIUM,9945,924,678944
ESTE VILLA,6519,606,804974
RIVERPARC RESIDENCE,7348,683,828798
N.A.,13350,1240,419554
THE CASCADIA,17391,1616,589643
REGENT RESIDENCES,12754,1185,328190
H2O RESIDENCES,10080,936,797530
GRAND REGENCY,9500,883,598431
DOUBLE BAY RESIDENCES,10538,979,529883
AMBER POINT,11806,1097,439845
A TREASURE TROVE,9491,882,828782
RANGOON 88,16735,1555,218374
TANGLIN PARK,20000,1858,248469
ESTE VILLA,6440,598,807595
BOATHOUSE RESIDENCES,9110,846,534046
VIENTO,12453,1157,398362
DOUBLE BAY RESIDENCES,11183,1039,529883
MARTIN PLACE RESIDENCES,20619,1916,237988
REFLECTIONS AT KEPPEL BAY,16957,1575,98415
N.A.,12500,1161,418634
BELLE VUE RESIDENCES,25000,2323,238599
SAVANNAH CONDOPARK,7480,695,528779
WILLYN VILLE,17125,1591,278965
MI CASA,8678,806,689861
ESTE VILLA,6399,595,805285
THE CLIFT,23141,2150,69047
EVANIA,9753,906,534981
HIGH OAK CONDOMINIUM,10265,954,596290
TANGLIN REGENCY,12468,1158,247965
THE FLORAVALE,7115,661,648366
CENTRAL GREEN CONDOMINIUM,12090,1123,169483
TANGLIN PARK,21622,2009,248474
LAGUNA 88,7563,703,486356
THE LAKESHORE,11226,1043,649413
PICARDY GARDENS,8386,779,488751
BLOSSOM RESIDENCES,7641,710,677723
CASA MERAH,11705,1087,465535
ESTE VILLA,6399,595,807600
THE WATERINA,11398,1059,398086
BLOSSOM RESIDENCES,7227,671,677722
TANAH MERAH GREEN,6329,588,465602
N.A.,14467,1344,398425
DENG FU VILLE,10710,995,417777
TANAMERA CREST,8333,774,486060
SERANGOON GARDEN ESTATE,9947,924,558307
VILLA BEGONIA,8366,777,805820
SHERWOOD TOWER,8052,748,588998
REZI 26,12283,1141,398504
N.A.,7650,711,757416
CHUAN PARK,10606,985,556743
BOATHOUSE RESIDENCES,10950,1017,534042
COUNTRY PARK CONDOMINIUM,11881,1104,469567
BLOSSOM RESIDENCES,7771,722,677721
ARC AT TAMPINES,8171,759,529598
COSTA DEL SOL,14724,1368,469988
THE MINTON,9874,917,534082
ESTE VILLA,6399,595,804990
NORTHOAKS,7549,701,738081
ESTE VILLA,6773,629,804980
BLOSSOM RESIDENCES,7761,721,677723
BLOSSOM RESIDENCES,7535,700,677722
REZI 26,12205,1134,398504
REZI 26,13109,1218,398504
ESTE VILLA,6984,649,805117
CAIRNHILL CREST,21739,2020,229811
PARC OASIS,11008,1023,609774
ESTE VILLA,6342,589,807549
BLOSSOM RESIDENCES,7622,708,677723
N.A.,7384,686,426563
CASTLE GREEN,9205,855,787059
VISTAYA VIEW,10458,972,409042
BAYSHORE PARK,9770,908,469985
CITYLIGHTS,13636,1267,208766
MARTIN PLACE RESIDENCES,21526,2000,237990
THE RIVERVALE,7459,693,545118
HOCK SWEE HILL,11359,1055,809865
PARC VISTA,7821,727,649812
RANGOON 88,17204,1598,218374
THE LUXURIE,11288,1049,544752
SELETAR HILLS ESTATE,10491,975,807732
CENTRO RESIDENCES,15416,1432,567752
THE LUXURIE,11435,1062,544752
LE REGAL,13600,1264,389365
ESTE VILLA,7302,678,805004
SEASTRAND,10296,956,518183
SIMSVILLE,9652,897,389757
REFLECTIONS AT KEPPEL BAY,28716,2668,98415
MARTIN PLACE RESIDENCES,21100,1960,237990
HILLVIEW REGENCY,9311,865,659921
ESTE VILLA,7143,664,807588
THE VIRIDIAN,15417,1432,329507
THE EQUATORIAL,15445,1435,257872
CHELSEA LODGE,9174,852,437083
CHANGI COURT,11029,1025,486832
SUMMER GREEN,10833,1006,329585
REGENT RESIDENCES,15521,1442,328190
RESIDENCES @ JANSEN,9469,880,548432
THE CLIFT,23416,2175,69047
LE REVE,11923,1108,417786
KOVAN PRIMERA,10763,1000,548177
THE RIVERVALE,7673,713,545118
N.A.,10761,1000,348808
CASA NALLUR,11959,1111,456657
N.A.,11270,1047,427958
BALLOTA PARK CONDOMINIUM,7462,693,507082
TANJONG RIA CONDOMINIUM,10588,984,436914
THE QUINTET,7241,673,689104
TRELLIS TOWERS,12614,1172,319773
KENTISH GREEN,8680,806,218815
N.A.,17743,1648,248031
GRANDE VISTA,8684,807,809694
BELLEZZA @ KATONG,12364,1149,429634
WATERFRONT WAVES,10616,986,479249
TROPICAL SPRING,9496,882,529874
PARC ELEGANCE,15789,1467,423762
RANGOON 88,16568,1539,218374
OASIS @ ELIAS,9023,838,519943
N.A.,27723,2576,228970
EUHABITAT,12709,1181,419543
THE QUINTET,7521,699,689102
FAR HORIZON GARDENS,7364,684,569764
N.A.,17870,1660,299756
PARC BLEU,13893,1291,427944
REFLECTIONS AT KEPPEL BAY,18625,1730,98414
ESTE VILLA,6918,643,807592
ESTE VILLA,7256,674,804984
THE MINTON,9637,895,538751
THE PETALS,9927,922,669625
ESTE VILLA,6614,614,805070
ESTE VILLA,6799,632,807553
SARACA VILLAS,6831,635,805479
A TREASURE TROVE,10423,968,828830
COSTA DEL SOL,12922,1200,469993
THE NEXUS,14063,1306,589651
ESTE VILLA,6460,600,805040
LATITUDE,22512,2091,249208
BLOSSOM RESIDENCES,7704,716,677723
MARTIN PLACE RESIDENCES,25455,2365,237988
THE MINTON,10230,950,538755
BLOSSOM RESIDENCES,7589,705,677721
ESTE VILLA,6825,634,805282
ARC AT TAMPINES,8309,772,529596
THE MINTON,10630,988,534082
BLISS@KOVAN,14462,1344,546019
REZI 26,11477,1066,398504
RIVEREDGE,14835,1378,436593
THE WATERSIDE,16834,1564,436879
BLOSSOM RESIDENCES,7908,735,677723
THE LUXURIE,11793,1096,544755
ARC AT TAMPINES,8064,749,529598
HARBOURLIGHTS,14706,1366,98865
N.A.,19704,1831,427199
ESTE VILLA,6667,619,805034
VACANZA @ EAST,11200,1041,417393
EUHABITAT,12861,1195,415868
REFLECTIONS AT KEPPEL BAY,17553,1631,98417
N.A.,16576,1540,267556
THE ARRIS,18235,1694,88271
OKIO,18000,1672,329714
RIVERPARC RESIDENCE,7450,692,828798
ESTE VILLA,6693,622,805010
GUILIN VIEW,7949,738,659245
BOATHOUSE RESIDENCES,8938,830,534046
THE GARDENS AT BISHAN,10366,963,575577
PARC SOPHIA,20000,1858,229975
RIVERPARC RESIDENCE,5266,489,828798
ESTE VILLA,6379,593,804988
SEASTRAND,9466,879,518188
EUHABITAT,12709,1181,419543
REZI 26,11609,1079,398504
A TREASURE TROVE,9955,925,828788
N.A.,10014,930,546746
ARC AT TAMPINES,8006,744,529601
PAVILION PARK,14466,1344,658203
ARC AT TAMPINES,6350,590,529605
THE QUINTET,7724,718,689102
PRESTIGE HEIGHTS,16613,1543,329778
THE CLIFT,23405,2174,69047
CHERRYHILL,9099,845,536467
RANGOON 88,15581,1447,218374
VENTUNO BALMORAL,17623,1637,259805
HIJAUAN,26912,2500,229618
CHANGI RISE CONDOMINIUM,9032,839,528800
BLOSSOM RESIDENCES,6197,576,677723
CAIRNHILL CONSERVATION AREA,31106,2890,229691
ESTE VILLA,6342,589,807547
PARK VILLAS,9288,863,545362
CASTLE GREEN,9091,845,787058
BAYSHORE PARK,9655,897,469977
GRANDEUR 8,9548,887,567745
EMERALD PARK,11990,1114,169586
TANGLIN PARK,21053,1956,248471
N.A.,3759,349,328281
EUHABITAT,13267,1232,419543
GILSTEAD 38,14835,1378,309082
LAKESIDE TOWER,4907,456,618649
THOMSON GRAND,14902,1384,573914
D' PALMA,10300,957,416817
CITYLIGHTS,16672,1549,208745
REZI 26,12593,1170,398504
DOMUS,16009,1487,329564
REGENT RESIDENCES,16176,1503,328190
SYMPHONY HEIGHTS,11395,1059,598738
ARC AT TAMPINES,7511,698,529604
ESTE VILLA,6577,611,807545
PAVILION PARK,12780,1187,658198
ESTE VILLA,6525,606,804987
ARC AT TAMPINES,7667,712,529595
BOATHOUSE RESIDENCES,11179,1039,534042
WATERVIEW,9598,892,529782
SIGNATURE AT LEWIS,16780,1559,258617
RIVERPARC RESIDENCE,7426,690,828799
COMPASS HEIGHTS,6523,606,545075
QUEENS,13045,1212,148955
ARC AT TAMPINES,6649,618,529601
RIVERPARC RESIDENCE,7243,673,828794
ST THOMAS SUITES,21744,2020,238113
ARC AT TAMPINES,7731,718,529598
DOUBLE BAY RESIDENCES,10092,938,528715
MEADOWLODGE,10800,1003,599717
THE MINTON,10133,941,534083
ESTE VILLA,7051,655,805281
THE COSMOPOLITAN,24228,2251,239471
THE LAKEFRONT RESIDENCES,11929,1108,648305
BLOSSOM RESIDENCES,6640,617,677722
BISHAN PARK CONDOMINIUM,8343,775,575569
N.A.,8873,824,558525
N.A.,26467,2459,424856
D'LEEDON,17933,1666,266224
RIVERPARC RESIDENCE,6774,629,828796
PARC ELEGANCE,11512,1069,423762
SILVERSEA,18182,1689,449305
NV RESIDENCES,8927,829,518213
YISHUN EMERALD,7569,703,768427
THE EDEN AT TAMPINES,7971,741,529237
ESTE VILLA,6420,596,805033
SOLEIL @ SINARAN,20618,1915,307467
WATERVIEW,9023,838,528691
PEACE CENTRE/MANSIONS,7521,699,228149
FOREST HILLS CONDOMINIUM,7528,699,778904
WOODSVALE,6807,632,738097
ESTE VILLA,6767,629,804986
BOATHOUSE RESIDENCES,8945,831,534045
RANGOON 88,14308,1329,218374
THE COURTYARD,9474,880,547822
RIVERPARC RESIDENCE,7272,676,828798
ISUITES @ PALM,12661,1176,549340
ESTE VILLA,6420,596,807599
RANGOON 88,14382,1336,218374
SCOTTS 28,22727,2111,228223
N.A.,12586,1169,545876
BEACON HEIGHTS,12383,1150,328689
PARC VERA,9160,851,534038
MERALODGE,8762,814,669583
WOODHAVEN,11295,1049,737810
HILLTOP GROVE,7896,734,669619
EAST MEADOWS,10265,954,465559
HILLCREST VILLA,10279,955,286668
FORESQUE RESIDENCES,11807,1097,678275
ARC AT TAMPINES,7965,740,529604
WINDERMERE,7227,671,689099
SIGNATURE PARK,10231,950,596743
KOVAN GRANDEUR,13868,1288,535193
WATERMARK ROBERTSON QUAY,19500,1812,238212
VILLA AZURA,12839,1193,279871
RIVERPARC RESIDENCE,7391,687,828797
REZI 26,11385,1058,398504
TANAMERA CREST,7591,705,486062
THE DAIRY FARM,11096,1031,679042
FORESQUE RESIDENCES,11457,1064,678275
ARC AT TAMPINES,6910,642,529601
THE ESTORIL,15979,1485,278541
ESTELLA GARDENS,7863,731,509741
A TREASURE TROVE,9363,870,828833
RANGOON 88,14854,1380,218374
RANGOON 88,16816,1562,218374
EUHABITAT,10021,931,419537
EUHABITAT,11020,1024,415833
SEASTRAND,10019,931,518183
CABANA,7799,724,805398
HORIZON RESIDENCES,18829,1749,118863
EUHABITAT,10674,992,415828
VILLA MARINA,9143,849,457400
COSMO,17769,1651,399914
CLOVER BY THE PARK,8881,825,573973
SILVERSEA,17769,1651,449306
EMERALD PARK,11170,1038,169586
RIVERPARC RESIDENCE,7065,656,828797
ASPEN LOFT,9664,898,427317
SUITES @ EASTCOAST,15094,1402,455275
TREASURES@G19,14127,1312,388502
GUILLEMARD VIEW,7168,666,399850
THE MINTON,9396,873,534083
BINJAI CREST,6268,582,587922
CASTLE GREEN,7645,710,787059
ARC AT TAMPINES,8275,769,529602
WATERFRONT ISLE,10752,999,479264
FORESQUE RESIDENCES,13126,1219,678275
THE HUNTINGTON,15756,1464,308095
H2O RESIDENCES,10236,951,797531
REFLECTIONS AT KEPPEL BAY,17105,1589,98415
OCEAN PARK,13214,1228,458970
TERRASSE,9394,873,544774
ONE AMBER,12818,1191,439958
AUSTVILLE RESIDENCES,8047,748,544806
AVILA GARDENS,7967,740,509735
CITYLIGHTS,17857,1659,208747
OASIS GARDEN,10739,998,538422
FABER GARDEN CONDOMINIUM,6410,596,579978
SOLEIL @ SINARAN,15299,1421,307467
THE MINTON,9626,894,534070
ESTE VILLA,6715,624,805009
N.A.,11029,1025,398745
N.A.,13064,1214,536304
TREASURES@G19,14012,1302,388502
FOREST HILLS CONDOMINIUM,7748,720,778905
ESTE VILLA,6420,596,805037
RIVERPARC RESIDENCE,5850,543,828797
ESTE VILLA,6420,596,805035
ONE ST MICHAEL'S,12759,1185,328006
RIVERPARC RESIDENCE,7312,679,828798
SUITES @ PAYA LEBAR,15216,1414,534049
AUSTVILLE RESIDENCES,8206,762,544810
VACANZA @ EAST,12393,1151,417394
THE SHORE RESIDENCES,14485,1346,439894
RIVERPARC RESIDENCE,7511,698,828800
SIXTH AVENUE VILLE,14848,1379,276484
WATER PLACE,13421,1247,436607
THE MINTON,9857,916,534079
TREVISTA,12892,1198,319583
BLOSSOM VIEW,8791,817,398498
