Project Name,Unit Price ($ psm),Unit Price ($ psf),Postal Code
SKYPARK RESIDENCES,8475,787,757094
WOODSVALE,7639,710,738094
PEBBLE BAY,15625,1452,436919
ROBIN SUITES,26667,2477,258203
N.A.,17667,1641,799339
N.A.,15181,1410,429322
GUILLEMARD SUITES,17363,1613,399733
CASABELLA,16170,1502,266338
GRANDEUR 8,12035,1118,567749
VERDANA VILLAS,8142,756,554495
DUO RESIDENCES,19117,1776,189350
ECOPOLITAN,8466,787,828775
1 CANBERRA,7705,716,768101
SKYPARK RESIDENCES,8674,806,757093
LUSH ACRES,8359,777,797486
ECOPOLITAN,8623,801,828776
THE CASSANDRA,12623,1173,118549
BEDOK SHOPPING COMPLEX,3805,354,469447
ECOPOLITAN,8675,806,828699
SEA HORIZON,8914,828,518082
SEA HORIZON,8580,797,518083
LA FIESTA,13091,1216,544707
WATERWOODS,9122,847,828746
SEA HORIZON,8944,831,518080
ST ANNE'S WOOD,13400,1245,545251
SKYPARK RESIDENCES,8098,752,757095
BURGUNDY HILL,9333,867,658779
SUITES @ TOPAZ,16857,1566,327849
N.A.,4811,447,588862
PASIR RIS BEACH PARK,7670,713,519214
DUO RESIDENCES,19824,1842,189350
SKYPARK RESIDENCES,7948,738,757095
BANYAN CONDOMINIUM,12018,1116,119744
CORALIS,19829,1842,427710
N.A.,13956,1297,467830
ECOPOLITAN,8756,813,828776
SKYPARK RESIDENCES,8278,769,757096
EIGHT RIVERSUITES,14011,1302,338519
KOVAN MELODY,12566,1167,545024
COMPASS HEIGHTS,8548,794,545075
SIMEI GREEN CONDOMINIUM,9778,908,529868
SEA HORIZON,8807,818,518090
PLATINA GARDENS,4850,451,758641
FORESQUE RESIDENCES,12518,1163,678272
FORESTVILLE,7704,716,737769
SEA HORIZON,8280,769,518083
THOMSON THREE,16176,1503,573893
SKYPARK RESIDENCES,8514,791,757052
ECOPOLITAN,8972,834,828775
THE INTERLACE,13956,1297,109697
BLU CORAL,9175,852,425602
SPRINGHILL,6226,578,757616
THE EDEN AT TAMPINES,9483,881,529232
RIVERGATE,24242,2252,238255
VIVACE,24906,2314,238011
THE MAKENA,14673,1363,437936
RIVERGATE,20429,1898,238255
BERKELEY RESIDENCES,16456,1529,425141
PALACIO,8378,778,423390
Q BAY RESIDENCES,12480,1159,528590
THE INTERLACE,14865,1381,109687
THE RIVERVALE,8033,746,545118
WATERBANK AT DAKOTA,14286,1327,399948
CHANGI RISE CONDOMINIUM,9412,874,528811
THE SAIL @ MARINA BAY,20482,1903,18987
N.A.,22147,2058,309143
6 DERBYSHIRE,22762,2115,309462
REZI 3TWO,16348,1519,398308
CASA SARINA,11091,1030,416730
DUO RESIDENCES,26485,2461,189350
GRANDE VISTA,10478,973,809694
GUILLEMARD SUITES,14612,1357,399733
PARC ROSEWOOD,15250,1417,737785
HILLTOPS,35764,3323,229809
KOVAN MELODY,13690,1272,545022
EMERALD GARDEN,20821,1934,69415
FAR HORIZON GARDENS,8065,749,569763
KENSINGTON SQUARE,16050,1491,537846
THE LAKESHORE,12727,1182,649411
WATERWOODS,8580,797,828751
BARTLEY RIDGE,14019,1302,368057
N.A.,13546,1258,369247
THE DEW,9554,888,659637
MELROSE VILLE,16771,1558,437370
TREASURES @ G20,12348,1147,398751
JEWEL @ BUANGKOK,11950,1110,544823
PARK NATURA,12500,1161,659765
COSTA DEL SOL,13139,1221,469987
JARDIN,20253,1882,589488
D'LEEDON,18545,1723,266224
HOLLAND GROVE,15862,1474,276186
DUO RESIDENCES,19506,1812,189350
GARDEN PARK RESIDENCES,16098,1496,425310
VENTURA VIEW,11071,1029,424292
HERITAGE VIEW,13333,1239,138678
GOLDENHILL PARK CONDOMINIUM,15820,1470,568426
EASTPOINT GREEN,9200,855,529890
THE LEGEND,15606,1450,259725
WATERWOODS,8868,824,828747
JEWEL @ BUANGKOK,12999,1208,544687
BARTLEY RIDGE,12683,1178,368059
SKYPARK RESIDENCES,8598,799,757060
SEA HORIZON,8263,768,518082
Q BAY RESIDENCES,10904,1013,528587
Q BAY RESIDENCES,10967,1019,528587
SEA HORIZON,8534,793,518080
ECO SANCTUARY,14265,1325,679522
SEA HORIZON,8561,795,518091
SEA HORIZON,8282,769,518081
SUNSHINE LODGE,8983,835,534530
GUILLEMARD SUITES,13691,1272,399733
THE FLORAVALE,7724,718,648357
FABER CREST,11325,1052,129203
RV RESIDENCES,20781,1931,248350
THE ESTUARY,11541,1072,769134
WATERWOODS,8610,800,828747
SKYPARK RESIDENCES,8906,827,757096
OXLEY EDGE,16342,1518,238349
SEA HORIZON,8333,774,518080
TREASURES @ G20,13205,1227,398751
WATERVIEW,12164,1130,529781
LA CASA,8302,771,737896
OCEAN FRONT SUITES,15622,1451,509424
NINETEEN SHELFORD ROAD,16716,1553,288408
HILLS TWOONE,15250,1417,669232
WATER PLACE,12403,1152,436607
WATERFRONT GOLD,14082,1308,479258
CARIBBEAN AT KEPPEL BAY,15646,1454,98652
THE LAKESHORE,11604,1078,649413
RICHMOND PARK,27950,2597,229920
LA FIESTA,12607,1171,544833
ALEX RESIDENCES,20730,1926,158744
CENTRAL GREEN CONDOMINIUM,14417,1339,169479
WATERBANK AT DAKOTA,12999,1208,399948
ECOPOLITAN,7635,709,828700
THE MONTANA,22058,2049,249188
HOLLAND PEAK,15353,1426,278740
DOUBLE BAY RESIDENCES,12047,1119,528715
THE TRIZON,16684,1550,276697
PARC OASIS,10280,955,609781
CORALS AT KEPPEL BAY,26819,2492,98021
HELIOS RESIDENCES,35108,3262,229815
EASTVALE,8929,829,519493
VARSITY PARK CONDOMINIUM,9624,894,126828
LUXUS HILLS,21387,1987,804899
A TREASURE TROVE,11649,1082,828832
HORIZON TOWER,12083,1123,239194
FORESTVILLE,7829,727,737768
CITYLIFE@TAMPINES,8063,749,528617
DUNMAN REGENCY,17126,1591,439190
RV RESIDENCES,22486,2089,248348
DUO RESIDENCES,17561,1631,189350
KENSINGTON SQUARE,16360,1520,537846
COSTA DEL SOL,12680,1178,469987
DUO RESIDENCES,20120,1869,189350
H2O RESIDENCES,10724,996,797531
SEA HORIZON,8664,805,518083
URBAN RESORT CONDOMINIUM,30793,2861,229720
MORIMASA GARDENS,14242,1323,309065
N.A.,11298,1050,419170
SEA HORIZON,8394,780,518082
RIDGEWOOD,12346,1147,276692
GRANGE INFINITE,25906,2407,239700
GUILLEMARD SUITES,14628,1359,399733
NORTHOAKS,8520,792,738087
SKYPARK RESIDENCES,8811,819,757060
SKYPARK RESIDENCES,8483,788,757095
THOMSON THREE,15803,1468,573894
6 DERBYSHIRE,22777,2116,309462
BUCKLEY CLASSIQUE,16817,1562,309767
DUO RESIDENCES,21642,2011,189350
N.A.,8349,776,359923
ECOPOLITAN,8442,784,828773
THE BENTLY RESIDENCES@KOVAN,15600,1449,544694
HILLS TWOONE,15208,1413,669232
HUNDRED TREES,15059,1399,128001
CHUAN VILLAS,13451,1250,554881
EASTWOOD VILLE,10935,1016,486489
LEEDON RESIDENCE,28293,2628,266228
NINE RESIDENCES,12197,1133,768895
ISLAND COUNTRY VILLAS,10228,950,574055
TREASURE PLACE,11179,1039,119174
ECOPOLITAN,8774,815,828699
THOMSON THREE,12222,1135,573894
THE GLADES,16348,1519,469597
WEST BAY CONDOMINIUM,12127,1127,128040
BELGRAVIA VILLAS,9130,848,804654
SKY VUE,14084,1308,573911
KENSINGTON SQUARE,12699,1180,537846
OCEAN PARK,14031,1303,458969
UBER 388,14158,1315,466477
DUO RESIDENCES,25772,2394,189350
ARTHUR 118,16141,1500,439827
ATRIUM RESIDENCES,11026,1024,398414
THE CHANCERY RESIDENCE,8746,813,309555
GOLDENHILL PARK CONDOMINIUM,15081,1401,568431
GRANDVIEW SUITES,12541,1165,398664
TWIN FOUNTAINS,8077,750,738996
BISHOPSGATE RESIDENCES,36597,3400,247676
UBER 388,14545,1351,466477
THE INTERLACE,16132,1499,109703
DUO RESIDENCES,24219,2250,189350
SEA HORIZON,8789,816,518085
DUO RESIDENCES,20412,1896,189350
LEEDON RESIDENCE,28902,2685,266228
ALEX RESIDENCES,15942,1481,158744
VILLA MARTIA,13103,1217,424808
MERAPRIME,15096,1402,169568
DUCHESS MANOR,9625,894,269033
THE OCTET,13510,1255,398628
FORESTVILLE,7682,714,737775
ECOPOLITAN,8683,807,828700
STRATTON PARK,12285,1141,806768
DUO RESIDENCES,23861,2217,189350
DUO RESIDENCES,23953,2225,189350
SEA HORIZON,8734,811,518086
MODENA,8527,792,529870
MELVILLE PARK,8711,809,529944
FRANKEL ESTATE,19673,1828,455175
CASCADALE,8430,783,486858
WATERWOODS,8631,802,828746
OPERA ESTATE,16199,1505,459706
1 CANBERRA,7778,723,768101
DUO RESIDENCES,19348,1798,189350
THE INTERLACE,13667,1270,109701
SKY VUE,17276,1605,573910
DUO RESIDENCES,24711,2296,189350
DUO RESIDENCES,16822,1563,189350
ECOPOLITAN,8322,773,828776
SUMMERHILL,12500,1161,596230
REGENTVILLE,8953,832,538687
THE MINTON,12233,1136,538756
THE CALYPSO,11442,1063,466526
THOMSON THREE,12908,1199,573894
THE INFLORA,9332,867,506849
WATERBANK AT DAKOTA,15453,1436,399947
ECO SANCTUARY,13029,1210,679522
RV EDGE,22949,2132,248209
LILYDALE,8018,745,768966
LUSH ACRES,8924,829,797485
THE AZURE,21210,1970,98584
WATERWOODS,8849,822,828748
CLEMENTI PARK,12738,1183,597156
LA FIESTA,13456,1250,544704
SEA HORIZON,8486,788,518088
THE BOUTIQ,23822,2213,239565
WATERWOODS,8481,788,828747
FORESTVILLE,7897,734,737882
SELETARIS,8942,831,757708
HILLS TWOONE,13462,1251,669232
SEA HORIZON,8286,770,518082
THE WARREN,10186,946,689680
THE GLADES,15693,1458,465407
DUO RESIDENCES,27000,2508,189350
THE ESPIRA,13265,1232,425563
SKY HABITAT,16556,1538,573908
WATERWOODS,8868,824,828750
N.A.,10620,987,118670
CITY PLAZA,10233,951,409286
D' KENARIS,6536,607,809011
THE GLADES,14994,1393,465411
ALEX RESIDENCES,17058,1585,158744
WATERWOODS,8739,812,828747
RV RESIDENCES,21867,2031,248350
LA FIESTA,12258,1139,544704
SYMPHONY HEIGHTS,12697,1180,598739
LUSH ACRES,8326,773,797485
SEA HORIZON,8647,803,518086
FRANKEL ESTATE,13126,1219,456150
GARDENVISTA,14313,1330,589487
EMERALD GARDEN,18380,1708,69415
DUO RESIDENCES,25030,2325,189350
ALTEZ,23710,2203,79717
THE SPRINGBLOOM,12286,1141,556121
FORESTVILLE,7794,724,737774
DUO RESIDENCES,21522,1999,189350
STRATUM,13114,1218,519956
THE RITZ-CARLTON RESIDENCES SINGAPORE CAIRNHILL,40563,3768,229721
WATERBANK AT DAKOTA,15610,1450,399948
GUILLEMARD SUITES,16089,1495,399733
WATERWOODS,8864,823,828746
FRANKEL ESTATE,21875,2032,457116
N.A.,17757,1650,277522
HUNDRED TREES,14815,1376,128018
LUSH ACRES,9213,856,797485
OXLEY EDGE,17554,1631,238349
SKY VUE,16185,1504,573910
ALEX RESIDENCES,15698,1458,158744
THE TRIZON,16144,1500,276697
DUO RESIDENCES,20779,1930,189350
DUO RESIDENCES,21200,1970,189350
WATERWOODS,8631,802,828746
THE SPRINGS,16000,1486,308144
THE INTERLACE,16267,1511,109701
GUILLEMARD SUITES,18000,1672,399733
LA CASA,9396,873,737893
ALEX RESIDENCES,20508,1905,158744
WATERVIEW,11644,1082,528688
ALEX RESIDENCES,19590,1820,158744
RV RESIDENCES,22160,2059,248350
WATERWOODS,8471,787,828750
WATERWOODS,8538,793,828748
1 CANBERRA,7986,742,768101
NINE RESIDENCES,12924,1201,768894
WATERBAY,6158,572,828711
CLERMONT RESIDENCE,32828,3050,78882
ROSEWOOD,8761,814,737936
WATERWOODS,8408,781,828751
SUNHAVEN,10739,998,486069
FORESTVILLE,8020,745,737769
SKYPARK RESIDENCES,8616,800,757093
SKYPARK RESIDENCES,8450,785,757094
THE MADEIRA,10490,975,659442
DUCHESS CREST,14720,1368,269197
SKY VUE,18891,1755,573911
WATERWOODS,8559,795,828750
CLERMONT RESIDENCE,32437,3013,78882
CLERMONT RESIDENCE,33150,3080,78882
HILLS TWOONE,15434,1434,669232
SKY HABITAT,16072,1493,573909
PANDAN VALLEY,11753,1092,597631
MARTIN PLACE RESIDENCES,21970,2041,237990
PARC ELEGANCE,17146,1593,423912
HOLLAND COURT,16575,1540,278576
WATERWOODS,8699,808,828750
WATERWOODS,8646,803,828748
LUSH ACRES,8715,810,797485
EIGHT RIVERSUITES,12434,1155,338521
EASTPOINT GREEN,9143,849,529891
THE GLADES,16421,1526,465407
6 DERBYSHIRE,22373,2079,309462
SKY VUE,14523,1349,573911
MUGLISTON HILL,12736,1183,798588
CLERMONT RESIDENCE,32387,3009,78882
N.A.,9048,841,428673
TERRASSE,12721,1182,544777
SEMBAWANG GARDENS ARCADE,9922,922,758337
SANT RITZ,18100,1682,348196
PARK VIEW MANSION,6557,609,618646
CLERMONT RESIDENCE,32520,3021,78882
CLERMONT RESIDENCE,32885,3055,78882
CLERMONT RESIDENCE,32661,3034,78882
CLERMONT RESIDENCE,32736,3041,78882
MIDTOWN RESIDENCES,14215,1321,534785
BARTLEY RIDGE,12944,1203,368059
CLERMONT RESIDENCE,32810,3048,78882
HILLVIEW REGENCY,9730,904,659920
DUO RESIDENCES,23770,2208,189350
WATERWOODS,8344,775,828750
ROYCE RESIDENCES,15385,1429,399242
SEA HORIZON,8281,769,518087
FORESTVILLE,7779,723,737768
KENSINGTON SQUARE,15579,1447,537846
WATERWOODS,8699,808,828749
THE PATERSON EDGE,24000,2230,238518
SKYPARK RESIDENCES,8625,801,757058
HAIG 162,20588,1913,438773
NINE RESIDENCES,12962,1204,768894
MARTIN PLACE RESIDENCES,21774,2023,237988
OCEAN FRONT SUITES,16292,1514,509424
FLORAVILLE,15566,1446,809578
THE TEMBUSU,13585,1262,534007
THOMSON THREE,15093,1402,573893
KINGSFORD . HILLVIEW PEAK,15728,1461,667981
MIDTOWN RESIDENCES,13749,1277,534785
MAYFAIR RESIDENCES,17525,1628,429065
HILLS TWOONE,15173,1410,669232
DUO RESIDENCES,26300,2443,189350
PARKVIEW APARTMENTS,8614,800,658880
WATERWOODS,9172,852,828748
ALLSWORTH PARK,18022,1674,278640
TANGLIN REGENCY,13975,1298,247965
SKYPARK RESIDENCES,9034,839,757061
PEBBLE BAY,16902,1570,436920
FAIRMOUNT CONDOMINIUM,7222,671,486365
PARK WEST,7500,697,128798
EURO-ASIA PARK,10751,999,357920
DUO RESIDENCES,21646,2011,189350
HOLLAND SUITES,15979,1485,278568
DUO RESIDENCES,19911,1850,189350
DUO RESIDENCES,21935,2038,189350
SPRINGLEAF GARDEN,11513,1070,788167
SOLEIL @ SINARAN,21304,1979,307468
DUO RESIDENCES,21522,1999,189350
DUO RESIDENCES,23533,2186,189350
NOVENA LODGE,15761,1464,308729
SKY VUE,18942,1760,573910
LIV ON WILKIE,26566,2468,228025
THE TESSARINA,16761,1557,276310
YONG SIAK VIEW,14130,1313,168651
LE WOOD,9322,866,589320
DUO RESIDENCES,19109,1775,189350
ALEX RESIDENCES,15474,1438,158744
DUO RESIDENCES,18351,1705,189350
DUO RESIDENCES,26122,2427,189350
DUO RESIDENCES,23354,2170,189350
DUO RESIDENCES,17670,1642,189350
LUSH ACRES,8828,820,797485
SEA HORIZON,8280,769,518090
GRANDEUR 8,12381,1150,567748
THE INTERLACE,8744,812,109692
SKY VUE,17942,1667,573910
THE TEMBUSU,18250,1695,534008
Q BAY RESIDENCES,11471,1066,528587
D'LEEDON,15419,1432,267953
NINE RESIDENCES,12717,1181,768895
THE SCALA,17500,1626,554479
6 DERBYSHIRE,21806,2026,309462
1 CANBERRA,7760,721,768101
PARC ELEGANCE,16957,1575,423912
DUO RESIDENCES,24561,2282,189350
ALEX RESIDENCES,18227,1693,158744
Q BAY RESIDENCES,10775,1001,528587
WATERWOODS,8653,804,828747
LA FIESTA,13235,1230,544704
NINE RESIDENCES,10872,1010,768895
RAJAH TOWERS,9275,862,329141
SEA HORIZON,8727,811,518086
WATERWOODS,8567,796,828747
CLERMONT RESIDENCE,32832,3050,78882
NORTHOAKS,8052,748,738081
DUO RESIDENCES,27432,2548,189350
THE BOUTIQ,27626,2567,239573
GOODWOOD GRAND,23957,2226,259802
DUO RESIDENCES,24146,2243,189350
DUO RESIDENCES,24624,2288,189350
ST REGIS RESIDENCES SINGAPORE,23152,2151,247912
DUO RESIDENCES,25331,2353,189350
DUO RESIDENCES,20114,1869,189350
DUO RESIDENCES,19400,1802,189350
DUO RESIDENCES,22754,2114,189350
DUO RESIDENCES,19767,1836,189350
DUO RESIDENCES,24084,2237,189350
DUO RESIDENCES,17652,1640,189350
1 CANBERRA,7798,724,768103
DUO RESIDENCES,21292,1978,189350
LAGOON VIEW,9804,911,449293
DUO RESIDENCES,21034,1954,189350
TORIE MANSIONS,10060,935,428620
CHELSEA VILLAGE,13649,1268,119328
NINE RESIDENCES,12955,1204,768895
LUSH ACRES,8705,809,797487
ASPEN HEIGHTS,16589,1541,238309
THE TRIZON,20160,1873,276693
THE INTERLACE,14495,1347,109698
THE OCTET,14350,1333,398628
8 FARRER SUITES,18678,1735,217820
DUO RESIDENCES,24355,2263,189350
KENSINGTON SQUARE,14702,1366,537846
WATERWOODS,9011,837,828751
DUO RESIDENCES,25283,2349,189350
GUILLEMARD SUITES,17054,1584,399733
THE BERTH BY THE COVE,17541,1630,98628
N.A.,11807,1097,599678
LA FIESTA,12386,1151,544833
LUSH ACRES,8725,811,797485
LA FIESTA,12916,1200,544831
WATERWOODS,8946,831,828748
BARTLEY RIDGE,12549,1166,368056
TREE HOUSE,11028,1025,679520
NORTHOAKS,5628,523,738087
TRILIGHT,18433,1712,307997
DUO RESIDENCES,17484,1624,189350
ASCENTIA SKY,15542,1444,158749
EUPHONY GARDENS,7903,734,759152
SERENE VIEW MANSIONS,8743,812,358719
SIMEI GREEN CONDOMINIUM,9369,870,529862
THE GARDENS AT BISHAN,10823,1005,575574
THE GLADES,16610,1543,469598
FORESTVILLE,7963,740,737777
DUO RESIDENCES,24836,2307,189350
DUO RESIDENCES,25677,2385,189350
CHERRYHILL,11595,1077,536467
BELMOND GREEN,19111,1775,259819
STRATUM,13775,1280,519958
DUO RESIDENCES,20839,1936,189350
ECOPOLITAN,8917,828,828778
THE BAYSHORE,11702,1087,469976
SIGNATURE PARK,11386,1058,596743
N.A.,12141,1128,358541
WATERBAY,8357,776,828713
RIVERSAILS,9576,890,534027
DUO RESIDENCES,24892,2313,189350
THE PETALS,10322,959,669626
SKYPARK RESIDENCES,8571,796,757096
THE INTERLACE,14530,1350,109704
DUO RESIDENCES,17236,1601,189350
CARIBBEAN AT KEPPEL BAY,17632,1638,98655
DUO RESIDENCES,22526,2093,189350
WATERWOODS,8354,776,828750
ROSEWOOD,9312,865,737937
RV EDGE,20217,1878,248209
DUO RESIDENCES,19950,1853,189350
TREE HOUSE,11667,1084,679517
LILYDALE,8270,768,768962
NEWTON EDGE,22805,2119,228600
DUO RESIDENCES,22617,2101,189350
THE CASCADIA,17864,1660,589646
DUO RESIDENCES,24817,2306,189350
HILLCREST ARCADIA,11913,1107,289850
DUO RESIDENCES,23276,2162,189350
DUO RESIDENCES,19500,1812,189350
ECOPOLITAN,8632,802,828778
DUO RESIDENCES,19491,1811,189350
DUO RESIDENCES,20364,1892,189350
DUO RESIDENCES,21527,2000,189350
DUO RESIDENCES,21807,2026,189350
DUO RESIDENCES,22717,2110,189350
DUO RESIDENCES,22707,2110,189350
DUO RESIDENCES,23097,2146,189350
DUO RESIDENCES,17382,1615,189350
PINE GROVE,9084,844,591301
DUO RESIDENCES,20034,1861,189350
DUO RESIDENCES,22638,2103,189350
DUO RESIDENCES,20784,1931,189350
368 THOMSON,16328,1517,298127
DUO RESIDENCES,23654,2198,189350
GOODWOOD GRAND,24667,2292,259802
COASTAL BREEZE RESIDENCES,9862,916,509051
WATERWOODS,8323,773,828748
HILLS TWOONE,14515,1348,669232
DUO RESIDENCES,22806,2119,189350
GUILLEMARD SUITES,16195,1505,399733
DUO RESIDENCES,18316,1702,189350
ECOPOLITAN,7610,707,828775
DUO RESIDENCES,21372,1985,189350
DUO RESIDENCES,19457,1808,189350
MELVILLE PARK,9435,877,529947
WATERFRONT KEY,13830,1285,479250
SPANISH VILLAGE,13347,1240,268844
DUO RESIDENCES,23389,2173,189350
DUO RESIDENCES,18816,1748,189350
DUO RESIDENCES,19552,1816,189350
ALEX RESIDENCES,20365,1892,158744
DUO RESIDENCES,21450,1993,189350
DUO RESIDENCES,23494,2183,189350
DUO RESIDENCES,21120,1962,189350
DUO RESIDENCES,24945,2317,189350
ALEX RESIDENCES,16649,1547,158744
DUO RESIDENCES,20029,1861,189350
WATERWOODS,8376,778,828751
DUO RESIDENCES,22194,2062,189350
DUO RESIDENCES,22933,2131,189350
FORESTVILLE,7726,718,737777
HERITAGE VIEW,13704,1273,138679
VISIONCREST,20652,1919,238712
NASSIM PARK RESIDENCES,37152,3451,258391
DUO RESIDENCES,18529,1721,189350
DUO RESIDENCES,18747,1742,189350
TEMBELING RESIDENCE,12887,1197,423725
THOMSON THREE,16045,1491,573894
SPRINGDALE CONDOMINIUM,12326,1145,587976
BUKIT LOYANG ESTATE,13241,1230,509632
DUO RESIDENCES,23807,2212,189350
THE SUNNY SPRING,11117,1033,398074
HAWAII TOWER,13702,1273,437901
DUO RESIDENCES,23578,2190,189350
DUO RESIDENCES,21721,2018,189350
N.A.,12355,1148,276641
DUO RESIDENCES,20891,1941,189350
LEONIE GARDENS,16335,1518,239224
DUO RESIDENCES,17278,1605,189350
DUO RESIDENCES,21403,1988,189350
DUO RESIDENCES,21284,1977,189350
DUO RESIDENCES,25694,2387,189350
STADIA,12556,1166,545542
DUO RESIDENCES,23988,2228,189350
WATERWOODS,8699,808,828751
DUO RESIDENCES,20189,1876,189350
BUTTERWORTH 33,11594,1077,439442
ECOPOLITAN,8809,818,828699
STRATUM,13341,1239,519956
LUSH ACRES,8193,761,797488
DUO RESIDENCES,21091,1959,189350
THE GARDENS AT BISHAN,11585,1076,575575
PEBBLE BAY,14929,1387,436918
VALLEY PARK,15000,1394,248368
DUO RESIDENCES,21701,2016,189350
DUO RESIDENCES,19373,1800,189350
VILLAGE @ PASIR PANJANG,16883,1568,118797
DUO RESIDENCES,21683,2014,189350
DUO RESIDENCES,18724,1740,189350
DUO RESIDENCES,21045,1955,189350
DUO RESIDENCES,17189,1597,189350
ALEX RESIDENCES,19273,1790,158744
DUO RESIDENCES,21447,1992,189350
DUO RESIDENCES,21550,2002,189350
DUO RESIDENCES,22211,2063,189350
DUO RESIDENCES,22060,2049,189350
DUO RESIDENCES,18169,1688,189350
THOMSON THREE,16370,1521,573894
DUO RESIDENCES,24712,2296,189350
DUO RESIDENCES,23667,2199,189350
DUO RESIDENCES,24412,2268,189350
DUO RESIDENCES,25335,2354,189350
DUO RESIDENCES,20073,1865,189350
DUO RESIDENCES,18561,1724,189350
CENTENNIA SUITES,24757,2300,239427
WATERWOODS,8677,806,828748
DUO RESIDENCES,20402,1895,189350
THE MONTANA,18120,1683,249188
DUO RESIDENCES,21760,2022,189350
THE OCTET,14462,1344,398628
DUO RESIDENCES,17722,1646,189350
MARINA BAY SUITES,33000,3066,18965
LUSH ACRES,9072,843,797488
DUO RESIDENCES,20212,1878,189350
WATERWOODS,8752,813,828748
SEA HORIZON,9385,872,518083
GRAND RESIDENCE,12000,1115,426237
DUO RESIDENCES,21612,2008,189350
STRATUM,14025,1303,519956
THE SHORE RESIDENCES,21206,1970,439894
SEA HORIZON,8698,808,518086
DUO RESIDENCES,21064,1957,189350
V ON SHENTON,23614,2194,68814
DUO RESIDENCES,19376,1800,189350
ALEX RESIDENCES,18746,1742,158744
DUO RESIDENCES,23775,2209,189350
CASCATA,10680,992,416378
DUO RESIDENCES,22410,2082,189350
DUO RESIDENCES,20097,1867,189350
THE INTERLACE,13124,1219,109702
DUO RESIDENCES,21524,2000,189350
DUO RESIDENCES,19146,1779,189350
HILLSTA,13415,1246,668202
DUO RESIDENCES,19368,1799,189350
DUO RESIDENCES,20632,1917,189350
WATERWOODS,8731,811,828751
DUO RESIDENCES,19736,1833,189350
DUO RESIDENCES,21447,1993,189350
FORESTVILLE,7744,719,737769
DUO RESIDENCES,22961,2133,189350
SEA HORIZON,9120,847,518087
DUO RESIDENCES,18516,1720,189350
DUO RESIDENCES,21782,2024,189350
DUO RESIDENCES,21350,1983,189350
DUO RESIDENCES,22750,2114,189350
DUO RESIDENCES,20766,1929,189350
DUO RESIDENCES,22112,2054,189350
THE BOUTIQ,27222,2529,239573
DUO RESIDENCES,17091,1588,189350
DUO RESIDENCES,21050,1956,189350
DUO RESIDENCES,21164,1966,189350
PARKVIEW APARTMENTS,9451,878,658880
DUO RESIDENCES,17189,1597,189350
DUO RESIDENCES,23172,2153,189350
D'NEST,10990,1021,518137
DUO RESIDENCES,16945,1574,189350
SEA HORIZON,9132,848,518090
DUO RESIDENCES,20352,1891,189350
DUO RESIDENCES,19796,1839,189350
1 CANBERRA,7810,726,768077
SEA HORIZON,8976,834,518088
SEA HORIZON,9193,854,518082
DUO RESIDENCES,18438,1713,189350
DUO RESIDENCES,17925,1665,189350
1 CANBERRA,7680,713,768101
DUO RESIDENCES,20691,1922,189350
ALEX RESIDENCES,15826,1470,158744
DUO RESIDENCES,18540,1722,189350
ESTELLA GARDENS,9310,865,509740
DUO RESIDENCES,21077,1958,189350
DUO RESIDENCES,20582,1912,189350
DUO RESIDENCES,18129,1684,189350
THOMSON THREE,13792,1281,573895
DUO RESIDENCES,21250,1974,189350
ALEX RESIDENCES,17977,1670,158744
EAST COAST HILL,16407,1524,467053
THOMSON THREE,16167,1502,573894
SEA HORIZON,9080,844,518086
ALEX RESIDENCES,19302,1793,158744
CITYLIFE@TAMPINES,8614,800,528595
DUO RESIDENCES,22395,2081,189350
N.A.,11442,1063,668853
ALEX RESIDENCES,16750,1556,158744
DUO RESIDENCES,22694,2108,189350
ALEX RESIDENCES,20476,1902,158744
CHANGI RISE CONDOMINIUM,9762,907,528808
RIVERSAILS,11167,1037,534030
BAYSHORE PARK,11092,1030,469982
THE FLORAVALE,7672,713,648359
VISIONCREST,21143,1964,238710
WATERVIEW,11370,1056,528690
ECOPOLITAN,8562,795,828699
DUO RESIDENCES,19860,1845,189350
THE PEARL @ MOUNT FABER,12403,1152,99208
THOMSON THREE,13485,1253,573893
DUO RESIDENCES,20350,1891,189350
DUO RESIDENCES,18691,1736,189350
FORESTVILLE,7981,741,737773
APOLLO GARDENS,9036,839,487023
ALEX RESIDENCES,16779,1559,158744
DUO RESIDENCES,21522,1999,189350
DUO RESIDENCES,19032,1768,189350
DUO RESIDENCES,21636,2010,189350
DUO RESIDENCES,22228,2065,189350
DUO RESIDENCES,24059,2235,189350
DUO RESIDENCES,21241,1973,189350
DUO RESIDENCES,20945,1946,189350
ALEX RESIDENCES,17884,1661,158744
VUE 8 RESIDENCE,11716,1088,519291
WATERWOODS,8720,810,828750
DUO RESIDENCES,20750,1928,189350
DUO RESIDENCES,24705,2295,189350
DUO RESIDENCES,21553,2002,189350
DUO RESIDENCES,18032,1675,189350
DUO RESIDENCES,17935,1666,189350
ECOPOLITAN,8344,775,828778
WATERWOODS,8353,776,828751
DUO RESIDENCES,22469,2087,189350
DUO RESIDENCES,19150,1779,189350
ECOPOLITAN,8734,811,828775
ALEX RESIDENCES,17909,1664,158744
DUO RESIDENCES,20468,1902,189350
ALEX RESIDENCES,18932,1759,158744
DUO RESIDENCES,19594,1820,189350
DUO RESIDENCES,22272,2069,189350
DUO RESIDENCES,21150,1965,189350
DUO RESIDENCES,22105,2054,189350
WATERWOODS,8437,784,828746
WATERWOODS,8623,801,828751
ESTELLA GARDENS,8962,833,509739
DUO RESIDENCES,18877,1754,189350
DUO RESIDENCES,20050,1863,189350
DUO RESIDENCES,18323,1702,189350
ECOPOLITAN,8656,804,828699
ROYCE RESIDENCES,15385,1429,399242
HILLS TWOONE,12946,1203,669232
KENSINGTON SQUARE,15228,1415,537846
DUO RESIDENCES,24535,2279,189350
DUO RESIDENCES,21167,1967,189350
KELLOCK LODGE,14633,1359,248899
DUO RESIDENCES,16291,1513,189350
DUO RESIDENCES,16727,1554,189350
DUO RESIDENCES,19500,1812,189350
DUO RESIDENCES,21543,2001,189350
DUO RESIDENCES,24627,2288,189350
DUO RESIDENCES,22061,2049,189350
DUO RESIDENCES,23617,2194,189350
HIJAUAN,22919,2129,229618
DUO RESIDENCES,22316,2073,189350
PARC ROSEWOOD,15000,1394,737786
THE RIVERINA,10781,1002,518315
CITYLIGHTS,17460,1622,208749
BRADDELL VIEW,8889,826,579724
DUO RESIDENCES,23537,2187,189350
SKY VUE,18239,1694,573911
ALEX RESIDENCES,18581,1726,158744
TAMPINES COURT,6667,619,520118
THE MAKENA,15033,1397,437936
DUO RESIDENCES,21164,1966,189350
THE CREEK @ BUKIT,16494,1532,596683
DUO RESIDENCES,18930,1759,189350
DUO RESIDENCES,17367,1613,189350
DUO RESIDENCES,18436,1713,189350
THE MONTANA,20833,1935,249188
ONE OXLEY RISE,21633,2010,238714
BOATHOUSE RESIDENCES,11500,1068,534047
DUO RESIDENCES,19840,1843,189350
BARTLEY RIDGE,12816,1191,368057
DUO RESIDENCES,24024,2232,189350
DUO RESIDENCES,19350,1798,189350
WATERWOODS,8624,801,828748
STRATUM,14275,1326,519956
DUO RESIDENCES,19875,1846,189350
DUO RESIDENCES,23819,2213,189350
ECOPOLITAN,8505,790,828700
ECOPOLITAN,8491,789,828775
ECOPOLITAN,8577,797,828699
ALEX RESIDENCES,18754,1742,158744
PARC OASIS,9375,871,609778
V ON SHENTON,23705,2202,68814
ECOPOLITAN,8435,784,828778
DUO RESIDENCES,20255,1882,189350
ALEX RESIDENCES,20111,1868,158744
DUO RESIDENCES,21745,2020,189350
DUO RESIDENCES,18613,1729,189350
KERRISDALE,10761,1000,207855
DUO RESIDENCES,22928,2130,189350
DUO RESIDENCES,22000,2044,189350
FORESTVILLE,6923,643,737882
THE INTERLACE,14231,1322,109691
THOMSON THREE,16239,1509,573893
CITY SQUARE RESIDENCES,14595,1356,207226
REFLECTIONS AT KEPPEL BAY,23138,2150,98419
ECOPOLITAN,8685,807,828778
THE MONTANA,20257,1882,249188
DUO RESIDENCES,25045,2327,189350
WATERWOODS,8633,802,828749
WATERWOODS,8720,810,828748
WATERWOODS,8548,794,828748
THE TEMBUSU,16155,1501,535129
ALEX RESIDENCES,19773,1837,158744
DUO RESIDENCES,19750,1835,189350
DUO RESIDENCES,22780,2116,189350
DUO RESIDENCES,24710,2296,189350
DUO RESIDENCES,22805,2119,189350
ALEX RESIDENCES,18205,1691,158744
FORESTVILLE,7511,698,737769
ALEX RESIDENCES,16821,1563,158744
THE CENTREN,15098,1403,388153
ECOPOLITAN,8575,797,828700
SEA HORIZON,8622,801,518090
DUO RESIDENCES,21970,2041,189350
DUO RESIDENCES,21172,1967,189350
THE MONTANA,19846,1844,249188
ALEX RESIDENCES,17568,1632,158744
PARC ELEGANCE,17073,1586,423912
LA CASA,10062,935,737898
DUO RESIDENCES,19128,1777,189350
DUO RESIDENCES,23880,2219,189350
DUO RESIDENCES,18632,1731,189350
N.A.,10422,968,757417
DUO RESIDENCES,20672,1920,189350
ASCENTIA SKY,17474,1623,158749
THE CREEK @ BUKIT,16065,1492,596683
DUO RESIDENCES,22319,2073,189350
FORESTVILLE,7903,734,737769
PALM VISTA,12727,1182,426225
HILLTOPS,36646,3404,229809
THE SCALA,14091,1309,554479
THE GLADES,14900,1384,465411
GRANDEUR 8,12034,1118,567748
THE INFLORA,9340,868,506864
DUO RESIDENCES,23293,2164,189350
MUTIARA VIEW,16147,1500,249191
CENTENNIA SUITES,23926,2223,239427
DUO RESIDENCES,22184,2061,189350
DUO RESIDENCES,22449,2086,189350
DUO RESIDENCES,16509,1534,189350
FORESTVILLE,7890,733,737772
SEA HORIZON,8620,801,518088
DUO RESIDENCES,18710,1738,189350
ALEX RESIDENCES,17319,1609,158744
ALEX RESIDENCES,17636,1638,158744
SEA HORIZON,8729,811,518091
ALEX RESIDENCES,19567,1818,158744
DUO RESIDENCES,21880,2033,189350
DUO RESIDENCES,22805,2119,189350
ALEX RESIDENCES,18587,1727,158744
CONCOURSE SKYLINE,22338,2075,199599
MONTEREY PARK CONDOMINIUM,11788,1095,127466
OASIS @ ELIAS,10165,944,519939
ALEX RESIDENCES,18234,1694,158744
DUO RESIDENCES,20150,1872,189350
THE MINTON,12462,1158,534076
DUO RESIDENCES,21658,2012,189350
ORCHID PARK CONDOMINIUM,9398,873,768446
SEVEN CRESCENT,10548,980,436532
LUSH ACRES,8444,784,797485
ALEX RESIDENCES,17147,1593,158744
DUO RESIDENCES,24842,2308,189350
N.A.,9500,883,327848
DUO RESIDENCES,22024,2046,189350
DUO RESIDENCES,23417,2175,189350
DUO RESIDENCES,25688,2387,189350
WATERWOODS,8376,778,828747
ALEX RESIDENCES,16291,1513,158744
DUO RESIDENCES,22077,2051,189350
ALEX RESIDENCES,20365,1892,158744
WATERWOODS,8182,760,828750
ALEX RESIDENCES,18977,1763,158744
LA FIESTA,12727,1182,544702
DUO RESIDENCES,21825,2028,189350
VUE 8 RESIDENCE,9796,910,519286
THE INTERLACE,14573,1354,109699
PEBBLE BAY,16598,1542,436919
WATERWOODS,8633,802,828749
DUO RESIDENCES,24222,2250,189350
LUSH ACRES,8282,769,797488
DUO RESIDENCES,21269,1976,189350
DUO RESIDENCES,18947,1760,189350
ALEX RESIDENCES,17341,1611,158744
LA CASA,8679,806,737901
THOMSON THREE,14750,1370,573895
ONE JERVOIS,17266,1604,249103
ASTRID MEADOWS,18541,1723,269263
RESIDENCES AT EMERALD HILL,30872,2868,229401
COASTARINA,10763,1000,459135
LUSH ACRES,8551,794,797487
JEWEL @ BUANGKOK,13026,1210,544685
ST FRANCIS COURT,8983,835,328071
ARDISIA GARDEN,10569,982,535778
MERA GARDENS,11942,1109,677810
ALEX RESIDENCES,18523,1721,158744
DUO RESIDENCES,22517,2092,189350
STILL MANSIONS,11132,1034,423951
ALEX RESIDENCES,16291,1513,158744
ATRIUM RESIDENCES,10422,968,398416
EIGHT RIVERSUITES,15846,1472,338521
LANDMARK TOWERS,10784,1002,169878
THE MEYERISE,26833,2493,437986
MIDTOWN RESIDENCES,13396,1245,534785
DUO RESIDENCES,22544,2094,189350
DUO RESIDENCES,19874,1846,189350
THE COAST AT SENTOSA COVE,18321,1702,98449
THE TEMBUSU,16356,1519,534008
NINE RESIDENCES,10323,959,768895
LIVIA,10000,929,518205
THE SENSORIA,9726,904,758930
THE SKYWOODS,12758,1185,677667
NOVENA COURT,14125,1312,308608
THE GLADES,15436,1434,469600
THE CREEK @ BUKIT,16207,1506,596684
THE SHAUGHNESSY,5843,543,768320
AMARYLLIS VILLE,17865,1660,307953
ALEX RESIDENCES,18926,1758,158744
THE GLADES,14561,1353,465411
THE SPRINGSIDE,17365,1613,786388
ALEX RESIDENCES,18115,1683,158744
DUO RESIDENCES,22615,2101,189350
ALEX RESIDENCES,17750,1649,158744
DUO RESIDENCES,22720,2111,189350
ALEX RESIDENCES,20238,1880,158744
DUO RESIDENCES,20473,1902,189350
ALEX RESIDENCES,19298,1793,158744
LE SOMME,14882,1383,207876
NINE RESIDENCES,12292,1142,768895
WATERWOODS,9084,844,828747
FORTUNE PARK,8707,809,535131
EIGHT RIVERSUITES,13600,1263,338520
TREVISTA,13136,1220,319582
ONE DEVONSHIRE,25019,2324,239896
TREASURES @ G20,13278,1234,398751
ALEX RESIDENCES,19818,1841,158744
THE LENOX,18375,1707,419845
DUO RESIDENCES,19977,1856,189350
THE GLADES,14625,1359,465407
DUO RESIDENCES,18777,1744,189350
ALEX RESIDENCES,19590,1820,158744
ALEX RESIDENCES,15702,1459,158744
DUO RESIDENCES,25205,2342,189350
DUO RESIDENCES,19203,1784,189350
DUO RESIDENCES,19987,1857,189350
ALEX RESIDENCES,19238,1787,158744
DUO RESIDENCES,23875,2218,189350
ALEX RESIDENCES,20068,1864,158744
ALEX RESIDENCES,15583,1448,158744
THE TRILINQ,15092,1402,128808
ALEX RESIDENCES,18636,1731,158744
THOMSON THREE,15455,1436,573894
DUO RESIDENCES,22700,2109,189350
FORESTVILLE,7384,686,737882
DUO RESIDENCES,17755,1650,189350
DUO RESIDENCES,23678,2200,189350
DUO RESIDENCES,21463,1994,189350
ECOPOLITAN,7428,690,828773
ECOPOLITAN,8467,787,828776
D'LEEDON,15340,1425,267952
TYRWHITT 139,12400,1152,207557
ECOPOLITAN,8470,787,828777
MANDARIN GARDEN CONDOMINIUM,10452,971,448906
ECOPOLITAN,8800,818,828778
THE FLORAVALE,7480,695,648364
ALEX RESIDENCES,16295,1514,158744
MERAWOODS,11120,1033,669606
CENTURY WOODS,11667,1084,738114
CASA MEYFORT,14756,1371,437906
ALEX RESIDENCES,19085,1773,158744
SEA HORIZON,8874,824,518091
NINE RESIDENCES,10853,1008,768894
SKY VUE,16200,1505,573910
ALEX RESIDENCES,18691,1736,158744
FORESTVILLE,6851,636,737879
PLATINUM EDGE,15844,1472,358847
VALVISTA,8666,805,554738
N.A.,12038,1118,466264
DUO RESIDENCES,22193,2062,189350
WATERWOODS,8785,816,828749
ECOPOLITAN,8828,820,828774
WATERWOODS,8849,822,828751
ALEX RESIDENCES,16505,1533,158744
ECOPOLITAN,8180,760,828774
N.A.,16638,1546,118616
ECOPOLITAN,8569,796,828774
CORALS AT KEPPEL BAY,23256,2160,98019
N.A.,2128,198,489148
THE TREVOSE,14894,1384,298088
DUO RESIDENCES,24094,2238,189350
COSTA DEL SOL,15337,1425,469990
STADIA,11778,1094,545542
TREVISTA,16471,1530,319583
WOODSVALE,7675,713,738092
THE SUNNIFLORA,13247,1231,426231
DUO RESIDENCES,18862,1752,189350
WATERWOODS,8225,764,828750
WATER PLACE,13982,1299,436608
VALLEY PARK,15929,1480,248358
NEPTUNE COURT,8814,819,449032
THE VENUE RESIDENCES,13512,1255,347846
WATERWOODS,8696,808,828747
RIVERSAILS,10055,934,534030
ALEX RESIDENCES,18021,1674,158744
THE CREEK @ BUKIT,16599,1542,596199
SEA HORIZON,9401,873,518088
ROSALIA PARK,8978,834,536408
AQUARIUS BY THE PARK,8271,768,478927
DUO RESIDENCES,25585,2377,189350
DUO RESIDENCES,23017,2138,189350
ALEX RESIDENCES,18361,1706,158744
ECOPOLITAN,8424,783,828776
ECOPOLITAN,8421,782,828777
ECOPOLITAN,8173,759,828774
KING'S MANSION,13087,1216,437147
ECOPOLITAN,8200,762,828776
AMBER RESIDENCES,16990,1578,439888
KENSINGTON PARK CONDOMINIUM,10968,1019,557324
THE GREENWOOD,26700,2480,286970
WESTCOVE CONDOMINIUM,10680,992,128041
LA CASA,9352,869,737892
THE VENUE RESIDENCES,13993,1300,347844
ECOPOLITAN,9112,847,828778
SEA HORIZON,9164,851,518091
SKY VUE,14374,1335,573910
THE INFLORA,8809,818,506847
IVORY HEIGHTS,8544,794,600122
ALEX RESIDENCES,19063,1771,158744
SEA HORIZON,9007,837,518082
THE CREEK @ BUKIT,17251,1603,596197
RV POINT,23077,2144,238291
1 CANBERRA,7713,717,768103
N.A.,11685,1086,549740
EASTWOOD REGENCY,15543,1444,486398
THE RAINTREE,12558,1167,587850
NORTHVALE,10746,998,689671
SEA HORIZON,9445,877,518088
SEA HORIZON,9010,837,518080
DUO RESIDENCES,19191,1783,189350
FORESTVILLE,8054,748,737882
WATERWOODS,8266,768,828747
DUO RESIDENCES,16364,1520,189350
DUO RESIDENCES,19125,1777,189350
DUO RESIDENCES,23184,2154,189350
DUO RESIDENCES,24307,2258,189350
DUO RESIDENCES,22800,2118,189350
THE MONTANA,21301,1979,249188
ONE SHENTON,20451,1900,68803
RIVERSAILS,10760,1000,534026
NINE RESIDENCES,10578,983,768895
BOTANNIA,12966,1205,127727
THE OCEANFRONT @ SENTOSA COVE,17760,1650,98530
ASTRIDVILLE,13097,1217,268618
STRATUM,14275,1326,519957
SEA HORIZON,8734,811,518087
THE INFLORA,9963,926,506850
LA CASA,8679,806,737899
ECOPOLITAN,8650,804,828778
EIGHT RIVERSUITES,14103,1310,338521
DUO RESIDENCES,25667,2384,189350
BUKIT REGENCY,11385,1058,588135
DUO RESIDENCES,19866,1846,189350
ECOPOLITAN,8629,802,828777
THE GLADES,14625,1359,465407
NEPTUNE COURT,7697,715,449027
DUO RESIDENCES,24493,2275,189350
ALEX RESIDENCES,19270,1790,158744
THE TEMBUSU,17845,1658,534007
URBAN VISTA,14329,1331,465422
ALEX RESIDENCES,17795,1653,158744
SHERWOOD TOWER,7353,683,588996
FERRARIA PARK CONDOMINIUM,9688,900,506948
SOMMERVILLE GRANDEUR,16082,1494,259278
WATERWOODS,9075,843,828748
DUO RESIDENCES,22969,2134,189350
DUO RESIDENCES,23044,2141,189350
THE GLADES,15037,1397,469598
PAVILION PARK,18667,1734,658273
RV RESIDENCES,21502,1998,248350
BERKELEY RESIDENCES,17131,1591,425141
ECOPOLITAN,8703,809,828775
TREE HOUSE,11682,1085,679520
VISTA RESIDENCES,16441,1527,329425
FORESTVILLE,8021,745,737769
ONZE @ TANJONG PAGAR,24577,2283,89218
TREASURES @ G20,13282,1234,398751
BARTLEY RIDGE,13819,1284,368057
CASA SARINA,11447,1063,416729
WEST BAY CONDOMINIUM,11310,1051,128036
WATERWOODS,8075,750,828748
N.A.,14932,1387,459021
TREE HOUSE,11586,1076,679521
NOMU,25000,2323,229236
YEW MEI GREEN,8857,823,689574
THE EDEN AT TAMPINES,9574,889,529233
LEONIE GARDENS,14137,1313,239224
WOODSVILLE 28,12613,1172,357776
ALEX RESIDENCES,20045,1862,158744
NINE RESIDENCES,13197,1226,768894
PINE GROVE,9231,858,591401
SUMMER GARDENS,6541,608,486229
KINGSFORD . HILLVIEW PEAK,14606,1357,667981
ECOPOLITAN,8364,777,828700
GRANDVIEW SUITES,13820,1284,398664
N.A.,9911,921,539816
THE CASCADIA,17122,1591,589658
ZENITH,21346,1983,247785
ECOPOLITAN,8729,811,828775
RESIDENCES AT EMERALD HILL,27922,2594,229401
ALEX RESIDENCES,16611,1543,158744
ECOPOLITAN,8418,782,828700
DUO RESIDENCES,22923,2130,189350
EAST MEADOWS,10584,983,465558
THE WARREN,10087,937,689686
ECO SANCTUARY,12973,1205,679522
ALEX RESIDENCES,18128,1684,158744
FORESQUE RESIDENCES,12484,1160,678274
BEDOK PARK,12156,1129,467914
DUO RESIDENCES,26135,2428,189350
SEA HORIZON,8520,792,518090
WATERWOODS,8469,787,828746
1 CANBERRA,7833,728,768078
THE REGALIA,16696,1551,238428
MIDTOWN RESIDENCES,14113,1311,534785
LUSH ACRES,8685,807,797486
ALEX RESIDENCES,16400,1524,158744
ALEX RESIDENCES,17455,1622,158744
RIVERBAY,13534,1257,328704
THE LAKESHORE,10084,937,649412
SEA HORIZON,8676,806,518080
PARK NATURA,10915,1014,659765
FORESTVILLE,8071,750,737775
DUO RESIDENCES,20333,1889,189350
LA CASA,9341,868,737894
LUSH ACRES,9072,843,797486
SKY VUE,15717,1460,573911
URBAN VISTA,14703,1366,465424
URBAN VISTA,14719,1367,465427
THE INFLORA,9515,884,506862
THE SKYWOODS,13133,1220,677669
SEA HORIZON,8992,835,518084
THE SHORE RESIDENCES,17284,1606,439893
THE SUMMIT,12000,1115,466502
RIVERWALK APARTMENT,15385,1429,58416
SKY VUE,18891,1755,573911
DUO RESIDENCES,24795,2304,189350
THE CREEK @ BUKIT,18790,1746,596198
ALEX RESIDENCES,17918,1665,158744
THE INFLORA,9515,884,506863
DUO RESIDENCES,23524,2185,189350
THE TEMBUSU,16689,1550,534006
DUO RESIDENCES,22105,2054,189350
DUO RESIDENCES,22016,2045,189350
DUO RESIDENCES,21928,2037,189350
DUO RESIDENCES,23612,2194,189350
AMARANDA GARDENS,14352,1333,554774
LA FIESTA,13088,1216,544704
SHELFORD SUITES,16293,1514,288383
DUO RESIDENCES,24504,2276,189350
HOLLAND GREEN,11446,1063,276163
THE CREEK @ BUKIT,18712,1738,596155
THE CASCADIA,19318,1795,589646
THE VENUE RESIDENCES,15490,1439,347842
BARTLEY RIDGE,13034,1211,368059
DUO RESIDENCES,22205,2063,189350
FONTAINE PARRY,13182,1225,546776
FRANKEL ESTATE,23671,2199,456374
SEA HORIZON,8630,802,518084
DUO RESIDENCES,18806,1747,189350
SEA HORIZON,8442,784,518081
ALEX RESIDENCES,19091,1774,158744
EDEN PARK,21031,1954,279840
THOMSON THREE,16087,1495,573895
SEA HORIZON,8543,794,518087
DUO RESIDENCES,19597,1821,189350
BARTLEY RIDGE,12682,1178,368055
LA FIESTA,12912,1200,544699
THE BAYSHORE,11364,1056,469974
SILVERSEA,18447,1714,449308
FORTUNE SPRING,8323,773,456442
SERANGOON GARDEN ESTATE,13072,1214,559677
DUO RESIDENCES,16436,1527,189350
COMPASS HEIGHTS,10583,983,545076
TANGLIN VIEW,13793,1281,159015
DUO RESIDENCES,19210,1785,189350
ST MICHAEL'S PLACE,10756,999,329022
DUO RESIDENCES,22073,2051,189350
VACANZA @ EAST,15111,1404,417397
SEA HORIZON,8133,756,518084
THE TEMBUSU,16136,1499,534006
DUO RESIDENCES,19403,1803,189350
THE INFLORA,10810,1004,506846
ALEX RESIDENCES,20635,1917,158744
CASTLE GREEN,9773,908,787057
THE CREEK @ BUKIT,17624,1637,596197
SEA HORIZON,8943,831,518089
WATERWOODS,8699,808,828749
WATERBANK AT DAKOTA,16193,1504,399947
DUO RESIDENCES,24776,2302,189350
CASHEW PARK CONDOMINIUM,10417,968,679637
LILYDALE,8333,774,768966
CASHEW PARK CONDOMINIUM,10638,988,679637
