Project Name,Unit Price ($ psm),Unit Price ($ psf),Postal Code
LIVIA,10800,1003,518205
EVERITT EDGE,17162,1594,427800
SKY HABITAT,14530,1350,573908
THE GLADES,15835,1471,469598
RESIDENCES BOTANIQUE,13722,1275,545551
LILYDALE,7752,720,768965
BLISS@KOVAN,10825,1006,546019
COMPASS HEIGHTS,10625,987,545076
AVA TOWERS,9916,921,329949
GUILLEMARD SUITES,15441,1435,399733
NORTHOAKS,7304,679,738084
N.A.,5128,476,530719
THOMSON GROVE,10420,968,787071
SUITES 28,14411,1339,398361
TANGLIN HILL CONDOMINIUM,15422,1433,247996
BISHAN LOFT,13000,1208,579819
AMBER POINT,15605,1450,439845
THE RISE @ OXLEY - RESIDENCES,26519,2464,238699
CITY GATE,21635,2010,199597
LAKEVILLE,14412,1339,648155
RIVERBAY,13580,1262,328704
GARDENVISTA,14318,1330,589487
WATERFRONT WAVES,12278,1141,479248
CHUN TIN COURT,8856,823,596318
COMMONWEALTH TOWERS,16346,1519,149740
SPRINGDEW TERRACE,10908,1013,119497
PEAKVIEW ESTATE,15334,1425,488548
BLOSSOMS @ WOODLEIGH,13817,1284,357905
TANGLIN REGENCY,13010,1209,247965
KEMAMAN POINT,12506,1162,329325
CAIRNHILL RESIDENCES,22609,2100,229774
GRAND REGENCY,11538,1072,598431
COCO PALMS,11562,1074,518071
KEW RESIDENCIA,7467,694,465963
CLIFTEN,16045,1491,259342
THE CASCADIA,18045,1676,589646
LAGUNA 88,9766,907,486356
COASTAL VIEW RESIDENCES,10648,989,509432
NANYANG PARK,14653,1361,549820
N.A.,22064,2050,298989
SAVANNAH CONDOPARK,9111,846,528790
EASTVILLE APARTMENTS,11395,1059,428103
SKYPARK RESIDENCES,8330,774,757058
WATERFRONT @ FABER,13211,1227,128989
ALEX RESIDENCES,18105,1682,158744
CITY GATE,20179,1875,199597
EUNOSVILLE,7039,654,400836
MANDARIN GARDEN CONDOMINIUM,12353,1148,448908
OPTIMA @ TANAH MERAH,12875,1196,465517
ASCENTIA SKY,16216,1507,158749
ECO SANCTUARY,13479,1252,679522
RIVERBANK @ FERNVALE,11247,1045,797478
ECOPOLITAN,8944,831,828778
SARACA VILLAS,7879,732,805503
MANDARIN GARDEN CONDOMINIUM,10775,1001,448908
THE VENUE RESIDENCES,15551,1445,347846
MAYFAIR GARDENS,8523,792,588376
THE SUNNIFLORA,8636,802,426231
WHITEHAVEN,14492,1346,117381
CASA ESPERANZA,15205,1413,589632
VILLA DE WEST,11489,1067,118719
THE CITRINE,11387,1058,329415
THE PANORAMA,15259,1418,567701
FABER CREST,9818,912,129199
SKYPARK RESIDENCES,8866,824,757057
THE SEAWIND,17461,1622,425380
WATERBANK AT DAKOTA,13985,1299,399942
AIRSTREAM,17742,1648,327994
TEXTILE CENTRE,9268,861,199018
FORESTVILLE,7793,724,737879
REZI 3TWO,15089,1402,398308
THE GLADES,15727,1461,469599
KING'S MANSION,12500,1161,439959
COCO PALMS,11394,1058,518076
NUOVO,10194,947,569786
REFLECTIONS AT KEPPEL BAY,33439,3107,98413
ALEX RESIDENCES,19672,1828,158744
SERANGOON GARDEN ESTATE,18187,1690,558898
EIGHT RIVERSUITES,14725,1368,338519
LEEDON RESIDENCE,20673,1921,266220
SUITES @ PAYA LEBAR,16813,1562,534049
HALLMARK RESIDENCES,21054,1956,259325
FLORAVIEW,12899,1198,567706
THE PANORAMA,15998,1486,567700
TRILIVE,18333,1703,533902
RIVERBANK @ FERNVALE,11939,1109,797478
28 RC SUITES,18082,1680,218746
THE CITRON RESIDENCES,17062,1585,208380
EUNOSVILLE,6410,596,400824
SINGA HILLS,11815,1098,418109
THE SKYWOODS,12400,1152,677670
ORCHID PARK CONDOMINIUM,8539,793,768445
FABER CREST,11147,1036,129198
THE BOUTIQ,24150,2244,239565
THE ANCHORAGE,13750,1277,159957
SAVANNAH CONDOPARK,10088,937,528784
RIDGEWOOD,12047,1119,277107
WHITEWATER,8714,810,518765
THE WATERSIDE,12344,1147,436896
N.A.,8775,815,759300
GILSTEAD TWO,21528,2000,309061
WATERBANK AT DAKOTA,18111,1683,399941
THE CASCADIA,10570,982,589646
QUEENS,13473,1252,148955
MELVILLE PARK,9770,908,529942
THE SCALA,13587,1262,554476
WATERWOODS,8938,830,828750
THE INTERLACE,14677,1364,109688
COCO PALMS,11726,1089,518073
SAVOY PARK,11420,1061,599362
SUITES @ NEWTON,22889,2126,307740
JEWEL @ BUANGKOK,13136,1220,544687
THE SCALA,17273,1605,554479
THE ARCADIA,11182,1039,289844
COCO PALMS,11056,1027,518142
THE PANORAMA,13028,1210,567701
LIV ON WILKIE,27853,2588,228025
THE PANORAMA,13151,1222,567701
CHANGI RISE CONDOMINIUM,9538,886,528804
LINCOLN SUITES,27958,2597,308381
LINCOLN SUITES,27779,2581,308381
MIDTOWN RESIDENCES,11905,1106,534785
LUXUS HILLS,20133,1870,804895
COMMONWEALTH TOWERS,16661,1548,149739
THE QUARTZ,10606,985,544988
EIGHT RIVERSUITES,14396,1337,338519
ILLUMINAIRE ON DEVONSHIRE,23729,2204,239900
THE SKYWOODS,11777,1094,677670
ORCHARD SCOTTS,16837,1564,229955
GUILLEMARD SUITES,15441,1435,399733
UE SQUARE,15072,1400,238274
LEEDON RESIDENCE,20905,1942,266220
THE SUNNYDALE,10400,966,556125
THE CREST,18645,1732,159017
ARDISIA GARDEN,11194,1040,535772
THE ELYSIA,11620,1080,328688
CLAREMONT,16948,1575,239569
VILLA BEGONIA,10684,993,805802
RIVERBANK @ FERNVALE,9898,920,797476
PARC OASIS,9123,848,609782
CITY GATE,18708,1738,199597
GOODWOOD RESIDENCE,24687,2293,259704
ECO SANCTUARY,13872,1289,679524
YISHUN EMERALD,7080,658,768428
THE PANORAMA,13247,1231,567696
EIGHT RIVERSUITES,14800,1375,338520
FORESTVILLE,8542,794,737777
CLOVER BY THE PARK,12832,1192,573973
THE VERMONT ON CAIRNHILL,24621,2287,229746
SANCTUARY GREEN,14903,1385,436922
RIVERBANK @ FERNVALE,11349,1054,797478
STRATUM,10890,1012,519952
RIVERBANK @ FERNVALE,10247,952,797476
THE SKYWOODS,14472,1344,677669
RIVERTREES RESIDENCES,12555,1166,797461
MACKENZIE 88,14778,1373,228697
28 RC SUITES,17583,1633,218746
IDYLLIC RESIDENCES,11942,1109,425346
FLAMINGO VALLEY,17694,1644,454852
THE VERMONT ON CAIRNHILL,24694,2294,229746
COCO PALMS,11490,1067,518073
THE MINTON,13054,1213,534082
THE CITRON RESIDENCES,16254,1510,208380
RV RESIDENCES,22202,2063,248352
SKY HABITAT,14622,1358,573909
FERNWOOD TOWERS,10658,990,458555
TAMPINES COURT,5351,497,521131
THE PANORAMA,16487,1532,567700
STEVENS SUITES,17923,1665,257940
GRANDEUR 8,11243,1045,567745
THE PIER AT ROBERTSON,19016,1767,239013
SKIES MILTONIA,11556,1074,768061
THE PANORAMA,12165,1130,567701
RIVERBAY,15631,1452,328704
THE CITRON RESIDENCES,16233,1508,208380
LAKEVILLE,14040,1304,648164
SOMMERVILLE PARK,15642,1453,259291
WESTWOOD PARK,8687,807,648806
THE GARDENS AT BISHAN,10614,986,575575
GOODWOOD RESIDENCE,24862,2310,259704
THE QUINN,13099,1217,539789
EURO-ASIA COURT,16000,1486,238429
THE CITRON RESIDENCES,16953,1575,208380
NOVENA COURT,14684,1364,308613
STILL 123,9916,921,426775
TRILIVE,17983,1671,533901
THE CITRON RESIDENCES,17438,1620,208380
THE SEA VIEW,17634,1638,439943
THE LINCOLN RESIDENCES,20035,1861,307762
SOPHIA RESIDENCE,18308,1701,228194
BEAVERTON COURT,14310,1329,276958
SUITES @ SHREWSBURY,20375,1893,307842
HAWAII TOWER,14423,1340,437901
THE COAST AT SENTOSA COVE,18510,1720,98449
N.A.,16105,1496,545861
RV RESIDENCES,22976,2135,248348
MELROSE PARK,16319,1516,248903
N.A.,16965,1576,416513
SELETAR HILLS ESTATE,14663,1362,808834
NINE RESIDENCES,11341,1054,768895
LA FIESTA,12283,1141,544704
CITY SQUARE RESIDENCES,16250,1510,207223
EIGHT COURTYARDS,10250,952,768140
TAIPAN JADE,6802,632,437386
BELLE VUE RESIDENCES,19543,1816,238590
HAZEL PARK CONDOMINIUM,11436,1062,678950
CASA MERAH,11913,1107,465525
THE SEAWIND,17405,1617,425414
N.A.,12667,1177,419070
THE SPRINGBLOOM,11714,1088,556121
SHERWOOD TOWER,7294,678,588996
SEMBAWANG HILLS ESTATE,9686,900,578245
BLOSSOMS @ WOODLEIGH,12901,1199,357905
N.A.,12214,1135,418674
WATERFRONT @ FABER,13535,1257,128995
RIVERBAY,13943,1295,328704
ESTELLA GARDENS,8887,826,509742
RIVERBANK @ FERNVALE,9727,904,797476
THE SEAWIND,19452,1807,425412
WATERVIEW,12618,1172,528686
THE RED HOUSE,15596,1449,428776
SINGA HILLS,14730,1368,418109
N.A.,9848,915,437700
COCO PALMS,11105,1032,518075
PARC VISTA,9322,866,649815
N.A.,11266,1047,669829
OPERA ESTATE,20974,1949,458365
DE CENTURION,16604,1543,436884
# 1 SUITES,12362,1148,398721
WATERWOODS,8946,831,828749
VUE 8 RESIDENCE,9442,877,519288
THE SKYWOODS,13878,1289,677669
RIVERSAILS,11025,1024,534025
REGENTVILLE,9121,847,538688
RIVERBANK @ FERNVALE,12557,1167,797476
PARKSHORE,13780,1280,436917
CITY EDGE,20519,1906,308133
THE SORRENTO,12750,1185,127365
CLEMENTIWOODS CONDOMINIUM,11921,1107,126810
SKYSUITES@ANSON,22742,2113,79718
LAKESIDE GROVE,10020,931,618375
THE CRISTALLO,12907,1199,425687
BAODE BUILDING,8850,822,387940
SIGLAP PARK,11444,1063,455164
LAKESIDE GROVE,11632,1081,618440
RIVERTREES RESIDENCES,12499,1161,797464
COCO PALMS,11394,1059,518075
KEW VALE,9192,854,466345
COMMONWEALTH TOWERS,15968,1483,149740
PAVILION PARK,11690,1086,658287
ROBERTSON EDGE,21550,2002,238010
PASIR RIS BEACH PARK,11214,1042,518588
THE PANORAMA,13174,1224,567701
VILLA VERDE,10800,1003,688452
HILLVIEW GREEN,10376,964,598745
PALMS @ SIXTH AVENUE,12299,1143,275784
ALTEZ,23295,2164,79717
ALTEZ,23638,2196,79717
RV RESIDENCES,21000,1951,248354
SERANGOON GARDEN ESTATE,11846,1101,559863
NORTHOAKS,6897,641,738086
H2O RESIDENCES,11585,1076,797533
THE CITRON RESIDENCES,17493,1625,208380
THE VERMONT ON CAIRNHILL,26084,2423,229747
THE CITRON RESIDENCES,16738,1555,208380
N.A.,4187,389,424876
THE SUNNY SPRING,11165,1037,398074
RICHMOND PARK,27882,2590,229920
THE PANORAMA,15140,1407,567700
CITY GATE,19852,1844,199597
LAGOON VIEW,8039,747,449293
KENTISH GREEN,9200,855,218815
PARC CENTROS,11957,1111,828762
MELVILLE PARK,8036,747,529947
HILLCREST ARCADIA,10449,971,289851
CHUAN PARK,9419,875,556747
THE GREENWICH,13200,1226,807012
OCEAN PARK,11939,1109,458968
KALLANG RIVERSIDE,23268,2162,338986
PARC PALAIS,10556,981,598751
THE CITRON RESIDENCES,16739,1555,208380
THE CITRON RESIDENCES,17278,1605,208380
AQUARIUS BY THE PARK,8678,806,478932
BINJAI PARK,13021,1210,589831
KOVAN MELODY,12295,1142,545020
SIGNATURE PARK,10985,1021,596742
THE SKYWOODS,12963,1204,677667
THE CITRON RESIDENCES,19592,1820,208380
THE BAYSHORE,11128,1034,469970
THE MAYFAIR,11864,1102,609479
WATER PLACE,12976,1206,436932
THE METZ,27778,2581,239864
LEEDON RESIDENCE,22576,2097,267936
RIVERBANK @ FERNVALE,10102,939,797476
CARIBBEAN AT KEPPEL BAY,14083,1308,98651
REFLECTIONS AT KEPPEL BAY,23926,2223,98416
SKY HABITAT,14503,1347,573908
MAPLEWOODS,15425,1433,589629
PALMS @ SIXTH AVENUE,12457,1157,276676
PALMS @ SIXTH AVENUE,12457,1157,276672
PALMS @ SIXTH AVENUE,12457,1157,276673
PALMS @ SIXTH AVENUE,12457,1157,276674
THE GLADES,14591,1356,465410
COCO PALMS,11403,1059,518070
BUTTERWORTH VIEW,11062,1028,439431
N.A.,2374,221,389009
BEDOK GROVE,15252,1417,486094
WATERVIEW,12534,1164,528689
LA FIESTA,12795,1189,544830
TAI HWAN GARDEN,13298,1235,555230
CITY GATE,20339,1890,199597
CASABLANCA,9523,885,737922
TRIBECA,18079,1680,239497
CITY GATE,18976,1763,199597
N.A.,13630,1266,269904
GLOBAL VILLE,12500,1161,329192
THOMSON THREE,14896,1384,573895
THE RIVERVALE,7874,732,545125
SPRINGDALE CONDOMINIUM,12682,1178,587976
THE LAKESHORE,11491,1067,649413
THE VERMONT ON CAIRNHILL,28406,2639,229746
BOTANIC GARDENS MANSION,16564,1539,257718
THE LANAI,15607,1450,669600
FRUITION,11737,1090,424981
GUILLEMARD SUITES,15816,1469,399733
RIVERSIDE MELODIES,14080,1308,327995
CITY GATE,18845,1751,199597
SANT RITZ,16697,1551,348196
THE VERMONT ON CAIRNHILL,25412,2361,229746
RIVERBANK @ FERNVALE,10608,986,797476
THE VERMONT ON CAIRNHILL,25210,2342,229746
THE SKYWOODS,14238,1323,677669
THE QUINN,14676,1363,539765
LAKEVILLE,13525,1257,648161
AVANT PARC,10041,933,757106
THE INTERLACE,11990,1114,109690
VISIONCREST,19886,1847,238712
AZALEA PARK CONDOMINIUM,9935,923,509727
LAGUNA PARK,9185,853,449287
SEMBAWANG HILLS ESTATE,12701,1180,576958
LAGUNA PARK,8519,791,449287
SUITES @ PAYA LEBAR,17429,1619,534049
FLAMINGO VALLEY,18367,1706,454852
WATERWOODS,8688,807,828748
WATERFRONT @ FABER,12828,1192,128992
NINE RESIDENCES,13106,1218,768894
VIZ AT HOLLAND,15534,1443,276750
GUILLEMARD SUITES,15173,1410,399733
CITY GATE,20400,1895,199597
THE CITRON RESIDENCES,17062,1585,208380
EDELWEISS PARK CONDOMINIUM,9419,875,507006
THE PANORAMA,13844,1286,567700
BAYSHORE PARK,7740,719,469983
1 CANBERRA,8086,751,768102
THE SKYWOODS,12996,1207,677666
# 1 SUITES,12671,1177,398721
THE LAURELS,26220,2436,229660
THE CITRON RESIDENCES,16039,1490,208380
JEWEL @ BUANGKOK,15433,1434,544685
THE GLADES,15622,1451,469599
THE LINCOLN RESIDENCES,16364,1520,307762
THE BELVEDERE,16654,1547,437874
LAKEPOINT CONDOMINIUM,5830,542,648923
JADE RESIDENCES,14286,1327,537018
STRATFORD COURT,8685,807,489929
PINEVALE,8226,764,528828
THE SEAWIND,18625,1730,425412
GARDENVILLE,15918,1479,257654
NEPTUNE COURT,7105,660,449025
RIVERSAILS,10255,953,534030
THE BAYSHORE,10847,1008,469972
CAVAN SUITES,22267,2069,209848
THE QUARTZ,11224,1043,544993
THE SAIL @ MARINA BAY,33600,3122,18987
SEA HORIZON,8583,797,518083
THE INTERLACE,12796,1189,109686
REGENT GROVE,7883,732,689527
SUNNYVALE RESIDENCES,16115,1497,425790
BARTLEY RIDGE,12908,1199,368057
BELLA CASITA,16744,1556,438610
CITY GATE,19038,1769,199597
COCO PALMS,10402,966,518143
CUBE 8,18654,1733,298130
THE STELLAR,14286,1327,127306
BIJOU,20687,1922,119554
D'LEEDON,17540,1630,267951
BIJOU,22073,2051,119554
THE VERMONT ON CAIRNHILL,25419,2362,229746
CITY GATE,19839,1843,199597
JEWEL @ BUANGKOK,13377,1243,544686
AMARANDA GARDENS,14815,1376,554775
CASSIA EDGE,14550,1352,399764
JADE RESIDENCES,14286,1327,537016
THE SKYWOODS,13824,1284,677669
ALEX RESIDENCES,17767,1651,158744
THE VERMONT ON CAIRNHILL,25550,2374,229746
THE SCALA,17795,1653,554477
THE PANORAMA,13337,1239,567701
THE VERMONT ON CAIRNHILL,28556,2653,229746
THE CITRON RESIDENCES,16147,1500,208380
DOVER PARKVIEW,12069,1121,138687
THE AZURE,17988,1671,98584
TRILIVE,17907,1664,535133
ECO,15988,1485,465491
SEA HORIZON,8373,778,518089
LIV ON WILKIE,26415,2454,228025
THE CASCADIA,17331,1610,589646
WATERVIEW,11604,1078,528685
KINGSFORD . HILLVIEW PEAK,15000,1394,667968
SIMEI GREEN CONDOMINIUM,9222,857,529865
COCO PALMS,10622,987,518142
COSTA DEL SOL,14345,1333,469990
THE WHARF RESIDENCE,21500,1997,238026
NINE RESIDENCES,13698,1273,768894
THE BENTLY RESIDENCES@KOVAN,14727,1368,548086
WATERWOODS,8445,785,828747
LAKEVILLE,14464,1344,648155
NINE RESIDENCES,14106,1310,768894
COMMONWEALTH TOWERS,18371,1707,149739
BEDOK PARK,11407,1060,467893
LA FIESTA,12470,1158,544830
SEA HORIZON,8637,802,518088
THE SCALA,17614,1636,554475
HILLION RESIDENCES,15961,1483,677672
HILLINGTON GREEN,10952,1018,669614
THE SANTORINI,13349,1240,528592
CHUAN PARK,10367,963,556745
GUILLEMARD SUITES,14124,1312,399733
THE QUINN,14969,1391,539789
CASA MERAH,13258,1232,465536
THE SANTORINI,12163,1130,528592
UBER 388,14228,1322,466477
YUNNAN GARDENS,7717,717,637978
28 RC SUITES,17928,1666,218746
SEA BREEZE TERRACE,13614,1265,487583
BIJOU,25000,2323,119554
THE ORCHARD RESIDENCES,33333,3097,237973
THE PARC CONDOMINIUM,9741,905,127158
BLOSSOM RESIDENCES,8367,777,677722
EAST BAY GARDENS,8478,788,426277
THE TRUMPS,13068,1214,419154
N.A.,14318,1330,455061
THE CREST,19791,1839,159017
THE CITRON RESIDENCES,18730,1740,208380
LAGUNA PARK,8889,826,449284
RIVERTREES RESIDENCES,12867,1195,797461
RIVERBANK @ FERNVALE,10206,948,797475
CORALS AT KEPPEL BAY,24426,2269,98016
PARKVIEW APARTMENTS,8923,829,658880
THE TREVOSE,14170,1316,298088
THE PANORAMA,12721,1182,567696
THE SKYWOODS,14238,1323,677669
THE SKYWOODS,13061,1213,677669
KALLANG RIVERSIDE,22144,2057,338986
TWIN WATERFALLS,8783,816,828769
THE VERMONT ON CAIRNHILL,24903,2314,229746
ECO,15785,1466,465491
THE MONTANA,13853,1287,249188
THE SANTORINI,11791,1095,528592
RIVERTREES RESIDENCES,10669,991,797464
THE SKYWOODS,13910,1292,677669
PEARL BANK APARTMENT,7967,740,169016
WATERFRONT GOLD,14449,1342,479257
THE GLADES,14946,1389,469598
JEWEL @ BUANGKOK,13590,1263,544823
FENGLI GARDENS,12882,1197,536372
ECO,16581,1540,465491
THE PANORAMA,13005,1208,567700
THE BLISS,14919,1386,218586
RESIDENCES @ EVELYN,19231,1787,309311
THE LINCOLN RESIDENCES,19709,1831,307762
THE DAIRY FARM,12044,1119,679043
THE CITRON RESIDENCES,16846,1565,208380
VILLA MARINA,10776,1001,457398
LIV ON WILKIE,27362,2542,228025
CARABELLE,12991,1207,127019
THE CENTRIS,13412,1246,648332
THE SHAUGHNESSY,5534,514,768324
IMPERIAL HEIGHTS,16091,1495,438620
THE QUINTET,8833,821,689102
WATERWOODS,8433,783,828751
RIVERTREES RESIDENCES,10508,976,797460
THE CASCADIA,17345,1611,589646
CASABLANCA,9651,897,737920
D'ECOSIA,10442,970,423936
CORALS AT KEPPEL BAY,26221,2436,98016
BAYSHORE PARK,10575,982,469982
PRESTIGE HEIGHTS,18844,1751,329778
SIMS MEADOWS,8283,769,387977
BUONA LODGE,10890,1012,117686
THE CASCADIA,16207,1506,589646
MANDARIN GARDEN CONDOMINIUM,9648,896,448908
CENTRAL GREEN CONDOMINIUM,13500,1254,169479
PAVILION SQUARE,11842,1100,389366
CAVENAGH COURT,13873,1289,229628
THE CITRON RESIDENCES,18893,1755,208380
GUILIN VIEW,9875,917,659247
PARK INFINIA AT WEE NAM,19880,1847,308366
FORESTVILLE,8127,755,737777
UNITED MANSION,10039,933,458996
EDENZ LOFT,12917,1200,398623
TWIN FOUNTAINS,7374,685,738900
CASA ESPERANZA,13084,1216,589632
ELIAS GREEN,6444,599,519959
JARDIN,18333,1703,589489
HALLMARK RESIDENCES,21805,2026,259325
EMERALD EAST,14545,1351,436892
SKY@ELEVEN,18452,1714,297725
THE MAKENA,12105,1125,437936
SUITES @ PAYA LEBAR,7931,737,534049
N.A.,11240,1044,427889
SHEARES VILLE,16000,1486,249446
CITY GATE,18352,1705,199597
1 CANBERRA,7734,719,768102
THE SCALA,18227,1693,554475
THE TEMBUSU,17568,1632,534006
SANCTUARY GREEN,11905,1106,436925
THE RIVERVALE,8156,758,545118
HIGH OAK CONDOMINIUM,10000,929,596290
RIVERBANK @ FERNVALE,9955,925,797476
CITY GATE,19587,1820,199597
THE TEMBUSU,18636,1731,534008
REZI 3TWO,15435,1434,398308
THE WATERINA,12955,1204,398087
SKY HABITAT,16655,1547,573908
DOVER PARKVIEW,11293,1049,138685
THE CHANCERY RESIDENCE,9288,863,309555
CITY GATE,18844,1751,199597
CASA MERAH,12739,1183,465525
YEW LIAN PARK,12448,1156,577318
SEASONS VIEW,11132,1034,576149
CITY GATE,19738,1834,199597
THE LAKESHORE,11869,1103,649412
SAVANNAH CONDOPARK,7913,735,528787
PRINCESS OF WALES PARK,20966,1948,266926
LAUREL TREE,10263,953,669267
WATERWOODS,8656,804,828751
WATERWOODS,8602,799,828751
TOMLINSON HEIGHTS,35433,3292,247855
ARDMORE PARK,28918,2687,259955
THE MINTON,13451,1250,534071
LE HILL CONDOMINIUM,11429,1062,118894
THE LINCOLN RESIDENCES,20079,1865,307762
TRILIVE,17895,1662,535133
HOOVER PARK,19161,1780,597960
CITY GATE,20250,1881,199597
COCO PALMS,10397,966,518140
ALANA,9404,874,806375
EIGHT RIVERSUITES,14835,1378,338517
CASA ROSA,9320,866,536443
TOMLINSON HEIGHTS,32677,3036,247855
CITY GATE,21839,2029,199597
FORESTVILLE,7949,738,737882
PARC SEABREEZE,21719,2018,427711
WATERVIEW,11698,1087,528685
TREE HOUSE,11215,1042,679518
THE PEARL @ MOUNT FABER,13028,1210,99206
CITY GATE,18615,1729,199597
CITY GATE,17729,1647,199597
THE VERMONT ON CAIRNHILL,24976,2320,229747
WATERTOWN,13333,1239,828755
SAVANNAH CONDOPARK,10211,949,528786
SUITES @ PAYA LEBAR,7896,734,534996
TWIN FOUNTAINS,8418,782,738992
THE CASCADIA,17424,1619,589646
CITY GATE,18738,1741,199597
AXIS @ SIGLAP,13882,1290,458950
PALM ISLES,8169,759,506894
CITY GATE,19477,1809,199597
WATERWOODS,8529,792,828747
TERRASSE,12600,1171,544774
CITY GATE,18973,1763,199597
CITY GATE,18762,1743,199597
SEA HORIZON,8252,767,518081
SUITES @ EASTCOAST,11167,1037,455277
PEACH GARDEN,12763,1186,437606
HARBOUR VIEW TOWERS,11000,1022,109258
REGENT HEIGHTS,9000,836,659804
FRANKEL ESTATE,15274,1419,459894
NORMANTON PARK,9237,858,119001
CITY GATE,19102,1775,199597
ESTRIVILLAS,8466,787,266235
THE ESTA,14848,1379,439969
FORESTVILLE,7195,668,737881
WATERVIEW,11781,1094,529780
THE VENUE RESIDENCES,16154,1501,347842
ST PATRICK'S RESIDENCES,14732,1369,424217
CUSCADEN RESIDENCES,21739,2020,249723
THE VERMONT ON CAIRNHILL,29000,2694,229746
# 1 SUITES,12042,1119,398721
RV SUITES,21000,1951,248289
N.A.,10734,997,535684
THE BOUTIQ,23908,2221,239565
CITY GATE,19950,1853,199597
ONE-NORTH RESIDENCES,16667,1548,138642
CITY GATE,18714,1739,199597
CITY GATE,18459,1715,199597
LUXUS HILLS,20133,1870,804894
CITY GATE,19348,1797,199597
THE QUINTET,7789,724,689104
ROBIN RESIDENCES,24950,2318,258261
SERANGOON GARDEN ESTATE,17465,1623,556324
RIVERTREES RESIDENCES,11581,1076,797460
CLOVER BY THE PARK,13445,1249,573973
THE PANORAMA,14021,1303,567697
CITY GATE,19004,1766,199597
CITY GATE,19518,1813,199597
WATERWOODS,8462,786,828747
CITY GATE,20238,1880,199597
RIO VISTA,8389,779,534203
COCO PALMS,10403,966,518076
N.A.,13660,1269,548724
QUEENS,15294,1421,148954
CHANGI COURT,10969,1019,486828
GRANDEUR 8,10332,960,567744
CITY GATE,20816,1934,199597
CITY GATE,20850,1937,199597
CITY GATE,19869,1846,199597
SKYPARK RESIDENCES,8787,816,757061
THE PANORAMA,14312,1330,567699
ONE TREE HILL RESIDENCE,20430,1898,248669
CITY GATE,19679,1828,199597
SILVERSEA,16264,1511,449305
ESPADA,28822,2678,238126
MARINA BAY RESIDENCES,21324,1981,18980
CITY GATE,18518,1720,199597
THE BLOSSOMVALE,15385,1429,589473
TREASURES @ G20,14103,1310,398751
CLERMONT RESIDENCE,34917,3244,78882
ONE-NORTH RESIDENCES,15354,1426,138642
KALLANG RIVERSIDE,20542,1908,338986
THE VERMONT ON CAIRNHILL,24782,2302,229746
PEOPLE'S PARK COMPLEX,8846,822,59108
THOMSON GARDEN ESTATE,11347,1054,578480
HALLMARK RESIDENCES,20529,1907,259327
CITY GATE,22429,2084,199597
GRAND REGALIA,8929,829,534676
LA FIESTA,12511,1162,544830
CITY GATE,19933,1852,199597
ARC AT TAMPINES,8599,799,529596
THOMSON THREE,14385,1336,573893
WATERWOODS,9140,849,828751
KALLANG RIVERSIDE,22032,2047,338986
THE SKYWOODS,14653,1361,677669
MELVILLE PARK,8370,778,529947
THE TEMBUSU,17352,1612,534009
DOVER PARKVIEW,12185,1132,138685
CITY GATE,19727,1833,199597
CITY GATE,18566,1725,199597
THE SCALA,15641,1453,554478
THE COAST AT SENTOSA COVE,20455,1900,98450
MELVILLE PARK,7814,726,529945
WATER PLACE,13333,1239,436607
MI CASA,10407,967,689863
SOUTHAVEN II,11608,1078,587971
WESTMERE,8750,813,609650
CITY GATE,19500,1812,199597
THE SCALA,15714,1460,554476
CITY GATE,19650,1826,199597
SOPHIA RESIDENCE,15723,1461,228193
RIVERGATE,19014,1766,238255
PALM GARDENS,7857,730,689051
OXFORD SUITES,14458,1343,218817
THE SPRINGBLOOM,11399,1059,556122
HILLVIEW PARK,9881,918,669555
WATER VILLAS,6630,616,544875
HELIOS RESIDENCES,28684,2665,229815
SKY@ELEVEN,17571,1632,297725
WATERWOODS,8613,800,828746
PALM GARDENS,9040,840,689049
BLUE HORIZON,12061,1121,128047
KOVAN RESIDENCES,14318,1330,544916
N.A.,5405,502,329317
RAFFLES PARK,16862,1566,288628
MAYSPRINGS,8800,818,678267
# 1 SUITES,12042,1119,398721
NEWTON ONE,19345,1797,307943
PARK GREEN,8417,782,545044
EASTWOOD GREEN,8512,791,486364
MELVILLE PARK,8764,814,529945
CYAN,22222,2064,258709
THE PARC CONDOMINIUM,14242,1323,127159
WOODSVALE,7000,650,738090
WATERWOODS,8882,825,828751
THE CREEK @ BUKIT,20068,1864,596197
QUEENS,14706,1366,148957
RIVERSAILS,10723,996,534027
COCO PALMS,11635,1081,518070
WATERFRONT GOLD,13597,1263,479258
BIJOU,24796,2304,119554
COCO PALMS,11335,1053,518142
CITY GATE,20839,1936,199597
THE PANORAMA,12333,1146,567700
THE METROPOLITAN CONDOMINIUM,14795,1374,158746
CITY GATE,17948,1667,199597
EASTVALE,7773,722,519493
KOVAN GRANDEUR,12736,1183,535193
RIVERIA GARDENS,24333,2261,238406
RIVERSHIRE,17807,1654,239229
EAST BAY GARDENS,8805,818,426282
CITY GATE,19339,1797,199597
BELYSA,8871,824,519531
BOTANNIA,9796,910,127727
THE OCEANFRONT @ SENTOSA COVE,16981,1578,98533
THE SCOTTS TOWER,33226,3087,228240
THE TENNERY,13123,1219,677901
THE PARC CONDOMINIUM,13956,1297,127160
WEST SEA GARDENS,14198,1319,119427
N.A.,17725,1647,548527
VERDURE,20303,1886,258887
MEADOWS @ PEIRCE,10250,952,787130
EAST MEADOWS,10631,988,465558
BOTANNIA,8037,747,127727
ALEX RESIDENCES,17767,1651,158744
MOONSTONE VIEW,11687,1086,328496
THE VERMONT ON CAIRNHILL,26308,2444,229746
COCO PALMS,9274,862,518141
RIVERTREES RESIDENCES,12729,1183,797464
JEWEL @ BUANGKOK,12072,1121,544687
THE CITRON RESIDENCES,19269,1790,208380
THE VERMONT ON CAIRNHILL,26451,2457,229746
CITY GATE,18353,1705,199597
CLEMENTIWOODS CONDOMINIUM,9740,905,126818
THE LANAI,14925,1387,669600
GARDEN PARK RESIDENCES,14522,1349,425310
HILLCREST VILLA,10148,943,289083
CHANGI RISE CONDOMINIUM,9190,854,528809
HOMEY GARDENS,11667,1084,425283
PARK INFINIA AT WEE NAM,21519,1999,308366
CITY GATE,19442,1806,199597
MARINA BAY RESIDENCES,20952,1947,18980
CITY GATE,18636,1731,199597
THE SKYWOODS,13298,1235,677669
DUCHESS CREST,13836,1285,269204
SELETAR SPRINGS CONDOMINIUM,7661,712,798594
THE VERMONT ON CAIRNHILL,24809,2305,229746
THE RICHMOND,11783,1095,327950
ALEX RESIDENCES,17302,1607,158744
PARK GREEN,8125,755,545045
YISHUN SAPPHIRE,7483,695,768433
THE MINTON,11104,1032,534078
SIMON PLAZA,8788,816,548008
CITY GATE,21179,1968,199597
REGENT GROVE,7890,733,689527
JEWEL @ BUANGKOK,11800,1096,544823
JEWEL @ BUANGKOK,12143,1128,544823
THE VERMONT ON CAIRNHILL,25267,2347,229746
ALEX RESIDENCES,17358,1613,158744
ESPADA,25094,2331,238126
MARTIN PLACE RESIDENCES,23711,2203,237988
BIJOU,22398,2081,119554
PINEVALE,8000,743,528823
THE SANTORINI,11338,1053,528592
THE GLADES,15833,1471,469599
LANDMARK TOWER,10208,948,169878
PAYA LEBAR GARDENS,15091,1402,534881
THE RED HOUSE,15157,1408,428776
THE OCTET,15033,1397,398628
REGENT HEIGHTS,8947,831,659804
ONE SURIN,8088,751,535576
ROBIN RESIDENCES,25688,2387,258261
GUILLEMARD SUITES,15625,1452,399733
REFLECTIONS AT KEPPEL BAY,15769,1465,98415
VIDA,21250,1974,228307
BIJOU,21106,1961,119554
THE SANTORINI,11516,1070,528592
ST PATRICK'S RESIDENCES,11841,1100,423467
ONZE @ TANJONG PAGAR,27358,2542,89218
COSTA RHU,11683,1085,437433
RIVERBANK @ FERNVALE,9856,916,797475
PAVILION PARK,17333,1610,658055
ROBIN SUITES,27134,2521,258203
BIJOU,22258,2068,119554
PARC OASIS,9474,880,609775
DE PARADISO,13690,1272,328644
COCO PALMS,11244,1045,518144
DAKOTA RESIDENCES,14286,1327,399938
H2O RESIDENCES,10781,1002,797531
COCO PALMS,11051,1027,518075
GOODWOOD RESIDENCE,21483,1996,259703
NV RESIDENCES,11548,1073,518211
REZI 3TWO,17198,1598,398308
THE VERMONT ON CAIRNHILL,24742,2299,229746
ONE @ PULASAN,11089,1030,424366
PARK NATURA,11797,1096,659765
EIGHT RIVERSUITES,14725,1368,338517
PANDAN VALLEY,10372,964,597627
THE VERMONT ON CAIRNHILL,27566,2561,229747
CITY GATE,19412,1803,199597
CRESCENDO PARK,11600,1078,457269
THE MORNINGTON,11062,1028,328005
RIVERBANK @ FERNVALE,9670,898,797476
WATERFRONT @ FABER,13088,1216,128989
THE VERMONT ON CAIRNHILL,25840,2401,229746
CITY GATE,20524,1907,199597
WATERWOODS,8817,819,828751
CITY GATE,20700,1923,199597
CANBERRA RESIDENCES,11754,1092,768124
CITY GATE,20100,1867,199597
THE CITRON RESIDENCES,16739,1555,208380
THE SCALA,15134,1406,554477
CENTRAL GROVE,11053,1027,389779
RIVERTREES RESIDENCES,13393,1244,797460
N.A.,20117,1869,577367
V ON SHENTON,23493,2183,68814
AIRSTREAM,16184,1504,327994
THOMSON THREE,13551,1259,573894
N.A.,13345,1240,535581
CITY GATE,20120,1869,199597
THE PANORAMA,12759,1185,567700
THE SEA VIEW,16794,1560,439943
HILLSTA,12197,1133,668201
RIVERBAY,15371,1428,328704
CITY GATE,19357,1798,199597
THE SKYWOODS,12705,1180,677670
CITY GATE,19226,1786,199597
SUNVILLE,11250,1045,327981
THE BOUTIQ,25158,2337,239565
CARIBBEAN AT KEPPEL BAY,17544,1630,98656
HUME PARK II,10389,965,598728
BIJOU,21623,2009,119554
LAKEVILLE,15340,1425,648163
TRILIVE,16190,1504,533901
HAZEL PARK CONDOMINIUM,10375,964,678946
EAST VIEW 18,9908,920,424302
ROBIN RESIDENCES,23883,2219,258261
THE MAKENA,12566,1167,437936
FORESTVILLE,8611,800,737769
N.A.,11906,1106,568507
LA FIESTA,11828,1099,544832
THE VERMONT ON CAIRNHILL,27398,2545,229747
N.A.,8222,764,486579
THE SKYWOODS,13258,1232,677669
SKY VUE,14944,1388,573910
PARC VERA,6540,608,534041
THE RIVERINA,6516,605,518285
ASPEN HEIGHTS,16667,1548,238307
THE TROPICA,8870,824,529778
ECOPOLITAN,8545,794,828776
THE VERMONT ON CAIRNHILL,26594,2471,229746
CLASSICAL TERRACE,12125,1126,537508
LA CASA,8478,788,737893
THE VISION,15197,1412,126793
THE VERMONT ON CAIRNHILL,24664,2291,229746
THE PANORAMA,13928,1294,567700
N.A.,16825,1563,466785
THE TEMBUSU,17434,1620,534009
N.A.,17996,1672,429720
OCEAN PARK,12061,1121,458966
VILLA DE WEST,11170,1038,118719
PARKVIEW APARTMENTS,8857,823,658882
COCO PALMS,8953,832,518071
LOFT 33,11283,1048,398293
FLORAVIEW,13210,1227,567707
BIJOU,24326,2260,119554
THE PEAK @ CAIRNHILL I,27636,2567,229784
CITY GATE,20679,1921,199597
TORIEVIEW MANSIONS,8261,767,388064
LINCOLN SUITES,27880,2590,308381
THE TRILINQ,17723,1647,128809
AURA 83,11486,1067,429247
CHANGI GREEN,9975,927,486843
AALTO,18993,1764,437980
CHELSEA LODGE,10877,1011,437083
COMMONWEALTH TOWERS,18818,1748,149740
THE LANAI,15516,1441,669600
NINE RESIDENCES,11707,1088,768894
BARTLEY RIDGE,13100,1217,368056
THE VERMONT ON CAIRNHILL,26073,2422,229747
EIGHT COURTYARDS,10563,981,768143
AQUARIUS BY THE PARK,8553,795,478931
EASTPOINT GREEN,9753,906,529892
THE PANORAMA,13725,1275,567696
ECOPOLITAN,8410,781,828699
KING'S MANSION,13094,1216,437147
YEW MEI GREEN,7625,708,689575
SILVERSEA,15604,1450,449305
VILLAGE @ PASIR PANJANG,13026,1210,118797
CASABLANCA,9231,858,737920
RIVERBAY,15678,1457,328704
PALM GARDENS,8274,769,689048
UBER 388,13821,1284,466477
FORESTVILLE,7749,720,737879
BARTLEY RIDGE,13160,1223,368057
COMMONWEALTH TOWERS,17040,1583,149739
COCO PALMS,10759,1000,518143
PALM LODGE,8883,825,387904
FABER GARDEN CONDOMINIUM,12931,1201,579981
PARK WEST,8707,809,128794
FORESTVILLE,8449,785,737769
BLOSSOMS @ WOODLEIGH,13656,1269,357907
CITY GATE,19095,1774,199597
THE VERMONT ON CAIRNHILL,27301,2536,229746
CLOVER BY THE PARK,14444,1342,573975
HILLSTA,13228,1229,668201
THE SPRINGBLOOM,11438,1063,556119
COMMONWEALTH TOWERS,16731,1554,149739
CITY GATE,19800,1839,199597
N.A.,12366,1149,757330
THE SHORE RESIDENCES,16561,1539,439893
EMERALD PARK,12593,1170,169586
THE ARCADIA,9332,867,289844
LA BRISA,15122,1405,398453
SUMMERDALE,7611,707,649925
TREVISTA,13298,1235,319581
N.A.,10816,1005,369478
BLUE HORIZON,10619,987,128046
WATERVIEW,10909,1013,528686
HUME PARK II,11466,1065,598729
RIVERSAILS,10607,985,534035
HILLS TWOONE,14520,1349,669232
ASCENTIA SKY,18742,1741,158749
SUNGLADE,11340,1054,556134
SOLEIL @ SINARAN,19770,1837,307467
THE ARTE,13609,1264,329215
HILLVIEW REGENCY,9095,845,659920
THE SANTORINI,12327,1145,528592
CITY GATE,18758,1743,199597
THE CLIFT,20000,1858,69047
SIGLAP V,16833,1564,458278
COUNTRY PARK CONDOMINIUM,14257,1325,469564
FORESTVILLE,7902,734,737773
COSTA DEL SOL,15109,1404,469991
PINE GROVE,9202,855,592001
CHIVERTON,15733,1462,259343
TWIN FOUNTAINS,7910,735,738995
CHILTERN PARK,12069,1121,556114
COMMONWEALTH TOWERS,17930,1666,149739
SEA HORIZON,8348,776,518088
RIVERBANK @ FERNVALE,9794,910,797475
HENRY PARK,8925,829,276857
THE SANTORINI,12405,1152,528592
THE PANORAMA,12864,1195,567695
N.A.,16971,1577,538622
COMMONWEALTH TOWERS,18435,1713,149740
GARDEN PARK RESIDENCES,11841,1100,425310
THE SORRENTO,17214,1599,127365
THOMSON THREE,13694,1272,573894
STELLAR RV,21100,1960,248306
COCO PALMS,11166,1037,518144
FORESTVILLE,7783,723,737763
CITY SQUARE RESIDENCES,16250,1510,207224
WATERWOODS,8559,795,828750
TERRASSE,13404,1245,544778
LAKEVILLE,13435,1248,648163
CITY GATE,21500,1997,199597
LE REGAL,10545,980,389365
GOODWOOD RESIDENCE,25491,2368,259704
THE GARDENS AT BISHAN,10804,1004,575575
VALLEY PARK,15044,1398,248364
