Project Name,Unit Price ($ psm),Unit Price ($ psf),Postal Code
BIZTECH CENTRE,9148,850,389842
EUNOS TECHPARK,10412,967,416195
N.A.,900,84,627725
EUNOS TECHNOLINK,4629,430,415938
AZ @ PAYA LEBAR,11820,1098,409015
PIONEER POINT,3925,365,627607
AZ @ PAYA LEBAR,11934,1109,409015
TRADEHUB 21,5814,540,609966
ALPHA INDUSTRIAL BUILDING,2632,244,608599
CT HUB 2,9992,928,338729
MIDVIEW BUILDING,4307,400,659578
CT HUB 2,9326,866,338729
TRADEHUB 21,5593,520,609966
ARK@GAMBAS,4293,399,757087
MIDVIEW CITY,4843,450,573968
NORTH LINK BUILDING,2282,212,757695
PIONEER CENTRE,3443,320,627605
INNOVATION PLACE,5902,548,729931
GOLDEN WHEEL INDUSTRIAL BUILDING,6781,630,349326
AZ @ PAYA LEBAR,12110,1125,409015
EUNOS INDUSTRIAL ESTATE,4355,405,409571
TUAS COVE INDUSTRIAL CENTRE,1912,178,637247
TECHNIQUES CENTRE,4623,429,408560
ARK@GAMBAS,4118,383,757087
ARK@GAMBAS,4164,387,757087
GORDON WAREHOUSE BUILDING,3519,327,417842
TRADEHUB 21,5236,486,609966
SHUN LI INDUSTRIAL PARK,3779,351,416074
9 @ TAGORE,4664,433,787472
ENTERPRISE ONE,6253,581,415934
MIDVIEW BUILDING,4631,430,659578
ENTERPRISE ONE,6075,564,415934
NOVELTY BIZCENTRE,7939,738,369585
FOOD XCHANGE @ ADMIRALTY,3502,325,757437
ADMIRALTY INDUSTRIAL PARK,2547,237,757700
PRESTIGE CENTRE,5167,480,658071
MIDVIEW CITY,5599,520,573960
MIDVIEW CITY,5598,520,573960
UBI TECHPARK,5383,500,408564
PIONEER POINT,5507,512,627607
PAYA UBI INDUSTRIAL PARK,3644,339,408934
PRIMZ BIZHUB,4618,429,737854
TRIVEX,7053,655,369977
AZ @ PAYA LEBAR,12057,1120,409015
INNOVATION PLACE,5865,545,729931
I.BIZ CENTRE,4952,460,597658
BIZLINK CENTRE,5556,516,408938
AZ @ PAYA LEBAR,12314,1144,409015
EUNOS TECHPARK,4587,426,415979
UB. ONE,4628,430,408830
FOOD XCHANGE @ ADMIRALTY,3282,305,757437
RUBY INDUSTRIAL COMPLEX,7484,695,347740
N.A.,13455,1250,118522
SENOKO INDUSTRIAL ESTATE,1360,126,758238
NOVELTY BIZCENTRE,10882,1011,369585
SYNERGY @ KB,3390,315,417800
SYNERGY @ KB,4622,429,417800
HARVEST @ WOODLANDS,4522,420,757322
WOODLANDS 11,4664,433,737853
NOVELTY BIZCENTRE,10712,995,369585
AMK TECH II,2247,209,567760
NOVELTY BIZCENTRE,10882,1011,369585
N.A.,2069,192,73874
N.A.,9325,866,628737
PIONEER CENTRE,3336,310,627605
DA JIN FACTORY BUILDING,6815,633,534963
NOVELTY BIZCENTRE,10463,972,369585
SYNERGY @ KB,3390,315,417800
INNOVATION PLACE,6504,604,729931
B CENTRAL,2745,255,339943
NOVELTY BIZCENTRE,10436,970,369585
NOVELTY BIZCENTRE,10883,1011,369585
VERTEX,4575,425,408868
MIDVIEW CITY,5682,528,573968
WCEGA PLAZA,2724,253,658064
NOVELTY BIZCENTRE,10882,1011,369585
GOLDEN WHEEL BUILDING,6997,650,349316
HARVEST @ WOODLANDS,4548,423,757322
8 @ TRADEHUB 21,6350,590,609964
SHUN LI INDUSTRIAL COMPLEX,6846,636,387384
LINK@AMK,5300,492,569139
MIDVIEW CITY,5597,520,573968
CITILINK WAREHOUSE COMPLEX,8667,805,118530
LINK@AMK,5300,492,569139
MIDVIEW CITY,5383,500,573968
LINK@AMK,4898,455,569139
PREMIER @ KAKI BUKIT,5935,551,415875
SYNERGY @ KB,3588,333,417800
TRADEHUB 21,5274,490,609966
MIDVIEW CITY,5814,540,573960
CHANCERLODGE COMPLEX,6996,650,387429
UB. ONE,7319,680,408830
NOVELTY BIZCENTRE,10396,966,369585
N.A.,1390,129,639082
EUNOS TECHNOLINK,5723,532,415938
NOVELTY BIZCENTRE,10736,997,369585
MIDVIEW CITY,6838,635,573971
THE SPLENDOUR,4091,380,658070
THE SPLENDOUR,4091,380,658070
MIDVIEW CITY,5653,525,573960
LINK@AMK,5300,492,569139
LINK@AMK,7500,697,569139
HARVEST @ WOODLANDS,4474,416,757322
NOVELTY BIZCENTRE,10991,1021,369585
NOVELTY BIZCENTRE,10633,988,369585
LINK@AMK,7500,697,569139
LINK@AMK,7500,697,569139
LIPO FACTORY BUILDING,7767,722,389834
FOOD XCHANGE @ ADMIRALTY,2691,250,757437
CITILINK WAREHOUSE COMPLEX,8267,768,118530
ARK@GAMBAS,4844,450,757087
WOODLANDS EAST INDUSTRIAL ESTATE,1522,141,738322
MIDVIEW CITY,5542,515,573972
SYNERGY @ KB,5114,475,417800
N.A.,2920,271,629193
WCEGA TOWER,5100,474,658065
ENTREPRENEUR BUSINESS CENTRE,3014,280,415978
ARK@GAMBAS,4236,394,757087
BIZTECH CENTRE,9189,854,389842
MIDVIEW CITY,5542,515,573972
MIDVIEW CITY,5491,510,573972
MIDVIEW CITY,5057,470,573960
NORTH POINT BIZHUB,4510,419,768159
NORTH POINT BIZHUB,2773,258,768159
NOVELTY BIZCENTRE,10738,998,369585
MIDVIEW CITY,5468,508,573969
PANTECH BUSINESS HUB,5599,520,128381
TAGORE BUILDING,7018,652,787623
MIDVIEW CITY,5826,541,573972
ARK@GAMBAS,4163,387,757087
WOODLANDS 11,5261,489,737853
WOODLANDS 11,4718,438,737853
ONE PEMIMPIN,11088,1030,576151
THE ALEXCIER,7463,693,159929
NOVELTY BIZCENTRE,10371,963,369585
PIONEER POINT,5213,484,627607
PIONEER POINT,5194,483,627607
ALPHA BUILDING,4907,456,349317
MIDVIEW CITY,5539,515,573972
ONE PEMIMPIN,10763,1000,576151
ELDIX,6137,570,729908
WCEGA TOWER,5730,532,658065
WCEGA TOWER,5730,532,658065
HILLVIEW BUILDING,6104,567,669269
SYNERGY @ KB,3920,364,417800
GOODVINE BUILDING,5330,495,528878
MIDVIEW CITY,5383,500,573968
NORTHSTAR @ AMK,4089,380,569880
EUNOS TECHPARK,4971,462,415979
NOVELTY BIZCENTRE,7789,724,369585
NOVELTY BIZCENTRE,10626,987,369585
HARVEST @ WOODLANDS,4727,439,757322
SYNERGY @ KB,3594,334,417800
