Project Name,Unit Price ($ psm),Unit Price ($ psf),Postal Code
THE ROCHESTER,15385,1429,138638
THE HILLIER,12971,1205,667980
PRESTIGE HEIGHTS,17632,1638,329778
ONE-NORTH RESIDENCES,13972,1298,138642
CRYSTAL MANSIONS,6368,592,399165
WATERFRONT ISLE,12901,1199,479261
THE HILLIER,15377,1429,667980
TREVISTA,13176,1224,319583
THE HILLIER,14037,1304,667978
CARDIFF RESIDENCE,14173,1317,558961
THE HILLIER,12236,1137,667980
N.A.,1383,128,218914
THE HILLIER,12325,1145,667978
THE HILLIER,14303,1329,667980
THE HILLIER,13290,1235,667980
THE HILLIER,14619,1358,667980
CENTRAL IMPERIAL,12058,1120,398915
THE HILLIER,12909,1199,667980
ESPIRA SUITES,15122,1405,426283
PINE GROVE,7914,735,593001
BLOSSOM RESIDENCES,7872,731,677722
THE HILLIER,14722,1368,667978
THE HILLIER,15212,1413,667978
ADRIA,16456,1529,309466
SHAMROCK PARK,16164,1502,267566
HOUGANG GREEN,5685,528,539748
THE HILLIER,13265,1232,667980
M21,14711,1367,308208
THE HILLIER,13889,1290,667978
THE HILLIER,12863,1195,667978
THE HILLIER,13617,1265,667978
THE HILLIER,14220,1321,667980
THE NAUTICAL,9535,886,769475
THE HILLIER,14224,1321,667978
THE NAUTICAL,9512,884,769472
CORONATION ARCADE,12500,1161,269406
WATERVIEW,8977,834,528692
WATERTOWN,11440,1063,828842
RIVERSOUND RESIDENCE,9903,920,544811
THOMSON V ONE,12963,1204,575630
BLOSSOM RESIDENCES,7500,697,677723
THE SEA VIEW,15229,1415,439944
THE HILLIER,12109,1125,667980
CHANGI RISE CONDOMINIUM,8476,787,528801
THE HILLIER,14569,1353,667980
PALM GARDENS,8352,776,689050
THE HILLIER,12746,1184,667980
THE HILLIER,14716,1367,667978
TAI KENG GARDENS,8463,786,535318
KOVAN RESIDENCES,12542,1165,544897
BLISS@KOVAN,14365,1335,546056
ASTOR GREEN,10563,981,597592
TAI KENG GARDENS,10109,939,535327
BAYSHORE PARK,9943,924,469983
THE HILLIER,12495,1161,667980
TAMPINES COURT,6226,578,521134
CLOVER BY THE PARK,10802,1004,573973
THE NAUTICAL,9535,886,769472
CITYVISTA RESIDENCES,18020,1674,228314
SUMMER GARDENS,5855,544,486205
GOLDENHILL PARK CONDOMINIUM,12903,1199,568430
KENTISH GREEN,8824,820,218815
BRADDELL VIEW,7595,706,579727
BLOSSOM RESIDENCES,7544,701,677721
N.A.,8453,785,465878
SOLEIL @ SINARAN,17188,1597,307467
THE HILLIER,14693,1365,667980
WOODHAVEN,9089,844,737829
THE NAUTICAL,9288,863,769473
THE HILLIER,14155,1315,667980
AQUARIUS BY THE PARK,8393,780,478932
TREVISTA,12728,1182,319582
NOUVELLE PARK,9279,862,546684
CUBE 8,11922,1108,298130
ARC AT TAMPINES,8792,817,529596
GARDENVISTA,12222,1135,589474
KERRISDALE,11271,1047,207853
THE HILLIER,13670,1270,667980
QUEENS,12591,1170,148957
THE HILLIER,12864,1195,667980
RIVERSOUND RESIDENCE,9308,865,544743
THE HILLIER,12486,1160,667980
WATERTOWN,14665,1362,828755
THE HILLIER,14551,1352,667978
BURGUNDY HILL,8571,796,658864
THE HILLIER,13293,1235,667980
THE HILLIER,13612,1265,667980
THE HILLIER,16776,1559,667980
CASA JERVOIS,15000,1394,249055
ARC AT TAMPINES,8159,758,529604
RIVERSOUND RESIDENCE,9157,851,544813
THE HILLIER,13536,1258,667980
THE QUINTET,8276,769,689103
DOMUS,16071,1493,329564
CASCADALE,8043,747,486860
ARC AT TAMPINES,8171,759,529603
RIVERSOUND RESIDENCE,9424,876,544740
THE LAKESHORE,10849,1008,649413
THE HILLIER,12940,1202,667978
TREVISTA,12234,1137,319581
THE LUXURIE,11509,1069,544758
THE HILLIER,13939,1295,667980
CARDIFF RESIDENCE,14615,1358,558961
SOHO @ FARRER,9494,882,218605
THE INTERWEAVE,15667,1455,328805
ASCENTIA SKY,14599,1356,158749
THE NAUTICAL,9056,841,769475
THE PALETTE,9376,871,518176
QUEENS,11818,1098,148955
OASIS @ MULBERRY,16531,1536,349672
COSTA RHU,15300,1421,437435
THE SHAUGHNESSY,4721,439,768175
THE HILLIER,13132,1220,667978
ARC AT TAMPINES,7945,738,529604
THE PALETTE,9502,883,518170
HAIG COURT,12361,1148,438791
THE NAUTICAL,9429,876,769472
PANDAN VALLEY,10161,944,597628
THE NAUTICAL,9638,895,769473
CHILTERN PARK,8725,811,556113
D'SAVILLE,9174,852,428268
CHARLTON CORNER,9494,882,539631
PARC OASIS,8429,783,609783
THE RIVERVALE,7377,685,545118
WHITESCAPE,13391,1244,425239
THE HILLIER,14271,1326,667980
THE HILLIER,13665,1270,667980
THE HILLIER,13665,1270,667980
WATERTOWN,11660,1083,828842
SUITES @ NEWTON,23033,2140,307740
THE SCOTTS TOWER,35311,3280,228240
THE HILLIER,14053,1306,667980
CENTRAL IMPERIAL,11243,1045,398915
CENTRAL IMPERIAL,11312,1051,398915
NOTTINGHILL SUITES,13352,1240,596195
CARDIFF RESIDENCE,13893,1291,558962
BLOSSOM RESIDENCES,7520,699,677723
TANGLIN VIEW,12252,1138,159015
N.A.,6402,595,499255
THE NAUTICAL,9543,887,769472
PRESTIGE HEIGHTS,18065,1678,329778
VALLEY PARK,15534,1443,248358
THE HILLIER,13078,1215,667980
THE HILLIER,12842,1193,667980
THE HILLIER,13133,1220,667980
THE HILLIER,13969,1298,667980
NATURE MANSIONS,11504,1069,425780
THE NAUTICAL,9491,882,769473
RIVERSOUND RESIDENCE,9505,883,544743
ATELIER VILLAS,6486,603,786288
AUSTVILLE RESIDENCES,8267,768,544809
PAVILION PARK,14376,1336,658224
SEASTRAND,10886,1011,518186
THE HILLIER,13240,1230,667980
N.A.,12796,1189,467818
WATERTOWN,13587,1262,828755
THE HILLIER,14053,1306,667978
N.A.,15059,1399,288927
NEW SOO CHOW GARDENS,13282,1234,575346
THE HILLIER,11857,1102,667980
RIVERSOUND RESIDENCE,7261,675,544743
RIVERSOUND RESIDENCE,7656,711,544743
KEW VALE,8807,818,466284
THE NAUTICAL,9406,874,769472
AIRSTREAM,15000,1394,327994
THE NAUTICAL,8759,814,769474
N.A.,4256,395,678720
SELETAR HILLS ESTATE,10206,948,807734
THE HILLIER,14000,1301,667980
AUSTVILLE RESIDENCES,6676,620,544804
THE HILLIER,13283,1234,667978
AQUARIUS BY THE PARK,9268,861,478931
RIVERPARC RESIDENCE,5476,509,828800
COSTA DEL SOL,13525,1256,469987
ARC AT TAMPINES,8117,754,529597
LAKESIDE TOWER,5587,519,618650
CASHEW PARK CONDOMINIUM,9467,880,679637
THE HILLIER,13504,1255,667978
SEASTRAND,10570,982,518183
WOODHAVEN,11175,1038,737810
BELLA CASITA,12966,1205,438610
THE NAUTICAL,10976,1020,769472
THE NAUTICAL,9253,860,769475
THE RIVERINA,6445,599,518267
THE HILLIER,12345,1147,667980
CENTRO RESIDENCES,15625,1452,567752
THE HILLIER,12909,1199,667980
ARCHIPELAGO,12816,1191,479272
LAKEVIEW ESTATE,9133,849,574328
THE GARDENS AT BISHAN,10351,962,575575
DOMAIN 21,13866,1288,169813
WATERFRONT WAVES,13167,1223,479245
N.A.,19301,1793,329605
CAIRNHILL CONSERVATION AREA,35603,3308,229703
THE NAUTICAL,9805,911,769472
CITY SQUARE RESIDENCES,16038,1490,207224
THE CENTRIS,10821,1005,648340
HUNDRED TREES,11781,1094,128002
THE NAUTICAL,10728,997,769472
EAST COAST RESIDENCES,11505,1069,466488
D'EVELYN,13465,1251,309307
NEWTON ONE,18832,1750,307943
PARK GREEN,7500,697,545045
THE NAUTICAL,9481,881,769472
THE SENSORIA,8901,827,758930
TANAMERA CREST,8929,829,486061
THE NAUTICAL,9232,858,769475
SUITES @ PAYA LEBAR,14629,1359,534049
THE HILLIER,15224,1414,667978
RIVERSOUND RESIDENCE,9796,910,544743
THE NAUTICAL,10659,990,769475
THE CANOPY,7146,664,768860
THE RIVERVALE,7590,705,545119
MANDARIN GARDEN CONDOMINIUM,9740,905,448908
YEWTEE RESIDENCES,9717,903,689579
ARC AT TAMPINES,7937,737,529599
FLAME TREE PARK,10764,1000,575728
SUMMERDALE,7522,699,649929
ARTHUR 118,13548,1259,439827
FLORIDIAN,20903,1942,589626
THE SUITES AT CENTRAL,23309,2165,239899
THE NAUTICAL,9558,888,769473
DOVER PARKVIEW,7523,699,138686
SHERWOOD TOWER,8831,820,588998
OPERA ESTATE,11206,1041,456407
THE NAUTICAL,11076,1029,769472
THE HILLIER,12971,1205,667980
EUHABITAT,12992,1207,419543
PARK GREEN,8144,757,545043
THE HILLIER,14216,1321,667980
THE HILLIER,12163,1130,667980
ESPIRA SPRING,10619,987,426244
THE PALETTE,9563,888,518197
NOTTINGHILL SUITES,17285,1606,596195
N.A.,16471,1530,429824
TREVISTA,13365,1242,319583
SEMBAWANG SPRINGS ESTATE,8767,814,769580
THE CANOPY,7052,655,768859
DUCHESS RESIDENCES,21667,2013,266313
THE NAUTICAL,10937,1016,769472
CLEMENTI GREEN,12106,1125,599533
THE PALETTE,10463,972,518174
BALESTIER PLAZA,10140,942,329802
SENNETT ESTATE,14426,1340,349647
ARC AT TAMPINES,8063,749,529597
THE CANOPY,6835,635,768863
OPERA ESTATE,12280,1141,459698
RIVERGATE,21053,1956,238255
SERANGOON GARDEN ESTATE,10548,980,556571
WHITLEY VILLAS,10409,967,297844
ALEXIS,18333,1703,159949
ENG HOON MANSIONS,9459,879,169767
AMARYLLIS VILLE,14944,1388,307953
CASHEW PARK CONDOMINIUM,8268,768,679644
THE NAUTICAL,10499,975,769475
N.A.,15471,1437,329830
ARCHIPELAGO,13102,1217,479271
GLENDALE PARK,10208,948,669556
THE NAUTICAL,9336,867,769475
CENTRA STUDIOS,15921,1479,388302
TRELLIS TOWERS,12826,1192,319773
THE HILLIER,16094,1495,667980
N.A.,13475,1252,358699
THE HILLIER,14424,1340,667980
THE HILLIER,12495,1161,667978
ORCHID PARK CONDOMINIUM,6897,641,768451
THE HILLIER,12486,1160,667980
CARDIFF RESIDENCE,14140,1314,558962
CLOVER BY THE PARK,10667,991,573973
N.A.,7837,728,759036
SELETARIS,7576,704,757711
REGENT HEIGHTS,7615,707,659804
PARK GREEN,8304,771,545045
OPERA ESTATE,12607,1171,458494
LAGUNA GREEN,9898,920,468726
EAST MEADOWS,9292,863,465559
GOODWOOD GARDENS,18000,1672,259889
OCEAN PARK,12541,1165,458970
EUPHONY GARDENS,5722,532,759150
THE SHAUGHNESSY,4406,409,768282
THE HILLIER,15033,1397,667980
THE NAUTICAL,9647,896,769472
RIVERSOUND RESIDENCE,9714,902,544740
MACPHERSON GARDEN ESTATE,17397,1616,368468
WATERVIEW,9545,887,528687
CARIBBEAN AT KEPPEL BAY,16589,1541,98652
WOODHAVEN,11714,1088,737809
KEMBANGAN SUITES,14481,1345,418941
CLOVER BY THE PARK,11667,1084,573973
BEDOK COURT,7054,655,469298
N.A.,17923,1665,308004
SANCTUARY GREEN,9568,889,436922
THE MAYLEA,13111,1218,117491
RIVERPARC RESIDENCE,7272,676,828796
THE NAUTICAL,9232,858,769475
SELETAR SPRINGS CONDOMINIUM,8266,768,799036
SPRINGDALE CONDOMINIUM,10698,994,587975
MARYMOUNT VIEW,10172,945,576148
THE HILLIER,12237,1137,667980
BAYSHORE PARK,9828,913,469983
THE NAUTICAL,10682,992,769472
THE HILLIER,14370,1335,667980
THE NAUTICAL,9416,875,769475
WESTCOVE CONDOMINIUM,7622,708,128042
N.A.,10412,967,668862
RIVERSOUND RESIDENCE,8778,815,544743
GREEN PARK,11084,1030,468432
THE PALETTE,10168,945,518196
SEMBAWANG SPRINGS ESTATE,12277,1141,769321
SERENITY PARK,8852,822,806109
ARCHIPELAGO,12074,1122,479284
LIVIA,9930,923,518216
PALM HAVEN,8993,835,547312
THE TENERIFFE,9164,851,275936
N.A.,7744,719,536051
OXLEY GARDEN,15033,1397,238744
FOUR SEASONS PARK,26592,2470,249692
THE HILLIER,13832,1285,667980
THE METROPOLITAN CONDOMINIUM,13068,1214,158746
CLOVER BY THE PARK,11852,1101,573975
TREVISTA,13077,1215,319583
BLEU @ EAST COAST,11064,1028,466581
SOUTHBANK,16404,1524,198784
N.A.,22319,2073,286931
THE NAUTICAL,9254,860,769475
ALEXIS,19389,1801,159949
MERAWOODS,8857,823,669598
SPOTTISWOODE PARK,9494,882,80101
COSTA RHU,11260,1046,437431
ARC AT TAMPINES,8268,768,529595
THE HILLIER,12995,1207,667980
THE NAUTICAL,9128,848,769474
REFLECTIONS AT KEPPEL BAY,19165,1780,98412
N.A.,9882,918,128632
BEDOK RESIDENCES,15363,1427,465498
BLOSSOM RESIDENCES,7227,671,677722
THE NAUTICAL,9446,878,769472
THE NAUTICAL,10596,984,769475
LOYANG VILLAS,8200,762,507264
THE NAUTICAL,9437,877,769472
RIVERPARC RESIDENCE,7576,704,828799
THE HILLIER,13454,1250,667980
ASTON MANSIONS,8750,813,398028
LIVIA,10353,962,518209
MONTROSA,8739,812,669597
NV RESIDENCES,9233,858,518213
AUSTVILLE RESIDENCES,7427,690,544808
THE GARDENS AT BISHAN,10878,1011,575575
WOODHAVEN,11786,1095,737809
AZALEA PARK CONDOMINIUM,7258,674,509729
ARC AT TAMPINES,8845,822,529602
CENTRO RESIDENCES,16202,1505,567752
THE NAUTICAL,8819,819,769473
RESIDENCES 88,12128,1127,417297
THE HILLIER,12562,1167,667978
THE NAUTICAL,8697,808,769472
TREVISTA,12422,1154,319583
THE FLORIDA,7420,689,534260
THE NAUTICAL,11010,1023,769475
FARRER PARK SUITES,16352,1519,218896
RESIDENCES 88,13000,1208,417297
APOLLO GARDENS,9115,847,487143
RIVERGATE,22492,2090,238257
PEACH GARDEN,14095,1309,437606
SEMBAWANG HILLS ESTATE,14081,1308,576910
PHOENIX HEIGHTS,8918,829,668290
ARC AT TAMPINES,7837,728,529604
THE SEAWIND,15392,1430,425414
TREVISTA,12953,1203,319581
ELLIOT AT THE EAST COAST,15000,1394,458709
REFLECTIONS AT KEPPEL BAY,19733,1833,98412
BOTANNIA,11862,1102,127721
SKYPARK,19377,1800,238107
RESIDENCES 88,13293,1235,417297
RIVERSOUND RESIDENCE,9629,895,544740
BLUWATERS,10545,980,506961
EUHABITAT,13979,1299,415868
THE QUINTET,7241,673,689103
THE LUCENT,12697,1180,425251
MANDALAY TOWERS,10129,941,308215
THE NAUTICAL,10937,1016,769472
THE NAUTICAL,9699,901,769474
THE HILLIER,12637,1174,667980
D'MANOR,6126,569,465666
EDELWEISS PARK CONDOMINIUM,5920,550,507003
LAKEVIEW ESTATE,9133,849,574329
HAIG COURT,11567,1075,438794
PASIR PANJANG LODGE,9417,875,118722
BLOSSOM RESIDENCES,7456,693,677721
THE NAUTICAL,9805,911,769472
RESIDENCES 88,12128,1127,417297
THE HILLIER,11840,1100,667980
THE HILLIER,13835,1285,667980
N.A.,11181,1039,549083
THE SCOTTS TOWER,37133,3450,228240
RIVEREDGE,13514,1255,436593
PARK COURT,10112,939,426641
CASHEW HEIGHTS CONDOMINIUM,9078,843,679672
GOLDEN HILL ESTATE,8651,804,556896
N.A.,9789,909,537436
SUITES @ NEWTON,23607,2193,307740
HIGHGATE,12706,1180,598788
THE EDEN AT TAMPINES,7826,727,529238
DUNEARN ESTATE,19557,1817,298318
COSTA DEL SOL,14540,1351,469988
STRATTON PARK,11664,1084,806884
THE NAUTICAL,9286,863,769474
PRESTIGE HEIGHTS,19032,1768,329778
1 KING ALBERT PARK,14483,1345,598326
FAR HORIZON GARDENS,6941,645,569765
RIVERPARC RESIDENCE,7510,698,828795
8 @ MOUNT SOPHIA,17481,1624,228459
PARC IMPERIAL,18211,1692,118618
AIRSTREAM,13191,1226,327994
THE QUINTET,7314,679,689102
ONE AMBER,13938,1295,439974
THE FLORIDA,7281,676,534260
SUMMERDALE,7387,686,649925
THE HILLIER,13127,1220,667980
THE HILLIER,13345,1240,667980
RIO VISTA,9265,861,534204
THE ESPARIS,7805,725,519462
EVERGREEN PARK,8465,786,538800
THE NAUTICAL,9481,881,769475
CENTRAL IMPERIAL,10663,991,398915
THE HILLIER,13018,1209,667980
THE NAUTICAL,10815,1005,769475
THE PALLADIUM,13652,1268,429984
HUNDRED TREES,10950,1017,127999
MEADOWLODGE,10669,991,599717
REGENT HEIGHTS,7615,707,659804
COSTA DEL SOL,15036,1397,469991
MEADOWLODGE,13125,1219,599717
THE PALETTE,10074,936,518176
PEOPLE'S GARDEN,8485,788,536954
THE SEAWIND,16899,1570,425414
THE PALETTE,8344,775,518171
RIVERGATE,19927,1851,238255
AUSTVILLE RESIDENCES,7432,690,544805
DAHLIA PARK CONDOMINIUM,8305,772,507010
DOUBLE BAY RESIDENCES,11149,1036,529882
RESIDENCES 88,13171,1224,417297
WHITEWATER,7232,672,518768
REGENT HEIGHTS,7991,742,659801
BAYOU RESIDENCE,9768,908,534957
N.A.,8933,830,427955
DOMUS,15060,1399,329564
WATER PLACE,11212,1042,436932
THE PALETTE,9696,901,518197
THE HILLIER,11983,1113,667980
BRADDELL VIEW,8418,782,579726
THE URBANITE,15913,1478,219384
BEACON HEIGHTS,10964,1019,328689
THE NAUTICAL,8590,798,769474
THE GALE,9324,866,506916
THE ANCHORAGE,11275,1047,159961
WOODSVILLE 28,12917,1200,357776
THE QUINTET,7521,699,689103
ST PATRICK'S RESIDENCES,12806,1190,424171
PARC SOPHIA,19091,1774,229975
THE SUNNYDALE,7743,719,556124
RESIDENCES 88,9149,850,417297
ARC AT TAMPINES,7132,663,529595
FRANKEL ESTATE,18144,1686,459902
SUITES AT BUKIT TIMAH,17083,1587,596180
PARRY COURT,8314,772,547261
833 M B RESIDENCES,13600,1263,437826
SELETAR HILLS ESTATE,9733,904,808576
SPOTTISWOODE PARK,11139,1035,80101
CASPIAN,9234,858,648316
NICON GARDENS,4856,451,689408
THE MADEIRA,8190,761,659442
THE NAUTICAL,10596,984,769475
LLYN GARDENS,7179,667,535926
BEDOK RESIDENCES,14566,1353,465494
PARC VERA,9066,842,534038
RESIDENCES 88,12756,1185,417297
ARC AT TAMPINES,6258,581,529605
THE ESTUARY,10588,984,769133
CRANE COURT,10055,934,429381
MAYSPRINGS,9342,868,678267
CHARLTON RESIDENCES,4956,460,539557
BEDOK COURT,7329,681,469296
THE PALETTE,9130,848,518196
PARKVIEW APARTMENTS,6460,600,658881
THE NAUTICAL,9636,895,769472
ARC AT TAMPINES,8007,744,529599
THE NAUTICAL,9740,905,769472
THE WHARF RESIDENCE,14552,1352,238002
ARC AT TAMPINES,7676,713,529597
TREVISTA,13971,1298,319582
THE NAUTICAL,9232,858,769475
BLU CORAL,8418,782,425602
CARISSA PARK CONDOMINIUM,8537,793,507025
CORALIS,15078,1401,427710
N.A.,7676,713,399732
LOYANG VILLAS,8974,834,507271
ARC AT TAMPINES,7386,686,529597
KOVAN PRIMERA,10756,999,548177
LEONIE STUDIO,20313,1887,239223
RESIDENCES 88,12174,1131,417297
THE PALETTE,10339,961,518174
RIVERPARC RESIDENCE,7413,689,828800
FLORIDIAN,19466,1808,589648
CASTLE GREEN,9182,853,787059
ARC AT TAMPINES,7922,736,529604
THE ARCADIA,10725,996,289843
RESIDENCES 88,12174,1131,417297
RIVERPARC RESIDENCE,7208,670,828798
RESIDENCES 88,12447,1156,417297
EUPHONY GARDENS,7091,659,759154
THE NAUTICAL,9500,883,769475
ONE-NORTH RESIDENCES,17818,1655,138642
FORTUNA GARDENS,9033,839,549754
BLOSSOM RESIDENCES,7500,697,677722
THE STELLAR,12500,1161,127308
RESIDENCES 88,12234,1137,417297
RESIDENCES 88,13049,1212,417297
RIVERPARC RESIDENCE,7739,719,828798
WESTVILLE,8537,793,648680
WOODHAVEN,10917,1014,737808
STUDIO8,16478,1531,389144
THE PALETTE,10238,951,518199
ARCHIPELAGO,13442,1249,479283
ARCHIPELAGO,12399,1152,479283
BLOSSOM RESIDENCES,7827,727,677723
ARC AT TAMPINES,8167,759,529602
BLUWATERS 2,11429,1062,509456
STUDIO8,16652,1547,389144
BALESTIER PLAZA,9677,899,329802
RESIDENCES 88,12234,1137,417297
THE NAUTICAL,9647,896,769472
BLOSSOM RESIDENCES,7456,693,677721
THE SPRINGBLOOM,9925,922,556122
THE INTERLACE,12524,1163,109697
ARCHIPELAGO,11773,1094,479279
THE HILLIER,13346,1240,667980
THE PALETTE,9791,910,518197
SOPHIA RESIDENCE,21531,2000,228193
ARC AT TAMPINES,7793,724,529596
MARTIN PLACE RESIDENCES,21818,2027,237988
CLOVER BY THE PARK,10567,982,573973
BLOSSOM RESIDENCES,7689,714,677723
ARC AT TAMPINES,7663,712,529603
PARC PALAIS,10219,949,598753
THE SAIL @ MARINA BAY,18290,1699,18987
THE RIVERINA,9334,867,518303
N.A.,9806,911,546150
SILAHIS APARTMENT,8629,802,425762
MILL CREEK,12686,1179,417052
PINE VILLAS,11316,1051,739922
WATTEN RESIDENCES,13149,1222,287398
AUSTVILLE RESIDENCES,6724,625,544805
EAST VIEW,11765,1093,429986
N.A.,10218,949,546149
THE VIEW @ MEYER,16903,1570,437871
THE NAUTICAL,10947,1017,769472
N.A.,9456,878,578665
STUDIO8,17093,1588,389144
LEONIE GARDENS,15683,1457,239224
ARC AT TAMPINES,7886,733,529595
RESIDENCES 88,12700,1180,417297
ARC AT TAMPINES,8289,770,529596
RESIDENCES 88,12878,1196,417297
THE VUE,13313,1237,534958
BLOSSOM RESIDENCES,7522,699,677721
MY MANHATTAN,13000,1208,529904
THE PALETTE,9704,901,518197
THE PALETTE,12835,1192,518170
RESIDENCES 88,9747,905,417297
RESIDENCES 88,12700,1180,417297
N.A.,7422,690,207412
ARC AT TAMPINES,8058,749,529599
CARDIFF RESIDENCE,14316,1330,558961
BOATHOUSE RESIDENCES,10396,966,534042
THE QUINTET,7761,721,689104
THE SAIL @ MARINA BAY,24918,2315,18987
THE DAIRY FARM,10148,943,679036
ORCHARD SCOTTS,27343,2540,229953
THE NAUTICAL,10543,979,769475
THE SPECTRUM,11236,1044,117506
THE LEGEND,14559,1353,259725
CARDIFF RESIDENCE,14316,1330,558962
ARC AT TAMPINES,8061,749,529603
CARISSA PARK CONDOMINIUM,8750,813,507026
THE ROCHESTER,13998,1300,138638
FLORIDIAN,19467,1808,589648
HUME PARK I,9940,923,598718
MANDARIN GARDEN CONDOMINIUM,8735,811,448906
FLORIDIAN,19723,1832,589648
THE PEARL @ MOUNT FABER,11822,1098,99208
ARCHIPELAGO,11545,1073,479279
NOTTINGHILL SUITES,17023,1581,596195
TOH TUCK LODGE,2982,277,596221
TERRENE AT BUKIT TIMAH,11640,1081,598676
SEASTRAND,10210,949,518185
N.A.,11491,1068,427258
ST PATRICK'S GREEN,10178,946,424167
WESTVILLE,9106,846,648398
ESTELLA GARDENS,8581,797,509739
STRATFORD COURT,9559,888,489929
THE GALE,8205,762,506918
AUSTVILLE RESIDENCES,7052,655,544809
NOTTINGHILL SUITES,16809,1562,596195
REFLECTIONS AT KEPPEL BAY,21383,1987,98419
TERRASSE,9375,871,544775
THE NAUTICAL,8703,809,769473
THE TESSARINA,14535,1350,276310
THE PALETTE,10414,967,518176
THE QUINTET,7458,693,689102
RIVERPARC RESIDENCE,7373,685,828798
CENTRAL IMPERIAL,10866,1009,398915
BOATHOUSE RESIDENCES,8718,810,534046
THE NAUTICAL,9445,877,769474
THE MILTONIA RESIDENCES,9064,842,768105
D'ZIRE,12569,1168,546290
MI CASA,8655,804,689861
RIVERPARC RESIDENCE,7342,682,828796
CLEMENTIWOODS CONDOMINIUM,13231,1229,126815
ESPARINA RESIDENCES,7583,705,544817
MERA SPRINGS,12680,1178,219647
FIFTH AVENUE CONDOMINIUM,15793,1467,268800
THE FLORAVALE,6895,641,648358
CASA AERATA,11236,1044,398484
THE PALETTE,12330,1146,518170
COSTA DEL SOL,15455,1436,469993
RIVERPARC RESIDENCE,5401,502,828794
VACANZA @ EAST,12397,1152,417398
D'HIRO@HILLSIDE,11456,1064,549010
BEDOK COURT,7714,717,469298
HIGHGATE,12907,1199,598790
CENTRO RESIDENCES,15742,1463,567752
SHERWOOD TOWER,6643,617,588998
ARC AT TAMPINES,7672,713,529602
448@EAST COAST,15790,1467,429021
THE PALETTE,10774,1001,518173
ARC AT TAMPINES,8135,756,529598
THOMSON V TWO,15370,1428,575629
THE SUNNY SPRING,8559,795,398074
THE ARIZON,9091,845,389493
WEMBLY RESIDENCES,10507,976,545678
ARC AT TAMPINES,7677,713,529604
HILLTOP GROVE,6739,626,669620
N.A.,13741,1277,457469
CASAFINA,7368,685,469338
RIVERPARC RESIDENCE,7696,715,828794
THE SCOTTS TOWER,36074,3351,228240
PEOPLE'S PARK COMPLEX,12289,1142,59108
THE PALETTE,9878,918,518172
CARDIFF RESIDENCE,14639,1360,558962
THE PARC CONDOMINIUM,12197,1133,127161
ARC AT TAMPINES,8169,759,529598
THE SCOTTS TOWER,37722,3504,228240
SELETAR SPRINGS CONDOMINIUM,7203,669,799036
