Project Name,Unit Price ($ psm),Unit Price ($ psf),Postal Code
THE ORCHARD RESIDENCES,47162,4381,237973
ONE SHENTON,22037,2047,68803
SUFFOLK PREMIER,14500,1347,307781
TANAMERA CREST,8455,785,486062
THE ESTUARY,9917,921,769134
N.A.,12954,1203,436781
THE MARQUE @ IRRAWADDY,14321,1330,328108
MERAPRIME,15138,1406,169568
MERAPRIME,14633,1359,169568
RIVER ISLES,9079,843,828821
PINEVALE,7086,658,528827
THE PARC CONDOMINIUM,12955,1204,127158
WOODSVALE,7368,685,738093
FLORIDIAN,18644,1732,589649
EASTWOOD GREEN TERRACES,11925,1108,486518
VILLA VERDE,9867,917,688522
PARK NATURA,14122,1312,659766
CASUARINA COVE,10980,1020,436904
THE GARDENS AT BISHAN,11341,1054,575575
BARTLEY RESIDENCES,15767,1465,536562
ROSEWOOD SUITES,7477,695,737873
N.A.,11960,1111,456620
THE TAMPINES TRILLIANT,7828,727,528613
D'ZIRE,14597,1356,546290
RIPPLE BAY,10395,966,518161
1 CANBERRA,7884,732,768070
THE CLEARWATER,9664,898,479235
EASTWOOD GARDENS,14270,1326,455331
EVERGREEN PARK,8182,760,538800
CASPIAN,10432,969,648318
CHESTNUT RESIDENCES,7869,731,678725
ZENITH,21739,2020,247785
NORTHOAKS,6826,634,738085
TAIPAN GRAND,10702,994,449303
N.A.,15591,1448,168645
CASSIA VIEW,11830,1099,399746
CAPITOL PARK,21245,1974,299305
RITZ MANSIONS,10811,1004,329776
THE CLEARWATER,10339,961,479234
BLOSSOMS @ WOODLEIGH,13378,1243,357905
THE FLORIDA,7763,721,538807
N.A.,12725,1182,417744
BARTLEY RESIDENCES,15349,1426,536560
EAST VIEW GARDEN,11391,1058,486851
NUOVO,9028,839,569787
THE INTERLACE,13487,1253,109694
HILLVIEW REGENCY,9524,885,659920
CITYSCAPE @FARRER PARK,14565,1353,219067
WOODSVALE,7244,673,738094
BINJAI PARK,15838,1471,589854
WATERCOLOURS,6444,599,518152
AVON PARK,13856,1287,357741
CENTRO RESIDENCES,17869,1660,567752
THE TAMPINES TRILLIANT,8978,834,528771
TWIN WATERFALLS,7831,728,828768
RIVER ISLES,9258,860,828731
BELLERIVE,18322,1702,258711
RIDGEWOOD,12144,1128,276906
MOONSTONE RESIDENCES,10696,994,328465
THE GARDENS AT BISHAN,10482,974,575574
PEIRCE VILLAS,16905,1570,248559
THE EDEN AT TAMPINES,9750,906,529232
WOODSVALE,6436,598,738094
HORIZON TOWER,13292,1235,239228
THE BEACON EDGE,14662,1362,423728
THE SAIL @ MARINA BAY,20723,1925,18987
TRENDALE TOWER,17785,1652,229681
ROCHELLE AT NEWTON,15833,1471,308414
D' DALVEY,14516,1349,259555
BEDOK RESIDENCES,13801,1282,465494
FLO RESIDENCE,8430,783,828740
PINE GROVE,9141,849,595001
BAYSHORE PARK,10402,966,469978
SIGNATURE PARK,10408,967,596742
RESIDENCES @ EVELYN,19057,1770,309311
EAST MEADOWS,10405,967,465559
LAKESIDE TOWER,5246,487,618650
CLOVER PARK,17802,1654,579157
MERA TERRACE,13400,1245,486648
THE CLEARWATER,9343,868,479237
ASTORIA PARK,10438,970,416883
ROCHELLE AT NEWTON,16667,1548,308414
SILVERSEA,17778,1652,449307
1 MOULMEIN RISE,16810,1562,308143
THE CLEARWATER,9240,858,479237
PANDAN VALLEY,11694,1086,597627
STRATFORD COURT,9159,851,489929
MERA EAST,8602,799,419809
THE BAYSHORE,10341,961,469974
N.A.,8610,800,487270
CHANGI GREEN,9735,904,486849
THE WARREN,8678,806,689686
MELVILLE PARK,7518,698,529942
THOMSON VIEW CONDOMINIUM,8777,815,579599
SOUTHBANK,18202,1691,198784
CASA MERAH,12026,1117,465533
THE BAYSHORE,10000,929,469976
EDELWEISS PARK CONDOMINIUM,9407,874,506999
VILLA DE WEST,10851,1008,118719
N.A.,19994,1857,229068
THE AMARELLE,12000,1115,438129
SIMEI GREEN CONDOMINIUM,9087,844,529866
COSTA DEL SOL,14000,1301,469986
DE CENTURION,15278,1419,436884
THE INSPIRA,18584,1727,239949
HUNDRED TREES,13139,1221,127997
THE INSPIRA,19292,1792,239949
BALESTIER POINT,10467,972,329727
THE TRIZON,11851,1101,276697
VENTANA,13099,1217,118893
BOULEVARD VUE,46565,4326,249697
1 CANBERRA,7395,687,768072
LOYANG VILLAS,10000,929,507254
ALEXIS,19474,1809,159949
TWIN WATERFALLS,8484,788,828790
GOLDENHILL PARK CONDOMINIUM,13975,1298,568429
SKY HABITAT,17420,1618,573908
VARSITY PARK CONDOMINIUM,9756,906,127449
CASA AERATA,14250,1324,398484
PEOPLE'S PARK COMPLEX,8926,829,59108
1 CANBERRA,7500,697,768103
BENG TONG MANSION,19512,1813,437035
LOYANG VALLEY,6820,634,509068
CASA FORTUNA,17128,1591,329980
RIVERSOUND RESIDENCE,10043,933,544740
DOUBLE BAY RESIDENCES,11839,1100,529883
THE TAMPINES TRILLIANT,8753,813,528608
GARDENVISTA,13200,1226,589485
STRATA,18283,1699,309329
OPTIMA @ TANAH MERAH,12405,1152,465518
SPRING @ KATONG,11622,1080,429748
CASA FIDELIO,10112,939,458487
PALM GREEN,9126,848,117621
REGENTVILLE,7130,662,538683
THE HILLOFT,5772,536,669109
THE SANCTUARY @ GEYLANG,12212,1134,398342
OPTIMA @ TANAH MERAH,12941,1202,465514
MEADOWS @ PEIRCE,14508,1348,787133
MONT TIMAH,8902,827,587764
MI CASA,9750,906,689861
SPRINGDALE CONDOMINIUM,10952,1018,587976
RIVERVALE CREST,9205,855,545086
CHESTERVALE,7369,685,679973
ASPEN HEIGHTS,15772,1465,238307
MERAWOODS,10400,966,669608
DUCHESS CREST,13851,1287,269199
GALAXY TOWERS,9697,901,424482
BALMORAL HEIGHTS,19608,1822,259928
SIGNATURE PARK,10769,1000,596743
THE CALROSE,12511,1162,787067
ECOVILLE,12618,1172,328668
D' PALMA,12366,1149,416817
THE GARDENS AT BISHAN,10750,999,575575
GOLDEN HILL ESTATE,16917,1572,556878
SEA ESTA,8418,782,518158
BUONA VISTA GARDENS,9028,839,117688
NORMANTON PARK,10805,1004,118999
D' IXORAS,15128,1405,308172
WINDERMERE,6704,623,689097
1 MOULMEIN RISE,16783,1559,308143
LINCOLN SUITES,20983,1949,308381
TAMPINES COURT,6646,617,521123
CASA MERAH,11680,1085,465524
MAYSPRINGS,9226,857,678267
KOVAN MELODY,11207,1041,548190
N.A.,8821,819,509742
TANGLIN VIEW,13793,1281,159015
THE ARRIS,18297,1700,88271
THE MARBELLA,16531,1536,276952
SIMS DORADO,11250,1045,387869
FRANKEL ESTATE,12535,1165,457071
THE CENTRIS,12817,1191,648341
WATER PLACE,12437,1155,436607
CASPIAN,11437,1063,648315
WATERCOLOURS,8163,758,518152
THE TRUMPS,8641,803,419154
THE SAIL @ MARINA BAY,24000,2230,18987
THE PROMENADE@PELIKAT,11405,1060,537643
VACANZA @ EAST,11833,1099,417392
THE NAUTICAL,8422,782,769472
EAST VIEW GARDEN,14031,1304,488352
DOUBLE BAY RESIDENCES,11024,1024,528714
LIVIA,8434,784,518208
THE CALLISTA,11818,1098,328702
N.A.,13028,1210,429928
THE CENTRIS,12126,1127,648334
N.A.,24935,2316,427001
WATERFORD RESIDENCE,14729,1368,239332
AQUARIUS BY THE PARK,8772,815,478936
THE CLIFT,23878,2218,69047
VALLEY PARK,15708,1459,248368
ROCHELLE AT NEWTON,17021,1581,308414
ORCHARD VIEW,34128,3171,239977
2 RVG,18125,1684,238405
MANDALE HEIGHTS,12240,1137,308225
N.A.,12915,1200,536486
PANDAN VALLEY,10741,998,597625
REGENT HEIGHTS,8333,774,659804
CENTRAL GROVE,9829,913,389779
THE PALETTE,10122,940,518198
WATERFRONT WAVES,11189,1039,479248
MANDARIN GARDEN CONDOMINIUM,10563,981,448909
THE TAMPINES TRILLIANT,8305,772,528770
THE SPRINGSIDE,13869,1289,786947
N.A.,2967,276,388990
SHERWOOD TOWER,7941,738,588996
MALVERN SPRINGS,11457,1064,424775
THE RAINTREE,11290,1049,587847
SUITES DE LAUREL,16889,1569,588997
THE FLORAVALE,7371,685,648359
KEW RESIDENCIA,6311,586,465955
YEW MEI GREEN,7199,669,689575
HIGHGATE,10789,1002,596730
N.A.,9310,865,599150
N.A.,14374,1335,424020
CHATELET,14476,1345,258542
HOUGANG GREEN,7358,684,539748
ARC AT TAMPINES,8226,764,529601
THE TESSARINA,16200,1505,276306
N.A.,10323,959,554719
LLYN GARDENS,15366,1428,535961
SUNHAVEN,9333,867,486069
NEPTUNE COURT,8644,803,449032
PAPILLON,12299,1143,329089
RIVER PLACE,14375,1335,169658
SELETAR HILLS ESTATE,10326,959,808359
THE QUINTET,7645,710,689106
VISIONCREST,22381,2079,238711
SKY@ELEVEN,16786,1559,297725
N.A.,4941,459,588386
MONTROSA,6897,641,669597
REGIS MANSIONS,8482,788,598433
TWIN WATERFALLS,7421,689,828793
EMERALD HILL CONSERVATION AREA,18670,1734,229422
SIGNATURE PARK,10038,933,596746
THE WATERLINE,11842,1100,546694
THE TAMPINES TRILLIANT,8322,773,528770
THE CASCADIA,17800,1654,589639
PARC OASIS,9500,883,609774
FLAMINGO VALLEY,12665,1177,455941
CHUAN PARK,10917,1014,556748
BAYSHORE PARK,9994,928,469983
TWIN WATERFALLS,7934,737,828767
EIGHT COURTYARDS,8648,803,768094
THE WOODS,5217,485,648259
THE PALETTE,9464,879,518198
SERANGOON GARDEN ESTATE,12213,1135,559314
ROBERTSON 100,17944,1667,238250
EVELYN MANSIONS,16159,1501,309309
N.A.,12419,1154,467251
N.A.,11536,1072,456502
TWIN WATERFALLS,6137,570,828766
BRADDELL VIEW,9185,853,579720
1 CANBERRA,7963,740,768075
WINDSOR PARK ESTATE,7457,693,576539
CASABLANCA,9277,862,737917
TWIN WATERFALLS,7548,701,828792
THE BAYSHORE,11170,1038,469976
WATERCOLOURS,8003,744,518168
APOLLO GARDENS,8311,772,486993
BISHAN LOFT,11154,1036,579819
YISHUN EMERALD,8602,799,768425
BLOSSOMS @ WOODLEIGH,7471,694,357905
THE BERTH BY THE COVE,17756,1650,98619
THE WATERSIDE,16238,1509,436896
N.A.,13340,1239,415906
ASCENTIA SKY,16924,1572,158749
THE RAINFOREST,8240,766,689874
HARBOURLIGHTS,14644,1360,98865
SIMSVILLE,10000,929,389757
GLENDALE PARK,11250,1045,669556
STARVILLE,9913,921,417456
THE ASTON,11768,1093,248973
THE TAMPINES TRILLIANT,8925,829,528611
SANCTUARY GREEN,12302,1143,436924
THE LAKESHORE,11165,1037,649413
N.A.,8927,829,468032
ARCHIPELAGO,12623,1173,479275
GARDENVISTA,13273,1233,589487
MAYSPRINGS,8077,750,678265
RISING SUITES,15789,1467,258124
REFLECTIONS AT KEPPEL BAY,20141,1871,98412
AQUARIUS BY THE PARK,10217,949,478935
AIRSTREAM,14318,1330,327994
THE RAINFOREST,8148,757,689876
BELLE VUE RESIDENCES,16253,1510,238595
BOULEVARD VUE,42344,3934,249697
TREE HOUSE,9771,908,679521
THE MARBELLA,17122,1591,276954
MAYSPRINGS,8033,746,678267
DOMUS,16876,1568,329564
CARIBBEAN AT KEPPEL BAY,17805,1654,98635
8@WOODLEIGH,13846,1286,357900
THE MAKENA,15588,1448,437934
HOLLAND RESIDENCES,21348,1983,276342
MANDARIN GARDEN CONDOMINIUM,11029,1025,448908
THE IMPERIAL,20879,1940,239620
CARIBBEAN AT KEPPEL BAY,16371,1521,98651
CHANGI RISE CONDOMINIUM,8353,776,528810
RIVER ISLES,8794,817,828820
TWIN WATERFALLS,7197,669,828790
1 CANBERRA,7435,691,768072
MI CASA,9625,894,689860
MY MANHATTAN,12497,1161,529901
N.A.,16227,1508,574114
HAIG RESIDENCES,12825,1191,438774
ST PATRICK'S LOFT,12688,1179,424165
WATERCOLOURS,8346,775,518150
THE SPRINGBLOOM,10370,963,556119
1 CANBERRA,7862,730,768073
SERANGOON GARDEN ESTATE,13051,1212,555056
THE ANCHORAGE,13293,1235,159953
WATERBANK AT DAKOTA,16138,1499,399947
BARTLEY RESIDENCES,13556,1259,536563
THE WHARF RESIDENCE,19268,1790,238026
APLETON VIEW,15283,1420,308323
RIVER PLACE,14271,1326,169658
BLOSSOM RESIDENCES,7282,677,677721
PARC VERA,9616,893,534037
N.A.,14175,1317,538084
NORTHOAKS,7124,662,738085
WATERCOLOURS,7933,737,518152
PAYA LEBAR GARDENS,14309,1329,537171
D'LEEDON,18363,1706,266224
HUIT,11025,1024,779209
THE TRIZON,19681,1828,276698
LANDRIDGE CONDOMINIUM,12209,1134,118572
PASIR VIEW PARK,13603,1264,118571
TANGLIN VIEW,13319,1237,159015
N.A.,24038,2233,259428
THE TESSARINA,15041,1397,276308
N.A.,10471,973,538198
OASIS GARDEN,10597,984,538422
THE LINC,16807,1561,308346
SIMEI GREEN CONDOMINIUM,8964,833,529868
N.A.,11869,1103,456445
SEASONS PARK,8586,798,787078
NORTHVALE,8347,775,689668
1 CANBERRA,6226,578,768070
WATERCOLOURS,7730,718,518152
SUNRISE GARDENS,7143,664,806748
THE TAMPINES TRILLIANT,8774,815,528614
THE SPRINGFIELD,6639,617,486327
CHANGI RISE CONDOMINIUM,8385,779,528810
EAST MEADOWS,10631,988,465558
NORTHVALE,7935,737,689673
BOATHOUSE RESIDENCES,9575,890,534042
TROPIKA EAST,14647,1361,419684
ARC AT TAMPINES,6460,600,529604
TWIN WATERFALLS,8125,755,828767
CASPIAN,10864,1009,648318
THE PARC CONDOMINIUM,12576,1168,127161
THE WHARF RESIDENCE,17867,1660,238008
CHUAN TERRACE,13997,1300,558487
YEW LIAN PARK,11809,1097,575162
EVERGREEN PARK,8818,819,538800
THE TENERIFFE,8881,825,275920
THE MARQUE @ IRRAWADDY,13021,1210,328108
SELETAR SPRINGS CONDOMINIUM,8321,773,798595
HOLLAND RESIDENCES,21190,1969,276340
THE SPRINGSIDE,14789,1374,786604
WATERCOLOURS,6474,601,518150
WATERCOLOURS,7835,728,518152
THE WARREN,7913,735,689682
CASTLE GREEN,9847,915,787059
THE TAMPINES TRILLIANT,9441,877,528614
CHATEAU LE FAME,15657,1455,259345
CRAIG PLACE,17075,1586,89692
WOODSVALE,6880,639,738092
SEA ESTA,11396,1059,518157
LAGUNA PARK,10444,970,449287
THE LAKEFRONT RESIDENCES,9641,896,648322
EURO-ASIA COURT,15778,1466,238430
SILVERSCAPE,12797,1189,398299
THE MAKENA,12430,1155,437934
MAYSPRINGS,9765,907,678265
BISHAN PARK CONDOMINIUM,8467,787,575572
LAGUNA GREEN,10909,1013,468726
CABANA,7922,736,805335
THE TAMPINES TRILLIANT,6218,578,528614
THE LUXURIE,10671,991,544759
HOLLAND RESIDENCES,20472,1902,276340
FLAMINGO VALLEY,13325,1238,455943
NORTHOAKS,7069,657,738084
REFLECTIONS AT KEPPEL BAY,21143,1964,98414
WATERCOLOURS,7729,718,518168
WATERVIEW,8712,809,528686
THE TAMPINES TRILLIANT,9419,875,528609
TANGLIN VIEW,13774,1280,159013
PARC SOPHIA,18588,1727,229979
TWIN WATERFALLS,7816,726,828793
THE RAINFOREST,7899,734,689874
CARDIFF RESIDENCE,10993,1021,558962
THE PROMENADE@PELIKAT,11815,1098,537643
RIVERGATE,23636,2196,238257
THE CLIFT,24737,2298,69047
N.A.,15218,1414,418346
WOODSVALE,6603,613,738092
N.A.,18798,1746,269333
N.A.,8500,790,798742
LAKESIDE TOWER,5000,465,618650
ICON,19231,1787,78878
WINDERMERE,7340,682,689099
THE SUMMIT,11277,1048,466503
STILLZ RESIDENCE,12021,1117,426411
LOYANG VILLAS,9604,892,507359
STELLAR RV,22856,2123,248306
THE SCALA,14217,1321,554476
THE WOODS,5194,482,648257
THE METROPOLITAN CONDOMINIUM,14083,1308,158747
OPERA ESTATE,11420,1061,457742
WATERCOLOURS,7886,733,518154
NESS,12375,1150,398298
TWIN WATERFALLS,7977,741,828770
VACANZA @ EAST,12640,1174,417391
BLU CORAL,10407,967,425602
GRANDEUR 8,10604,985,567745
SOHO 188,17625,1637,218612
MACPHERSON GARDEN ESTATE,13816,1284,368967
PARRY PARK,12745,1184,547132
PAVILION 11,16854,1566,309979
THE AMBRA,12436,1155,426118
ASCENTIA SKY,18539,1722,158748
SUITES @ OWEN,12895,1198,218926
NEPTUNE COURT,8559,795,449032
THE TAMPINES TRILLIANT,8957,832,528612
EAST MEADOWS,9365,870,465560
1 CANBERRA,6015,559,768070
IDYLLIC SUITES,13512,1255,398353
QUEENS,13273,1233,148954
SERANGOON PARK,11262,1046,357998
ONE-NORTH RESIDENCES,14382,1336,138643
THE BERTH BY THE COVE,17218,1600,98629
THE CASCADIA,17273,1605,589639
CASHEW PARK CONDOMINIUM,8583,797,679641
BISHAN POINT,9855,916,579653
SUNNY PALMS,11429,1062,426323
EAST MEADOWS,10159,944,465560
SUNRISE GARDENS,8500,790,806746
BARTLEY RESIDENCES,13253,1231,536561
PARK VILLAS,8007,744,545348
THE TAMPINES TRILLIANT,8174,759,528612
RIVER ISLES,9096,845,828731
TREASURES@G19,14167,1316,388502
THE TROPICA,7956,739,529778
YEWTEE RESIDENCES,8912,828,689580
MELVILLE PARK,8708,809,529945
THE BEVERLY,12385,1151,596720
STUDIOS@TEMBELING,17395,1616,423718
FERRARIA PARK CONDOMINIUM,9769,908,506944
THE CASCADIA,18362,1706,589639
THE WHARF RESIDENCE,15833,1471,238026
THE ESTUARY,9259,860,769139
MAPLEWOODS,15663,1455,589628
BUCKLEY 18,17677,1642,309776
LE HILL CONDOMINIUM,11786,1095,118894
HAIG COURT,12980,1206,438795
GUILIN VIEW,8489,789,659247
STUDIOS @ MARNE,14936,1388,208393
THE MAKENA,13121,1219,437932
THE TRIZON,18085,1680,276698
GOLDENHILL VILLAS,14299,1328,554683
SUNFLOWER GRANDEUR,11054,1027,387878
KENTISH COURT,10408,967,218816
1919,21981,2042,228175
TANGLIN VIEW,14811,1376,159013
OPTIMA @ TANAH MERAH,12504,1162,465514
BULLION PARK,11111,1032,789096
GRANDE VISTA,8858,823,809689
SPRINGBROOK TERRACE,13138,1221,509315
THE SIXTH AVENUE RESIDENCES,18944,1760,276539
THE TAMPINES TRILLIANT,9108,846,528613
VACANZA @ EAST,10907,1013,417398
WATERBANK AT DAKOTA,14390,1337,399948
1 CANBERRA,6996,650,768074
TROPICANA CONDOMINIUM,7949,738,488067
HILLVIEW REGENCY,8952,832,659920
VIVA,21951,2039,307465
IDYLLIC SUITES,12744,1184,398353
REGENTVILLE,8224,764,538686
PARVIS,20652,1919,278743
THE TAMPINES TRILLIANT,8617,801,528770
KOVAN MELODY,13095,1217,545018
OASIS @ ELIAS,8966,833,519944
THE QUINTET,7585,705,689106
CARDIFF RESIDENCE,14051,1305,558961
PARK GREEN,7346,682,545042
SUNGLADE,11478,1066,556133
RIVER ISLES,8535,793,828820
HILLTOP GROVE,8511,791,669619
CARDIFF RESIDENCE,13320,1237,558962
CHISELHURST GREEN,12333,1146,554726
ARCHIPELAGO,11438,1063,479281
SHAMROCK PARK,24281,2256,267405
RIVER ISLES,8467,787,828820
COASTAL BREEZE RESIDENCES,9551,887,509051
THOMSON 800,12692,1179,298190
THE CASCADIA,17815,1655,589640
LAGUNA PARK,10074,936,449284
CAPITOL PARK,18201,1691,299338
FLO RESIDENCE,8148,757,828740
FLO RESIDENCE,9123,848,828743
NORTHVALE,8646,803,689672
SEAHILL,15375,1428,126778
N.A.,26190,2433,239352
PARC ELEGANCE,11252,1045,423762
REGENT GROVE,7963,740,689528
DOUBLE BAY RESIDENCES,13400,1245,529884
THE PROMENADE@PELIKAT,11667,1084,537643
THE LUXURIE,11208,1041,544753
MULBERRY TREE,17903,1663,308092
SEA ESTA,9487,881,518156
OLEANDER TOWERS,11029,1025,319771
RIVEREDGE,13261,1232,436593
BREEZE BY THE EAST,11710,1088,465520
BRADDELL VIEW,8324,773,579729
THE COSMOPOLITAN,21509,1998,239496
SEMBAWANG HILLS ESTATE,11620,1080,576756
NORTHVALE,7627,709,689672
HUME PARK I,9238,858,598722
26 NEWTON,25856,2402,307957
WATERCOLOURS,6364,591,518150
THE ANSLEY,14149,1314,308214
FERNHILL COTTAGE,16193,1504,259149
THE BERTH BY THE COVE,17216,1599,98616
JI XIANG COURT,9115,847,423816
MEADOWS @ PEIRCE,12288,1142,787130
OPERA ESTATE,11399,1059,458434
ELLIOT AT THE EAST COAST,13889,1290,458703
ROYCE RESIDENCES,10522,978,399242
PARC ELEGANCE,14477,1345,423762
N.A.,9905,920,788493
N.A.,13151,1222,596648
THE TAMPINES TRILLIANT,8248,766,528609
OPTIMA @ TANAH MERAH,13269,1233,465514
THE RAINFOREST,8056,748,689871
THE TRIZON,17748,1649,276698
JULUCA,7679,713,117426
WINDY HEIGHTS,8136,756,419593
SUITES @ KATONG,15514,1441,437050
SOUTHBANK,16854,1566,198784
CELADON VIEW,7090,659,507029
THE PROMENADE@PELIKAT,11314,1051,537643
ESTELLA GARDENS,9067,842,509741
SEA ESTA,11396,1059,518156
THE WOODS,5215,484,648269
FLO RESIDENCE,8669,805,828740
ONE-NORTH RESIDENCES,16909,1571,138642
BULLION PARK,9573,889,789098
SERANGOON GARDEN ESTATE,10427,969,558822
N.A.,13725,1275,398990
8@WOODLEIGH,13782,1280,357903
ENVIO,13208,1227,427962
THE SUNNY SPRING,9444,877,398074
DUNEARN GARDENS,18966,1762,309420
WESTMERE,7705,716,609650
ST THOMAS SUITES,21123,1962,238141
THE CENTRIS,12009,1116,648341
BEDOK COURT,7391,687,469296
RIVER PLACE,13182,1225,169659
PALM ISLES,11460,1065,506895
BISHOPSGATE RESIDENCES,35438,3292,247676
ARCHIPELAGO,11817,1098,479276
RIVER ISLES,8874,824,828732
ARCHIPELAGO,9098,845,479294
EURO-ASIA COURT,15704,1459,238429
VENTURA VIEW,10982,1020,424292
THE SUITES AT CENTRAL,23973,2227,239897
THE MILTONIA RESIDENCES,9310,865,768115
THE LINC,16667,1548,308346
THE WOODS,5215,484,648258
EIGHT RIVERSUITES,15249,1417,338520
THE ARIEL,11860,1102,426536
MALVERN SPRINGS,10162,944,424775
MONTEREY PARK CONDOMINIUM,11024,1024,127470
QUEENSWAY TOWER,10579,983,149053
1 CANBERRA,7830,727,768072
THE SUMMIT,11103,1032,466506
SEA ESTA,9375,871,518147
GARDENVISTA,13000,1208,589485
THE SEAWIND,16390,1523,425413
RIVER ISLES,9080,844,828729
RIVER ISLES,9045,840,828729
SYCAMORE TREE,14490,1346,428505
SEA ESTA,9661,898,518146
RIVER ISLES,9208,855,828730
DOUBLE BAY RESIDENCES,10764,1000,528714
SEA ESTA,10342,961,518158
1 CANBERRA,7415,689,768074
THE WOODS,5215,484,648264
WATERCOLOURS,8033,746,518168
1 CANBERRA,7921,736,768073
SUNSHINE GROVE,9782,909,537972
AIRSTREAM,14783,1373,327994
ARC AT TAMPINES,7785,723,529596
GARDENVISTA,13523,1256,589487
FLAMINGO VALLEY,14903,1384,455943
WATERCOLOURS,8287,770,518154
CEYLON CREST,10625,987,429623
ROSEWOOD SUITES,8696,808,737876
DUCHESS MANOR,16969,1576,269032
TWIN WATERFALLS,8114,754,828767
ST ANNE'S WOOD,9264,861,545271
N.A.,9045,840,219108
LE CRESCENDO,11399,1059,409044
THE TAMPINES TRILLIANT,8667,805,528613
EURO-ASIA PARK,11828,1099,357920
1 CANBERRA,6520,606,768103
ORCHID PARK CONDOMINIUM,7345,682,768452
ARC AT TAMPINES,8092,752,529601
TWIN WATERFALLS,7487,696,828793
RIPPLE BAY,9973,926,518163
SELETAR HILLS ESTATE,8953,832,808375
MONTEBLEU,16509,1534,308162
LINCOLN SUITES,20625,1916,308381
THE GALE,9946,924,506913
IVORY HEIGHTS,7468,694,600122
ROCHELLE AT NEWTON,16649,1547,308414
SERANGOON GARDEN ESTATE,15781,1466,559648
WING FONG MANSIONS,7588,705,398924
N.A.,8974,834,759037
NEWTON IMPERIAL,19974,1856,307956
HUME PARK I,10595,984,598718
CASA MERAH,12273,1140,465535
SILAHIS VILLE,12717,1181,416965
ARC AT TAMPINES,8491,789,529602
WATERCOLOURS,7858,730,518168
DOVER PARKVIEW,11966,1112,138684
TWIN WATERFALLS,7975,741,828792
ONE TREE HILL RESIDENCE,20421,1897,248669
WATERFRONT KEY,11951,1110,479254
EDELWEISS PARK CONDOMINIUM,9404,874,507002
GOVT CO-OP HOUSING ESTATE,9449,878,535840
COSTA DEL SOL,15036,1397,469991
COUNTRY GRANDEUR,11940,1109,576439
RAFFLESIA CONDOMINIUM,12588,1169,579800
THE CASCADIA,17655,1640,589639
MANDARIN GARDEN CONDOMINIUM,11587,1076,448908
VERTIS,14516,1349,439979
THE CANOPY,7442,691,768858
THE PROMENADE@PELIKAT,12375,1150,537643
BLUE HORIZON,10741,998,128047
EMERALD GARDEN,16372,1521,69415
THE TAMPINES TRILLIANT,7852,729,528773
THE SPRINGBLOOM,10902,1013,556122
URBAN SUITES,27986,2600,229161
CENTRA STUDIOS,13667,1270,388302
LOYANG VALLEY,6599,613,509063
SKYSUITES@ANSON,23487,2182,79718
THE TAMPINES TRILLIANT,8257,767,528769
CASHEW HEIGHTS CONDOMINIUM,10327,959,679674
TWIN WATERFALLS,8112,754,828768
SEA ESTA,9216,856,518147
FLAMINGO VALLEY,12374,1150,454944
HOLLAND RESIDENCES,18999,1765,276342
THE QUINTET,8138,756,689103
TWIN WATERFALLS,7881,732,828790
MY MANHATTAN,12400,1152,529901
THE LUXURIE,11278,1048,544758
THE FLORIDA,6977,648,538807
THE MAKENA,13684,1271,437936
WATERCOLOURS,8076,750,518168
FLAMINGO VALLEY,14874,1382,454852
EDELWEISS PARK CONDOMINIUM,9302,864,507007
EDELWEISS PARK CONDOMINIUM,9404,874,507002
SEAHILL,17535,1629,126777
GENTLE VILLAS,14998,1393,309244
TRELLIS TOWERS,12078,1122,319773
STARLIGHT SUITES,24726,2297,238437
TWIN WATERFALLS,8092,752,828792
1 CANBERRA,7922,736,768074
1 CANBERRA,7764,721,768073
N.A.,15027,1396,468766
CHANGI COURT,10698,994,486834
THE RAINFOREST,8494,789,689875
THE EASTSIDE,11017,1023,427694
AMANINDA,14224,1321,307687
1 CANBERRA,7115,661,768076
N.A.,12232,1136,438705
TWIN WATERFALLS,7982,742,828790
THE MILTONIA RESIDENCES,9426,876,768119
COSTA RHU,13043,1212,437433
CENTRAL GREEN CONDOMINIUM,13208,1227,169479
SEAHILL,14516,1349,126778
SEA ESTA,9333,867,518158
HUNDRED TREES,12941,1202,127997
1 CANBERRA,8063,749,768074
TROPIKA EAST,11097,1031,419679
GOODLUCK GARDEN,9591,891,596719
ESTELLA GARDENS,9000,836,509739
EIGHT COURTYARDS,9135,849,768098
VIBES@UPPER SERANGOON,12530,1164,534519
THE RAINFOREST,6785,630,689875
TRELLIS TOWERS,13565,1260,319773
WATER PLACE,11481,1067,436607
THE BAYSHORE,10150,943,469976
RIVER ISLES,8511,791,828820
SOUTHAVEN II,11250,1045,587970
THE PEAK@BALMEG,14542,1351,119913
BRADDELL VIEW,8900,827,579721
76 SHENTON,20364,1892,79119
SHEARES VILLE,16154,1501,249446
CRYSTAL COURT,12500,1161,248342
N.A.,11445,1063,467123
RIPPLE BAY,9232,858,518184
COSTA DEL SOL,13672,1270,469987
RIVER ISLES,8928,829,828731
UBER 388,15760,1464,466477
GEYLANG HERITAGE,9560,888,398231
1 CANBERRA,6741,626,768103
RIVER ISLES,8560,795,828732
THE RAINFOREST,7383,686,689874
THE MARQUE @ IRRAWADDY,12816,1191,328108
THE NCLAVE,11429,1062,425265
COSTA DEL SOL,13869,1288,469991
N.A.,20214,1878,288530
WATERVIEW,9400,873,528692
WATERCOLOURS,7985,742,518150
AUSTVILLE RESIDENCES,7833,728,544810
D'ECOSIA,9338,867,423936
IRIDIUM,15136,1406,308349
FLAMINGO VALLEY,13639,1267,455943
RIPPLE BAY,10346,961,518163
PARKVIEW APARTMENTS,8506,790,658882
TAI KENG VILLAS,11097,1031,534309
THE TAMPINES TRILLIANT,8903,827,528608
SEA ESTA,9648,896,518157
THE MARQ ON PATERSON HILL,52504,4878,238567
SCENIC HEIGHTS,11588,1077,329929
HEDGES PARK CONDOMINIUM,9011,837,506887
FORESQUE RESIDENCES,11057,1027,678275
VISIONCREST,21726,2018,238713
THE TAMPINES TRILLIANT,8571,796,528769
N.A.,14016,1302,428657
EASTPOINT GREEN,8244,766,529890
EIGHT RIVERSUITES,15390,1430,338517
NOUVELLE PARK,9287,863,546685
REGENT HEIGHTS,8303,771,659801
DUNEARN ESTATE,21239,1973,298776
N.A.,10096,938,669916
N.A.,16733,1554,428388
KELLOCK LODGE,13717,1274,248902
TWIN WATERFALLS,5931,551,828792
COSTA DEL SOL,12240,1137,469988
THE GARDENS AT BISHAN,10088,937,575577
EIGHT COURTYARDS,8610,800,768100
HILLSTA,12224,1136,668202
RIPPLE BAY,9503,883,518161
PARC VERA,9452,878,534039
SERANGOON GARDEN ESTATE,11171,1038,559802
VACANZA @ EAST,12413,1153,417391
ARCHIPELAGO,12618,1172,479281
AUSTVILLE RESIDENCES,7579,704,544810
ARC AT TAMPINES,8333,774,529601
FLO RESIDENCE,9862,916,828743
STELLAR RV,21730,2019,248306
SEAHILL,14005,1301,126777
THE MILTONIA RESIDENCES,9679,899,768115
D'LEEDON,15818,1470,267955
BLEU @ EAST COAST,11200,1041,466580
THE LUXURIE,11397,1059,544752
VERTIS,14060,1306,439979
TAI KENG VILLAS,12333,1146,534300
RV SUITES,20306,1886,248289
COSTA DEL SOL,13440,1249,469987
RIS GRANDEUR,8101,753,519933
THE LENOX,12911,1199,419845
TEN @ SUFFOLK,14423,1340,307786
THE PROMENADE@PELIKAT,10210,949,537643
BEACON HEIGHTS,13855,1287,328689
NESS,13961,1297,398298
CRYSTAL COURT,12857,1194,248342
PARC VERA,8792,817,534037
RIVERPARC RESIDENCE,7452,692,828794
PAVILION 11,16719,1553,309978
EASTVALE,8153,757,519492
AUSTVILLE RESIDENCES,7479,695,544806
PALM ISLES,9413,875,506893
N.A.,14013,1302,469200
SERANGOON GARDEN ESTATE,12372,1149,558795
FLAMINGO VALLEY,12923,1201,455939
WOODGROVE CONDOMINIUM,7699,715,738211
MEADOWS @ PEIRCE,13462,1251,787131
THE PARC CONDOMINIUM,12231,1136,127158
LILYDALE,7883,732,768962
EIGHT RIVERSUITES,14732,1369,338519
HELIOS RESIDENCES,41190,3827,229815
HERITAGE VIEW,11700,1087,138679
LA BRISA,12739,1183,398453
SEMBAWANG SPRINGS ESTATE,8263,768,769928
THE MAKENA,13814,1283,437932
THE NAUTICAL,8541,793,769472
VACANZA @ EAST,12170,1131,417391
YEW MEI GREEN,7633,709,689575
WOODSVALE,7033,653,738090
N.A.,10367,963,419153
THE TAMPINES TRILLIANT,7603,706,528772
1 CANBERRA,7919,736,768072
CASHEW HEIGHTS CONDOMINIUM,9804,911,679668
COTE D'AZUR,11888,1104,449301
THE CENTRIS,11765,1093,648343
THE VERTE,13235,1230,426146
THE JADE,10511,976,658074
KOVAN MELODY,10776,1001,545021
THE SPRINGSIDE,10445,970,786932
RAFFLESIA CONDOMINIUM,11423,1061,579800
BAYSHORE PARK,10366,963,469984
THE PALETTE,9609,893,518170
MI CASA,10000,929,689860
BAN GUAN PARK,24016,2231,275794
ORCHID PARK CONDOMINIUM,8933,830,768447
THE FLORAVALE,6721,624,648360
N.A.,18161,1687,437905
TWIN WATERFALLS,7988,742,828768
MANDARIN GARDEN CONDOMINIUM,10649,989,448908
PINE GROVE,9460,879,596001
CARDIFF RESIDENCE,12975,1205,558962
SEA ESTA,9902,920,518147
EASTVALE,8288,770,519492
LE LOYANG,6952,646,509371
WATER PLACE,12345,1147,436608
SEA ESTA,10733,997,518156
SHIRO,10370,963,426025
THE ORANGE GROVE,24250,2253,258364
STEVENS COURT,19154,1779,257845
BLOSSOM RESIDENCES,8114,754,677721
38 I SUITES,12854,1194,438646
REGENCY PARK,20295,1885,248730
HEDGES PARK CONDOMINIUM,8872,824,506888
1 CANBERRA,7789,724,768101
SEA ESTA,8934,830,518157
8@WOODLEIGH,12987,1207,357902
HAIG RESIDENCES,13704,1273,438774
THE PLAZA,11765,1093,199591
EASTWOOD REGENCY,14468,1344,486398
TWIN REGENCY,17110,1590,169278
FERRARIA PARK CONDOMINIUM,10631,988,506943
HUME PARK II,10365,963,598729
THE NAUTICAL,8675,806,769473
BLOSSOM RESIDENCES,7839,728,677721
NATURA@HILLVIEW,13874,1289,669231
THE GARDENS AT BISHAN,10536,979,575575
REGENTVILLE,8132,755,538685
KOVAN RESIDENCES,12821,1191,544917
EASTPOINT GREEN,9303,864,529892
1 CANBERRA,7427,690,768071
WATERFRONT WAVES,11991,1114,479245
AUSTVILLE RESIDENCES,7733,718,544805
PARC OASIS,8596,799,609775
CASAFINA,8641,803,469338
PARC VERA,8915,828,534037
THE TAMPINES TRILLIANT,9223,857,528772
VILLA VERDE,10600,985,688576
STRATFORD COURT,8913,828,489929
HILLSTA,12894,1198,668202
HARVEST MANSIONS,11421,1061,169638
DOUBLE BAY RESIDENCES,11720,1089,529883
SEA ESTA,9615,893,518157
THE OCEANFRONT @ SENTOSA COVE,21579,2005,98531
THE STELLAR,13101,1217,127303
MY MANHATTAN,14310,1329,529904
WATERCOLOURS,8143,757,518168
THE HILLSIDE,9278,862,588197
PARK NATURA,12687,1179,659764
FERNWOOD TOWERS,11937,1109,458554
LE WOOD,8491,789,589318
WATERCOLOURS,8205,762,518150
RIPPLE BAY,10107,939,518164
THE MILTONIA RESIDENCES,9624,894,768104
SUNSHINE PLAZA,15070,1400,187948
ORION,21786,2024,258333
SKY@ELEVEN,16468,1530,297724
ALEXIS,20946,1946,159949
SILVERSCAPE,13295,1235,398299
IDYLLIC SUITES,13831,1285,398353
QUEENS,12545,1166,148955
N.A.,6845,636,739799
BLISS@KOVAN,13993,1300,546055
FLAMINGO VALLEY,13484,1253,454943
ELLIOT AT THE EAST COAST,13413,1246,458709
LAGUNA PARK,9533,886,449288
D'ECOSIA,13827,1285,423936
BEACON HEIGHTS,8284,770,328689
VIVA,20980,1949,307462
CHERRYHILL,10870,1010,536467
N.A.,15464,1437,117716
PEBBLE BAY,13068,1214,436918
THE PROMENADE@PELIKAT,11667,1084,537643
ESPIRA SUITES,11342,1054,426283
AIRSTREAM,13998,1300,327994
FLAMINGO VALLEY,14281,1327,454946
THE GREENWOOD,25067,2329,286946
COUNTRY PARK CONDOMINIUM,11220,1042,469566
THE SUMMIT,10121,940,466503
THE ESTUARY,8678,806,769137
MELVILLE PARK,7520,699,529944
CLOVER BY THE PARK,11603,1078,573973
STADIA,11290,1049,545542
HELIOS RESIDENCES,37695,3502,229815
SUNHAVEN,9748,906,486069
THE BAYSHORE,10000,929,469976
THE LAKESHORE,11000,1022,649412
WATERCOLOURS,8379,778,518152
THE PALETTE,9192,854,518176
1 CANBERRA,7942,738,768075
GRANGE INFINITE,26638,2475,239700
LAKESIDE APARTMENTS,6206,577,618647
1919,21846,2030,228175
SUNNY PALMS,10952,1018,426323
SELETARIS,8300,771,757706
WATERCOLOURS,8241,766,518154
RIVER ISLES,10056,934,828820
SAVANNAH CONDOPARK,8263,768,528779
FLO RESIDENCE,9057,841,828742
ARC AT TAMPINES,7515,698,529604
SERANGOON GARDEN ESTATE,16340,1518,559069
MARINA BAY RESIDENCES,24059,2235,18980
MANDARIN GARDEN CONDOMINIUM,9829,913,448908
EASTBAY,11650,1082,455615
SEA ESTA,9635,895,518158
SEA ESTA,8074,750,518145
FLAMINGO VALLEY,14362,1334,455939
FLO RESIDENCE,8936,830,828743
RIVER ISLES,6641,617,828820
THE QUINTET,7438,691,689102
THE ESTUARY,10337,960,769138
THE MILTONIA RESIDENCES,9510,884,768111
THE MAKENA,14907,1385,437934
ASPEN HEIGHTS,15608,1450,238309
OEI TIONG HAM PARK,17371,1614,267052
THE INFINITI,11024,1024,127716
PEOPLE'S GARDEN,16063,1492,536820
MANDARIN GARDEN CONDOMINIUM,11753,1092,448908
HARBOUR VIEW TOWERS,11518,1070,109258
THE ESTA,13158,1222,439970
BELLE VUE RESIDENCES,22477,2088,238592
IDYLLIC SUITES,13610,1264,398353
1919,22192,2062,228175
MANDARIN GARDEN CONDOMINIUM,11613,1079,448909
1919,21644,2011,228175
THE SERENADE @ HOLLAND,12231,1136,278698
LE WILKIE,14286,1327,228070
VILLA MARINA,10345,961,457399
1 CANBERRA,7981,741,768102
LOYANG VILLAS,7667,712,507526
MOUNTBATTEN SUITES,11033,1025,437842
BOTANNIA,12138,1128,127726
NESS,14188,1318,398298
MONTCLAIR @ WHITLEY,9499,882,297814
SERANGOON GARDEN ESTATE,10096,938,556215
N.A.,13009,1209,579544
ARC AT TAMPINES,7607,707,529604
CENTURY MANSIONS,9043,840,668671
CEYLON RESIDENCE,13977,1298,429690
SAVANNAH CONDOPARK,9043,840,528786
TANGLIN VIEW,14352,1333,159013
D'LEEDON,18964,1762,266224
WATERCOLOURS,7456,693,518152
STRATA,16908,1571,309329
FLAMINGO VALLEY,11674,1085,454946
ICON,18837,1750,78878
THE WHARF RESIDENCE,15932,1480,238002
OPERA ESTATE,13289,1235,459569
N.A.,11531,1071,467596
ALEGRIA,12385,1151,307669
GARDEN VIEW ESTATE,14885,1383,558279
THE TAMPINES TRILLIANT,6696,622,528614
ARCHIPELAGO,11941,1109,479276
1 CANBERRA,7928,737,768101
SOPHIA 98,15636,1453,228165
1919,22365,2078,228175
1 CANBERRA,6680,621,768072
EAST MEADOWS,9868,917,465560
STRATFORD COURT,6897,641,489929
WATERCOLOURS,7547,701,518152
RESIDENCES @ EVELYN,19231,1787,309306
SHERWOOD CONDOMINIUM,10427,969,598669
TROPICAL SPRING,9516,884,529874
MELVILLE PARK,7768,722,529944
N.A.,9549,887,417021
1 CANBERRA,7832,728,768073
FLORIDIAN,16883,1568,589664
SEA ESTA,10327,959,518146
WATERCOLOURS,8439,784,518168
FLAMINGO VALLEY,14834,1378,454852
TWIN WATERFALLS,7619,708,828765
FORESQUE RESIDENCES,12378,1150,678275
8 BASSEIN,21143,1964,309838
BEACON HEIGHTS,11699,1087,328689
WATERCOLOURS,7750,720,518151
NESS,13928,1294,398298
SEA ESTA,9890,919,518146
1 CANBERRA,7654,711,768075
PEBBLE BAY,13636,1267,436919
NESS,12143,1128,398298
SEA ESTA,9667,898,518157
8 EDEN GROVE,12308,1143,539060
1919,21183,1968,228175
SEA ESTA,9395,873,518157
THE PROMENADE@PELIKAT,13024,1210,537643
1 CANBERRA,7258,674,768074
1 MOULMEIN RISE,17261,1604,308143
EIGHT RIVERSUITES,12800,1189,338521
THE LUXURIE,12747,1184,544757
BAYWATER,9833,914,479243
REFLECTIONS AT KEPPEL BAY,25588,2377,98419
SELETAR HILLS ESTATE,8059,749,808702
ARC AT TAMPINES,7675,713,529599
SEA ESTA,8721,810,518157
EIGHT RIVERSUITES,14185,1318,338520
1919,20813,1934,228175
THE PALETTE,9034,839,518176
ARCHIPELAGO,11346,1054,479275
SEA ESTA,8958,832,518157
THE SEAWIND,16494,1532,425380
1 CANBERRA,7829,727,768070
CASHEW HEIGHTS CONDOMINIUM,10765,1000,679668
THE PALETTE,9916,921,518197
THE PALETTE,9733,904,518172
FLO RESIDENCE,9400,873,828744
CANBERRA RESIDENCES,8570,796,768124
THE TAMPINES TRILLIANT,8957,832,528613
SYMPHONY HEIGHTS,11314,1051,598738
DOUBLE BAY RESIDENCES,11000,1022,528717
FRANKEL ESTATE,12443,1156,458093
ASPEN HEIGHTS,13000,1208,238307
THE CLEARWATER,8937,830,479237
THE RIVERVALE,8190,761,545118
CHANGI GREEN,10645,989,486843
THE LIGHT @ CAIRNHILL,20922,1944,229768
1 CANBERRA,8218,763,768073
YISHUN EMERALD,7708,716,768431
N.A.,8230,765,358779
THE DEW,7184,667,659636
THE BLOSSOMVALE,15745,1463,589473
VILLA VERDE,10800,1003,688670
SERENE PARK,9687,900,806030
REGENT HEIGHTS,8842,821,659802
1919,21219,1971,228175
GOLD COAST CONDOMINIUM,10219,949,118699
ST MARTIN RESIDENCE,25926,2409,257989
CHANGI HEIGHTS,10198,947,507041
THE NEXUS,15152,1408,589656
LINCOLN SUITES,20142,1871,308380
CHILTERN PARK,10000,929,556112
RIVER ISLES,9800,910,828820
SEA ESTA,10283,955,518146
PALM ISLES,11318,1051,506866
PALM GREEN,9925,922,117621
TWIN WATERFALLS,7065,656,828771
MELVILLE PARK,8577,797,529945
THE TANAMERA,8977,834,466663
RIVER ISLES,8999,836,828822
THREE THREE ROBIN,20724,1925,258208
THE TAMPINES TRILLIANT,8720,810,528613
1 CANBERRA,7891,733,768073
WATERCOLOURS,7832,728,518152
SYCAMORE TREE,12667,1177,428505
TROPIKA EAST,12474,1159,419679
THE INFINITI,9496,882,127714
WATERCOLOURS,7916,735,518152
N.A.,13538,1258,398641
N.A.,11693,1086,398642
EASTVALE,8333,774,519493
CEYLON CREST,10134,941,429623
N.A.,9792,910,799121
WATERCOLOURS,8000,743,518154
1919,23048,2141,228175
FLAMINGO VALLEY,13934,1295,454943
FLO RESIDENCE,9467,879,828744
D'ZIRE,14214,1321,546290
SEA ESTA,9692,900,518157
THE RIVERVALE,7541,701,545119
TWIN WATERFALLS,7791,724,828792
N.A.,11135,1034,418506
ARCHIPELAGO,8460,786,479290
16 @ AMBER,17708,1645,439866
M66,14702,1366,328498
THE TAMPINES TRILLIANT,8978,834,528612
TROPIKA EAST,15889,1476,419684
PAVILION PARK,18800,1747,658417
N.A.,14650,1361,398637
N.A.,16521,1535,398639
N.A.,14713,1367,398640
WATERCOLOURS,7776,722,518152
CANBERRA RESIDENCES,8050,748,768124
1919,22767,2115,228175
CAIRNHILL MANSIONS,18617,1730,229675
ARC AT TAMPINES,8331,774,529599
THE CLAYMORE,28617,2659,229543
1919,23417,2175,228175
1 CANBERRA,7293,678,768073
FLAMINGO VALLEY,16125,1498,454855
SEA ESTA,8456,786,518145
RIVERVALE CREST,7929,737,545085
N.A.,13069,1214,398638
THE RAINFOREST,7673,713,689875
FLAMINGO VALLEY,13808,1283,454946
N.A.,14329,1331,398622
SEA ESTA,10049,934,518147
SUITES @ TOPAZ,16143,1500,327849
SAVANNAH CONDOPARK,7895,733,528788
HAIG 162,17059,1585,438773
VISTA PARK,9779,909,118175
THE WOODS,5194,482,648253
THE MINTON,10549,980,538752
SEA ESTA,9212,856,518145
GAIA,14797,1375,329371
FOREST HILLS CONDOMINIUM,8268,768,778893
TROPIKA EAST,15397,1430,419679
FLAMINGO VALLEY,11890,1105,454943
THE QUINTET,7107,660,689106
BULLION PARK,10800,1003,789099
TWIN WATERFALLS,8026,746,828768
BLOSSOM RESIDENCES,7561,702,677722
THE PROMENADE@PELIKAT,9900,920,537643
SELETAR GARDEN,8597,799,809742
MAPLEWOODS,14532,1350,589629
WATERCOLOURS,7951,739,518155
ONE AMBER,15271,1419,439957
1 CANBERRA,8010,744,768102
THE GARDENS AT BISHAN,10518,977,575577
MARINA BAY SUITES,30304,2815,18965
OPERA ESTATE,14024,1303,457815
THE QUARTZ,10625,987,544993
N.A.,16218,1507,579160
SEA ESTA,10016,930,518146
SEA ESTA,10417,968,518156
TWIN WATERFALLS,7747,720,828769
ORCHID PARK CONDOMINIUM,7594,706,768449
SEA ESTA,9308,865,518157
CHANGI RISE CONDOMINIUM,9505,883,528800
ROSEWOOD,8165,759,737939
CASA MERAH,12412,1153,465526
PARK NATURA,12734,1183,659765
SEA ESTA,9496,882,518145
FLORISSA PARK,9767,907,789637
RIVER ISLES,6784,630,828823
REGENT HEIGHTS,8211,763,659801
WATERCOLOURS,7679,713,518155
VIBES@UPPER SERANGOON,13279,1234,534519
RIO VISTA,8879,825,534204
MI CASA,9657,897,689864
YISHUN SAPPHIRE,7778,723,768440
SUITES @ TOPAZ,15882,1476,327849
1 CANBERRA,7960,740,768101
THE HILLIER,16247,1509,667978
KENSINGTON PARK CONDOMINIUM,9940,923,557320
DAHLIA PARK CONDOMINIUM,8559,795,507012
LEONIE GARDENS,14703,1366,239224
SEASTRAND,9653,897,518188
RIVER ISLES,6604,614,828733
THE TRIZON,19902,1849,276693
CARISSA PARK CONDOMINIUM,9146,850,507025
THE MORNINGTON,9915,921,328005
SUNVILLE,10561,981,327981
CASA AERATA,12641,1174,398484
WATERCOLOURS,7783,723,518151
RIVER ISLES,8938,830,828731
1919,21615,2008,228175
THE SPRINGSIDE,16298,1514,786185
YISHUN SAPPHIRE,7698,715,768437
SEA ESTA,9013,837,518157
CASPIAN,10963,1018,648317
CARIBBEAN AT KEPPEL BAY,16667,1548,98651
D' IXORAS,14872,1382,308172
THE STERLING,15417,1432,596289
THE WATERINA,14113,1311,398086
KOVAN GRANDEUR,14906,1385,535193
YISHUN SAPPHIRE,7635,709,768436
SUNNY GROVE,8542,794,387914
N.A.,10499,975,369293
HILLVIEW GREEN,10000,929,598744
BINJAI PARK,13073,1215,589829
SEASONS PARK,8333,774,787082
EASTVALE,7972,741,519492
VENTANA,14732,1369,118893
ASPEN HEIGHTS,16524,1535,238309
LE HILL CONDOMINIUM,12755,1185,118895
REGENT PARK,11467,1065,128805
RAINTREE VALLEY,12744,1184,788595
WATERCOLOURS,7905,734,518169
N.A.,9586,891,348077
SELETARIS,8553,795,757706
JUBILEE RESIDENCE,14565,1353,118695
BISHAN PARK CONDOMINIUM,8071,750,575570
MI CASA,9914,921,689866
SIMS GREEN,6361,591,388134
ATRIUM RESIDENCES,10852,1008,398416
FULTON HILL,12888,1197,578930
SELETAR HILLS ESTATE,8877,825,807056
YEW MEI GREEN,7577,704,689574
REGIS MANSIONS,8829,820,598433
1919,21918,2036,228175
VIBES@UPPER SERANGOON,14033,1304,534519
N.A.,9507,883,419340
SEA ESTA,9974,927,518157
SUITES @ TOPAZ,15571,1447,327849
THE PALETTE,9924,922,518198
PARC VERA,8717,810,534037
PALM HAVEN,8000,743,547312
TANAMERA CREST,8661,805,486062
ASCENTIA SKY,16383,1522,158749
SHAMROCK PARK,17107,1589,267695
NESS,14065,1307,398298
THE PEARL @ MOUNT FABER,12339,1146,99208
SEA ESTA,9474,880,518157
THE VERMONT ON CAIRNHILL,29412,2732,229747
TWIN WATERFALLS,7920,736,828790
SEA ESTA,9512,884,518157
BARTLEY RESIDENCES,12961,1204,536560
SEA ESTA,10604,985,518157
SEA ESTA,9769,908,518157
THE PARC CONDOMINIUM,11868,1103,127162
WATERCOLOURS,6266,582,518154
SEASTRAND,11194,1040,518185
MY MANHATTAN,12142,1128,529902
SEA ESTA,10257,953,518158
HILLVIEW REGENCY,9423,875,659920
EDELWEISS PARK CONDOMINIUM,9716,903,507008
THE CLIFT,30213,2807,69047
CITYLIGHTS,18868,1753,208745
ARCHIPELAGO,11769,1093,479275
PALM MANSIONS,10098,938,118684
THE CLEARWATER,8785,816,479237
SERANGOON GARDEN ESTATE,14509,1348,554551
REGENCY SUITES,14835,1378,169279
SOLEIL @ SINARAN,19111,1775,307468
ESCADA VIEW,8545,794,417657
THE MADEIRA,9082,844,659445
SEA ESTA,10279,955,518158
MARINA BAY SUITES,30449,2829,18965
SEA ESTA,8506,790,518156
COASTARINA,13492,1253,459135
MAYSPRINGS,9467,879,678265
SEASTRAND,9778,908,518188
FLAMINGO VALLEY,12839,1193,455939
SEA ESTA,9902,920,518158
FERNWOOD TOWERS,11261,1046,458556
THE QUARTZ,10476,973,544990
THE MAYFAIR,9074,843,609478
PARK GREEN,7734,719,545044
DOMUS,16937,1573,329564
HILLVIEW REGENCY,9056,841,659921
LA BRISA,12759,1185,398453
SELETAR PARK RESIDENCE,12316,1144,807021
CENTRAL VIEW,8974,834,538750
ONE-NORTH RESIDENCES,15152,1408,138642
BANYAN PARK,16534,1536,119789
FLO RESIDENCE,10233,951,828744
M21,15455,1436,308208
N.A.,13768,1279,398616
N.A.,14460,1343,398618
BRADDELL VIEW,8544,794,579725
CITYLIGHTS,16508,1534,208747
SIGNATURE PARK,10810,1004,596745
ARC AT TAMPINES,7891,733,529599
EIGHT COURTYARDS,8341,775,768142
MANDARIN GARDEN CONDOMINIUM,11471,1066,448908
SEAHILL,16232,1508,126778
SEA ESTA,8452,785,518156
VACANZA @ EAST,12453,1157,417391
WATERCOLOURS,7909,735,518155
FLORIDA PARK,12000,1115,806259
SUNNY PALMS,10952,1018,426323
MELVILLE PARK,7120,661,529946
THE CENTRIS,11682,1085,648340
THE WHARF RESIDENCE,17857,1659,238002
THE PARC CONDOMINIUM,14176,1317,127162
SELETAR HILLS ESTATE,10140,942,808959
SELETAR PARK RESIDENCE,13185,1225,807020
SEA ESTA,10167,945,518157
RIVERSOUND RESIDENCE,9010,837,544743
RIVER ISLES,8979,834,828731
THE PROMENADE@PELIKAT,13024,1210,537643
THE PROMENADE@PELIKAT,13024,1210,537643
THE CENTRIS,12000,1115,648333
TROPIKA EAST,15705,1459,419684
SELETARIS,7838,728,757707
THE SAIL @ MARINA BAY,22623,2102,18987
1 CANBERRA,7066,656,768074
THE SHORE RESIDENCES,16334,1517,439894
THE GALE,10368,963,506917
N.A.,6979,648,207564
N.A.,12741,1184,428321
SEA ESTA,9758,907,518146
RIVER ISLES,9508,883,828729
YEW MEI GREEN,7905,734,689574
CARABELLE,13120,1219,127022
SEA ESTA,9721,903,518145
WATERCOLOURS,7169,666,518152
SELETARIS,8289,770,757706
MONT TIMAH,8721,810,587787
N.A.,9317,866,669733
WOODSVALE,7143,664,738092
N.A.,12983,1206,424322
FLORIDIAN,16883,1568,589663
THE MERCURY,13304,1236,248201
ASTOR,9938,923,417660
TWIN WATERFALLS,7879,732,828769
1919,22769,2115,228175
SERANGOON GARDEN ESTATE,10043,933,555152
AQUARIUS BY THE PARK,9474,880,478928
SEAHILL,14869,1381,126778
THE QUINTET,7438,691,689101
CASHEW HEIGHTS CONDOMINIUM,10636,988,679674
8 BASSEIN,22000,2044,309838
TROPIKA EAST,13441,1249,419684
CASTLE GREEN,8457,786,787059
RIVER ISLES,8608,800,828820
PARC PALAIS,10362,963,598753
PARC HAVEN,11749,1091,328741
TWIN WATERFALLS,7676,713,828793
N.A.,13072,1214,427327
FLO RESIDENCE,8862,823,828742
RIPPLE BAY,10182,946,518164
CARIBBEAN AT KEPPEL BAY,15965,1483,98656
TROPIKA EAST,12770,1186,419679
EIGHT COURTYARDS,8802,818,768098
1919,22500,2090,228175
SEA ESTA,10183,946,518147
ORCHID PARK CONDOMINIUM,7547,701,768446
RIO VISTA,8499,790,534198
TERESA VILLE,13462,1251,99310
1919,22754,2114,228175
NATURA@HILLVIEW,14248,1324,669231
WING FONG COURT,8069,750,398922
THE PALETTE,9547,887,518173
CITYLIGHTS,15497,1440,208745
DOMUS,17008,1580,329564
SERENITY PARK,8980,834,806110
MY MANHATTAN,12174,1131,529899
DUCHESS MANOR,18981,1763,269033
CARDIFF RESIDENCE,13418,1247,558962
WINDERMERE,6343,589,689096
SEA ESTA,9462,879,518157
NORTHOAKS,7257,674,738082
BEDOK COURT,8768,815,469296
1 CANBERRA,6565,610,768071
1 CANBERRA,7896,734,768101
THE SPRINGSIDE,14933,1387,786396
HAZEL PARK TERRACE,13386,1244,678912
THE METROPOLITAN CONDOMINIUM,15972,1484,158746
MANDARIN GARDEN CONDOMINIUM,10458,972,448909
VIBES@UPPER SERANGOON,14048,1305,534519
THE DEW,8125,755,659637
THE CLIFT,29763,2765,69047
SEA ESTA,9800,910,518157
PARK INFINIA AT WEE NAM,19946,1853,308364
1919,19983,1856,228175
THE PALETTE,9192,854,518170
AMANINDA,15595,1449,307686
N.A.,11783,1095,668996
SEA ESTA,10110,939,518145
MILL CREEK,11917,1107,417052
THE GARDENS AT BISHAN,10614,986,575578
1919,20000,1858,228175
PARC SOPHIA,18392,1709,229979
OASIS @ ELIAS,9286,863,519938
BARTLEY RESIDENCES,13500,1254,536564
RIVER ISLES,9253,860,828730
NORTHVALE,7801,725,689673
PARK WEST,9138,849,128795
SEA ESTA,10000,929,518145
MY MANHATTAN,12512,1162,529899
HERITAGE VIEW,12037,1118,138679
DOUBLE BAY RESIDENCES,10940,1016,528716
THE BAYSHORE,11263,1046,469972
WATERVIEW,9106,846,529780
CITY SQUARE RESIDENCES,15804,1468,207229
OLEANDER TOWERS,9653,897,319772
THE SILVERTON,9375,871,438818
NOTTINGHILL SUITES,16973,1577,596195
SEA ESTA,9714,902,518147
PARK GREEN,7937,737,545042
TOH ESTATE,7989,742,507999
H2O RESIDENCES,10774,1001,797531
1919,21615,2008,228175
TAI KENG GARDENS,11137,1035,537876
EIGHT RIVERSUITES,13407,1246,338519
BOONVIEW,13500,1254,574036
WILKINSON 8,8293,770,436587
MERAWOODS,10444,970,669607
MACPHERSON GARDEN ESTATE,15629,1452,368998
KEMAMAN POINT,11275,1047,329325
8@WOODLEIGH,13862,1288,357902
1 CANBERRA,8025,746,768071
STARLIGHT SUITES,25578,2376,238437
COTE D'AZUR,11522,1070,449302
CHANGI COURT,9519,884,486836
SEASONS VIEW,10236,951,576150
SEA ESTA,9583,890,518157
1 CANBERRA,7374,685,768076
N.A.,11514,1070,418357
TROPIKA EAST,13645,1268,419684
SOMMERVILLE PARK,16162,1501,259281
ASTRID MEADOWS,18362,1706,269260
SUNHAVEN,10256,953,486069
WING FONG MANSIONS,7281,676,398924
ALEXIS,18873,1753,159949
THE STELLAR,13023,1210,127302
RIVER ISLES,7876,732,828733
1 CANBERRA,7468,694,768103
TRELLIS TOWERS,12935,1202,319773
SEA ESTA,9469,880,518145
TROPIKA EAST,15000,1394,419679
SEAHILL,15865,1474,126778
TROPIKA EAST,11932,1108,419679
HILLSTA,9717,903,668185
TROPIKA EAST,14151,1315,419684
RIVER ISLES,6790,631,828732
ONE ST MICHAEL'S,13218,1228,328007
THE PALETTE,10204,948,518172
DUKES RESIDENCE,17791,1653,268908
1919,21981,2042,228175
LILYDALE,7756,721,768961
THE VISION,12500,1161,126793
TROPIKA EAST,14807,1376,419679
SEA ESTA,10010,930,518146
MY MANHATTAN,13989,1300,529903
VIVA,21351,1984,307464
VISTA PARK,9545,887,118175
RIPPLE BAY,8622,801,518160
ONE FORT,15714,1460,439069
OASIS GARDEN,11694,1086,538421
THE EBONY,16452,1528,417216
REFLECTIONS AT KEPPEL BAY,18787,1745,98412
1919,20512,1906,228175
EAST COAST HILL,12147,1128,467091
RIVER ISLES,8905,827,828820
SEA ESTA,9386,872,518145
N.A.,14510,1348,278535
THE TAMPINES TRILLIANT,9037,840,528769
CASCADALE,9061,842,486860
TWIN WATERFALLS,8287,770,828767
1919,22769,2115,228175
PARC VERA,9849,915,534037
TWIN WATERFALLS,7148,664,828769
GARDENVISTA,13786,1281,589474
TROPIKA EAST,13114,1218,419684
SEA ESTA,9735,904,518145
THE MILTONIA RESIDENCES,9130,848,768119
SEA ESTA,10833,1006,518156
SEA ESTA,10017,931,518156
CASPIAN,10215,949,648317
THE FLORAVALE,7543,701,648364
WOODSVILLE MANSIONS,9157,851,357768
ALEXIS,18618,1730,159949
REGENT HEIGHTS,8119,754,659802
N.A.,11230,1043,289881
REGENTVILLE,8390,779,538686
CASA MERAH,12472,1159,465531
ALEXIS,20211,1878,159949
SEA ESTA,10055,934,518145
THE PALETTE,9706,902,518197
CASHEW PARK CONDOMINIUM,9278,862,679637
THE SPINNAKER,13901,1291,307788
1 CANBERRA,7772,722,768072
CASABLANCA,8693,808,737918
RESIDENCES BOTANIQUE,12727,1182,545550
NORTHOAKS,7327,681,738082
NANYANG PARK,9107,846,548688
FLYNN PARK,11330,1053,117755
TEMBELING COURT,10610,986,423596
EIGHT RIVERSUITES,16100,1496,338520
ST FRANCIS LODGE,10177,945,328074
SEAHILL,16808,1562,126778
PRESIDENT GARDENS,9849,915,789274
MELVILLE PARK,9461,879,529946
BAYSHORE PARK,10287,956,469982
COASTAL BREEZE RESIDENCES,9234,858,509049
DUNEARN ESTATE,16266,1511,299909
THE TRIZON,19984,1857,276693
SPRINGHILL,5679,528,757616
TROPIKA EAST,15700,1459,419684
SELETARIS,8421,782,757707
WEST BAY CONDOMINIUM,7345,682,128040
VENTUNO BALMORAL,18525,1721,259805
CHANGI HEIGHTS,12674,1177,509217
THE CLIFT,23918,2222,69047
SEA ESTA,10517,977,518156
TROPIKA EAST,13700,1273,419684
RIVIERA RESIDENCES,12185,1132,467202
COASTAL VIEW RESIDENCES,11296,1049,506926
SEASTRAND,9798,910,518183
FLO RESIDENCE,8372,778,828741
VISTA PARK,9924,922,118175
SIGNATURE PARK,10606,985,596743
THE VIRIDIAN,15673,1456,329507
1919,19605,1821,228175
SIGNATURE PARK,11392,1058,596745
VALLEY PARK,16548,1537,248362
THOMSON 800,12980,1206,298189
SUNRISE VILLA,11408,1060,806609
EAST MEADOWS,9989,928,465558
SEA ESTA,9697,901,518156
TROPIKA EAST,14263,1325,419684
CANNE LODGE,11842,1100,388869
TROPIKA EAST,13238,1230,419684
SUITES @ TOPAZ,15769,1465,327849
THE PROMENADE@PELIKAT,13024,1210,537643
RIVER ISLES,8973,834,828730
WATERVIEW,9011,837,528688
RIVER ISLES,8809,818,828731
CARDIFF RESIDENCE,14151,1315,558962
RIVER ISLES,9608,893,828823
TWIN WATERFALLS,7537,700,828769
EIGHT RIVERSUITES,16831,1564,338520
TROPIKA EAST,13593,1263,419684
KATONG PARK TOWERS,12044,1119,439826
ICON,19827,1842,78878
ONE DEVONSHIRE,24888,2312,239896
EUHABITAT,13811,1283,419551
RIVER ISLES,8899,827,828733
LA DOLCE VITA,12708,1181,534956
SEA ESTA,9429,876,518157
VIBES@UPPER SERANGOON,13986,1299,534519
THE PALETTE,9381,872,518199
THE BENCOOLEN,13820,1284,189647
PARC VERA,8717,810,534041
RIVER ISLES,8748,813,828732
TAMPINES COURT,6697,622,520121
SEA ESTA,10481,974,518147
PAVILION PARK,9127,848,658538
1919,21981,2042,228175
CENTRAL MEADOWS,9785,909,398240
THE BELLEFORTE,12016,1116,329974
TREVISTA,12712,1181,319582
1919,21651,2011,228175
VILLA VERDE,8400,780,688275
TROPIKA EAST,12291,1142,419684
THE NEXUS,13458,1250,589656
MONT TIMAH,9302,864,587759
ONAN SUITES,14922,1386,424597
RIVER ISLES,8838,821,828822
PALM ISLES,9482,881,506892
KENTISH COURT,9898,920,218816
ORCHARD BEL AIR,14667,1363,248648
1 CANBERRA,7442,691,768078
SEASTRAND,11075,1029,518185
TWIN WATERFALLS,6002,558,828771
THE HORIZON,15938,1481,249441
WATERCOLOURS,8206,762,518153
THE PALETTE,9529,885,518199
N.A.,12910,1199,329321
ALPHA APARTMENTS,8019,745,427037
THE PROMENADE@PELIKAT,12833,1192,537643
TROPIKA EAST,14908,1385,419684
HERITAGE VIEW,11429,1062,138680
THE EDEN AT TAMPINES,8304,771,529233
N.A.,10904,1013,419259
8 BASSEIN,21688,2015,309838
TROPIKA EAST,11926,1108,419684
RIVER ISLES,8398,780,828820
TROPIKA EAST,14244,1323,419684
PARC SEABREEZE,20440,1899,427711
RIVERSOUND RESIDENCE,9943,924,544740
SEA ESTA,10490,975,518145
VISTA PARK,9924,922,118175
RIVER ISLES,9208,855,828730
THE JADE,10073,936,658074
THE WOODS,5194,482,648226
LA VIDA @ 130,13037,1211,425769
PARK EAST,10104,939,457264
THE SHELFORD,15179,1410,286889
1919,20563,1910,228175
SEA ESTA,10039,933,518156
THE LUXURIE,10973,1019,544758
SUMMERDALE,7766,721,649929
SEA ESTA,9900,920,518156
THE PROMENADE@PELIKAT,13024,1210,537643
SEA ESTA,9343,868,518158
1919,18418,1711,228175
THE METROPOLITAN CONDOMINIUM,13000,1208,158746
MARTIN PLACE RESIDENCES,21563,2003,237990
SEA ESTA,9745,905,518147
FRANKEL ESTATE,13319,1237,459424
N.A.,4395,408,209078
NATURA@HILLVIEW,13954,1296,669229
VILLA VERDE,10320,959,688588
THE NAUTICAL,9330,867,769474
AMARANDA GARDENS,13056,1213,554774
LE REVE,11258,1046,417786
DE ROYALE,12755,1185,329112
AQUARIUS BY THE PARK,10964,1019,478928
EWE BOON REGENT,15084,1401,259332
NOUVELLE PARK,8686,807,546685
TWIN WATERFALLS,8127,755,828793
THE LEVELZ,16849,1565,268836
TROPIKA EAST,13253,1231,419679
FLAMINGO VALLEY,14047,1305,454852
FLO RESIDENCE,9415,875,828743
LAKEPOINT CONDOMINIUM,6311,586,648927
MARINA BAY SUITES,30128,2799,18965
CASPIAN,10923,1015,648318
SEA ESTA,9657,897,518158
CENTRAL IMPERIAL,10549,980,398915
THE WARREN,8348,776,689684
SEAHILL,16361,1520,126777
KOVAN MELODY,10917,1014,545022
NORTHOAKS,6853,637,738084
EIGHT RIVERSUITES,11394,1058,338521
WESTVILLE,9413,874,648458
THE ROCHESTER,14959,1390,138638
RIVER ISLES,9293,863,828823
1919,22365,2078,228175
WATERCOLOURS,7957,739,518154
IDYLLIC SUITES,13590,1263,398353
EIGHT RIVERSUITES,15015,1395,338520
RIVER ISLES,8938,830,828821
RIVER ISLES,8841,821,828732
THE MINTON,8646,803,534083
THE TAMPINES TRILLIANT,6454,600,528612
BARTLEY RESIDENCES,13139,1221,536565
SEA ESTA,9976,927,518157
RIVER ISLES,8599,799,828730
SEA ESTA,9750,906,518157
1919,21615,2008,228175
1 CANBERRA,7895,733,768102
THE INTERLACE,12562,1167,109687
KOVAN RESIDENCES,13359,1241,544915
BARTLEY RESIDENCES,14767,1372,536563
ARC AT TAMPINES,7949,738,529603
THE COSMOPOLITAN,22439,2085,239471
THE PALETTE,10096,938,518172
RIVER ISLES,6509,605,828822
RIVER ISLES,9744,905,828729
MONT TIMAH,9302,864,587771
BLOSSOM RESIDENCES,7456,693,677721
1 CANBERRA,7901,734,768102
SEASTRAND,10019,931,518188
MELVILLE PARK,8207,762,529947
FLO RESIDENCE,8414,782,828739
HILLTOP GROVE,8104,753,669620
SEA ESTA,9833,914,518156
M66,14702,1366,328498
RIVER ISLES,10080,936,828729
ARCHIPELAGO,12494,1161,479283
TROPIKA EAST,15334,1425,419684
MACPHERSON GARDEN ESTATE,18248,1695,368462
THE COSMOPOLITAN,22453,2086,239496
TWIN WATERFALLS,7790,724,828768
RESIDENCES @ STANGEE,20612,1915,425081
THE PALETTE,10023,931,518198
THE PROMENADE@PELIKAT,13024,1210,537643
YEW MEI GREEN,7634,709,689575
THE TRIZON,18793,1746,276697
1 CANBERRA,7770,722,768102
HARBOUR VIEW TOWERS,11467,1065,109258
N.A.,13916,1293,457655
THE TAMPINES TRILLIANT,8496,789,528773
SEA ESTA,10409,967,518146
LEICESTER SUITES,16143,1500,358844
THE JADE,10099,938,658074
RIDGEWOOD,12222,1135,277113
THE SPRINGBLOOM,10149,943,556122
CARISSA PARK CONDOMINIUM,8809,818,507025
NESS,13944,1295,398298
CASHEW HEIGHTS CONDOMINIUM,10130,941,679670
HEDGES PARK CONDOMINIUM,9937,923,506885
CHERRY GARDENS,9500,883,536492
SEA ESTA,9262,860,518156
RIVERSOUND RESIDENCE,9606,892,544742
FLO RESIDENCE,8599,799,828739
MELVILLE PARK,7527,699,529945
THE CLIFT,24091,2238,69047
DAHLIA PARK CONDOMINIUM,8644,803,507010
CITY SQUARE RESIDENCES,16087,1495,207224
THE HILLIER,15352,1426,667978
ONE-NORTH RESIDENCES,18000,1672,138642
THE INFINITI,10791,1003,127717
SENNETT ESTATE,12891,1198,348085
SEA ESTA,9032,839,518157
SEA ESTA,9125,848,518158
CYAN,24984,2321,258710
BARTLEY RESIDENCES,12970,1205,536564
GRANDE VISTA,9269,861,809694
THE FLORIDA,7666,712,538807
EVELYN MANSIONS,15698,1458,309309
THE METROPOLITAN CONDOMINIUM,14173,1317,158747
BLOSSOM RESIDENCES,7589,705,677721
SUNGLADE,11826,1099,556135
RIVER ISLES,7849,729,828822
THE VERMONT ON CAIRNHILL,25000,2323,229747
BAYSHORE PARK,10460,972,469984
CARDIFF RESIDENCE,14060,1306,558961
1919,21981,2042,228175
CENTRAL GROVE,9354,869,389779
BLUE HORIZON,11523,1071,128049
KENSINGTON PARK CONDOMINIUM,10374,964,557324
LOYANG VALLEY,6224,578,509062
ONE-NORTH RESIDENCES,17091,1588,138642
THE PALETTE,9536,886,518173
SEA ESTA,10100,938,518157
18 WOODSVILLE,19076,1772,357799
RIVER ISLES,9004,836,828731
1 CANBERRA,7109,660,768075
TROPIKA EAST,10458,972,419684
PARKVIEW APARTMENTS,8462,786,658880
THE SCOTTS TOWER,36619,3402,228240
MONTEREY PARK CONDOMINIUM,10940,1016,127470
COSTA DEL SOL,14309,1329,469993
1 CANBERRA,7722,717,768075
FIFTH AVENUE CONDOMINIUM,17279,1605,268800
THE FLORAVALE,7348,683,648359
1919,20125,1870,228175
ARCHIPELAGO,9944,924,479278
THE QUARTZ,10794,1003,544985
SUITES @ PAYA LEBAR,15588,1448,534996
JEWEL @ CHUAN HOE,6053,562,549863
THE COSMOPOLITAN,21203,1970,239496
